{
  "_id": "68lE3FXyBY9P6I7o",
  "name": "Advanced (Rebuild)",
  "permission": {
    "default": 0
  },
  "type": "feat",
  "data": {
    "description": {
      "value": "<p><span id=\"ctl00_MainContent_DataListMonsterTemplates_ctl00_LabelName\" style=\"margin-top: 0px;\"><strong>Acquired/Inherited Template</strong>&nbsp;Acquired<br><strong>Simple Template</strong>&nbsp;Yes<br><strong>Usable with Summons</strong>&nbsp;No<br><br>Creatures with the advanced template are fiercer and more powerful than their ordinary cousins.<br><br><strong>Quick Rules</strong>: +2 on all rolls (including damage rolls) and special ability DCs; +4 to AC and CMD; +2 hp/HD.<br><br><strong>Rebuild Rules</strong>:&nbsp;<strong>AC</strong>&nbsp;increase natural armor by +2;&nbsp;<strong>Ability Scores</strong>&nbsp;+4 to all ability scores (except Int scores of 2 or less).</span></p>",
      "chat": "",
      "unidentified": ""
    },
    "tags": [],
    "activation": {
      "cost": 1,
      "type": ""
    },
    "unchainedAction": {
      "activation": {
        "cost": 1,
        "type": ""
      }
    },
    "duration": {
      "value": null,
      "units": ""
    },
    "target": {
      "value": ""
    },
    "range": {
      "value": null,
      "units": "",
      "maxIncrements": 1,
      "minValue": null,
      "minUnits": "",
      "long": null
    },
    "uses": {
      "value": 0,
      "max": 0,
      "per": null,
      "autoDeductCharges": true,
      "autoDeductChargesCost": "1"
    },
    "measureTemplate": {
      "type": "",
      "size": "0",
      "overrideColor": false,
      "customColor": "",
      "overrideTexture": false,
      "customTexture": ""
    },
    "attackName": "",
    "actionType": "",
    "attackBonus": "",
    "critConfirmBonus": "",
    "damage": {
      "parts": [],
      "critParts": [],
      "nonCritParts": []
    },
    "attackParts": [],
    "formula": "",
    "ability": {
      "attack": null,
      "damage": null,
      "damageMult": 1,
      "critRange": 20,
      "critMult": 2
    },
    "save": {
      "dc": 0,
      "type": "",
      "description": ""
    },
    "effectNotes": "",
    "attackNotes": "",
    "soundEffect": "",
    "changes": [
      {
        "_id": "guj5108e",
        "formula": "2",
        "operator": "add",
        "target": "ac",
        "subTarget": "nac",
        "modifier": "untypedPerm",
        "priority": 0,
        "value": 0
      },
      {
        "_id": "uhg21xnq",
        "formula": "@abilities.str.total > 0 ? 4 : 0",
        "operator": "add",
        "target": "ability",
        "subTarget": "str",
        "modifier": "untypedPerm",
        "priority": 0,
        "value": 0
      },
      {
        "_id": "zzxxz9rv",
        "formula": "@abilities.dex.total > 0 ? 4 : 0",
        "operator": "add",
        "target": "ability",
        "subTarget": "dex",
        "modifier": "untypedPerm",
        "priority": 0,
        "value": 0
      },
      {
        "_id": "xzfdoozh",
        "formula": "@abilities.con.total > 0 ? 4 : 0",
        "operator": "add",
        "target": "ability",
        "subTarget": "con",
        "modifier": "untypedPerm",
        "priority": 0,
        "value": 0
      },
      {
        "_id": "ub0w5h5m",
        "formula": "@abilities.int.total > 2 ? 4 : 0",
        "operator": "add",
        "target": "ability",
        "subTarget": "int",
        "modifier": "untypedPerm",
        "priority": 0,
        "value": 0
      },
      {
        "_id": "xmmu6br9",
        "formula": "@abilities.wis.total > 0 ? 4 : 0",
        "operator": "add",
        "target": "ability",
        "subTarget": "wis",
        "modifier": "untypedPerm",
        "priority": 0,
        "value": 0
      },
      {
        "_id": "3cs5sd5j",
        "formula": "@abilities.cha.total > 0 ? 4 : 0",
        "operator": "add",
        "target": "ability",
        "subTarget": "cha",
        "modifier": "untypedPerm",
        "priority": 0,
        "value": 0
      }
    ],
    "changeFlags": {
      "loseDexToAC": false,
      "noStr": false,
      "noDex": false,
      "oneInt": false,
      "oneWis": false,
      "oneCha": false,
      "noEncumbrance": false,
      "mediumArmorFullSpeed": false,
      "heavyArmorFullSpeed": false
    },
    "contextNotes": [],
    "links": {
      "children": [],
      "charges": []
    },
    "tag": "",
    "useCustomTag": false,
    "armorProf": {
      "value": [],
      "custom": ""
    },
    "weaponProf": {
      "value": [],
      "custom": ""
    },
    "featType": "template",
    "associations": {
      "classes": []
    },
    "showInQuickbar": false,
    "nonlethal": false,
    "abilityType": "none",
    "crOffset": "1",
    "attack": {
      "parts": []
    }
  },
  "flags": {},
  "img": "systems/pf1/icons/skills/violet_07.jpg",
  "effects": []
}