{
  "_id": "HOCayRF6siZgzNmr",
  "name": "Barbarian (Rebuild)",
  "permission": {
    "default": 0
  },
  "type": "feat",
  "data": {
    "description": {
      "value": "<p><strong>Acquired/Inherited Template</strong>&nbsp;Acquired<br><strong>Simple Template</strong>&nbsp;Yes<br><strong>Usable with Summons</strong>&nbsp;No<br><br>A barbarian creature can fly into a rage, granting it numerous bonuses in combat. It also gains additional hit points and a few valuable defensive abilities. A barbarian creature's CR increases by 3 if the creature has 10 or more HD. A barbarian creature must be chaotic.<br><br><strong>Quick Rules:</strong> +2 on all rolls based on Str; can rage† for a number of rounds per day equal to 4 + its HD + its Con modifier (this functions as greater rage† if the creature has 10 or more HD); gains DR 1/— and uncanny dodge† (DR 3/— and improved uncanny dodge† if the creature has 10 or more HD).<br><br><strong>Rebuild Rules:</strong>&nbsp;Defensive Abilities&nbsp;uncanny dodge† (improved uncanny dodge† if the creature has 10 or more HD; DR 1/— (3/— if the creature has 10 or more HD);&nbsp;Special Attacks&nbsp;rage† (can be used a number of rounds per day equal to 4 + its HD + its Con modifier, functions as the greater rage† class feature if the creature has 10 or more HD);&nbsp;Ability Scores&nbsp;+4 Strength.</p>",
      "chat": "",
      "unidentified": ""
    },
    "tags": [],
    "activation": {
      "cost": 1,
      "type": ""
    },
    "unchainedAction": {
      "activation": {
        "cost": 1,
        "type": ""
      }
    },
    "duration": {
      "value": null,
      "units": ""
    },
    "target": {
      "value": ""
    },
    "range": {
      "value": null,
      "units": "",
      "maxIncrements": 1,
      "minValue": null,
      "minUnits": "",
      "long": null
    },
    "uses": {
      "value": 0,
      "max": 0,
      "per": null,
      "autoDeductCharges": true,
      "autoDeductChargesCost": "1"
    },
    "measureTemplate": {
      "type": "",
      "size": "0",
      "overrideColor": false,
      "customColor": "",
      "overrideTexture": false,
      "customTexture": ""
    },
    "attackName": "",
    "actionType": "",
    "attackBonus": "",
    "critConfirmBonus": "",
    "damage": {
      "parts": [],
      "critParts": [],
      "nonCritParts": []
    },
    "attackParts": [],
    "formula": "",
    "ability": {
      "attack": null,
      "damage": null,
      "damageMult": 1,
      "critRange": 20,
      "critMult": 2
    },
    "save": {
      "dc": 0,
      "type": "",
      "description": ""
    },
    "effectNotes": "",
    "attackNotes": "",
    "soundEffect": "",
    "changes": [
      {
        "_id": "xqjob1k8",
        "formula": "4",
        "operator": "+",
        "target": "ability",
        "subTarget": "str",
        "modifier": "untyped",
        "priority": 0,
        "value": 0
      }
    ],
    "changeFlags": {
      "loseDexToAC": false,
      "noStr": false,
      "noDex": false,
      "oneInt": false,
      "oneWis": false,
      "oneCha": false,
      "noEncumbrance": false,
      "mediumArmorFullSpeed": false,
      "heavyArmorFullSpeed": false
    },
    "contextNotes": [],
    "links": {
      "children": [],
      "charges": []
    },
    "tag": "",
    "useCustomTag": false,
    "armorProf": {
      "value": [],
      "custom": ""
    },
    "weaponProf": {
      "value": [],
      "custom": ""
    },
    "featType": "template",
    "associations": {
      "classes": []
    },
    "showInQuickbar": false,
    "nonlethal": false,
    "abilityType": "none",
    "crOffset": "@attributes.hd.total >= 10 ? 3 : 2",
    "attack": {
      "parts": []
    }
  },
  "flags": {},
  "img": "systems/pf1/icons/skills/violet_07.jpg",
  "effects": []
}