{
  "_id": "EPXBZkhH1VrHetJX",
  "name": "Degenerate (Rebuild)",
  "permission": {
    "default": 0
  },
  "type": "feat",
  "data": {
    "description": {
      "value": "<p><strong>Acquired/Inherited Template</strong>&nbsp;Acquired</p>\n<p><strong>Simple Template</strong>&nbsp;Yes<br><strong>Usable with Summons</strong>&nbsp;No<br><br>Degenerate creatures are weaker than their ordinary cousins.<br><br><strong>Quick Rules:</strong> -2 on all rolls (including damage rolls) and to special ability DCs; -2 to AC and CMD; -2 hp/HD.<br><br><strong>Rebuild Rules:</strong>&nbsp;Ability Scores&nbsp;-4 to all ability scores (minimum 1).</p>",
      "chat": "",
      "unidentified": ""
    },
    "tags": [],
    "activation": {
      "cost": 1,
      "type": ""
    },
    "unchainedAction": {
      "activation": {
        "cost": 1,
        "type": ""
      }
    },
    "duration": {
      "value": null,
      "units": ""
    },
    "target": {
      "value": ""
    },
    "range": {
      "value": null,
      "units": "",
      "maxIncrements": 1,
      "minValue": null,
      "minUnits": "",
      "long": null
    },
    "uses": {
      "value": 0,
      "max": 0,
      "per": null,
      "autoDeductCharges": true,
      "autoDeductChargesCost": "1"
    },
    "measureTemplate": {
      "type": "",
      "size": "0",
      "overrideColor": false,
      "customColor": "",
      "overrideTexture": false,
      "customTexture": ""
    },
    "attackName": "",
    "actionType": "",
    "attackBonus": "",
    "critConfirmBonus": "",
    "damage": {
      "parts": [],
      "critParts": [],
      "nonCritParts": []
    },
    "attackParts": [],
    "formula": "",
    "ability": {
      "attack": null,
      "damage": null,
      "damageMult": 1,
      "critRange": 20,
      "critMult": 2
    },
    "save": {
      "dc": 0,
      "type": "",
      "description": ""
    },
    "effectNotes": "",
    "attackNotes": "",
    "soundEffect": "",
    "changes": [
      {
        "_id": "5bjp94xy",
        "formula": "-4",
        "operator": "+",
        "target": "ability",
        "subTarget": "str",
        "modifier": "untyped",
        "priority": 0,
        "value": 0
      },
      {
        "_id": "qqslemma",
        "formula": "-4",
        "operator": "+",
        "target": "ability",
        "subTarget": "dex",
        "modifier": "untyped",
        "priority": 0,
        "value": 0
      },
      {
        "_id": "0faqhbu0",
        "formula": "-4",
        "operator": "+",
        "target": "ability",
        "subTarget": "con",
        "modifier": "untyped",
        "priority": 0,
        "value": 0
      },
      {
        "_id": "rrgtudre",
        "formula": "-4",
        "operator": "+",
        "target": "ability",
        "subTarget": "int",
        "modifier": "untyped",
        "priority": 0,
        "value": 0
      },
      {
        "_id": "7cv4ckht",
        "formula": "-4",
        "operator": "+",
        "target": "ability",
        "subTarget": "wis",
        "modifier": "untyped",
        "priority": 0,
        "value": 0
      },
      {
        "_id": "jdlcziix",
        "formula": "-4",
        "operator": "+",
        "target": "ability",
        "subTarget": "cha",
        "modifier": "untyped",
        "priority": 0,
        "value": 0
      }
    ],
    "changeFlags": {
      "loseDexToAC": false,
      "noStr": false,
      "noDex": false,
      "oneInt": false,
      "oneWis": false,
      "oneCha": false,
      "noEncumbrance": false,
      "mediumArmorFullSpeed": false,
      "heavyArmorFullSpeed": false
    },
    "contextNotes": [],
    "links": {
      "children": [],
      "charges": []
    },
    "tag": "",
    "useCustomTag": false,
    "armorProf": {
      "value": [],
      "custom": ""
    },
    "weaponProf": {
      "value": [],
      "custom": ""
    },
    "featType": "template",
    "associations": {
      "classes": []
    },
    "showInQuickbar": false,
    "nonlethal": false,
    "abilityType": "none",
    "crOffset": "-1",
    "attack": {
      "parts": []
    }
  },
  "flags": {},
  "img": "systems/pf1/icons/skills/violet_07.jpg",
  "effects": []
}