{
  "_id": "NP6VVchHAFS75Eh5",
  "name": "Demonic Vermin",
  "permission": {
    "default": 0
  },
  "type": "feat",
  "data": {
    "description": {
      "value": "<p><strong>Acquired/Inherited Template</strong>&nbsp;Both<br><strong>Simple Template</strong>&nbsp;No<br><strong>Usable with Summons</strong>&nbsp;No<br><br>Deskari’s influence upon the Worldwound’s verminous life cannot be ignored for long by visitors to this tainted land. While some giant vermin have resisted Deskari’s influence, most have succumbed to it. Such creatures are almost always encountered along the Worldwound’s periphery. As one travels deeper into the blighted land, the immense insects, spiders, and other vermin encountered in the canyons and rivers take on an increasingly unsettling intelligence and demonic features. In many ways, these demonic vermin are no longer true denizens of the Material Plane—they are, after a fact, what happens when the chaos and evil of the Abyss infuse a mindless creature. They are the unholy spawn of vermin—and mortal sins.<br><br>Countless variations of demonic vermin exist in the forbidding wasteland that is the Worldwound. When a nest of similar monsters is encountered, they all typically share the same demonic powers and traits, but another nest of the same species could exhibit entirely different abilities, depending on the nature of the Abyssal energies that have corrupted and transformed them. Uncorrupted giant vermin that wander into or are otherwise brought into the Worldwound do not immediately fall victim to this vile transformation, but several months of exposure can, at the GM’s whim, cause such creatures to spontaneously transform into one of these hideous monstrosities.<br><br>“Demonic vermin” is an inherited or acquired template that can be added to any vermin (hereafter referred to as the base creature). A demonic vermin retains all the base creature’s statistics and special abilities except as noted here.<br><br><strong>CR:</strong> Same as the base creature +1.</p>\n<p><strong>Alignment:</strong> Chaotic evil.</p>\n<p><strong>Type:</strong> The creature’s type changes to magical beast. Do not recalculate HD, BAB, or saves. While a demonic vermin is not an outsider, it is treated as if it had the demon subtype for the purposes of resolving all effects relating to that subtype.</p>\n<p><strong>Armor Class:</strong> Natural armor improves by +2.</p>\n<p><strong>Special Qualities and Defenses:</strong> A demonic vermin gains immunity to electricity and poison and resistance to acid 10, cold 10, and fire 10. It also gains DR 5/cold iron (if 11 HD or less) or DR 10/cold iron (if 12 HD or more). As demonic vermin are intelligent, they lose the mindless trait.</p>\n<p><strong>Melee: </strong>A demonic vermin’s natural weapons are unchanged, but they are treated as chaotic and evil for the purpose of resolving damage reduction.</p>\n<p><strong>Special Attacks: </strong>A demonic vermin retains all the special attacks of the base creature. In addition, it gains one of the following special abilities of your choosing— you can, of course, invent different abilities of your own as well. The save DC for any of these attacks is equal to 10 + 1/2 the demonic vermin’s HD + the demonic vermin’s Constitution modifier.</p>\n<p><em>Abyssal Energy (Su): </em>Choose one of the following energy types—acid, fire, or cold. The demonic vermin gains immunity to that energy type, and also gains a breath weapon that inf licts that type of energy damage. This breath weapon is a 60-foot-line, and deals 1d6 points of damage per CR point possessed by the demonic vermin (Reflex save halves). It can be used once every 1d4 rounds.</p>\n<p><em>Additional Senses (Ex):</em> The vermin has a large number of extra eyes and other sensory organs. It gains all-around vision, scent, and a +8 racial bonus on Perception checks.</p>\n<p><em>Death Throes (Su): </em>When the vermin is slain, it can make a single melee attack (using any one of its natural attacks) as an immediate action. It then explodes into acid, fire, electricity, or cold (your choice), dealing 1d6 points of damage per CR point possessed by the demonic vermin (Ref lex save halves).</p>\n<p><em>Diseased (Su): </em>The demonic vermin is immune to disease, and its natural attacks inflict demonplague (see page 29) on a hit (Fortitude save negates).</p>\n<p><em>Drone (Su): </em>By rubbing its wings or limbs together as a standard action, the demonic vermin produces a loud, discordant drone that causes those within 30 feet of it to become sickened (if the vermin is CR 8 or less) or confused (if the vermin is CR 9 or higher) for 1d6 rounds (Will save negates). This is a sonic mind-affecting effect.</p>\n<p><em>Skitter (Ex): </em>The creature has uncanny speed and erratic movements. The vermin’s speeds all increase by 10 feet, it gains Mobility and Spring Attack as bonus feats, and it gains a +4 racial bonus on Initiative checks.</p>\n<p><strong>Spell-Like Abilities: </strong>In addition to gaining one of the special attacks listed here, all demonic vermin gain access to a limited number of spell-like abilities, depending on its Hit Dice. Each ability is usable once per day. Caster level equals the creature’s CR.</p>\n<hr>\n<table class=\"inner\" style=\"border-color: white; color: #ffffff; font-family: 'Century Gothic', CenturyGothic, AppleGothic, sans-serif; font-size: 15px; background-color: #0f0f0f;\">\n<tbody style=\"margin-top: 0px;\">\n<tr style=\"margin-top: 0px;\">\n<td style=\"margin: 0px; border: 1px solid white; padding: 1px 5px; text-align: center;\"><strong style=\"margin-top: 0px;\">CR</strong></td>\n<td style=\"border: 1px solid white; padding: 1px 5px; margin: 0px; text-align: center;\"><strong style=\"margin-top: 0px;\">Abilities</strong></td>\n</tr>\n<tr style=\"background: #3e3e3e;\">\n<td style=\"margin: 0px; border: 1px solid white; padding: 1px 5px; text-align: center;\">1–4</td>\n<td style=\"border: 1px solid white; padding: 1px 5px; margin: 0px; text-align: center;\"><em style=\"margin-top: 0px;\">darkness</em></td>\n</tr>\n<tr>\n<td style=\"margin: 0px; border: 1px solid white; padding: 1px 5px; text-align: center;\">5–8</td>\n<td style=\"border: 1px solid white; padding: 1px 5px; margin: 0px; text-align: center;\"><em style=\"margin-top: 0px;\">vomit swarm</em><sup>APG</sup></td>\n</tr>\n<tr style=\"background: #3e3e3e;\">\n<td style=\"margin: 0px; border: 1px solid white; padding: 1px 5px; text-align: center;\">9–12</td>\n<td style=\"border: 1px solid white; padding: 1px 5px; margin: 0px; text-align: center;\"><em style=\"margin-top: 0px;\">insect plague</em></td>\n</tr>\n<tr>\n<td style=\"margin: 0px; border: 1px solid white; padding: 1px 5px; text-align: center;\">13–16</td>\n<td style=\"border: 1px solid white; padding: 1px 5px; margin: 0px; text-align: center;\"><em style=\"margin-top: 0px;\">greater teleport</em>&nbsp;(self plus 50 lbs. of objects only)</td>\n</tr>\n<tr style=\"background: #3e3e3e;\">\n<td style=\"margin: 0px; border: 1px solid white; padding: 1px 5px; text-align: center;\">17–20</td>\n<td style=\"border: 1px solid white; padding: 1px 5px; margin: 0px; text-align: center;\"><em style=\"margin-top: 0px;\">earthquake</em></td>\n</tr>\n</tbody>\n</table>\n<hr>\n<p><br style=\"color: #ffffff; font-family: 'Century Gothic', CenturyGothic, AppleGothic, sans-serif; font-size: 15px; background-color: #0f0f0f;\"><strong>Abilities:</strong> Str +4, Con +2. A demonic vermin’s Intelligence becomes 10 and its Charisma becomes 15 (unless the base creature has higher values, in which case they remain unchanged).<br>Feats: A demonic vermin gains feats as appropriate for its Hit Dice, and gains Toughness as a bonus feat.</p>\n<p><strong>Skills:</strong> A demonic vermin has skill points per racial Hit Die equal to 4 + its Intelligence modifier. The following are class skills for demonic vermin: Acrobatics, Bluff, Climb, Fly, Knowledge (planes), Perception, Sense Motive, and Stealth.</p>\n<p><strong>Languages:</strong> A demonic vermin speaks Abyssal, Celestial, and Draconic. It also gains telepathy to a distance of 100 feet.</p>",
      "chat": "",
      "unidentified": ""
    },
    "tags": [],
    "activation": {
      "cost": 1,
      "type": ""
    },
    "unchainedAction": {
      "activation": {
        "cost": 1,
        "type": ""
      }
    },
    "duration": {
      "value": null,
      "units": ""
    },
    "target": {
      "value": ""
    },
    "range": {
      "value": null,
      "units": "",
      "maxIncrements": 1,
      "minValue": null,
      "minUnits": "",
      "long": null
    },
    "uses": {
      "value": 0,
      "max": 0,
      "per": null,
      "autoDeductCharges": true,
      "autoDeductChargesCost": "1"
    },
    "measureTemplate": {
      "type": "",
      "size": "0",
      "overrideColor": false,
      "customColor": "",
      "overrideTexture": false,
      "customTexture": ""
    },
    "attackName": "",
    "actionType": "",
    "attackBonus": "",
    "critConfirmBonus": "",
    "damage": {
      "parts": [],
      "critParts": [],
      "nonCritParts": []
    },
    "attackParts": [],
    "formula": "",
    "ability": {
      "attack": null,
      "damage": null,
      "damageMult": 1,
      "critRange": 20,
      "critMult": 2
    },
    "save": {
      "dc": 0,
      "type": "",
      "description": ""
    },
    "effectNotes": "",
    "attackNotes": "",
    "soundEffect": "",
    "changes": [
      {
        "_id": "hdesxp5r",
        "formula": "2",
        "operator": "+",
        "target": "ac",
        "subTarget": "nac",
        "modifier": "untyped",
        "priority": 0,
        "value": 0
      },
      {
        "_id": "optcc9z5",
        "formula": "4",
        "operator": "+",
        "target": "ability",
        "subTarget": "str",
        "modifier": "untyped",
        "priority": 0,
        "value": 0
      },
      {
        "_id": "0affessr",
        "formula": "2",
        "operator": "+",
        "target": "ability",
        "subTarget": "con",
        "modifier": "untyped",
        "priority": 0,
        "value": 0
      }
    ],
    "changeFlags": {
      "loseDexToAC": false,
      "noStr": false,
      "noDex": false,
      "oneInt": false,
      "oneWis": false,
      "oneCha": false,
      "noEncumbrance": false,
      "mediumArmorFullSpeed": false,
      "heavyArmorFullSpeed": false
    },
    "contextNotes": [],
    "links": {
      "children": [],
      "charges": []
    },
    "tag": "",
    "useCustomTag": false,
    "armorProf": {
      "value": [],
      "custom": ""
    },
    "weaponProf": {
      "value": [],
      "custom": ""
    },
    "featType": "template",
    "associations": {
      "classes": []
    },
    "showInQuickbar": false,
    "nonlethal": false,
    "abilityType": "none",
    "crOffset": "1",
    "attack": {
      "parts": []
    }
  },
  "flags": {},
  "img": "systems/pf1/icons/skills/violet_07.jpg",
  "effects": []
}