{
  "_id": "3K1uexLg6lGMugaI",
  "name": "Druid (Rebuild)",
  "permission": {
    "default": 0
  },
  "type": "feat",
  "data": {
    "description": {
      "value": "<p><strong>Acquired/Inherited Template</strong>&nbsp;Acquired<br /><strong>Simple Template</strong>&nbsp;Yes<br /><strong>Usable with Summons</strong>&nbsp;No<br /><br />Drawn to the raw might and power of nature, a druid creature gains the ability to change shape and cast druid spells. A druid creature's CR increases by 2 if the creature has 7 or more HD, and it increases by 3 if the creature has 13 or more HD.<br /><br /><strong>Quick Rules: </strong>+2 on all rolls based on Wis; can use wild shape&dagger; if it has 7 or more HD (using its HD &ndash; 3 as its druid level to determine the effect of the wild shape); can cast a small number of druid spells (see the Cleric, Druid, and Wizard Spell Slots table above) using its HD as its CL; woodland stride&dagger;.<br /><br /><strong>Rebuild Rules:&nbsp;</strong>Special Attacks&nbsp;wild shape&dagger; (if it has 7 or more HD, using its HD &ndash; 3 as its druid level to determine the effect of the wild shape);&nbsp;Druid Spells&nbsp;can cast a small number of druid spells (see the Cleric, Druid, and Wizard Spell Slots table above) using its HD as its CL;&nbsp;Ability Scores&nbsp;+4 Wisdom;&nbsp;SQ&nbsp;woodland stride&dagger;.<br /><br /><strong>Animal Companion:</strong> These rules assume the druid creature doesn't have an animal companion. If you want to add one, select a creature from the list of a&nbsp;summon nature's ally&nbsp;spell. The spell must have a level no higher than 1/2 the creature's CR. Treat the companion as an additional creature in the encounter, awarding XP for defeating it as if it was not an animal companion.</p>\n<p>&nbsp;</p>\n<p><strong>Cleric, Druid, and Wizard Spells Slots</strong></p>\n<hr />\n<table class=\"inner\" style=\"border-color: white; color: #ffffff; font-family: 'Century Gothic', CenturyGothic, AppleGothic, sans-serif; font-size: 15px; background-color: #0f0f0f;\">\n<tbody style=\"margin-top: 0px;\">\n<tr style=\"margin-top: 0px;\">\n<td style=\"margin: 0px; border: 1px solid white; padding: 1px 5px; text-align: center;\"><strong style=\"margin-top: 0px;\">HD</strong></td>\n<td style=\"border: 1px solid white; padding: 1px 5px; margin: 0px; text-align: center;\"><strong style=\"margin-top: 0px;\">0</strong></td>\n<td style=\"border: 1px solid white; padding: 1px 5px; margin: 0px; text-align: center;\"><strong style=\"margin-top: 0px;\">1</strong></td>\n<td style=\"border: 1px solid white; padding: 1px 5px; margin: 0px; text-align: center;\"><strong style=\"margin-top: 0px;\">2</strong></td>\n<td style=\"border: 1px solid white; padding: 1px 5px; margin: 0px; text-align: center;\"><strong style=\"margin-top: 0px;\">3</strong></td>\n<td style=\"border: 1px solid white; padding: 1px 5px; margin: 0px; text-align: center;\"><strong style=\"margin-top: 0px;\">4</strong></td>\n<td style=\"border: 1px solid white; padding: 1px 5px; margin: 0px; text-align: center;\"><strong style=\"margin-top: 0px;\">5</strong></td>\n<td style=\"border: 1px solid white; padding: 1px 5px; margin: 0px; text-align: center;\"><strong style=\"margin-top: 0px;\">6</strong></td>\n<td style=\"border: 1px solid white; padding: 1px 5px; margin: 0px; text-align: center;\"><strong style=\"margin-top: 0px;\">7</strong></td>\n<td style=\"border: 1px solid white; padding: 1px 5px; margin: 0px; text-align: center;\"><strong style=\"margin-top: 0px;\">8</strong></td>\n<td style=\"border: 1px solid white; padding: 1px 5px; margin: 0px; text-align: center;\"><strong style=\"margin-top: 0px;\">9</strong></td>\n</tr>\n<tr style=\"background: #3e3e3e;\">\n<td style=\"margin: 0px; border: 1px solid white; padding: 1px 5px; text-align: center;\">1-3</td>\n<td style=\"border: 1px solid white; padding: 1px 5px; margin: 0px; text-align: center;\">2</td>\n<td style=\"border: 1px solid white; padding: 1px 5px; margin: 0px; text-align: center;\">1</td>\n<td style=\"border: 1px solid white; padding: 1px 5px; margin: 0px; text-align: center;\">&mdash;</td>\n<td style=\"border: 1px solid white; padding: 1px 5px; margin: 0px; text-align: center;\">&mdash;</td>\n<td style=\"border: 1px solid white; padding: 1px 5px; margin: 0px; text-align: center;\">&mdash;</td>\n<td style=\"border: 1px solid white; padding: 1px 5px; margin: 0px; text-align: center;\">&mdash;</td>\n<td style=\"border: 1px solid white; padding: 1px 5px; margin: 0px; text-align: center;\">&mdash;</td>\n<td style=\"border: 1px solid white; padding: 1px 5px; margin: 0px; text-align: center;\">&mdash;</td>\n<td style=\"border: 1px solid white; padding: 1px 5px; margin: 0px; text-align: center;\">&mdash;</td>\n<td style=\"border: 1px solid white; padding: 1px 5px; margin: 0px; text-align: center;\">&mdash;</td>\n</tr>\n<tr>\n<td style=\"margin: 0px; border: 1px solid white; padding: 1px 5px; text-align: center;\">4-6</td>\n<td style=\"border: 1px solid white; padding: 1px 5px; margin: 0px; text-align: center;\">2</td>\n<td style=\"border: 1px solid white; padding: 1px 5px; margin: 0px; text-align: center;\">2</td>\n<td style=\"border: 1px solid white; padding: 1px 5px; margin: 0px; text-align: center;\">1</td>\n<td style=\"border: 1px solid white; padding: 1px 5px; margin: 0px; text-align: center;\">&mdash;</td>\n<td style=\"border: 1px solid white; padding: 1px 5px; margin: 0px; text-align: center;\">&mdash;</td>\n<td style=\"border: 1px solid white; padding: 1px 5px; margin: 0px; text-align: center;\">&mdash;</td>\n<td style=\"border: 1px solid white; padding: 1px 5px; margin: 0px; text-align: center;\">&mdash;</td>\n<td style=\"border: 1px solid white; padding: 1px 5px; margin: 0px; text-align: center;\">&mdash;</td>\n<td style=\"border: 1px solid white; padding: 1px 5px; margin: 0px; text-align: center;\">&mdash;</td>\n<td style=\"border: 1px solid white; padding: 1px 5px; margin: 0px; text-align: center;\">&mdash;</td>\n</tr>\n<tr style=\"background: #3e3e3e;\">\n<td style=\"margin: 0px; border: 1px solid white; padding: 1px 5px; text-align: center;\">7-9</td>\n<td style=\"border: 1px solid white; padding: 1px 5px; margin: 0px; text-align: center;\">&Dagger;</td>\n<td style=\"border: 1px solid white; padding: 1px 5px; margin: 0px; text-align: center;\">2</td>\n<td style=\"border: 1px solid white; padding: 1px 5px; margin: 0px; text-align: center;\">2</td>\n<td style=\"border: 1px solid white; padding: 1px 5px; margin: 0px; text-align: center;\">1</td>\n<td style=\"border: 1px solid white; padding: 1px 5px; margin: 0px; text-align: center;\">&mdash;</td>\n<td style=\"border: 1px solid white; padding: 1px 5px; margin: 0px; text-align: center;\">&mdash;</td>\n<td style=\"border: 1px solid white; padding: 1px 5px; margin: 0px; text-align: center;\">&mdash;</td>\n<td style=\"border: 1px solid white; padding: 1px 5px; margin: 0px; text-align: center;\">&mdash;</td>\n<td style=\"border: 1px solid white; padding: 1px 5px; margin: 0px; text-align: center;\">&mdash;</td>\n<td style=\"border: 1px solid white; padding: 1px 5px; margin: 0px; text-align: center;\">&mdash;</td>\n</tr>\n<tr>\n<td style=\"margin: 0px; border: 1px solid white; padding: 1px 5px; text-align: center;\">10-12</td>\n<td style=\"border: 1px solid white; padding: 1px 5px; margin: 0px; text-align: center;\">&Dagger;</td>\n<td style=\"border: 1px solid white; padding: 1px 5px; margin: 0px; text-align: center;\">&Dagger;</td>\n<td style=\"border: 1px solid white; padding: 1px 5px; margin: 0px; text-align: center;\">2</td>\n<td style=\"border: 1px solid white; padding: 1px 5px; margin: 0px; text-align: center;\">2</td>\n<td style=\"border: 1px solid white; padding: 1px 5px; margin: 0px; text-align: center;\">1</td>\n<td style=\"border: 1px solid white; padding: 1px 5px; margin: 0px; text-align: center;\">&mdash;</td>\n<td style=\"border: 1px solid white; padding: 1px 5px; margin: 0px; text-align: center;\">&mdash;</td>\n<td style=\"border: 1px solid white; padding: 1px 5px; margin: 0px; text-align: center;\">&mdash;</td>\n<td style=\"border: 1px solid white; padding: 1px 5px; margin: 0px; text-align: center;\">&mdash;</td>\n<td style=\"border: 1px solid white; padding: 1px 5px; margin: 0px; text-align: center;\">&mdash;</td>\n</tr>\n<tr style=\"background: #3e3e3e;\">\n<td style=\"margin: 0px; border: 1px solid white; padding: 1px 5px; text-align: center;\">13-15</td>\n<td style=\"border: 1px solid white; padding: 1px 5px; margin: 0px; text-align: center;\">&Dagger;</td>\n<td style=\"border: 1px solid white; padding: 1px 5px; margin: 0px; text-align: center;\">&Dagger;</td>\n<td style=\"border: 1px solid white; padding: 1px 5px; margin: 0px; text-align: center;\">&Dagger;</td>\n<td style=\"border: 1px solid white; padding: 1px 5px; margin: 0px; text-align: center;\">2</td>\n<td style=\"border: 1px solid white; padding: 1px 5px; margin: 0px; text-align: center;\">2</td>\n<td style=\"border: 1px solid white; padding: 1px 5px; margin: 0px; text-align: center;\">1</td>\n<td style=\"border: 1px solid white; padding: 1px 5px; margin: 0px; text-align: center;\">&mdash;</td>\n<td style=\"border: 1px solid white; padding: 1px 5px; margin: 0px; text-align: center;\">&mdash;</td>\n<td style=\"border: 1px solid white; padding: 1px 5px; margin: 0px; text-align: center;\">&mdash;</td>\n<td style=\"border: 1px solid white; padding: 1px 5px; margin: 0px; text-align: center;\">&mdash;</td>\n</tr>\n<tr>\n<td style=\"margin: 0px; border: 1px solid white; padding: 1px 5px; text-align: center;\">16-18</td>\n<td style=\"border: 1px solid white; padding: 1px 5px; margin: 0px; text-align: center;\">&Dagger;</td>\n<td style=\"border: 1px solid white; padding: 1px 5px; margin: 0px; text-align: center;\">&Dagger;</td>\n<td style=\"border: 1px solid white; padding: 1px 5px; margin: 0px; text-align: center;\">&Dagger;</td>\n<td style=\"border: 1px solid white; padding: 1px 5px; margin: 0px; text-align: center;\">&Dagger;</td>\n<td style=\"border: 1px solid white; padding: 1px 5px; margin: 0px; text-align: center;\">2</td>\n<td style=\"border: 1px solid white; padding: 1px 5px; margin: 0px; text-align: center;\">2</td>\n<td style=\"border: 1px solid white; padding: 1px 5px; margin: 0px; text-align: center;\">1</td>\n<td style=\"border: 1px solid white; padding: 1px 5px; margin: 0px; text-align: center;\">&mdash;</td>\n<td style=\"border: 1px solid white; padding: 1px 5px; margin: 0px; text-align: center;\">&mdash;</td>\n<td style=\"border: 1px solid white; padding: 1px 5px; margin: 0px; text-align: center;\">&mdash;</td>\n</tr>\n<tr style=\"background: #3e3e3e;\">\n<td style=\"margin: 0px; border: 1px solid white; padding: 1px 5px; text-align: center;\">19-21</td>\n<td style=\"border: 1px solid white; padding: 1px 5px; margin: 0px; text-align: center;\">&Dagger;</td>\n<td style=\"border: 1px solid white; padding: 1px 5px; margin: 0px; text-align: center;\">&Dagger;</td>\n<td style=\"border: 1px solid white; padding: 1px 5px; margin: 0px; text-align: center;\">&Dagger;</td>\n<td style=\"border: 1px solid white; padding: 1px 5px; margin: 0px; text-align: center;\">&Dagger;</td>\n<td style=\"border: 1px solid white; padding: 1px 5px; margin: 0px; text-align: center;\">&Dagger;</td>\n<td style=\"border: 1px solid white; padding: 1px 5px; margin: 0px; text-align: center;\">2</td>\n<td style=\"border: 1px solid white; padding: 1px 5px; margin: 0px; text-align: center;\">2</td>\n<td style=\"border: 1px solid white; padding: 1px 5px; margin: 0px; text-align: center;\">1</td>\n<td style=\"border: 1px solid white; padding: 1px 5px; margin: 0px; text-align: center;\">&mdash;</td>\n<td style=\"border: 1px solid white; padding: 1px 5px; margin: 0px; text-align: center;\">&mdash;</td>\n</tr>\n<tr>\n<td style=\"margin: 0px; border: 1px solid white; padding: 1px 5px; text-align: center;\">22-24</td>\n<td style=\"border: 1px solid white; padding: 1px 5px; margin: 0px; text-align: center;\">&Dagger;</td>\n<td style=\"border: 1px solid white; padding: 1px 5px; margin: 0px; text-align: center;\">&Dagger;</td>\n<td style=\"border: 1px solid white; padding: 1px 5px; margin: 0px; text-align: center;\">&Dagger;</td>\n<td style=\"border: 1px solid white; padding: 1px 5px; margin: 0px; text-align: center;\">&Dagger;</td>\n<td style=\"border: 1px solid white; padding: 1px 5px; margin: 0px; text-align: center;\">&Dagger;</td>\n<td style=\"border: 1px solid white; padding: 1px 5px; margin: 0px; text-align: center;\">&Dagger;</td>\n<td style=\"border: 1px solid white; padding: 1px 5px; margin: 0px; text-align: center;\">2</td>\n<td style=\"border: 1px solid white; padding: 1px 5px; margin: 0px; text-align: center;\">2</td>\n<td style=\"border: 1px solid white; padding: 1px 5px; margin: 0px; text-align: center;\">1</td>\n<td style=\"border: 1px solid white; padding: 1px 5px; margin: 0px; text-align: center;\">&mdash;</td>\n</tr>\n<tr style=\"background: #3e3e3e;\">\n<td style=\"margin: 0px; border: 1px solid white; padding: 1px 5px; text-align: center;\">25+</td>\n<td style=\"border: 1px solid white; padding: 1px 5px; margin: 0px; text-align: center;\">&Dagger;</td>\n<td style=\"border: 1px solid white; padding: 1px 5px; margin: 0px; text-align: center;\">&Dagger;</td>\n<td style=\"border: 1px solid white; padding: 1px 5px; margin: 0px; text-align: center;\">&Dagger;</td>\n<td style=\"border: 1px solid white; padding: 1px 5px; margin: 0px; text-align: center;\">&Dagger;</td>\n<td style=\"border: 1px solid white; padding: 1px 5px; margin: 0px; text-align: center;\">&Dagger;</td>\n<td style=\"border: 1px solid white; padding: 1px 5px; margin: 0px; text-align: center;\">&Dagger;</td>\n<td style=\"border: 1px solid white; padding: 1px 5px; margin: 0px; text-align: center;\">&Dagger;</td>\n<td style=\"border: 1px solid white; padding: 1px 5px; margin: 0px; text-align: center;\">2</td>\n<td style=\"border: 1px solid white; padding: 1px 5px; margin: 0px; text-align: center;\">2</td>\n<td style=\"border: 1px solid white; padding: 1px 5px; margin: 0px; text-align: center;\">1</td>\n</tr>\n</tbody>\n</table>",
      "chat": "",
      "unidentified": ""
    },
    "tags": [],
    "activation": {
      "cost": 1,
      "type": ""
    },
    "unchainedAction": {
      "activation": {
        "cost": 1,
        "type": ""
      }
    },
    "duration": {
      "value": null,
      "units": ""
    },
    "target": {
      "value": ""
    },
    "range": {
      "value": null,
      "units": "",
      "maxIncrements": 1,
      "minValue": null,
      "minUnits": "",
      "long": null
    },
    "uses": {
      "value": 0,
      "max": 0,
      "per": null,
      "autoDeductCharges": true,
      "autoDeductChargesCost": "1"
    },
    "measureTemplate": {
      "type": "",
      "size": "0",
      "overrideColor": false,
      "customColor": "",
      "overrideTexture": false,
      "customTexture": ""
    },
    "attackName": "",
    "actionType": "",
    "attackBonus": "",
    "critConfirmBonus": "",
    "damage": {
      "parts": [],
      "critParts": [],
      "nonCritParts": []
    },
    "attackParts": [],
    "formula": "",
    "ability": {
      "attack": null,
      "damage": null,
      "damageMult": 1,
      "critRange": 20,
      "critMult": 2
    },
    "save": {
      "dc": 0,
      "type": "",
      "description": ""
    },
    "effectNotes": "",
    "attackNotes": "",
    "soundEffect": "",
    "changes": [
      {
        "_id": "ijym7ttr",
        "formula": "4",
        "operator": "+",
        "target": "ability",
        "subTarget": "wis",
        "modifier": "untyped",
        "priority": 0,
        "value": 0
      }
    ],
    "changeFlags": {
      "loseDexToAC": false,
      "noStr": false,
      "noDex": false,
      "oneInt": false,
      "oneWis": false,
      "oneCha": false,
      "noEncumbrance": false,
      "mediumArmorFullSpeed": false,
      "heavyArmorFullSpeed": false
    },
    "contextNotes": [],
    "links": {
      "children": [],
      "charges": []
    },
    "tag": "",
    "useCustomTag": false,
    "armorProf": {
      "value": [],
      "custom": ""
    },
    "weaponProf": {
      "value": [],
      "custom": ""
    },
    "featType": "template",
    "associations": {
      "classes": []
    },
    "showInQuickbar": false,
    "nonlethal": false,
    "abilityType": "none",
    "crOffset": "(@attributes.hd.total >= 13) ? 3 : ((@attributes.hd.total > 6 && @attributes.hd.total < 13) ? 2 : 1)",
    "attack": {
      "parts": []
    }
  },
  "flags": {},
  "img": "systems/pf1/icons/skills/violet_07.jpg",
  "effects": []
}