{
  "_id": "honQfTrmEEvFQ3hp",
  "name": "Lich",
  "permission": {
    "default": 0
  },
  "type": "feat",
  "data": {
    "description": {
      "value": "<p><strong>Acquired/Inherited Template</strong>&nbsp;Acquired<br><strong>Simple Template</strong>&nbsp;No<br><strong>Usable with Summons&nbsp;</strong>Yes<br><br>“Lich” is an acquired template that can be added to any living creature (referred to hereafter as the base creature), provided it can create the required phylactery. A lich retains all the base creature's statistics and special abilities except as noted here.<br><br><strong>CR:</strong> Same as the base creature + 2.<br><br><strong>Alignment:</strong> Any evil.<br><br><strong>Type:</strong> The creature's type changes to undead. Do not recalculate BAB, saves, or skill ranks.<br><br><strong>Senses:</strong> A lich gains darkvision 60 ft.<br><br><strong>Armor Class:</strong> A lich has a +5 natural armor bonus or the base creature's natural armor bonus, whichever is better.<br><br><strong>Hit Dice:</strong> Change all of the creature's racial Hit Dice to d8s. All Hit Dice derived from class levels remain unchanged. As undead, liches use their Charisma modifiers to determine bonus hit points (instead of Constitution).<br><br><strong>Defensive Abilities:</strong> A lich gains channel resistance +4, DR 15/bludgeoning and magic, and immunity to cold and electricity (in addition to those granted by its undead traits). The lich also gains the following defensive ability.<br><br><em>Rejuvenation (Su):</em> When a lich is destroyed, its phylactery (which is generally hidden by the lich in a safe place far from where it chooses to dwell) immediately begins to rebuild the undead spellcaster's body nearby. This process takes 1d10 days—if the body is destroyed before that time passes, the phylactery merely starts the process anew. After this time passes, the lich wakens fully healed (albeit without any gear it left behind on its old body), usually with a burning need for revenge against those who previously destroyed it.<br><br><strong>Melee Attack:</strong> A lich has a touch attack that it can use once per round as a natural weapon. A lich fighting without weapons uses its natural weapons (if it has any) in addition to its touch attack (which is treated as a primary natural weapon that replaces one claw or slam attack, if the creature has any). A lich armed with a weapon uses its weapons normally, and can use its touch attack as a secondary natural weapon.<br><br><strong>Damage:</strong> A lich's touch attack uses negative energy to deal 1d8 points of damage to living creatures + 1 point of damage per 2 Hit Dice possessed by the lich. As negative energy, this damage can be used to heal undead creatures. A lich can take a full-round action to infuse itself with this energy, healing damage as if it had used its touch attack against itself.<br><br><strong>Special Attacks:</strong> A lich gains the two special attacks described below. Save DCs are equal to 10 + 1/2 lich's HD + lich's Cha modifier unless otherwise noted.<br><br><em>Fear Aura (Su):</em> Creatures of less than 5 HD in a 60-foot radius that look at the lich must succeed on a Will save or become frightened. Creatures with 5 HD or more must succeed at a Will save or be shaken for a number of rounds equal to the lich's Hit Dice. A creature that successfully saves cannot be affected again by the same lich's aura for 24 hours. This is a mind-affecting fear effect.<br><br><em>Paralyzing Touch (Su): </em>Any living creature a lich hits with its touch attack must succeed on a Fortitude save or be permanently paralyzed.&nbsp;Remove paralysis&nbsp;or any spell that can remove a curse can free the victim (see the&nbsp;bestow curse&nbsp;spell description, with a DC equal to the lich's save DC). The effect cannot be dispelled. Anyone paralyzed by a lich seems dead, though a DC 20 Perception check or a DC 15 Heal check reveals that the victim is still alive.<br><br><strong>Abilities:</strong> Int +2, Wis +2, Cha +2. Being undead, a lich has no Constitution score.<br><br><strong>Skills:</strong> Liches have a +8 racial bonus on Perception, Sense Motive, and Stealth checks. A lich always treats Climb, Disguise, Fly, Intimidate, Knowledge (arcana), Knowledge (religion), Perception, Sense Motive, Spellcraft, and Stealth as class skills. Otherwise, skills are the same as the base creature.</p>",
      "chat": "",
      "unidentified": ""
    },
    "tags": [],
    "activation": {
      "cost": 1,
      "type": ""
    },
    "unchainedAction": {
      "activation": {
        "cost": 1,
        "type": ""
      }
    },
    "duration": {
      "value": null,
      "units": ""
    },
    "target": {
      "value": ""
    },
    "range": {
      "value": null,
      "units": "",
      "maxIncrements": 1,
      "minValue": null,
      "minUnits": "",
      "long": null
    },
    "uses": {
      "value": 0,
      "max": 0,
      "per": null,
      "autoDeductCharges": true,
      "autoDeductChargesCost": "1"
    },
    "measureTemplate": {
      "type": "",
      "size": "0",
      "overrideColor": false,
      "customColor": "",
      "overrideTexture": false,
      "customTexture": ""
    },
    "attackName": "",
    "actionType": "",
    "attackBonus": "",
    "critConfirmBonus": "",
    "damage": {
      "parts": [],
      "critParts": [],
      "nonCritParts": []
    },
    "attackParts": [],
    "formula": "",
    "ability": {
      "attack": null,
      "damage": null,
      "damageMult": 1,
      "critRange": 20,
      "critMult": 2
    },
    "save": {
      "dc": 0,
      "type": "",
      "description": ""
    },
    "effectNotes": "",
    "attackNotes": "",
    "soundEffect": "",
    "changes": [
      {
        "_id": "0arrqztl",
        "formula": "5",
        "operator": "+",
        "target": "ac",
        "subTarget": "nac",
        "modifier": "untyped",
        "priority": 0,
        "value": 0
      },
      {
        "_id": "4nnjobt3",
        "formula": "2",
        "operator": "+",
        "target": "ability",
        "subTarget": "int",
        "modifier": "untyped",
        "priority": 0,
        "value": 0
      },
      {
        "_id": "vny9uo1u",
        "formula": "2",
        "operator": "+",
        "target": "ability",
        "subTarget": "wis",
        "modifier": "untyped",
        "priority": 0,
        "value": 0
      },
      {
        "_id": "e92wwwtw",
        "formula": "2",
        "operator": "+",
        "target": "ability",
        "subTarget": "cha",
        "modifier": "untyped",
        "priority": 0,
        "value": 0
      },
      {
        "_id": "ytaknykq",
        "formula": "8",
        "operator": "+",
        "target": "skill",
        "subTarget": "skill.per",
        "modifier": "racial",
        "priority": 0,
        "value": 0
      },
      {
        "_id": "xzp56xhe",
        "formula": "8",
        "operator": "+",
        "target": "skill",
        "subTarget": "skill.sen",
        "modifier": "racial",
        "priority": 0,
        "value": 0
      },
      {
        "_id": "i7jiqanb",
        "formula": "8",
        "operator": "+",
        "target": "skill",
        "subTarget": "skill.ste",
        "modifier": "racial",
        "priority": 0,
        "value": 0
      }
    ],
    "changeFlags": {
      "loseDexToAC": false,
      "noStr": false,
      "noDex": false,
      "oneInt": false,
      "oneWis": false,
      "oneCha": false,
      "noEncumbrance": false,
      "mediumArmorFullSpeed": false,
      "heavyArmorFullSpeed": false
    },
    "contextNotes": [],
    "links": {
      "children": [],
      "charges": []
    },
    "tag": "",
    "useCustomTag": false,
    "armorProf": {
      "value": [],
      "custom": ""
    },
    "weaponProf": {
      "value": [],
      "custom": ""
    },
    "featType": "template",
    "associations": {
      "classes": []
    },
    "showInQuickbar": false,
    "nonlethal": false,
    "abilityType": "none",
    "crOffset": "2",
    "attack": {
      "parts": []
    }
  },
  "flags": {},
  "img": "systems/pf1/icons/skills/violet_07.jpg",
  "effects": []
}