{
  "_id": "dOa4aQoSdHOtplkp",
  "name": "Lich Creature (Quick)",
  "permission": {
    "default": 0
  },
  "type": "feat",
  "data": {
    "description": {
      "value": "<p><strong>Acquired/Inherited Template</strong>&nbsp;Acquired<br><strong>Simple Template&nbsp;</strong>Yes<br><strong>Usable with Summons</strong>&nbsp;No<br><br>While it might not have followed the traditional path to lichdom, which requires a strong aptitude for magic, a lich creature’s connection to an object allows it to survive as an undead indefinitely, returning each time its foes destroy it unless they can destroy the lich creature’s phylactery (Bestiary&nbsp;188).<br><br><strong>Quick Rules:</strong> Counts as undead; darkvision 60 ft.; rejuvenation*; immune to cold and electricity; undead immunities; +1 on rolls based on Int, Wis, and Cha; touch attack deals 1d8 + 1/2 HD points of damage plus paralyzing touch*; fear aura*.<br><br><strong>Rebuild Rules:</strong>&nbsp;Type&nbsp;change to undead;&nbsp;Senses&nbsp;darkvision 60 ft.;&nbsp;Defensive Abilities&nbsp;rejuvenation*;&nbsp;Immune&nbsp;cold, electricity;&nbsp;Melee&nbsp;touch attack deals 1d8 + 1/2 HD points of damage plus paralyzing touch*;&nbsp;Special Attacks&nbsp;fear aura*, paralyzing touch*;&nbsp;Ability Scores&nbsp;+2 Int, +2 Wis, +2 Cha.</p>",
      "chat": "",
      "unidentified": ""
    },
    "tags": [],
    "activation": {
      "cost": 1,
      "type": ""
    },
    "unchainedAction": {
      "activation": {
        "cost": 1,
        "type": ""
      }
    },
    "duration": {
      "value": null,
      "units": ""
    },
    "target": {
      "value": ""
    },
    "range": {
      "value": null,
      "units": "",
      "maxIncrements": 1,
      "minValue": null,
      "minUnits": "",
      "long": null
    },
    "uses": {
      "value": 0,
      "max": 0,
      "per": null,
      "autoDeductCharges": true,
      "autoDeductChargesCost": "1"
    },
    "measureTemplate": {
      "type": "",
      "size": "0",
      "overrideColor": false,
      "customColor": "",
      "overrideTexture": false,
      "customTexture": ""
    },
    "attackName": "",
    "actionType": "",
    "attackBonus": "",
    "critConfirmBonus": "",
    "damage": {
      "parts": [],
      "critParts": [],
      "nonCritParts": []
    },
    "attackParts": [],
    "formula": "",
    "ability": {
      "attack": null,
      "damage": null,
      "damageMult": 1,
      "critRange": 20,
      "critMult": 2
    },
    "save": {
      "dc": 0,
      "type": "",
      "description": ""
    },
    "effectNotes": "",
    "attackNotes": "",
    "soundEffect": "",
    "changes": [
      {
        "_id": "x5fnisd6",
        "formula": "1",
        "operator": "+",
        "target": "skills",
        "subTarget": "intSkills",
        "modifier": "untyped",
        "priority": 0,
        "value": 0
      },
      {
        "_id": "uvmemiqk",
        "formula": "1",
        "operator": "+",
        "target": "abilityChecks",
        "subTarget": "intChecks",
        "modifier": "untyped",
        "priority": 0,
        "value": 0
      },
      {
        "_id": "zlrfciw9",
        "formula": "1",
        "operator": "+",
        "target": "savingThrows",
        "subTarget": "will",
        "modifier": "untyped",
        "priority": 0,
        "value": 0
      },
      {
        "_id": "ow4u81th",
        "formula": "1",
        "operator": "+",
        "target": "skills",
        "subTarget": "wisSkills",
        "modifier": "untyped",
        "priority": 0,
        "value": 0
      },
      {
        "_id": "5vl55v21",
        "formula": "1",
        "operator": "+",
        "target": "abilityChecks",
        "subTarget": "wisChecks",
        "modifier": "untyped",
        "priority": 0,
        "value": 0
      },
      {
        "_id": "1fqmy039",
        "formula": "1",
        "operator": "+",
        "target": "skills",
        "subTarget": "chaSkills",
        "modifier": "untyped",
        "priority": 0,
        "value": 0
      },
      {
        "_id": "waw2sac7",
        "formula": "1",
        "operator": "+",
        "target": "abilityChecks",
        "subTarget": "chaChecks",
        "modifier": "untyped",
        "priority": 0,
        "value": 0
      }
    ],
    "changeFlags": {
      "loseDexToAC": false,
      "noStr": false,
      "noDex": false,
      "oneInt": false,
      "oneWis": false,
      "oneCha": false,
      "noEncumbrance": false,
      "mediumArmorFullSpeed": false,
      "heavyArmorFullSpeed": false
    },
    "contextNotes": [],
    "links": {
      "children": [],
      "charges": []
    },
    "tag": "",
    "useCustomTag": false,
    "armorProf": {
      "value": [],
      "custom": ""
    },
    "weaponProf": {
      "value": [],
      "custom": ""
    },
    "featType": "template",
    "associations": {
      "classes": []
    },
    "showInQuickbar": false,
    "nonlethal": false,
    "abilityType": "none",
    "crOffset": "1",
    "attack": {
      "parts": []
    }
  },
  "flags": {},
  "img": "systems/pf1/icons/skills/violet_07.jpg",
  "effects": []
}