{
  "_id": "4pbHKe1aYEcjBEs4",
  "name": "Mutant",
  "permission": {
    "default": 0
  },
  "type": "feat",
  "data": {
    "description": {
      "value": "<p><strong>Acquired/Inherited Template</strong>&nbsp;Acquired<br><strong>Simple Template</strong>&nbsp;No<br><strong>Usable with Summons</strong>&nbsp;No<br><br>When long-term exposure to radiation or bizarre magical fields doesn’t result in a creature’s death, it might mutate the creature into a twisted version of itself. Some of these mutations can be advantageous, while others are unquestionably a hindrance. Mutants often band together into roving bands of loosely affiliated marauders, traveling the land in search of food, shelter, or whatever else motivates their fractured minds.<br><br>“Mutant” is an acquired template that can be added to any living, corporeal creature. A mutant retains the base creature’s statistics and special abilities except as noted here.<br><br><strong>Challenge Rating:</strong> Base creature’s CR + 1.<br><br><strong>Type: </strong>The creature’s type changes to aberration (augmented). Do not recalculate its Hit Dice, base attack bonus, or saves.<br><br><strong>Attacks:</strong> A mutant retains all the natural weapons, manufactured weapon attacks, and weapon and armor proficiencies of the base creature.<br><br><strong>Special Abilities: </strong>A mutant retains any extraordinary and supernatural abilities of the base creature.<br><br><strong>Abilities: </strong>A mutant gains a +4 bonus to two ability scores of its choice and takes a –2 penalty to two ability scores of its choice (These can be selected under the \"Changes\" tab of this window).<br><br><strong>Skills:</strong> A mutant gains Climb, Intimidate, Knowledge (any one), Perception, Sense Motive, Survival, and Swim as class skills.<br><br><strong>Deformities:</strong> Each mutant has one of the following deformities. It can take a second deformity to gain a mutation as detailed in Mutations. A deformity can’t be taken if it wouldn’t disadvantage the mutant.<br><br><em>Blind (Ex):</em> The mutant can’t see, and gains the blinded condition unless it possesses a means of seeing other than normal vision, darkvision, or low-light vision. This blindness can’t be magically removed.<br><br><em>Deaf (Ex):</em> The mutant can’t hear, and gains the deafened condition. This deafness can’t be magically removed.<br><br><em>Fragile (Ex):</em> When the mutant fails a Fortitude save, it is staggered for 1 round.<br><br><em>Fractured Mind (Ex):</em> When the mutant fails a Will save, it is confused for 1 round.<br><br><em>Lame (Ex): </em>The mutant’s stunted legs reduce its base speed by 10 feet. This deformity can’t be taken if the mutant’s base speed is already slower than 20 feet.<br><br><em>Light Blindness (Ex):</em> The mutant has the&nbsp;<a href=\"https://aonprd.com/UMR.aspx?ItemName=Light%20Blindness\">light blindness</a>&nbsp;special ability. This deformity can’t be taken in conjunction with the blind deformity.<br><br><em>Mindless (Ex): </em>The mutant gains the mindless trait. A mindless mutant has no Intelligence score, loses all feats and skills, and is immune to mind-affecting effects. A mutant with class levels retains its hit points, base attack bonus, and base saves from its class levels, but loses all weapon and armor proficiencies and other class abilities. This deformity could prevent the mutant from being eligible to take certain special abilities, at the GM’s discretion.<br><br><em>Misshapen (Ex): </em>Humanoid mutants only. The mutant can’t wear armor (including magic armor) fashioned for humanoid creatures. Armor made to fit the mutant costs twice as much.<br><br><em>Poor Ability (Ex):</em> The mutant takes a –4 penalty to one ability score in addition to the normal ability score penalties applied by the template.<br><br><em>Spasms (Ex):</em> When the mutant fails a Reflex save, for 1 round it can’t take attacks of opportunity or immediate actions and loses its Dexterity bonus to AC, on ranged attack rolls and attack rolls made using finesse weapons, and on ability checks and skill checks.<br><br><em>Useless Arm (Ex):</em> One of the mutant’s arms is malformed and useless.<br><br><em>Vulnerability (Ex):</em> The mutant is vulnerable to one energy type. If the base creature has innate resistance or immunity to that energy type, it loses those abilities.<br><br><strong>Mutations:</strong> A mutant gains one of the beneficial mutations below when it acquires this template, plus an additional mutation for every 4 Hit Dice it possesses. By taking an extra deformity (see above), a mutant can add an additional mutation. Only the first extra deformity provides this benefit. A mutant that gains additional Hit Dice after acquiring this template does not gain additional mutations.<br><br><em>Armored (Ex):</em> The mutant’s natural armor bonus to its AC increases by 2. This ability can be taken multiple times.<br><br><em>Bulbous Eyes (Ex):</em> The mutant has darkvision with a range of 60 feet and low-light vision.<br><br><em>Celerity (Ex): </em>As a swift action, the mutant gains the benefits of&nbsp;<a href=\"https://aonprd.com/DeityDisplay.aspx?ItemName=haste\">haste</a>&nbsp;for 1 round. This ability can be used once every 1d4 rounds. The mutant gains a +2 bonus on Initiative checks.<br><br><em>Echolocation (Ex): </em>The mutant has blindsense with a range of 30 feet and gains&nbsp;<a href=\"https://aonprd.com/FeatDisplay.aspx?ItemName=Blind-Fight\">Blind-Fight</a>&nbsp;as a bonus feat.<br><br><em>Extra Arm (Ex):</em> The mutant has an extra arm and gains&nbsp;<a href=\"https://aonprd.com/FeatDisplay.aspx?ItemName=Multiweapon%20Fighting\">Multiweapon Fighting</a>&nbsp;as a bonus feat if this mutation brings its total number of arms above two. This ability can be taken multiple times, adding an arm each time.<br><br><em>Fast Healing (Ex): </em>The mutant gains fast healing 5.<br><br><em>Feral (Ex):</em> The mutant gains a bite attack and gains one claw attack for each arm or forelimb. These natural weapons deal damage based on the mutant’s size. If it already has these attacks, their damage improves by one size category.<br><br><em>Gills (Ex):</em> The mutant has the aquatic subtype, the amphibious ability, and a swim speed equal to its base speed.<br><br><em>Increased Speed (Ex):</em> One of the mutant’s speeds increases by 10 feet. If this mutation is taken multiple times, apply it to a different speed each time.<br><br><em>Leaping (Ex):</em> The mutant gains Acrobatics as a class skill and a +10 bonus on Acrobatics checks to jump. The mutant always counts as having a running start when jumping.<br><br><em>Mental Armor (Su):</em> The mutant generates a protective field (as&nbsp;<a href=\"https://aonprd.com/SpellDisplay.aspx?ItemName=mage%20armor\">mage armor</a>) while conscious. If its mental armor is removed, the mutant can restore it as a swift action.<br><br><em>Rage (Ex):</em> The mutant gains the ability to enter a manic rage, as per the&nbsp;<a href=\"https://aonprd.com/ClassDisplay.aspx?ItemName=Barbarian\">barbarian rage class feature</a>. The mutant uses its Hit Dice as its barbarian level. If it also has levels in barbarian, it adds its racial Hit Dice to its barbarian levels to determine its number of rounds of rage per day.<br><br><em>Resistance (Ex):</em> The mutant has resistance 10 to a single energy type. This special ability can be selected multiple times, for the same or different types. Selecting it twice for one energy type grants resistance 20; taking it three times for the same energy type provides immunity.<br><br><em>Rugged (Ex): </em>The mutant has DR 5/—.<br><br><em>Sealed Mind (Ex):</em> The mutant is immune to mind-affecting effects.<br><br><em>Slam (Ex):</em> The mutant gains a slam attack for each arm or forelimb. These attacks deal damage based on the mutant’s size. If the mutant already has a slam attack, its slam damage improves by one size category.<br><br><em>Spell-Like Ability (Sp)</em>: The mutant has one of the following spell-like abilities, usable at will unless noted otherwise:&nbsp;<a href=\"https://aonprd.com/SpellDisplay.aspx?ItemName=charm%20monster\">charm monster</a>,&nbsp;<a href=\"https://aonprd.com/SpellDisplay.aspx?ItemName=charm%20person\">charm person</a>,&nbsp;<a href=\"https://aonprd.com/SpellDisplay.aspx?ItemName=chill%20metal\">chill metal</a>,&nbsp;<a href=\"https://aonprd.com/SpellDisplay.aspx?ItemName=deep%20slumber\">deep slumber</a>,&nbsp;<a href=\"https://aonprd.com/SpellDisplay.aspx?ItemName=dimension%20door\">dimension door</a>&nbsp;(3/day),&nbsp;<a href=\"https://aonprd.com/SpellDisplay.aspx?ItemName=dominate%20person\">dominate person</a>&nbsp;(dominating a new character frees any previously dominated creature),&nbsp;<a href=\"https://aonprd.com/SpellDisplay.aspx?ItemName=heat%20metal\">heat metal</a>,&nbsp;<a href=\"https://aonprd.com/SpellDisplay.aspx?ItemName=mirror%20image\">mirror image</a>,&nbsp;<a href=\"https://aonprd.com/SpellDisplay.aspx?ItemName=modify%20memory\">modify memory</a>,&nbsp;<a href=\"https://aonprd.com/SpellDisplay.aspx?ItemName=rage\">rage</a>,&nbsp;<a href=\"https://aonprd.com/SpellDisplay.aspx?ItemName=shocking%20grasp\">shocking grasp</a>,&nbsp;<a href=\"https://aonprd.com/SpellDisplay.aspx?ItemName=shout\">shout</a>,&nbsp;<a href=\"https://aonprd.com/SpellDisplay.aspx?ItemName=sleep\">sleep</a>,&nbsp;<a href=\"https://aonprd.com/SpellDisplay.aspx?ItemName=suggestion\">suggestion</a>,&nbsp;<a href=\"https://aonprd.com/SpellDisplay.aspx?ItemName=telekinesis\">telekinesis</a>. The mutant’s caster level is equal to its Hit Dice. The mutant can choose only spells with a level no higher than half its Hit Dice. This ability can be taken multiple times, choosing a different spell each time.<br><br><em>Stench (Ex):</em> The mutant has the stench ability, with a duration of 1 minute.<br><br><em>Telepathy (Su, Sp):</em> The mutant has telepathy with a range of 100 feet as a supernatural ability and&nbsp;<a href=\"https://aonprd.com/SpellDisplay.aspx?ItemName=detect%20thoughts\">detect thoughts</a>&nbsp;as a spell-like ability, usable at will.<br><br><em>Wings (Ex): </em>The mutant grows wings, gaining a fly speed of 40 feet with average maneuverability.</p>",
      "chat": "",
      "unidentified": ""
    },
    "tags": [],
    "activation": {
      "cost": 1,
      "type": ""
    },
    "unchainedAction": {
      "activation": {
        "cost": 1,
        "type": ""
      }
    },
    "duration": {
      "value": null,
      "units": ""
    },
    "target": {
      "value": ""
    },
    "range": {
      "value": null,
      "units": "",
      "maxIncrements": 1,
      "minValue": null,
      "minUnits": "",
      "long": null
    },
    "uses": {
      "value": 0,
      "max": 0,
      "per": null,
      "autoDeductCharges": true,
      "autoDeductChargesCost": "1"
    },
    "measureTemplate": {
      "type": "",
      "size": "0",
      "overrideColor": false,
      "customColor": "",
      "overrideTexture": false,
      "customTexture": ""
    },
    "attackName": "",
    "actionType": "",
    "attackBonus": "",
    "critConfirmBonus": "",
    "damage": {
      "parts": [],
      "critParts": [],
      "nonCritParts": []
    },
    "attackParts": [],
    "formula": "",
    "ability": {
      "attack": null,
      "damage": null,
      "damageMult": 1,
      "critRange": 20,
      "critMult": 2
    },
    "save": {
      "dc": 0,
      "type": "",
      "description": ""
    },
    "effectNotes": "",
    "attackNotes": "",
    "soundEffect": "",
    "changes": [
      {
        "_id": "596pdv81",
        "formula": "4",
        "operator": "+",
        "target": "ability",
        "subTarget": "str",
        "modifier": "untyped",
        "priority": 0,
        "value": 0
      },
      {
        "_id": "f2760g6m",
        "formula": "4",
        "operator": "+",
        "target": "ability",
        "subTarget": "str",
        "modifier": "untyped",
        "priority": 0,
        "value": 0
      },
      {
        "_id": "u0rlwpzv",
        "formula": "-2",
        "operator": "+",
        "target": "ability",
        "subTarget": "str",
        "modifier": "untyped",
        "priority": 0,
        "value": 0
      }
    ],
    "changeFlags": {
      "loseDexToAC": false,
      "noStr": false,
      "noDex": false,
      "oneInt": false,
      "oneWis": false,
      "oneCha": false,
      "noEncumbrance": false,
      "mediumArmorFullSpeed": false,
      "heavyArmorFullSpeed": false
    },
    "contextNotes": [],
    "links": {
      "children": [],
      "charges": []
    },
    "tag": "",
    "useCustomTag": false,
    "armorProf": {
      "value": [],
      "custom": ""
    },
    "weaponProf": {
      "value": [],
      "custom": ""
    },
    "featType": "template",
    "associations": {
      "classes": []
    },
    "showInQuickbar": false,
    "nonlethal": false,
    "abilityType": "none",
    "crOffset": "1",
    "attack": {
      "parts": []
    }
  },
  "flags": {},
  "img": "systems/pf1/icons/skills/violet_07.jpg",
  "effects": []
}