{
  "_id": "q1qyzlzQOF1I2hB5",
  "name": "Promethean Creature",
  "permission": {
    "default": 0
  },
  "type": "feat",
  "data": {
    "description": {
      "value": "<p><strong>Acquired/Inherited Template</strong>&nbsp;Acquired<br><strong>Simple Template</strong>&nbsp;Yes<br><strong>Usable with Summons&nbsp;</strong>No<br><br>A promethean creature has had some of its body replaced by golem parts.<br><br><strong>Quick Rules: </strong>+4 to AC; +2 on rolls based on Str; slam attack that deals 1d6 points of damage (for Medium creatures); +4 on saving throws vs. poison and disease; immune to emotionUM&nbsp;effects except those that produce rage, hatred, or anger; automatically stabilize when below 0 hp.<br><br><strong>Rebuild Rules:&nbsp;</strong>AC&nbsp;natural armor bonus increases by 4;&nbsp;Defensive Abilities&nbsp;+4 on saving throws vs. poison and disease, immune to emotion&nbsp;effects except those that produce rage, hatred, or anger; automatically stabilize when below 0 hp;&nbsp;Melee&nbsp;slam attack that deals 1d6 points of damage (for Medium creatures);&nbsp;Special Qualities&nbsp;doesn’t need to eat, sleep, or drink;&nbsp;Ability Scores&nbsp;+4 Str.</p>",
      "chat": "",
      "unidentified": ""
    },
    "tags": [],
    "activation": {
      "cost": 1,
      "type": ""
    },
    "unchainedAction": {
      "activation": {
        "cost": 1,
        "type": ""
      }
    },
    "duration": {
      "value": null,
      "units": ""
    },
    "target": {
      "value": ""
    },
    "range": {
      "value": null,
      "units": "",
      "maxIncrements": 1,
      "minValue": null,
      "minUnits": "",
      "long": null
    },
    "uses": {
      "value": 0,
      "max": 0,
      "per": null,
      "autoDeductCharges": true,
      "autoDeductChargesCost": "1"
    },
    "measureTemplate": {
      "type": "",
      "size": "0",
      "overrideColor": false,
      "customColor": "",
      "overrideTexture": false,
      "customTexture": ""
    },
    "attackName": "",
    "actionType": "",
    "attackBonus": "",
    "critConfirmBonus": "",
    "damage": {
      "parts": [],
      "critParts": [],
      "nonCritParts": []
    },
    "attackParts": [],
    "formula": "",
    "ability": {
      "attack": null,
      "damage": null,
      "damageMult": 1,
      "critRange": 20,
      "critMult": 2
    },
    "save": {
      "dc": 0,
      "type": "",
      "description": ""
    },
    "effectNotes": "",
    "attackNotes": "",
    "soundEffect": "",
    "changes": [
      {
        "_id": "n4pxe9i9",
        "formula": "4",
        "operator": "+",
        "target": "ac",
        "subTarget": "nac",
        "modifier": "untyped",
        "priority": 0,
        "value": 0
      },
      {
        "_id": "y7bihzse",
        "formula": "4",
        "operator": "+",
        "target": "ability",
        "subTarget": "str",
        "modifier": "untyped",
        "priority": 0,
        "value": 0
      }
    ],
    "changeFlags": {
      "loseDexToAC": false,
      "noStr": false,
      "noDex": false,
      "oneInt": false,
      "oneWis": false,
      "oneCha": false,
      "noEncumbrance": false,
      "mediumArmorFullSpeed": false,
      "heavyArmorFullSpeed": false
    },
    "contextNotes": [],
    "links": {
      "children": [],
      "charges": []
    },
    "tag": "",
    "useCustomTag": false,
    "armorProf": {
      "value": [],
      "custom": ""
    },
    "weaponProf": {
      "value": [],
      "custom": ""
    },
    "featType": "template",
    "associations": {
      "classes": []
    },
    "showInQuickbar": false,
    "nonlethal": false,
    "abilityType": "none",
    "crOffset": "1",
    "attack": {
      "parts": []
    }
  },
  "flags": {},
  "img": "systems/pf1/icons/skills/violet_07.jpg",
  "effects": []
}