{
  "_id": "UeYPclKF36SDgECy",
  "name": "Rampant",
  "permission": {
    "default": 0
  },
  "type": "feat",
  "data": {
    "description": {
      "value": "<p><strong>Acquired/Inherited Template</strong>&nbsp;Acquired<br><strong>Simple Template</strong>&nbsp;No<br><strong>Usable with Summons</strong>&nbsp;No<br><br>The Positive Energy Plane is a font of growth, life, and souls, and metaphysical currents bear these resources through the hearts of stars and onto the Material Plane. Especially potent bursts of positive energy or partially developed souls can wind their way through the Material Plane to quicken plant life in particular. Only hardy plant creatures can foster this extraplanar force and be transformed into fonts of unchecked growth. Such rampant creatures rapidly change their local environments, turning mundane plants into tangled masses of competing foliage that slowly develop into new creatures all their own.<br><br>“Rampant” is an acquired template that can be added to any plant creature with at least 8 Hit Dice, referred to hereafter as the base creature. A rampant creature uses the base creature’s statistics and special abilities except as noted here.<br><br><strong>Challenge Rating:</strong> The base creature’s CR + 1.<br><br><strong>Aura: </strong>A rampant creature has the following aura.<br><br><em>Aura of Growth (Su): </em>Living plants (but not plant creatures) within 1 mile of a rampant creature grow at triple their normal rate, and plants within 100 feet are affected as by the overgrowth function of&nbsp;<a href=\"https://aonprd.com/SpellDisplay.aspx?ItemName=plant%20growth\">plant growth</a>. Overgrown plants return to normal after spending 1 hour outside the rampant creature’s presence, or immediately if the rampant creature takes negative energy damage.<br><br><strong>Regeneration: </strong>A rampant creature gains regeneration 5 (negative energy).<br><br><strong>Weaknesses:</strong> A rampant creature gains vulnerability to negative energy, and taking any negative energy damage disables the creature’s aura of growth for 1 minute.<br><br><strong>Abilities:</strong> Con +4.<br><br><strong>Special Quality:</strong> A rampant creatures gain the following special quality.<br><br><em>Verdant Genesis (Su): </em>Every week, a group of living plants within 1 mile of the rampant creature grows into new plant creatures with total combined Hit Dice no higher than the rampant creature’s total Hit Dice. For instance, a rampant&nbsp;<a href=\"https://aonprd.com/MonsterDisplay.aspx?ItemName=Quickwood\">quickwood</a>&nbsp;with 10 HD could create two 4 HD&nbsp;<a href=\"https://aonprd.com/MonsterDisplay.aspx?ItemName=Assassin%20Vine\">assassin vines</a>&nbsp;and two 1 HD&nbsp;<a href=\"https://aonprd.com/MonsterDisplay.aspx?ItemName=Vegepygmy\">vegepygmies</a>. These new creatures are not under the rampant creature’s command. These new creatures each take 1 permanent negative level for each full day they spend more than 1 mile from the rampant creature that spawned them. A rampant creature cannot suppress its verdant genesis ability.</p>",
      "chat": "",
      "unidentified": ""
    },
    "tags": [],
    "activation": {
      "cost": 1,
      "type": ""
    },
    "unchainedAction": {
      "activation": {
        "cost": 1,
        "type": ""
      }
    },
    "duration": {
      "value": null,
      "units": ""
    },
    "target": {
      "value": ""
    },
    "range": {
      "value": null,
      "units": "",
      "maxIncrements": 1,
      "minValue": null,
      "minUnits": "",
      "long": null
    },
    "uses": {
      "value": 0,
      "max": 0,
      "per": null,
      "autoDeductCharges": true,
      "autoDeductChargesCost": "1"
    },
    "measureTemplate": {
      "type": "",
      "size": "0",
      "overrideColor": false,
      "customColor": "",
      "overrideTexture": false,
      "customTexture": ""
    },
    "attackName": "",
    "actionType": "",
    "attackBonus": "",
    "critConfirmBonus": "",
    "damage": {
      "parts": [],
      "critParts": [],
      "nonCritParts": []
    },
    "attackParts": [],
    "formula": "",
    "ability": {
      "attack": null,
      "damage": null,
      "damageMult": 1,
      "critRange": 20,
      "critMult": 2
    },
    "save": {
      "dc": 0,
      "type": "",
      "description": ""
    },
    "effectNotes": "",
    "attackNotes": "",
    "soundEffect": "",
    "changes": [
      {
        "_id": "syfbp4ay",
        "formula": "4",
        "operator": "+",
        "target": "ability",
        "subTarget": "con",
        "modifier": "untyped",
        "priority": 0,
        "value": 0
      }
    ],
    "changeFlags": {
      "loseDexToAC": false,
      "noStr": false,
      "noDex": false,
      "oneInt": false,
      "oneWis": false,
      "oneCha": false,
      "noEncumbrance": false,
      "mediumArmorFullSpeed": false,
      "heavyArmorFullSpeed": false
    },
    "contextNotes": [],
    "links": {
      "children": [],
      "charges": []
    },
    "tag": "",
    "useCustomTag": false,
    "armorProf": {
      "value": [],
      "custom": ""
    },
    "weaponProf": {
      "value": [],
      "custom": ""
    },
    "featType": "template",
    "associations": {
      "classes": []
    },
    "showInQuickbar": false,
    "nonlethal": false,
    "abilityType": "none",
    "crOffset": "1",
    "attack": {
      "parts": []
    }
  },
  "flags": {},
  "img": "systems/pf1/icons/skills/violet_07.jpg",
  "effects": []
}