{
  "_id": "ZFhMSVXrakOKSiYv",
  "name": "Steam-Powered Construct",
  "permission": {
    "default": 0
  },
  "type": "feat",
  "data": {
    "description": {
      "value": "<p><strong>Acquired/Inherited Template</strong>&nbsp;Inherited<br><strong>Simple Template</strong>&nbsp;No<br><strong>Usable with Summons</strong>&nbsp;No<br><br>Though some scholars may argue about who exactly created the first steam-powered clockwork, the secret of their manufacture is now out. Savvy engineers have started to create faster and more powerful clockwork contraptions in the form of marvels blending arcane heat sources with large boilers to create pressured steam that powers the complex constructs.<br><br>“Steam-powered clockwork” is an inherited template that can be added to any construct (referred to hereafter as the base creature). A steam-powered clockwork retains all the base creature’s statistics and special abilities except as noted here. Creating a steam-powered clockwork increases the skill check DC to craft the construct by 5.<br><br><strong>Challenge Rating:</strong> Base creature’s CR + 2.<br><br><strong>Type:</strong> The base creature gains the augmented and clockwork subtypes. If the base creature did not have the clockwork subtype, add the vulnerable to electricity, swift reactions, and difficult to create special qualities from that subtype.<br><br><strong>Hit Points:</strong> Double the bonus hit points based on size granted by the construct creature type (if any).<br><br><strong>Defensive Abilities:</strong> Engineers design steam-powered clockworks’ mechanisms to withstand the heat and pressure of the steam that powers it. As such, steam-powered clockworks gain fortification and fire resistance based on their Hit Dice.</p>\n<hr>\n<table class=\"inner\" style=\"border-color: white; color: #ffffff; font-family: 'Century Gothic', CenturyGothic, AppleGothic, sans-serif; font-size: 15px; background-color: #0f0f0f;\">\n<tbody style=\"margin-top: 0px;\">\n<tr style=\"margin-top: 0px;\">\n<td style=\"margin: 0px; border: 1px solid white; padding: 1px 5px; text-align: center;\"><strong style=\"margin-top: 0px;\">Hit Dice</strong></td>\n<td style=\"border: 1px solid white; padding: 1px 5px; margin: 0px; text-align: center;\"><strong style=\"margin-top: 0px;\">Fortification</strong></td>\n<td style=\"border: 1px solid white; padding: 1px 5px; margin: 0px; text-align: center;\"><strong style=\"margin-top: 0px;\">Fire Resistance</strong></td>\n</tr>\n<tr style=\"background: #3e3e3e;\">\n<td style=\"margin: 0px; border: 1px solid white; padding: 1px 5px; text-align: center;\">1-4</td>\n<td style=\"border: 1px solid white; padding: 1px 5px; margin: 0px; text-align: center;\">25%</td>\n<td style=\"border: 1px solid white; padding: 1px 5px; margin: 0px; text-align: center;\">5</td>\n</tr>\n<tr>\n<td style=\"margin: 0px; border: 1px solid white; padding: 1px 5px; text-align: center;\">5-8</td>\n<td style=\"border: 1px solid white; padding: 1px 5px; margin: 0px; text-align: center;\">25%</td>\n<td style=\"border: 1px solid white; padding: 1px 5px; margin: 0px; text-align: center;\">10</td>\n</tr>\n<tr style=\"background: #3e3e3e;\">\n<td style=\"margin: 0px; border: 1px solid white; padding: 1px 5px; text-align: center;\">9-12</td>\n<td style=\"border: 1px solid white; padding: 1px 5px; margin: 0px; text-align: center;\">50%</td>\n<td style=\"border: 1px solid white; padding: 1px 5px; margin: 0px; text-align: center;\">10</td>\n</tr>\n<tr>\n<td style=\"margin: 0px; border: 1px solid white; padding: 1px 5px; text-align: center;\">13-16</td>\n<td style=\"border: 1px solid white; padding: 1px 5px; margin: 0px; text-align: center;\">50%</td>\n<td style=\"border: 1px solid white; padding: 1px 5px; margin: 0px; text-align: center;\">20</td>\n</tr>\n<tr style=\"background: #3e3e3e;\">\n<td style=\"margin: 0px; border: 1px solid white; padding: 1px 5px; text-align: center;\">17-20</td>\n<td style=\"border: 1px solid white; padding: 1px 5px; margin: 0px; text-align: center;\">75%</td>\n<td style=\"border: 1px solid white; padding: 1px 5px; margin: 0px; text-align: center;\">20</td>\n</tr>\n<tr>\n<td style=\"margin: 0px; border: 1px solid white; padding: 1px 5px; text-align: center;\">20+</td>\n<td style=\"border: 1px solid white; padding: 1px 5px; margin: 0px; text-align: center;\">75%</td>\n<td style=\"border: 1px solid white; padding: 1px 5px; margin: 0px; text-align: center;\">30</td>\n</tr>\n</tbody>\n</table>\n<p><br><strong>Attacks:</strong> A steam-powered construct diverts excess heat to its melee weapon systems, dealing 1d6 points of additional fire damage with natural attacks and with any metal weapons it wields.<br><br><strong>Special Attacks:</strong> Engineers utilize a steam-powered clockwork’s pressurized steam to further enhance its capabilities. A steam-powered clockwork gains steam blast plus one additional special attack from the list below. The save DC against a steam-powered construct’s special attack is equal to 10 + half the steam-powered construct’s Hit Dice.<br><br><em>Self-Destruction (Ex):</em> When a steam-powered clockwork’s hit points are reduced to 10% of its total or fewer but are still above 0, the creature self-destructs on its next turn. It bursts into an explosion of metal scraps and steam that deals 1d6 points of fire and slashing damage per Hit Die the steam-powered clockwork has to creatures within the steam-powered clockwork’s natural reach (minimum 5 feet). A target can attempt a Reflex save for half damage.<br><br><em>Steam Blast (Ex):</em> As a standard action, the steam-powered construct can release a jet of steam at a target within 30 feet. If the construct succeeds at a ranged touch attack, the jet deals 1d6 points of fire damage for every 2 Hit Dice the steam-powered construct has (minimum 1d6).<br><br><em>Steam Horn (Ex): </em>As a standard action, the steam-powered construct can unleash a loud blast of sound and a cone of steam that deafens targets and deals 1d6 points of fire damage for every 2 Hit Dice the steam-powered construct has (minimum 1d6). A target can attempt a Fortitude save to take half damage and negate the deafened condition. Medium and smaller constructs release a 15-foot cone, Large and Huge constructs release a 30-foot cone, and Gargantuan and Colossal constructs release a 60-foot cone. This ability is usable once every 1d4 rounds.<br><br><strong>Special Qualities: </strong>A steam-powered clockwork loses the winding and efficient winding special qualities and gains a steam engine with a boiler instead of a clockwork winding mechanism that requires a special key. To power and move the construct, valves collect and release pressurized steam from the boiling water.<br><br><em>Heat Management (Ex): </em>When a steam-powered clockwork ignores any amount of fire damage due to its fire resistance, the steam-powered clockwork gains the benefits of&nbsp;<a href=\"https://aonprd.com/SpellDisplay.aspx?ItemName=haste\">haste</a>, increases the additional fire damage applied to melee attacks to 2d6, and loses its fortification ability for 1 round. Whenever a steam-powered clockwork takes cold damage, it gains the effects of&nbsp;<a href=\"https://aonprd.com/SpellDisplay.aspx?ItemName=slow\">slow</a>&nbsp;and loses the extra fire damage applied to melee attacks for 1 round. A steam-powered construct can negate either effect with a successful Fortitude save (DC = 10 + the amount of energy damage taken). Steam-powered clockwork golems are affected by magical fire and cold spells, which bypass their immunity to magic special ability.<br><br><em>Increased Locomotion (Ex):</em> Steam-powered clockworks increase all movement speeds by 10 feet and gain&nbsp;<a href=\"https://aonprd.com/FeatDisplay.aspx?ItemName=Run\">Run</a>&nbsp;as a bonus feat.<br><br><em>Steam Engine (Ex):</em> An alchemically treated boiler contains the superheated water that supplies power to a steam engine. A steam-powered clockwork can remain active for 1 week per Hit Die with a full boiler. Anytime the steam-powered clockwork uses a special attack granted by this template, reduce the remaining duration of activity by 1 day (to a minimum of 1 day).<br><br><strong>Ability Scores:</strong> Str +4, Dex +4.</p>",
      "chat": "",
      "unidentified": ""
    },
    "tags": [],
    "activation": {
      "cost": 1,
      "type": ""
    },
    "unchainedAction": {
      "activation": {
        "cost": 1,
        "type": ""
      }
    },
    "duration": {
      "value": null,
      "units": ""
    },
    "target": {
      "value": ""
    },
    "range": {
      "value": null,
      "units": "",
      "maxIncrements": 1,
      "minValue": null,
      "minUnits": "",
      "long": null
    },
    "uses": {
      "value": 0,
      "max": 0,
      "per": null,
      "autoDeductCharges": true,
      "autoDeductChargesCost": "1"
    },
    "measureTemplate": {
      "type": "",
      "size": "0",
      "overrideColor": false,
      "customColor": "",
      "overrideTexture": false,
      "customTexture": ""
    },
    "attackName": "",
    "actionType": "",
    "attackBonus": "",
    "critConfirmBonus": "",
    "damage": {
      "parts": [],
      "critParts": [],
      "nonCritParts": []
    },
    "attackParts": [],
    "formula": "",
    "ability": {
      "attack": null,
      "damage": null,
      "damageMult": 1,
      "critRange": 20,
      "critMult": 2
    },
    "save": {
      "dc": 0,
      "type": "",
      "description": ""
    },
    "effectNotes": "",
    "attackNotes": "",
    "soundEffect": "",
    "changes": [
      {
        "_id": "32zbbw7f",
        "formula": "4",
        "operator": "add",
        "target": "ability",
        "subTarget": "str",
        "modifier": "untyped",
        "priority": 0,
        "value": 0
      },
      {
        "_id": "cc7bfth5",
        "formula": "4",
        "operator": "add",
        "target": "ability",
        "subTarget": "dex",
        "modifier": "untyped",
        "priority": 0,
        "value": 0
      }
    ],
    "changeFlags": {
      "loseDexToAC": false,
      "noStr": false,
      "noDex": false,
      "oneInt": false,
      "oneWis": false,
      "oneCha": false,
      "noEncumbrance": false,
      "mediumArmorFullSpeed": false,
      "heavyArmorFullSpeed": false
    },
    "contextNotes": [],
    "links": {
      "children": [],
      "charges": []
    },
    "tag": "",
    "useCustomTag": false,
    "armorProf": {
      "value": [],
      "custom": ""
    },
    "weaponProf": {
      "value": [],
      "custom": ""
    },
    "featType": "template",
    "associations": {
      "classes": []
    },
    "showInQuickbar": false,
    "nonlethal": false,
    "abilityType": "none",
    "crOffset": "2",
    "attack": {
      "parts": []
    }
  },
  "flags": {},
  "img": "systems/pf1/icons/skills/violet_07.jpg",
  "effects": []
}