{
  "_id": "aZeRFZvgLbgW3vO0",
  "name": "Vampiric Creature",
  "permission": {
    "default": 0
  },
  "type": "feat",
  "data": {
    "description": {
      "value": "<p><strong>Acquired/Inherited Template</strong>&nbsp;Acquired<br><strong>Simple Template</strong>&nbsp;Yes<br><strong>Usable with Summons</strong>&nbsp;No<br><br>Vampiric creatures have been transformed into vampires, and they don’t have to be humanoids. At your discretion, a vampiric creature might have the create spawn ability and could create spawn of its own creature type in addition to humanoid spawn. Non-humanoid vampiric creatures likely have unusual “coffins” that befit their nature.<br><br><strong>Quick Rules:</strong> Counts as undead; darkvision 60 ft.; +1 to AC; +1 on rolls based on Str, Dex, and Cha; undead immunities; fast healing 1* (this includes the ability to escape to its coffin in gaseous form at 0 hp); vampire weaknesses*; slam attack that deals 1d6 points of damage (for Medium creatures) plus energy drain; blood drain*; energy drain (1 level, DC = 10 + 1/2 HD + Charisma modifier); gaseous form*, shadowless*, spider climb*.<br><br><strong>Rebuild Rules:</strong>&nbsp;</p>\n<p><strong>Type&nbsp;</strong>change to undead;&nbsp;</p>\n<p><strong>Senses&nbsp;</strong>darkvision 60 ft.;&nbsp;</p>\n<p><strong>AC&nbsp;</strong>natural armor bonus increases by 1;&nbsp;</p>\n<p><strong>Defensive Abilities&nbsp;</strong>fast healing 1* (this includes the ability to escape to its coffin in gaseous form at 0 hp);&nbsp;</p>\n<p><strong>Weaknesses&nbsp;</strong>vampire weaknesses*;&nbsp;</p>\n<p><strong>Melee&nbsp;</strong>slam attack that deals 1d6 points of damage (for Medium creatures) plus energy drain;&nbsp;Special Attacks&nbsp;blood drain*, energy drain (1 level, DC = 10 + 1/2 HD + Charisma modifier);&nbsp;</p>\n<p><strong>Special Qualities&nbsp;</strong>gaseous form*, shadowless*, spider climb*;&nbsp;</p>\n<p><strong>Ability Scores&nbsp;</strong>+2 Str, +2 Dex, +2 Cha.</p>",
      "chat": "",
      "unidentified": ""
    },
    "tags": [],
    "activation": {
      "cost": 1,
      "type": ""
    },
    "unchainedAction": {
      "activation": {
        "cost": 1,
        "type": ""
      }
    },
    "duration": {
      "value": null,
      "units": ""
    },
    "target": {
      "value": ""
    },
    "range": {
      "value": null,
      "units": "",
      "maxIncrements": 1,
      "minValue": null,
      "minUnits": "",
      "long": null
    },
    "uses": {
      "value": 0,
      "max": 0,
      "per": null,
      "autoDeductCharges": true,
      "autoDeductChargesCost": "1"
    },
    "measureTemplate": {
      "type": "",
      "size": "0",
      "overrideColor": false,
      "customColor": "",
      "overrideTexture": false,
      "customTexture": ""
    },
    "attackName": "",
    "actionType": "",
    "attackBonus": "",
    "critConfirmBonus": "",
    "damage": {
      "parts": [],
      "critParts": [],
      "nonCritParts": []
    },
    "attackParts": [],
    "formula": "",
    "ability": {
      "attack": null,
      "damage": null,
      "damageMult": 1,
      "critRange": 20,
      "critMult": 2
    },
    "save": {
      "dc": 0,
      "type": "",
      "description": ""
    },
    "effectNotes": "",
    "attackNotes": "",
    "soundEffect": "",
    "changes": [
      {
        "_id": "0b7kdovp",
        "formula": "1",
        "operator": "add",
        "target": "ac",
        "subTarget": "nac",
        "modifier": "untyped",
        "priority": 0,
        "value": 0
      },
      {
        "_id": "vf61m152",
        "formula": "2",
        "operator": "add",
        "target": "ability",
        "subTarget": "str",
        "modifier": "untyped",
        "priority": 0,
        "value": 0
      },
      {
        "_id": "f0rb6omx",
        "formula": "2",
        "operator": "add",
        "target": "ability",
        "subTarget": "dex",
        "modifier": "untyped",
        "priority": 0,
        "value": 0
      },
      {
        "_id": "vwk25abv",
        "formula": "2",
        "operator": "add",
        "target": "ability",
        "subTarget": "cha",
        "modifier": "untyped",
        "priority": 0,
        "value": 0
      }
    ],
    "changeFlags": {
      "loseDexToAC": false,
      "noStr": false,
      "noDex": false,
      "oneInt": false,
      "oneWis": false,
      "oneCha": false,
      "noEncumbrance": false,
      "mediumArmorFullSpeed": false,
      "heavyArmorFullSpeed": false
    },
    "contextNotes": [],
    "links": {
      "children": [],
      "charges": []
    },
    "tag": "",
    "useCustomTag": false,
    "armorProf": {
      "value": [],
      "custom": ""
    },
    "weaponProf": {
      "value": [],
      "custom": ""
    },
    "featType": "template",
    "associations": {
      "classes": []
    },
    "showInQuickbar": false,
    "nonlethal": false,
    "abilityType": "none",
    "crOffset": "1",
    "attack": {
      "parts": []
    }
  },
  "flags": {},
  "img": "systems/pf1/icons/skills/violet_07.jpg",
  "effects": []
}