{
  "_id": "oRJlgRLS32fmoQpy",
  "name": "Improved Familiar",
  "permission": {
    "default": 0
  },
  "type": "feat",
  "data": {
    "description": {
      "value": "\n                <i>This feat allows you to acquire a powerful familiar, but only when you could normally acquire a new familiar.</i>\n                <br />\n                <br />\n                \n                <p><b>Prerequisites</b></p>\n                <p> Ability to acquire a new familiar, compatible alignment, sufficiently high level (see below).</p>\n                \n            <br />\n                <p><b>Benefits</b></p>\n                <p><p class=\"stat-block-1\"> When choosing a familiar, the creatures listed below are also available to you. You may choose a familiar with an alignment up to one step away on each alignment axis (lawful through chaotic, good through evil).</p></p>\n                \n                <p><b>Familiar</b></p>\n                <p><table>\n<thead><tr><th>Familiar</th><th>Alignment</th><th>Arcane Spellcaster Level</th></tr></thead>\n<tr class=\"odd\"><td>Celestial hawk<sup>1</sup></td><td>Neutral good</td><td>3rd</td></tr>\n<tr class=\"even\"><td>Dire rat</td><td>Neutral</td><td>3rd</td></tr>\n<tr class=\"odd\"><td>Fiendish viper<sup>2</sup></td><td>Neutral evil</td><td>3rd</td></tr>\n<tr class=\"even\"><td>Elemental, Small (any type)</td><td>Neutral</td><td>5th</td></tr>\n<tr class=\"odd\"><td>Stirge</td><td>Neutral</td><td>5th</td></tr>\n<tr class=\"even\"><td>Homunculus<sup>3</sup></td><td>Any</td><td>7th</td></tr>\n<tr class=\"odd\"><td>Imp</td><td>Lawful evil</td><td>7th</td></tr>\n<tr class=\"even\"><td>Mephit (any type)</td><td>Neutral</td><td>7th</td></tr>\n<tr class=\"odd\"><td>Pseudodragon</td><td>Neutral good</td><td>7th</td></tr>\n<tr class=\"even\"><td>Quasit</td><td>Chaotic evil</td><td>7th</td></tr>\n<tfoot><tr><td colspan=\"3\">1 Or other celestial animal from the standard familiar list.</td></tr>\n<tr><td colspan=\"3\">2 Or other fiendish animal from the standard familiar list.</td></tr>\n<tr><td colspan=\"3\">3 The master must first create the homunculus.</td></tr></tfoot></table></p>\n                \n            <br />\n                <p><b></b></p>\n                <p><p>Improved familiars otherwise use the rules for regular familiars, with two exceptions: if the creature's type is something other than animal, its type does not change; and improved familiars do not gain the ability to speak with other creatures of their kind (although many of them already have the ability to communicate).</p></p>\n                \n            \n            \n            ",
      "chat": "",
      "unidentified": ""
    },
    "tags": [
      [
        "Magic"
      ]
    ],
    "activation": {
      "cost": 1,
      "type": ""
    },
    "unchainedAction": {
      "activation": {
        "cost": 1,
        "type": ""
      }
    },
    "duration": {
      "value": null,
      "units": ""
    },
    "target": {
      "value": ""
    },
    "range": {
      "value": null,
      "units": "",
      "maxIncrements": 1,
      "minValue": null,
      "minUnits": "",
      "long": null
    },
    "uses": {
      "value": 0,
      "max": 0,
      "per": null,
      "autoDeductCharges": true,
      "autoDeductChargesCost": "1"
    },
    "measureTemplate": {
      "type": "",
      "size": "0",
      "overrideColor": false,
      "customColor": "",
      "overrideTexture": false,
      "customTexture": ""
    },
    "attackName": "",
    "actionType": "",
    "attackBonus": "",
    "critConfirmBonus": "",
    "damage": {
      "parts": [],
      "critParts": [],
      "nonCritParts": []
    },
    "attackParts": [],
    "formula": "",
    "ability": {
      "attack": null,
      "damage": null,
      "damageMult": 1,
      "critRange": 20,
      "critMult": 2
    },
    "save": {
      "dc": 0,
      "type": "",
      "description": ""
    },
    "effectNotes": "",
    "attackNotes": "",
    "soundEffect": "",
    "changes": [],
    "changeFlags": {
      "loseDexToAC": false,
      "noStr": false,
      "noDex": false,
      "oneInt": false,
      "oneWis": false,
      "oneCha": false,
      "noEncumbrance": false,
      "mediumArmorFullSpeed": false,
      "heavyArmorFullSpeed": false
    },
    "contextNotes": [],
    "links": {
      "children": [],
      "charges": []
    },
    "tag": "",
    "useCustomTag": false,
    "armorProf": {
      "value": [],
      "custom": ""
    },
    "weaponProf": {
      "value": [],
      "custom": ""
    },
    "featType": "feat",
    "associations": {
      "classes": []
    },
    "showInQuickbar": false,
    "nonlethal": false,
    "abilityType": "none",
    "crOffset": "",
    "recharge": {
      "value": null,
      "charged": false,
      "_deprecated": true
    },
    "time": {
      "value": "",
      "_deprecated": true
    },
    "damageType": {
      "value": "",
      "_deprecated": true
    },
    "attack": {
      "parts": []
    }
  },
  "flags": {},
  "img": "systems/pf1/icons/feats/improved-familiar.jpg",
  "effects": []
}