{
  "_id": "26k1Gi7t5BoqxhIj",
  "name": "Vital Strike",
  "permission": {
    "default": 0
  },
  "type": "feat",
  "data": {
    "description": {
      "value": "\n                <i>You make a single attack that deals significantly more damage than normal.</i>\n                <br />\n                <br />\n                \n                <p><b>Prerequisites</b></p>\n                <p> Base attack bonus +6.</p>\n                \n            <br />\n                <p><b>Benefits</b></p>\n                <p><p class=\"stat-block-1\"> When you use the attack action, you can make one attack at your highest base attack bonus that deals additional damage. Roll the weapon's damage dice for the attack twice and add the results together before adding bonuses from Strength, weapon abilities (such as <i>flaming</i>), precision based damage, and other damage bonuses. These extra weapon damage dice are not multiplied on a critical hit, but are added to the total.</p></p>\n                \n            \n            ",
      "chat": "",
      "unidentified": ""
    },
    "tags": [
      [
        "Combat"
      ],
      [
        "Offensive"
      ]
    ],
    "activation": {
      "cost": 1,
      "type": ""
    },
    "unchainedAction": {
      "activation": {
        "cost": 1,
        "type": ""
      }
    },
    "duration": {
      "value": null,
      "units": ""
    },
    "target": {
      "value": ""
    },
    "range": {
      "value": null,
      "units": "",
      "maxIncrements": 1,
      "minValue": null,
      "minUnits": "",
      "long": null
    },
    "uses": {
      "value": 0,
      "max": 0,
      "per": null,
      "autoDeductCharges": true,
      "autoDeductChargesCost": "1"
    },
    "measureTemplate": {
      "type": "",
      "size": "0",
      "overrideColor": false,
      "customColor": "",
      "overrideTexture": false,
      "customTexture": ""
    },
    "attackName": "",
    "actionType": "",
    "attackBonus": "",
    "critConfirmBonus": "",
    "damage": {
      "parts": [],
      "critParts": [],
      "nonCritParts": []
    },
    "attackParts": [],
    "formula": "",
    "ability": {
      "attack": null,
      "damage": null,
      "damageMult": 1,
      "critRange": 20,
      "critMult": 2
    },
    "save": {
      "dc": 0,
      "type": "",
      "description": ""
    },
    "effectNotes": "",
    "attackNotes": "",
    "soundEffect": "",
    "changes": [],
    "changeFlags": {
      "loseDexToAC": false,
      "noStr": false,
      "noDex": false,
      "oneInt": false,
      "oneWis": false,
      "oneCha": false,
      "noEncumbrance": false,
      "mediumArmorFullSpeed": false,
      "heavyArmorFullSpeed": false
    },
    "contextNotes": [],
    "links": {
      "children": [],
      "charges": []
    },
    "tag": "",
    "useCustomTag": false,
    "armorProf": {
      "value": [],
      "custom": ""
    },
    "weaponProf": {
      "value": [],
      "custom": ""
    },
    "featType": "feat",
    "associations": {
      "classes": []
    },
    "showInQuickbar": false,
    "nonlethal": false,
    "abilityType": "none",
    "crOffset": "",
    "recharge": {
      "value": null,
      "charged": false,
      "_deprecated": true
    },
    "time": {
      "value": "",
      "_deprecated": true
    },
    "damageType": {
      "value": "",
      "_deprecated": true
    },
    "attack": {
      "parts": []
    }
  },
  "flags": {},
  "img": "systems/pf1/icons/feats/vital-strike.jpg",
  "effects": []
}