{
  "_id": "WzN6fEHiT8OTpwUR",
  "name": "Caligni",
  "permission": {
    "default": 0
  },
  "type": "race",
  "data": {
    "description": {
      "value": "<h2>Standard Racial Traits</h2>\n<ul>\n<li><strong>Ability Score Modifiers:</strong> Caligni are quick and resilient, but generations of isolation and oppression have made them slow to accept new ideas. They gain +2&nbsp;<a href=\"https://www.d20pfsrd.com/basics-ability-scores/ability-scores#TOC-Dexterity-Dex-\">Dexterity</a>&nbsp;and +2&nbsp;<a href=\"https://www.d20pfsrd.com/basics-ability-scores/ability-scores#TOC-Constitution-Con-\">Constitution</a>&nbsp;but suffer &ndash;2&nbsp;<a href=\"https://www.d20pfsrd.com/basics-ability-scores/ability-scores#TOC-Intelligence-Int-\">Intelligence</a>.</li>\n<li><strong>Speed:</strong> Caligni have a base speed of 30 feet.</li>\n</ul>\n<h4>Senses</h4>\n<ul>\n<li style=\"box-sizing: border-box;\"><span style=\"box-sizing: border-box; font-weight: bold;\">See in Darkness</span>: Caligni have the&nbsp;<a href=\"https://www.d20pfsrd.com/bestiary/rules-for-monsters/universal-monster-rules#TOC-See-in-Darkness-Su-\">see in darkness</a>&nbsp;special ability allowing them to see perfectly in darkness of any kind, including that created by&nbsp;<a href=\"https://www.d20pfsrd.com/magic/all-spells/d/deeper-darkness\">deeper darkness</a>.</li>\n<li style=\"box-sizing: border-box;\"><span style=\"box-sizing: border-box; font-weight: bold;\">Light Sensitivity</span>: Caligni are&nbsp;<a href=\"https://www.d20pfsrd.com/gamemastering/conditions#TOC-Dazzled\">dazzled</a>&nbsp;in areas of bright light.</li>\n</ul>\n<h4>Defensive Abilities</h4>\n<ul>\n<li><strong>Death Throes:</strong> When a caligni is slain, its body combusts in a flash of searing light. All creatures within a 5-foot burst must succeed at a&nbsp;<a href=\"https://www.d20pfsrd.com/gamemastering/combat#TOC-Fortitude\">Fortitude</a>&nbsp;save (DC = 10 + 1/2 the caligni&rsquo;s&nbsp;<a href=\"https://www.d20pfsrd.com/basics-ability-scores/glossary#TOC-Hit-Dice-HD-\">Hit Dice</a>&nbsp;+ the caligni&rsquo;s&nbsp;<a href=\"https://www.d20pfsrd.com/basics-ability-scores/ability-scores#TOC-Constitution-Con-\">Constitution</a>&nbsp;bonus) or be&nbsp;<a href=\"https://www.d20pfsrd.com/gamemastering/conditions#TOC-Dazzled\">dazzled</a>&nbsp;for 1d4 rounds. The corpse left behind is a third of the caligni&rsquo;s size, withered and unrecognizable as the individual.&nbsp;<a href=\"https://www.d20pfsrd.com/magic/all-spells/r/raise-dead\">Raise dead</a>&nbsp;and similar spells cast upon these remains restore a caligni as normal.</li>\n</ul>",
      "chat": "",
      "unidentified": ""
    },
    "tags": [],
    "changes": [
      {
        "_id": "gv59cpb7",
        "formula": "2",
        "operator": "+",
        "target": "ability",
        "subTarget": "dex",
        "modifier": "racial",
        "priority": 0,
        "value": 0
      },
      {
        "_id": "irvxuk5b",
        "formula": "2",
        "operator": "+",
        "target": "ability",
        "subTarget": "con",
        "modifier": "racial",
        "priority": 0,
        "value": 0
      },
      {
        "_id": "r92d3b2q",
        "formula": "-2",
        "operator": "+",
        "target": "ability",
        "subTarget": "int",
        "modifier": "racial",
        "priority": 0,
        "value": 0
      }
    ],
    "changeFlags": {
      "loseDexToAC": false,
      "noStr": false,
      "noDex": false,
      "oneInt": false,
      "oneWis": false,
      "oneCha": false,
      "noEncumbrance": false,
      "mediumArmorFullSpeed": false,
      "heavyArmorFullSpeed": false
    },
    "contextNotes": [],
    "links": {
      "children": []
    },
    "armorProf": {
      "value": [],
      "custom": ""
    },
    "weaponProf": {
      "value": [],
      "custom": ""
    },
    "creatureType": "humanoid",
    "subTypes": [
      [
        "Native"
      ]
    ],
    "damage": {
      "parts": []
    }
  },
  "flags": {},
  "img": "systems/pf1/icons/races/half-elf.png",
  "effects": []
}