{
  "_id": "MFGjEFJURHJ9jcGx",
  "name": "Garrote",
  "permission": {
    "default": 0
  },
  "type": "weapon",
  "data": {
    "description": {
      "value": "<p>In order to use a garrote, your opponent must be helpless or unaware of you. You must make a grapple check (though you avoid the &ndash;4 penalty for not having two hands free) to successfully begin garroting your opponent. Sneak attack damage does not apply to a garrote. Your garroted opponent must make a concentration check (DC 20 + your CMB + level of the spell he&rsquo;s casting) to cast a spell with a verbal component, use a command word item, or use any magic requiring speech. You gain the following additional option when grappling with a garrote.</p>\n<p><strong>Choke</strong>: You cut off your target&rsquo;s air supply so he has to hold his breath (see Suffocation, and the Swim skill for additional information). Any round you do not maintain the choke, your opponent can take a breath and restart when he has to begin making Constitution checks.</p>",
      "chat": "",
      "unidentified": ""
    },
    "tags": [],
    "quantity": 1,
    "weight": 1,
    "price": 3,
    "identified": true,
    "hp": {
      "max": 2,
      "value": 2
    },
    "hardness": 2,
    "carried": true,
    "unidentified": {
      "price": 0,
      "name": ""
    },
    "identifiedName": "Garrote",
    "cl": 0,
    "aura": {
      "custom": false,
      "school": ""
    },
    "changes": [],
    "changeFlags": {
      "loseDexToAC": false,
      "noStr": false,
      "noDex": false,
      "oneInt": false,
      "oneWis": false,
      "oneCha": false,
      "noEncumbrance": false,
      "mediumArmorFullSpeed": false,
      "heavyArmorFullSpeed": false
    },
    "contextNotes": [],
    "links": {
      "children": []
    },
    "equipped": true,
    "masterwork": false,
    "weaponType": "exotic",
    "weaponSubtype": "2h",
    "properties": {
      "blc": false,
      "brc": false,
      "dbl": false,
      "dis": false,
      "fin": false,
      "frg": false,
      "imp": false,
      "mnk": false,
      "nnl": false,
      "prf": false,
      "rch": false,
      "thr": false,
      "trp": false,
      "grp": true,
      "snd": false
    },
    "enh": null,
    "weaponData": {
      "damageRoll": "1d6",
      "damageType": "S",
      "critRange": "20",
      "critMult": "2",
      "range": null,
      "attackFormula": "",
      "damageFormula": "",
      "size": "med",
      "maxRangeIncrements": 1
    },
    "broken": false,
    "bonus": {
      "value": 0,
      "_deprecated": true
    },
    "damageType": {
      "value": "",
      "_deprecated": true
    },
    "damage2": {
      "value": "",
      "_deprecated": true
    },
    "damage2Type": {
      "value": "",
      "_deprecated": true
    },
    "damage": {
      "parts": []
    }
  },
  "flags": {},
  "img": "systems/pf1/icons/items/weapons/garrote.png",
  "effects": []
}