{
  "_id": "7sMY07dTQ2JKGYMl",
  "name": "Harpoon",
  "permission": {
    "default": 0
  },
  "type": "weapon",
  "data": {
    "description": {
      "value": "<p><em>A harpoon is a barbed spear with an attached rope 50 feet or less in length. Most harpoons have metal points, but some use ivory or are made entirely of wood.</em></p>\n<p>If you are proficient in the harpoon, it is a grappling weapon. A harpoon’s weight includes 10 pounds for the weight of 50 feet of hemp rope. The weight can be reduced by using shorter or lighter rope.</p>\n<p>If you are not proficient with a harpoon, treat it like a spear.</p>",
      "chat": "",
      "unidentified": ""
    },
    "tags": [],
    "quantity": 1,
    "weight": 16,
    "price": 5,
    "identified": true,
    "hp": {
      "max": 10,
      "value": 10
    },
    "hardness": 5,
    "carried": true,
    "unidentified": {
      "price": 0,
      "name": ""
    },
    "identifiedName": "Harpoon",
    "cl": 0,
    "aura": {
      "custom": false,
      "school": ""
    },
    "changes": [],
    "changeFlags": {
      "loseDexToAC": false,
      "noStr": false,
      "noDex": false,
      "oneInt": false,
      "oneWis": false,
      "oneCha": false,
      "noEncumbrance": false,
      "mediumArmorFullSpeed": false,
      "heavyArmorFullSpeed": false
    },
    "contextNotes": [],
    "links": {
      "children": []
    },
    "equipped": true,
    "masterwork": false,
    "weaponType": "exotic",
    "weaponSubtype": "2h",
    "properties": {
      "blc": false,
      "brc": false,
      "dbl": false,
      "dis": false,
      "fin": false,
      "frg": false,
      "imp": false,
      "mnk": false,
      "nnl": false,
      "prf": false,
      "rch": false,
      "thr": true,
      "trp": false,
      "grp": true,
      "snd": false
    },
    "enh": null,
    "weaponData": {
      "damageRoll": "1d8",
      "damageType": "P",
      "critRange": "20",
      "critMult": "3",
      "range": 10,
      "attackFormula": "",
      "damageFormula": "",
      "size": "med",
      "maxRangeIncrements": 5
    },
    "broken": false,
    "bonus": {
      "value": 0,
      "_deprecated": true
    },
    "damageType": {
      "value": "",
      "_deprecated": true
    },
    "damage2": {
      "value": "",
      "_deprecated": true
    },
    "damage2Type": {
      "value": "",
      "_deprecated": true
    },
    "damage": {
      "parts": []
    },
    "uses": {
      "value": 0,
      "max": 0
    }
  },
  "flags": {},
  "img": "systems/pf1/icons/items/weapons/harpoon.PNG",
  "effects": []
}