{
  "_id": "b05rtRtGyH7s4F67",
  "name": "Sawtoothed Sabre",
  "permission": {
    "default": 0
  },
  "type": "weapon",
  "data": {
    "description": {
      "value": "<p>A&nbsp;<a href=\"https://www.d20pfsrd.com/equipment/weapons/weapon-descriptions/sabre-sawtooth\">sawtooth sabre</a>&nbsp;may be used as a Martial Weapon (in which case it functions identically to a&nbsp;<a href=\"https://www.d20pfsrd.com/equipment/weapons/weapon-descriptions/longsword\">longsword</a>).</p>\n<p>If you have the&nbsp;<a href=\"https://www.d20pfsrd.com/feats/combat-feats/exotic-weapon-proficiency/\">Exotic Weapon Proficiency</a>&nbsp;(<a href=\"https://www.d20pfsrd.com/equipment/weapons/weapon-descriptions/sabre-sawtooth\">sawtooth sabre</a>) feat, for the purpose of two-weapon fighting you can treat it as a light melee weapon; for all other purposes, it is a one-handed melee weapon.</p>",
      "chat": "",
      "unidentified": ""
    },
    "tags": [],
    "quantity": 1,
    "weight": 2,
    "price": 35,
    "identified": true,
    "hp": {
      "max": 5,
      "value": 5
    },
    "hardness": 10,
    "carried": true,
    "unidentified": {
      "price": 0,
      "name": ""
    },
    "identifiedName": "",
    "cl": 0,
    "aura": {
      "custom": false,
      "school": ""
    },
    "changes": [],
    "changeFlags": {
      "loseDexToAC": false,
      "noStr": false,
      "noDex": false,
      "oneInt": false,
      "oneWis": false,
      "oneCha": false,
      "noEncumbrance": false,
      "mediumArmorFullSpeed": false,
      "heavyArmorFullSpeed": false
    },
    "contextNotes": [],
    "links": {
      "children": []
    },
    "equipped": true,
    "masterwork": false,
    "weaponType": "exotic",
    "weaponSubtype": "1h",
    "properties": {
      "blc": false,
      "brc": false,
      "dbl": false,
      "dis": false,
      "fin": false,
      "frg": false,
      "imp": false,
      "mnk": false,
      "nnl": false,
      "prf": false,
      "rch": false,
      "thr": false,
      "trp": false
    },
    "enh": null,
    "weaponData": {
      "damageRoll": "1d8",
      "damageType": "S",
      "critRange": "19",
      "critMult": "2",
      "range": null,
      "attackFormula": "",
      "damageFormula": "",
      "size": "med",
      "maxRangeIncrements": 1
    },
    "broken": false,
    "bonus": {
      "value": 0,
      "_deprecated": true
    },
    "damageType": {
      "value": "",
      "_deprecated": true
    },
    "damage2": {
      "value": "",
      "_deprecated": true
    },
    "damage2Type": {
      "value": "",
      "_deprecated": true
    },
    "damage": {
      "parts": []
    }
  },
  "flags": {},
  "img": "systems/pf1/icons/items/weapons/sabre-sawtooth.png",
  "effects": []
}