{
  "_id": "o4vWDCKqxbn9Gelq",
  "name": "Snag Net",
  "permission": {
    "default": 0
  },
  "type": "weapon",
  "data": {
    "description": {
      "value": "<p><em>This short, wide net is covered in barbed loops and slipknots.</em></p>\n<p><strong>Benefit</strong>: A snag net works like a typical&nbsp;<a href=\"https://www.d20pfsrd.com/equipment/weapons/weapon-descriptions/net\">net</a>&nbsp;exotic weapon, except it has the trip weapon special feature. If you entangle an opponent and hold the trailing rope, on your turn in place of a melee attack you may make a trip&nbsp;<a href=\"https://www.d20pfsrd.com/gamemastering/combat#TOC-Combat-Maneuvers\">combat maneuver</a>&nbsp;check against that opponent; if you succeed, you may trip the opponent or deal 1 point of piercing damage to the opponent.</p>\n<p>The&nbsp;<a href=\"https://www.d20pfsrd.com/magic#TOC-Concentration\">concentration</a>&nbsp;DC to cast while&nbsp;<a href=\"https://www.d20pfsrd.com/gamemastering/conditions#TOC-Entangled\">entangled</a>&nbsp;in a snag net is 17 + the spell’s level.</p>\n<p>The&nbsp;<a href=\"https://www.d20pfsrd.com/skills/escape-artist\">Escape Artist</a>&nbsp;DC to escape a snag net is 22.</p>",
      "chat": "",
      "unidentified": ""
    },
    "tags": [],
    "quantity": 1,
    "weight": 10,
    "price": 30,
    "identified": true,
    "hp": {
      "max": 5,
      "value": 5
    },
    "hardness": 2,
    "carried": true,
    "unidentified": {
      "price": 0,
      "name": ""
    },
    "identifiedName": "",
    "cl": 0,
    "aura": {
      "custom": false,
      "school": ""
    },
    "changes": [],
    "changeFlags": {
      "loseDexToAC": false,
      "noStr": false,
      "noDex": false,
      "oneInt": false,
      "oneWis": false,
      "oneCha": false,
      "noEncumbrance": false,
      "mediumArmorFullSpeed": false,
      "heavyArmorFullSpeed": false
    },
    "contextNotes": [],
    "links": {
      "children": []
    },
    "equipped": true,
    "masterwork": false,
    "weaponType": "exotic",
    "weaponSubtype": "ranged",
    "properties": {
      "blc": false,
      "brc": false,
      "dbl": false,
      "dis": false,
      "fin": false,
      "frg": false,
      "imp": false,
      "mnk": false,
      "nnl": false,
      "prf": false,
      "rch": false,
      "thr": true,
      "trp": false
    },
    "enh": null,
    "weaponData": {
      "damageRoll": "1",
      "damageType": "P",
      "critRange": "20",
      "critMult": "2",
      "range": 10,
      "attackFormula": "",
      "damageFormula": "",
      "size": "med",
      "maxRangeIncrements": 5
    },
    "broken": false,
    "bonus": {
      "value": 0,
      "_deprecated": true
    },
    "damageType": {
      "value": "",
      "_deprecated": true
    },
    "damage2": {
      "value": "",
      "_deprecated": true
    },
    "damage2Type": {
      "value": "",
      "_deprecated": true
    },
    "damage": {
      "parts": []
    },
    "uses": {
      "value": 0,
      "max": 0
    }
  },
  "flags": {},
  "img": "systems/pf1/icons/items/weapons/net.png",
  "effects": []
}