{
  "_id": "v404qfv0Xg2VLhtZ",
  "name": "Soakstone Sling Bullet",
  "permission": {
    "default": 0
  },
  "type": "loot",
  "data": {
    "description": {
      "value": "<p>These bullets are actually made from a porous stone or heavy wood that absorbs liquids and shatters on impact.</p>\n<p>Soakstones are often used to deliver&nbsp;<a href=\"https://www.d20pfsrd.com/gamemastering/afflictions#TOC-Poison\">poison</a>&nbsp;or burning oil. A flask of oil completely saturates 10 soakstones. When ignited (a&nbsp;<a href=\"https://www.d20pfsrd.com/gamemastering/combat#TOC-Free-Actions\">free action</a>&nbsp;if fire is available), a burning, oil-soaked soakstone deals +1d2 fire damage and can ignite combustible materials (such as a thatched roof ). Allowing a soakstone to burn in a sling’s cup for more than 1d3 rounds gives the sling the&nbsp;<a href=\"https://www.d20pfsrd.com/gamemastering/conditions#TOC-Broken\">broken</a>&nbsp;condition.</p>",
      "chat": "",
      "unidentified": ""
    },
    "tags": [],
    "quantity": 1,
    "weight": 0.2,
    "price": 1,
    "identified": true,
    "hp": {
      "max": 1,
      "value": 1
    },
    "hardness": 10,
    "carried": true,
    "unidentified": {
      "price": 1,
      "name": ""
    },
    "identifiedName": "Soakstone Sling Bullet",
    "cl": 0,
    "aura": {
      "custom": false,
      "school": ""
    },
    "changes": [],
    "changeFlags": {
      "loseDexToAC": false,
      "noStr": false,
      "noDex": false,
      "oneInt": false,
      "oneWis": false,
      "oneCha": false,
      "noEncumbrance": false,
      "mediumArmorFullSpeed": false,
      "heavyArmorFullSpeed": false
    },
    "contextNotes": [],
    "links": {
      "children": []
    },
    "subType": "ammo",
    "equipped": false,
    "damage": {
      "parts": [],
      "critParts": []
    }
  },
  "flags": {},
  "img": "systems/pf1/icons/items/weapons/bullet.png",
  "effects": []
}