{
  "_id": "gxTN2rn0eYV4QsYJ",
  "name": "Tangleshot Arrow",
  "permission": {
    "default": 0
  },
  "type": "loot",
  "data": {
    "description": {
      "value": "<p><strong>Benefit</strong>: You fire a tangleshot arrow as a ranged touch attack; the arrow deals no damage when it hits, but the target is splashed with the alchemical adhesive. The reduced amount of the glue means this arrow is less effective than an actual tanglefoot bag (DC 10 Reflex save, DC 12 Strength check to break, 10 points of slashing damage to cut through, DC 10 Concentration check).</p>\n<p><strong>Drawback</strong>: The weight of a tangleshot arrow reduces its range increment to half normal.</p>",
      "chat": "",
      "unidentified": ""
    },
    "tags": [],
    "quantity": 1,
    "weight": 0,
    "price": 20,
    "identified": true,
    "hp": {
      "max": 1,
      "value": 1
    },
    "hardness": 5,
    "carried": true,
    "unidentified": {
      "price": 20,
      "name": ""
    },
    "identifiedName": "Tangleshot Arrow",
    "cl": 0,
    "aura": {
      "custom": false,
      "school": ""
    },
    "changes": [],
    "changeFlags": {
      "loseDexToAC": false,
      "noStr": false,
      "noDex": false,
      "oneInt": false,
      "oneWis": false,
      "oneCha": false,
      "noEncumbrance": false,
      "mediumArmorFullSpeed": false,
      "heavyArmorFullSpeed": false
    },
    "contextNotes": [],
    "links": {
      "children": []
    },
    "subType": "ammo",
    "equipped": false,
    "damage": {
      "parts": [],
      "critParts": []
    }
  },
  "flags": {},
  "img": "systems/pf1/icons/items/weapons/arrow-special.PNG",
  "effects": []
}