{
  "_id": "rjwetfclxsgdeoak",
  "name": "Animal Glue",
  "permission": {
    "default": 0
  },
  "type": "loot",
  "data": {
    "description": {
      "value": "<h4><span id=\"Animal_Glue\"><a name=\"TOC-Animal-Glue\"></a>Animal Glue</span></h4>\r\n<p><b>Price</b> 5 sp; <b>Weight</b> 1/2 lb.</p>\r\n<p>This simple glue is created by extensively boiling animal skin, bones, hooves, horn, and tendons until they turn into a ochre syrup that cools when it hardens. Before you use <a href=\"https://www.d20pfsrd.com/equipment/goods-and-services/hunting-camping-survival-geaR/#TOC-Animal-Glue\">animal glue</a>, you must heat it until it liquefies. You normally apply it with a brush and hold the pieces together for a minute, at which point it is cooled and hardened. The glue is sufficient to coat 1 square foot of surface, or (because of waste and spills) up to 40 smaller applications of approximately 2 square inches each. Pulling apart a large glued surface (at least 1 square foot) requires a DC 15 Strength check. Pulling apart a small glued surface (anything less than 1 square foot) requires a DC 10 Strength check. Animal glue slowly dissolves in water, reducing the Strength DC needed to break it by 1 per 10 minutes. It softens if heated, even with steam, reducing the Strength DC needed to break it by 1 per minute.</p>\r\n",
      "chat": "",
      "unidentified": ""
    },
    "tags": [],
    "quantity": 1,
    "weight": 0.5,
    "price": 0.5,
    "identified": true,
    "hp": {
      "max": 10,
      "value": 10
    },
    "hardness": 0,
    "carried": true,
    "unidentified": {
      "price": 0,
      "name": ""
    },
    "identifiedName": "",
    "cl": 0,
    "aura": {
      "custom": false,
      "school": ""
    },
    "changes": [],
    "changeFlags": {
      "loseDexToAC": false,
      "noStr": false,
      "noDex": false,
      "oneInt": false,
      "oneWis": false,
      "oneCha": false,
      "noEncumbrance": false,
      "mediumArmorFullSpeed": false,
      "heavyArmorFullSpeed": false
    },
    "contextNotes": [],
    "links": {
      "children": []
    },
    "tag": "",
    "useCustomTag": false,
    "subType": "gear",
    "equipped": false,
    "damage": {
      "parts": []
    }
  },
  "flags": {},
  "img": "systems/pf1/icons/items/inventory/dice.jpg",
  "effects": []
}