{
  "_id": "xyxrjmrhsdeshjpc",
  "name": "Book Of Letters",
  "permission": {
    "default": 0
  },
  "type": "loot",
  "data": {
    "description": {
      "value": "\r\n<p><b>Book of Letters</b> This portfolio contains examples of official letters along with proper forms of address, etiquette, and turns of phrase. Used by bureaucrats, diplomats, and clerks, it's also useful for counterfeiting official correspondence. It provides a +2 circumstance bonus on Diplomacy checks when dealing with city officials and a +2 circumstance bonus on Linguistics checks when creating forgeries. A book of letters is only accurate for a particular region, such as a country or even a town, and only provides its bonus relating to that region. <b>Price</b> 50 gp; <b>Weight</b> 3 lbs.</p>\r\n",
      "chat": "",
      "unidentified": ""
    },
    "tags": [],
    "quantity": 1,
    "weight": 3,
    "price": 50,
    "identified": true,
    "hp": {
      "max": 10,
      "value": 10
    },
    "hardness": 0,
    "carried": true,
    "unidentified": {
      "price": 0,
      "name": ""
    },
    "identifiedName": "",
    "cl": 0,
    "aura": {
      "custom": false,
      "school": ""
    },
    "changes": [],
    "changeFlags": {
      "loseDexToAC": false,
      "noStr": false,
      "noDex": false,
      "oneInt": false,
      "oneWis": false,
      "oneCha": false,
      "noEncumbrance": false,
      "mediumArmorFullSpeed": false,
      "heavyArmorFullSpeed": false
    },
    "contextNotes": [],
    "links": {
      "children": []
    },
    "tag": "",
    "useCustomTag": false,
    "subType": "gear",
    "equipped": false,
    "damage": {
      "parts": []
    }
  },
  "flags": {},
  "img": "systems/pf1/icons/items/inventory/dice.jpg",
  "effects": []
}