{
  "_id": "nuzdbuwlphkhtvtz",
  "name": "Cape, Billow",
  "permission": {
    "default": 0
  },
  "type": "loot",
  "data": {
    "description": {
      "value": " \n<p class=\"source\"><b>Source</b> <a title=\"PZO1121\" href=\"http://www.amazon.com/gp/product/1601253907/ref=as_li_qf_sp_asin_il_tl?ie=UTF8&amp;camp=1789&amp;creative=9325&amp;creativeASIN=1601253907&amp;linkCode=as2&amp;tag=httpwwwd20pfs-20\" target=\"_blank\" rel=\"noopener\">PZO1121</a></p> \n<p>This silk cape is constructed of many carefully arranged overlapping layers that are loosely stitched together. When exposed to a sudden influx of air, like that caused by falling, the cloak unfolds like a crude parachute. When falling, a creature wearing a billow cape is treated as if he had deliberately jumped from the height. When worn in areas of strong wind or greater, a billow cape hampers movement. In such wind conditions, the wearer treats all terrain as difficult terrain and takes a -4 penalty on <a href=\"https://www.d20pfsrd.com/skills/fly\">Fly</a> checks. Because of the strange and somewhat fragile construction of this cape, only Small or smaller billow capes function properly. Larger billow capes take all the penalties resulting from high winds, but grant none of the benefits when the wearer falls.</p> \n",
      "chat": "",
      "unidentified": ""
    },
    "tags": [],
    "quantity": 1,
    "weight": 4,
    "price": 100,
    "identified": true,
    "hp": {
      "max": 10,
      "value": 10
    },
    "hardness": 0,
    "carried": true,
    "unidentified": {
      "price": 0,
      "name": ""
    },
    "identifiedName": "",
    "cl": 0,
    "aura": {
      "custom": false,
      "school": ""
    },
    "changes": [],
    "changeFlags": {
      "loseDexToAC": false,
      "noStr": false,
      "noDex": false,
      "oneInt": false,
      "oneWis": false,
      "oneCha": false,
      "noEncumbrance": false,
      "mediumArmorFullSpeed": false,
      "heavyArmorFullSpeed": false
    },
    "contextNotes": [],
    "links": {
      "children": []
    },
    "tag": "",
    "useCustomTag": false,
    "subType": "gear",
    "equipped": false,
    "damage": {
      "parts": []
    }
  },
  "flags": {},
  "img": "systems/pf1/icons/items/inventory/dice.jpg",
  "effects": []
}