{
  "_id": "cqtwroqmkbwubpyn",
  "name": "Cauldron",
  "permission": {
    "default": 0
  },
  "type": "loot",
  "data": {
    "description": {
      "value": " \n<table border=\"1\" cellpadding=\"5\"> \n <thead> \n  <tr> \n   <th class=\"text\">Type</th> \n   <th class=\"text\">Price</th> \n   <th class=\"text\">Weight</th> \n  </tr> \n </thead> \n <tbody> \n  <tr> \n   <td class=\"text\">Common</td> \n   <td class=\"money number\">1 gp</td> \n   <td class=\"money text\">5 lbs.</td> \n  </tr> \n  <tr> \n   <td class=\"text\">Mithral</td> \n   <td class=\"money number\">1,251 gp</td> \n   <td class=\"money text\">2-1/2 lbs.</td> \n  </tr> \n </tbody> \n</table> \n<p>This larger version of an iron pot holds approximately 1 gallon-enough to fill the bellies of four hungry humans for one meal. It can also be used for potion-making and similar activities. A mithral cauldron is lighter, and food rarely sticks to it.</p> \n",
      "chat": "",
      "unidentified": ""
    },
    "tags": [],
    "quantity": 1,
    "weight": 5,
    "price": 1,
    "identified": true,
    "hp": {
      "max": 10,
      "value": 10
    },
    "hardness": 0,
    "carried": true,
    "unidentified": {
      "price": 0,
      "name": ""
    },
    "identifiedName": "",
    "cl": 0,
    "aura": {
      "custom": false,
      "school": ""
    },
    "changes": [],
    "changeFlags": {
      "loseDexToAC": false,
      "noStr": false,
      "noDex": false,
      "oneInt": false,
      "oneWis": false,
      "oneCha": false,
      "noEncumbrance": false,
      "mediumArmorFullSpeed": false,
      "heavyArmorFullSpeed": false
    },
    "contextNotes": [],
    "links": {
      "children": []
    },
    "tag": "",
    "useCustomTag": false,
    "subType": "gear",
    "equipped": false,
    "damage": {
      "parts": []
    }
  },
  "flags": {},
  "img": "systems/pf1/icons/items/inventory/dice.jpg",
  "effects": []
}