{
  "_id": "mtzrhfwnuhgjlmbz",
  "name": "Censer, Toxic",
  "permission": {
    "default": 0
  },
  "type": "loot",
  "data": {
    "description": {
      "value": "\r\n<p class=\"source\"><b>Source</b> <a href=\"https://www.amazon.com/gp/product/1640780009/ref=as_li_qf_sp_asin_il_tl?ie=UTF8&amp;tag=httpwwwd20pfs-20&amp;camp=1789&amp;creative=9325&amp;linkCode=as2&amp;creativeASIN=1640780009&amp;linkId=d3f2e5793ff9d46f3715c8cc97eccd3f\" target=\"_blank\" rel=\"noopener\">PZO9487E</a></p>\r\n<p><b>Price</b> 115 gp; <b>Weight</b> 1 lb.</p>\r\n<p>This ornately etched censer has a small hidden compartment under the heat source that can hold 1 dose of <a href=\"https://www.d20pfsrd.com/gamemastering/afflictions/poison\">poison</a>. When in use, the censer's <a href=\"https://www.d20pfsrd.com/bestiary/rules-for-monsters/universal-monster-rules#TOC-Heat-Ex-\">heat</a> source indirectly heats the <a href=\"https://www.d20pfsrd.com/gamemastering/afflictions/poison\">poison</a>, causing it to mix with the burning incense and allow the <a href=\"https://www.d20pfsrd.com/gamemastering/afflictions/poison\">poison</a> to permeate the air, filling a 20-foot radius centered on the censer. The poison's type changes to inhaled, and it is effective for 5 minutes before it is entirely burned off.</p>\r\n",
      "chat": "",
      "unidentified": ""
    },
    "tags": [],
    "quantity": 1,
    "weight": 0,
    "price": 0,
    "identified": true,
    "hp": {
      "max": 10,
      "value": 10
    },
    "hardness": 0,
    "carried": true,
    "unidentified": {
      "price": 0,
      "name": ""
    },
    "identifiedName": "",
    "cl": 0,
    "aura": {
      "custom": false,
      "school": ""
    },
    "changes": [],
    "changeFlags": {
      "loseDexToAC": false,
      "noStr": false,
      "noDex": false,
      "oneInt": false,
      "oneWis": false,
      "oneCha": false,
      "noEncumbrance": false,
      "mediumArmorFullSpeed": false,
      "heavyArmorFullSpeed": false
    },
    "contextNotes": [],
    "links": {
      "children": []
    },
    "tag": "",
    "useCustomTag": false,
    "subType": "gear",
    "equipped": false,
    "damage": {
      "parts": []
    }
  },
  "flags": {},
  "img": "systems/pf1/icons/items/inventory/dice.jpg",
  "effects": []
}