{
  "_id": "lpayawzoidoyszqg",
  "name": "Cloak, Patchwork",
  "permission": {
    "default": 0
  },
  "type": "loot",
  "data": {
    "description": {
      "value": " \n<p><b>Price</b> 5 gp; <b>Weight</b> 1/2 lb.</p> \n<p>These cloaks are popular among traveling <a href=\"https://www.d20pfsrd.com/classes/core-classes/bard\">bards</a>, and each patchwork cloak is unique. The patches represent where the traveler has been, and often the performer uses them to recall specific stories from his repertoire. When a <a href=\"https://www.d20pfsrd.com/classes/core-classes/bard\">bard</a> retires or dies, he often bequeaths his cloak to a young entertainer he mentored or admired.</p> \n",
      "chat": "",
      "unidentified": ""
    },
    "tags": [],
    "quantity": 1,
    "weight": 0.5,
    "price": 5,
    "identified": true,
    "hp": {
      "max": 10,
      "value": 10
    },
    "hardness": 0,
    "carried": true,
    "unidentified": {
      "price": 0,
      "name": ""
    },
    "identifiedName": "",
    "cl": 0,
    "aura": {
      "custom": false,
      "school": ""
    },
    "changes": [],
    "changeFlags": {
      "loseDexToAC": false,
      "noStr": false,
      "noDex": false,
      "oneInt": false,
      "oneWis": false,
      "oneCha": false,
      "noEncumbrance": false,
      "mediumArmorFullSpeed": false,
      "heavyArmorFullSpeed": false
    },
    "contextNotes": [],
    "links": {
      "children": []
    },
    "tag": "",
    "useCustomTag": false,
    "subType": "gear",
    "equipped": false,
    "damage": {
      "parts": []
    }
  },
  "flags": {},
  "img": "systems/pf1/icons/items/inventory/dice.jpg",
  "effects": []
}