{
  "_id": "eztmvxecbahvbash",
  "name": "Dancer's Garb",
  "permission": {
    "default": 0
  },
  "type": "loot",
  "data": {
    "description": {
      "value": " \n<p class=\"source\"><b>Source</b> <a href=\"http://amzn.to/2eT3m9D\" target=\"_blank\" rel=\"noopener\">PPZO94102</a></p> \n<p><b>Price</b> 100 gp; <b>Weight</b> 5 lbs.</p> \n<p>This combination of loose-fitting sashes, veils, and ornamentation accentuates a dancer's form and movements.</p> \n<p>Dancer's garb provides a +2 <a href=\"https://www.d20pfsrd.com/basics-ability-scores/glossary#TOC-Circumstance-Bonus\">circumstance bonus</a> on <a href=\"https://www.d20pfsrd.com/skills/perform\">Perform</a> (dance) checks, similar to that provided by masterwork instruments for other <a href=\"https://www.d20pfsrd.com/skills/perform\">Perform</a> skills, but does not grant this benefit when worn with armor or other concealing clothing.</p> \n",
      "chat": "",
      "unidentified": ""
    },
    "tags": [],
    "quantity": 1,
    "weight": 5,
    "price": 100,
    "identified": true,
    "hp": {
      "max": 10,
      "value": 10
    },
    "hardness": 0,
    "carried": true,
    "unidentified": {
      "price": 0,
      "name": ""
    },
    "identifiedName": "",
    "cl": 0,
    "aura": {
      "custom": false,
      "school": ""
    },
    "changes": [],
    "changeFlags": {
      "loseDexToAC": false,
      "noStr": false,
      "noDex": false,
      "oneInt": false,
      "oneWis": false,
      "oneCha": false,
      "noEncumbrance": false,
      "mediumArmorFullSpeed": false,
      "heavyArmorFullSpeed": false
    },
    "contextNotes": [],
    "links": {
      "children": []
    },
    "tag": "",
    "useCustomTag": false,
    "subType": "gear",
    "equipped": false,
    "damage": {
      "parts": []
    }
  },
  "flags": {},
  "img": "systems/pf1/icons/items/inventory/dice.jpg",
  "effects": []
}