{
  "_id": "vinrleeionfngobz",
  "name": "Dreamer's Star",
  "permission": {
    "default": 0
  },
  "type": "loot",
  "data": {
    "description": {
      "value": "\r\n<p class=\"source\"><b>Source</b> <a href=\"http://www.amazon.com/gp/product/1601257333/ref=as_li_qf_sp_asin_il_tl?ie=UTF8&amp;camp=1789&amp;creative=9325&amp;creativeASIN=1601257333&amp;linkCode=as2&amp;tag=httpwwwd20pfs-20&amp;linkId=WZYATLHD5OTE6DCI\" target=\"_blank\" rel=\"noopener\">Heroes of the Wild</a></p>\r\n<p><b>Price</b> 5 gp; <b>Check</b> <a href=\"https://www.d20pfsrd.com/skills/profession\">Profession</a> (herbalist) DC 13; <b>Weight</b> -; <b>Terrain</b> forests or plains</p>\r\n<p>When the orange petals of this plant are cured and left to steep in hot water, the leaves make a mild, aromatic tea that facilitates restful sleep. When taken before sleeping, this tea grants the drinker the benefits of a full 8 hours of uninterrupted sleep in only 6 hours. One dose of Dreamer's star makes enough tea to serve six.</p>\r\n",
      "chat": "",
      "unidentified": ""
    },
    "tags": [],
    "quantity": 1,
    "weight": 0,
    "price": 5,
    "identified": true,
    "hp": {
      "max": 10,
      "value": 10
    },
    "hardness": 0,
    "carried": true,
    "unidentified": {
      "price": 0,
      "name": ""
    },
    "identifiedName": "",
    "cl": 0,
    "aura": {
      "custom": false,
      "school": ""
    },
    "changes": [],
    "changeFlags": {
      "loseDexToAC": false,
      "noStr": false,
      "noDex": false,
      "oneInt": false,
      "oneWis": false,
      "oneCha": false,
      "noEncumbrance": false,
      "mediumArmorFullSpeed": false,
      "heavyArmorFullSpeed": false
    },
    "contextNotes": [],
    "links": {
      "children": []
    },
    "tag": "",
    "useCustomTag": false,
    "subType": "gear",
    "equipped": false,
    "damage": {
      "parts": []
    }
  },
  "flags": {},
  "img": "systems/pf1/icons/items/inventory/dice.jpg",
  "effects": []
}