{
  "_id": "sfwixyrmngrpkwyw",
  "name": "Foam, Impact",
  "permission": {
    "default": 0
  },
  "type": "loot",
  "data": {
    "description": {
      "value": "\r\n<p><b>Price</b> 25 gp; <b>Weight</b> 1 lb.</p>\r\n<p>This milky white liquid bubbles into a 1-foot-thick semisolid sheet of foam when splashed across the ground. You can spend a minute to apply a flask of impact foam to a 10-foot-radius area, or you can throw the flask as a splash weapon. The foam does not interfere with movement, but reacts strongly to sudden force. A creature that falls onto a sheet of impact foam ignores the first 1d6 points of falling damage and converts the second 1d6 points of falling damage into nonlethal damage. A sheet of impact foam dissolves after 10 minutes or when exposed to at least a gallon of water.</p>\r\n",
      "chat": "",
      "unidentified": ""
    },
    "tags": [],
    "quantity": 1,
    "weight": 1,
    "price": 25,
    "identified": true,
    "hp": {
      "max": 10,
      "value": 10
    },
    "hardness": 0,
    "carried": true,
    "unidentified": {
      "price": 0,
      "name": ""
    },
    "identifiedName": "",
    "cl": 0,
    "aura": {
      "custom": false,
      "school": ""
    },
    "changes": [],
    "changeFlags": {
      "loseDexToAC": false,
      "noStr": false,
      "noDex": false,
      "oneInt": false,
      "oneWis": false,
      "oneCha": false,
      "noEncumbrance": false,
      "mediumArmorFullSpeed": false,
      "heavyArmorFullSpeed": false
    },
    "contextNotes": [],
    "links": {
      "children": []
    },
    "tag": "",
    "useCustomTag": false,
    "subType": "gear",
    "equipped": false,
    "damage": {
      "parts": []
    }
  },
  "flags": {},
  "img": "systems/pf1/icons/items/inventory/dice.jpg",
  "effects": []
}