{
  "_id": "MOoBkOynV1fgrGtr",
  "name": "Footprint book",
  "permission": {
    "default": 0
  },
  "type": "loot",
  "data": {
    "description": {
      "value": "<p>Source&nbsp;<a href=\"http://paizo.com/products/btpy8tmc?Pathfinder-Roleplaying-Game-Ultimate-Equipment\" target=\"_blank\" rel=\"noopener\">Ultimate Equipment pg. 77</a>,&nbsp;<a href=\"http://paizo.com/pathfinderRPG/v5748btpy8fo1\" target=\"_blank\" rel=\"noopener\">Advanced Player's Guide pg. 184</a><br>Price&nbsp;50 gp;&nbsp;Weight&nbsp;3 lbs.<br>Category&nbsp;Tools</p>\n<h3>Description</h3>\n<p>This 50-page tome contains accurate drawings of common animal, humanoid, and monster tracks, as well as notes on stride length, tread depth, and similarly useful information. The book gives you a +2 circumstance bonus to identify a creature by its tracks, though the use of shoes makes identifying many humanoids difficult or impossible. Though the book can’t help you identify unique individuals, it can help you tell an ogre’s footprint from a troll’s footprint, or an elf’s track from an orc’s. Books sold in different areas may have different footprints, depending on what creatures are common to that location.</p>",
      "chat": "",
      "unidentified": ""
    },
    "tags": [],
    "quantity": 1,
    "weight": 3,
    "price": 50,
    "identified": true,
    "hp": {
      "max": 10,
      "value": 10
    },
    "hardness": 0,
    "carried": true,
    "unidentified": {
      "price": 0,
      "name": ""
    },
    "identifiedName": "Footprint book",
    "cl": 0,
    "aura": {
      "custom": false,
      "school": ""
    },
    "changes": [],
    "changeFlags": {
      "loseDexToAC": false,
      "noStr": false,
      "noDex": false,
      "oneInt": false,
      "oneWis": false,
      "oneCha": false,
      "noEncumbrance": false,
      "mediumArmorFullSpeed": false,
      "heavyArmorFullSpeed": false
    },
    "contextNotes": [],
    "links": {
      "children": []
    },
    "tag": "",
    "useCustomTag": false,
    "subType": "gear",
    "equipped": false,
    "damage": {
      "parts": []
    }
  },
  "flags": {},
  "img": "systems/pf1/icons/items/inventory/dice.jpg",
  "effects": []
}