{
  "_id": "3cF2AyPBjbB8ckon",
  "name": "Formula Book",
  "permission": {
    "default": 0
  },
  "type": "loot",
  "data": {
    "description": {
      "value": "<p>Source&nbsp;<a href=\"http://paizo.com/products/btpy8tmc?Pathfinder-Roleplaying-Game-Ultimate-Equipment\" target=\"_blank\" rel=\"noopener\">Ultimate Equipment pg. 77</a><br />Price&nbsp;15 gp;&nbsp;Weight&nbsp;3 lbs.<br />Category&nbsp;Tools</p>\n<h3>Description</h3>\n<p>A formula book has 100 pages of parchment, and each alchemical extract formula takes up one page per extract level. A newly purchased formula book contains no extract formulas. An alchemist character begins play with a formula book containing the extract formulae he knows (Advanced Player&rsquo;s Guide&nbsp;32). This is the alchemist equivalent of a spellbook for wizards (a spellbook and a formula book are essentially the same item).</p>",
      "chat": "",
      "unidentified": ""
    },
    "tags": [],
    "quantity": 1,
    "weight": 3,
    "price": 15,
    "identified": true,
    "hp": {
      "max": 10,
      "value": 10
    },
    "hardness": 0,
    "carried": true,
    "unidentified": {
      "price": 0,
      "name": ""
    },
    "identifiedName": "Formula Book",
    "cl": 0,
    "aura": {
      "custom": false,
      "school": ""
    },
    "changes": [],
    "changeFlags": {
      "loseDexToAC": false,
      "noStr": false,
      "noDex": false,
      "oneInt": false,
      "oneWis": false,
      "oneCha": false,
      "noEncumbrance": false,
      "mediumArmorFullSpeed": false,
      "heavyArmorFullSpeed": false
    },
    "contextNotes": [],
    "links": {
      "children": []
    },
    "tag": "",
    "useCustomTag": false,
    "subType": "gear",
    "equipped": false,
    "damage": {
      "parts": [],
      "critParts": []
    }
  },
  "flags": {},
  "img": "systems/pf1/icons/items/inventory/book-folder.jpg",
  "effects": []
}