{
  "_id": "9cvfaUTnmDiidfj6",
  "name": "Fortune-teller's deck",
  "permission": {
    "default": 0
  },
  "type": "loot",
  "data": {
    "description": {
      "value": "<p>Source&nbsp;<a href=\"http://paizo.com/products/btpy8tmc?Pathfinder-Roleplaying-Game-Ultimate-Equipment\" target=\"_blank\" rel=\"noopener\">Ultimate Equipment pg. 77</a>,&nbsp;<a href=\"http://paizo.com/pathfinderRPG/v5748btpy8fo1\" target=\"_blank\" rel=\"noopener\">Advanced Player's Guide pg. 184</a><br>Price&nbsp;1 gp (common), 50 gp (masterwork), 25 gp (quality);&nbsp;Weight&nbsp;1/2 lb. (common), 1 lb. (masterwork), 1 lb. (quality)</p>\n<h3>Description</h3>\n<p>This deck of illustrated cards is used by those in tune with the spirit world to predict the future—and by charlatans to take money from the gullible. A common deck only has simple drawings on simple wooden plaques. A quality fortune-teller’s deck usually consists of wooden plaques with painted color images; it is suitable as a focus for the&nbsp;augury&nbsp;spell, and provides a +1 circumstance bonus on Profession (fortune-teller), Profession (medium), and similar Profession checks. A masterwork fortuneteller’s deck may be wood, ivory, or even metal, with painted or carved images, and is often highlighted with gold inlays or tiny gems; it has all the benefits of a quality deck, except it provides a +2 circumstance bonus on the listed skill checks.</p>",
      "chat": "",
      "unidentified": ""
    },
    "tags": [],
    "quantity": 1,
    "weight": 0.1,
    "price": 1,
    "identified": true,
    "hp": {
      "max": 10,
      "value": 10
    },
    "hardness": 0,
    "carried": true,
    "unidentified": {
      "price": 0,
      "name": ""
    },
    "identifiedName": "Fortune-teller's deck",
    "cl": 0,
    "aura": {
      "custom": false,
      "school": ""
    },
    "changes": [],
    "changeFlags": {
      "loseDexToAC": false,
      "noStr": false,
      "noDex": false,
      "oneInt": false,
      "oneWis": false,
      "oneCha": false,
      "noEncumbrance": false,
      "mediumArmorFullSpeed": false,
      "heavyArmorFullSpeed": false
    },
    "contextNotes": [],
    "links": {
      "children": []
    },
    "tag": "",
    "useCustomTag": false,
    "subType": "gear",
    "equipped": false,
    "damage": {
      "parts": []
    }
  },
  "flags": {},
  "img": "systems/pf1/icons/items/inventory/dice.jpg",
  "effects": []
}