{
  "_id": "wzxrhvfkvzyxernc",
  "name": "Goggles, Gloom Sight",
  "permission": {
    "default": 0
  },
  "type": "loot",
  "data": {
    "description": {
      "value": " \n<p class=\"source\"><b>Source</b> <a title=\"PZO1121\" href=\"http://www.amazon.com/gp/product/1601253907/ref=as_li_qf_sp_asin_il_tl?ie=UTF8&amp;camp=1789&amp;creative=9325&amp;creativeASIN=1601253907&amp;linkCode=as2&amp;tag=httpwwwd20pfs-20\" target=\"_blank\" rel=\"noopener\">PZO1121</a></p> \n<p>These non-magical goggles are set with a piece of alchemically treated, black, obsidian-like stone found in the mountainous regions of the <a href=\"https://www.d20pfsrd.com/gamemastering/environment/the-planes#TOC-Shadow-Plane1\">Shadow Plane</a>. Gloom sight goggles interact with the unique eyes of <a href=\"https://www.d20pfsrd.com/bestiary/monster-listings/outsiders/fetchling\">fetchlings</a> in such a way that when the goggles are worn over both eyes, they expand the range of a <a href=\"https://www.d20pfsrd.com/bestiary/monster-listings/outsiders/fetchling\">fetchling's</a> <a href=\"https://www.d20pfsrd.com/gamemastering/special-abilities#TOC-Darkvision\">darkvision</a> to 90 feet, but the <a href=\"https://www.d20pfsrd.com/bestiary/monster-listings/outsiders/fetchling\">fetchling</a> also gains the <a href=\"https://www.d20pfsrd.com/bestiary/rules-for-monsters/universal-monster-rules#TOC-Light-Sensitivity-Ex-\">light sensitivity</a> weakness. Other races cannot see through the lenses of these goggles, and they have no affect on <a href=\"https://www.d20pfsrd.com/bestiary/monster-listings/outsiders/fetchling\">fetchlings</a> whose eyes have been modified by the Gloom Sight feat. Though they are alchemical rather than magical in nature, these goggles take up the magic item eye slot.</p> \n",
      "chat": "",
      "unidentified": ""
    },
    "tags": [],
    "quantity": 1,
    "weight": 0,
    "price": 200,
    "identified": true,
    "hp": {
      "max": 10,
      "value": 10
    },
    "hardness": 0,
    "carried": true,
    "unidentified": {
      "price": 0,
      "name": ""
    },
    "identifiedName": "",
    "cl": 0,
    "aura": {
      "custom": false,
      "school": ""
    },
    "changes": [],
    "changeFlags": {
      "loseDexToAC": false,
      "noStr": false,
      "noDex": false,
      "oneInt": false,
      "oneWis": false,
      "oneCha": false,
      "noEncumbrance": false,
      "mediumArmorFullSpeed": false,
      "heavyArmorFullSpeed": false
    },
    "contextNotes": [],
    "links": {
      "children": []
    },
    "tag": "",
    "useCustomTag": false,
    "subType": "gear",
    "equipped": false,
    "damage": {
      "parts": []
    }
  },
  "flags": {},
  "img": "systems/pf1/icons/items/inventory/dice.jpg",
  "effects": []
}