{
  "_id": "cejaaqjlwwfmnrmw",
  "name": "Heritage Book",
  "permission": {
    "default": 0
  },
  "type": "loot",
  "data": {
    "description": {
      "value": "\r\n<p><b>Heritage Book</b> This collection of genealogical tables, descriptions of common traits found in particular noble families, heraldry, scurrilous rumors, and ancestral deeds provides readers with a great deal of insight into the aristocracy. Consulting this book grants a +2 circumstance bonus on <a href=\"https://www.d20pfsrd.com/skills/knowledge\">Knowledge</a> (nobility) checks. <b>Price</b> 50 gp; <b>Weight</b> 2 lbs.</p>\r\n<p><b>Journal</b> This is a blank, lightweight book with an oilskin cover. It has 50 paper pages. <b>Price</b> 10 gp; <b>Weight</b> 1 lb.</p>\r\n",
      "chat": "",
      "unidentified": ""
    },
    "tags": [],
    "quantity": 1,
    "weight": 2,
    "price": 50,
    "identified": true,
    "hp": {
      "max": 10,
      "value": 10
    },
    "hardness": 0,
    "carried": true,
    "unidentified": {
      "price": 0,
      "name": ""
    },
    "identifiedName": "",
    "cl": 0,
    "aura": {
      "custom": false,
      "school": ""
    },
    "changes": [],
    "changeFlags": {
      "loseDexToAC": false,
      "noStr": false,
      "noDex": false,
      "oneInt": false,
      "oneWis": false,
      "oneCha": false,
      "noEncumbrance": false,
      "mediumArmorFullSpeed": false,
      "heavyArmorFullSpeed": false
    },
    "contextNotes": [],
    "links": {
      "children": []
    },
    "tag": "",
    "useCustomTag": false,
    "subType": "gear",
    "equipped": false,
    "damage": {
      "parts": []
    }
  },
  "flags": {},
  "img": "systems/pf1/icons/items/inventory/dice.jpg",
  "effects": []
}