{
  "_id": "vkyiollkgfehsfer",
  "name": "Incubation Stove",
  "permission": {
    "default": 0
  },
  "type": "loot",
  "data": {
    "description": {
      "value": "\r\n<p class=\"source\"><b>Source</b> <a href=\"http://www.amazon.com/gp/product/1601251726/ref=as_li_qf_sp_asin_il_tl?ie=UTF8&amp;camp=1789&amp;creative=9325&amp;creativeASIN=1601251726&amp;linkCode=as2&amp;tag=httpwwwd20pfs-20&amp;linkId=GW5FPNAVA4EAJ7JX\" target=\"_blank\" rel=\"noopener\">PCh:DDR</a></p>\r\n<p>Designed by <a href=\"https://www.d20pfsrd.com/races/core-races/dwarf\">dwarves</a>, this iron pot-bellied stove is about the size of a <a href=\"https://www.d20pfsrd.com/races/core-races/halfling\">halfling</a>. It burns wood, coal, dung, or fungus stalks, and has a large moveable compartment on the outside to hold maturing <a href=\"https://www.d20pfsrd.com/bestiary/monster-list/magical-beasts/owlbear\">owlbear</a> eggs. The stoves need constant attention to maintain the right temperature, else the eggs get cooked rather than incubated. Some variations have a spring- or crank-turned device that turns the eggs.</p>\r\n\r\n",
      "chat": "",
      "unidentified": ""
    },
    "tags": [],
    "quantity": 1,
    "weight": 2,
    "price": 2,
    "identified": true,
    "hp": {
      "max": 10,
      "value": 10
    },
    "hardness": 0,
    "carried": true,
    "unidentified": {
      "price": 0,
      "name": ""
    },
    "identifiedName": "",
    "cl": 0,
    "aura": {
      "custom": false,
      "school": ""
    },
    "changes": [],
    "changeFlags": {
      "loseDexToAC": false,
      "noStr": false,
      "noDex": false,
      "oneInt": false,
      "oneWis": false,
      "oneCha": false,
      "noEncumbrance": false,
      "mediumArmorFullSpeed": false,
      "heavyArmorFullSpeed": false
    },
    "contextNotes": [],
    "links": {
      "children": []
    },
    "tag": "",
    "useCustomTag": false,
    "subType": "gear",
    "equipped": false,
    "damage": {
      "parts": []
    }
  },
  "flags": {},
  "img": "systems/pf1/icons/items/inventory/dice.jpg",
  "effects": []
}