{
  "_id": "cvuwovxooiinnhtq",
  "name": "Kit, Cat Burglar's",
  "permission": {
    "default": 0
  },
  "type": "loot",
  "data": {
    "description": {
      "value": "\r\n<p><b>Price</b> 15 gp; <b>Weight</b> 12 lbs.</p>\r\n<p>This kit includes a <a href=\"https://www.d20pfsrd.com/equipment/goods-and-services/tools-kits#TOC-Glass-Cutter\">glass cutter</a>, <a href=\"https://www.d20pfsrd.com/equipment/goods-and-services/books-paper-writing-supplies/#Paper_Glue\">glue paper</a> (5 sheets), a <a href=\"https://www.d20pfsrd.com/equipment/goods-and-services/tools-kits#TOC-Hook-Grappling\">grappling hook</a>, a masterwork <a href=\"https://www.d20pfsrd.com/equipment/goods-and-services/containers-bags-boxes-more#TOC-Backpack\">backpack</a>, and silk <a href=\"https://www.d20pfsrd.com/equipment/goods-and-services/hunting-camping-survival-gear#TOC-Rope\">rope</a> (50 feet).</p>\r\n\r\n",
      "chat": "",
      "unidentified": ""
    },
    "tags": [],
    "quantity": 1,
    "weight": 12,
    "price": 15,
    "identified": true,
    "hp": {
      "max": 10,
      "value": 10
    },
    "hardness": 0,
    "carried": true,
    "unidentified": {
      "price": 0,
      "name": ""
    },
    "identifiedName": "",
    "cl": 0,
    "aura": {
      "custom": false,
      "school": ""
    },
    "changes": [],
    "changeFlags": {
      "loseDexToAC": false,
      "noStr": false,
      "noDex": false,
      "oneInt": false,
      "oneWis": false,
      "oneCha": false,
      "noEncumbrance": false,
      "mediumArmorFullSpeed": false,
      "heavyArmorFullSpeed": false
    },
    "contextNotes": [],
    "links": {
      "children": []
    },
    "tag": "",
    "useCustomTag": false,
    "subType": "gear",
    "equipped": false,
    "damage": {
      "parts": []
    }
  },
  "flags": {},
  "img": "systems/pf1/icons/items/inventory/dice.jpg",
  "effects": []
}