{
  "_id": "vuhqerushezhxjdo",
  "name": "Kit, Snakebite",
  "permission": {
    "default": 0
  },
  "type": "loot",
  "data": {
    "description": {
      "value": "\r\n<p><b>Price</b> 20 gp; <b>Weight</b> 1/2 lb.</p>\r\n<p>This kit contains three pliable suction cups, a constrictor strap, a tiny razor, and several vials of <a href=\"https://www.d20pfsrd.com/bestiary/monster-listings/animals/snake\">snake</a> antivenom. When suffering a <a href=\"https://www.d20pfsrd.com/gamemastering/afflictions/poison\">poison</a> that was delivered by the bite attack of a <a href=\"https://www.d20pfsrd.com/bestiary/monster-listings/animals/snake\">snake</a> (or other ophidian creature, such as a <a href=\"https://www.d20pfsrd.com/bestiary/monster-listings/monstrous-humanoids/serpentfolk\">serpentfolk</a>), as a <a href=\"https://www.d20pfsrd.com/gamemastering/combat#TOC-Full-Round-Actions\">full-round action</a>, you can use this kit to gain a +4 <a href=\"https://www.d20pfsrd.com/basics-ability-scores/glossary#TOC-Circumstance-Bonus\">circumstance bonus</a> on the ongoing <a href=\"https://www.d20pfsrd.com/gamemastering/combat#TOC-Fortitude\">Fortitude</a> saving throws against that <a href=\"https://www.d20pfsrd.com/gamemastering/afflictions/poison\">poison</a>. A snakebite kit is <a href=\"https://www.d20pfsrd.com/gamemastering/conditions#TOC-Exhausted\">exhausted</a> after 10 uses.</p>\r\n\r\n",
      "chat": "",
      "unidentified": ""
    },
    "tags": [],
    "quantity": 1,
    "weight": 0.5,
    "price": 20,
    "identified": true,
    "hp": {
      "max": 10,
      "value": 10
    },
    "hardness": 0,
    "carried": true,
    "unidentified": {
      "price": 0,
      "name": ""
    },
    "identifiedName": "",
    "cl": 0,
    "aura": {
      "custom": false,
      "school": ""
    },
    "changes": [],
    "changeFlags": {
      "loseDexToAC": false,
      "noStr": false,
      "noDex": false,
      "oneInt": false,
      "oneWis": false,
      "oneCha": false,
      "noEncumbrance": false,
      "mediumArmorFullSpeed": false,
      "heavyArmorFullSpeed": false
    },
    "contextNotes": [],
    "links": {
      "children": []
    },
    "tag": "",
    "useCustomTag": false,
    "subType": "gear",
    "equipped": false,
    "damage": {
      "parts": []
    }
  },
  "flags": {},
  "img": "systems/pf1/icons/items/inventory/dice.jpg",
  "effects": []
}