{
  "_id": "gjnpbspqfceldzlj",
  "name": "Kit, Survival",
  "permission": {
    "default": 0
  },
  "type": "loot",
  "data": {
    "description": {
      "value": "\r\n<table border=\"1\" cellpadding=\"5\">\r\n<thead>\r\n<tr>\r\n<th class=\"text\">Type</th>\r\n<th class=\"text\">Price</th>\r\n<th class=\"text\">Weight</th>\r\n</tr>\r\n</thead>\r\n<tbody>\r\n<tr>\r\n<td class=\"text\">Common</td>\r\n<td class=\"money number\">5 gp</td>\r\n<td class=\"text\">4 lbs.</td>\r\n</tr>\r\n<tr>\r\n<td class=\"text\">Masterwork</td>\r\n<td class=\"money number\">50 gp</td>\r\n<td class=\"text\">5 lbs.</td>\r\n</tr>\r\n</tbody>\r\n</table>\r\n<p>A survival kit provides the necessary tools for day-to-day existence in a temperate wilderness. It typically contains a <a href=\"https://www.d20pfsrd.com/equipment/goods-and-services/hunting-camping-survival-geaR/#TOC-Flint-and-Steel\">flint and steel</a>, a <a href=\"https://www.d20pfsrd.com/equipment/goods-and-services/hunting-camping-survival-geaR/#TOC-Mess\">mess kit</a>, two waterskins (enough to hold water for 1 person for 1 day), very basic maps showing major landmarks, and a small utility knife.</p>\r\n<p>A masterwork survival kit contains higher quality gear and a guide to identifying flora and fauna. It grants you a +2 circumstance bonus on Survival checks to get along in the wild, deal with severe weather, keep from getting lost, avoid natural hazards such as quicksand, and predict the weather.</p>\r\n\r\n",
      "chat": "",
      "unidentified": ""
    },
    "tags": [],
    "quantity": 1,
    "weight": 0,
    "price": 0,
    "identified": true,
    "hp": {
      "max": 10,
      "value": 10
    },
    "hardness": 0,
    "carried": true,
    "unidentified": {
      "price": 0,
      "name": ""
    },
    "identifiedName": "",
    "cl": 0,
    "aura": {
      "custom": false,
      "school": ""
    },
    "changes": [],
    "changeFlags": {
      "loseDexToAC": false,
      "noStr": false,
      "noDex": false,
      "oneInt": false,
      "oneWis": false,
      "oneCha": false,
      "noEncumbrance": false,
      "mediumArmorFullSpeed": false,
      "heavyArmorFullSpeed": false
    },
    "contextNotes": [],
    "links": {
      "children": []
    },
    "tag": "",
    "useCustomTag": false,
    "subType": "gear",
    "equipped": false,
    "damage": {
      "parts": []
    }
  },
  "flags": {},
  "img": "systems/pf1/icons/items/inventory/dice.jpg",
  "effects": []
}