{
  "_id": "qpeofmksdupchzly",
  "name": "Kit, Knight's",
  "permission": {
    "default": 0
  },
  "type": "loot",
  "data": {
    "description": {
      "value": "\r\n<p class=\"source\"><b>Source</b>: <a title=\"PZO9434\" href=\"http://www.amazon.com/gp/product/1601255268/ref=as_li_qf_sp_asin_il_tl?ie=UTF8&amp;camp=1789&amp;creative=9325&amp;creativeASIN=1601255268&amp;linkCode=as2&amp;tag=httpwwwd20pfs-20&amp;linkId=7EXQGV2FQUCT7FFS\" target=\"_blank\" rel=\"noopener\">PZO9434</a></p>\r\n<p><b>Price</b> 751 gp; <b>Weight</b> 17 lbs.</p>\r\n<p>This kit is designed for melee-focused warriors who hope to kill or capture a <a href=\"https://www.d20pfsrd.com/bestiary/rules-for-monsters/creature-types#TOC-Dragon\">dragon</a>. It includes 50 feet of chain, a crowbar, an everburning torch, an application of fire (or frost) ward gel, fire-resistant boots, a <a href=\"https://www.d20pfsrd.com/magic-items/potions\">potion of</a> <a class=\"spell\" href=\"https://www.d20pfsrd.com/magic/all-spells/r/resist-energy\">resist energy</a>, three sacks, a shield sconce, a simple lock, and a weapon cord.</p>\r\n\r\n",
      "chat": "",
      "unidentified": ""
    },
    "tags": [],
    "quantity": 1,
    "weight": 17,
    "price": 751,
    "identified": true,
    "hp": {
      "max": 10,
      "value": 10
    },
    "hardness": 0,
    "carried": true,
    "unidentified": {
      "price": 0,
      "name": ""
    },
    "identifiedName": "",
    "cl": 0,
    "aura": {
      "custom": false,
      "school": ""
    },
    "changes": [],
    "changeFlags": {
      "loseDexToAC": false,
      "noStr": false,
      "noDex": false,
      "oneInt": false,
      "oneWis": false,
      "oneCha": false,
      "noEncumbrance": false,
      "mediumArmorFullSpeed": false,
      "heavyArmorFullSpeed": false
    },
    "contextNotes": [],
    "links": {
      "children": []
    },
    "tag": "",
    "useCustomTag": false,
    "subType": "gear",
    "equipped": false,
    "damage": {
      "parts": []
    }
  },
  "flags": {},
  "img": "systems/pf1/icons/items/inventory/dice.jpg",
  "effects": []
}