{
  "_id": "rfjmbucagktokfpf",
  "name": "Kit, Mapmaker's",
  "permission": {
    "default": 0
  },
  "type": "loot",
  "data": {
    "description": {
      "value": "\r\n<p><b>Price</b> 10 gp; <b>Weight</b> 2 lbs.</p>\r\n<p>This small kit contains a simple slate with a grid carved into its surface and a number of differently colored pieces of chalk. If you use this kit to draw a map as you travel, you receive a +2 <a href=\"https://www.d20pfsrd.com/basics-ability-scores/glossary#TOC-Circumstance-Bonus\">circumstance bonus</a> on <a href=\"https://www.d20pfsrd.com/skills/survival\">Survival</a> skill checks to avoid becoming lost.</p>\r\n\r\n",
      "chat": "",
      "unidentified": ""
    },
    "tags": [],
    "quantity": 1,
    "weight": 2,
    "price": 10,
    "identified": true,
    "hp": {
      "max": 10,
      "value": 10
    },
    "hardness": 0,
    "carried": true,
    "unidentified": {
      "price": 0,
      "name": ""
    },
    "identifiedName": "",
    "cl": 0,
    "aura": {
      "custom": false,
      "school": ""
    },
    "changes": [],
    "changeFlags": {
      "loseDexToAC": false,
      "noStr": false,
      "noDex": false,
      "oneInt": false,
      "oneWis": false,
      "oneCha": false,
      "noEncumbrance": false,
      "mediumArmorFullSpeed": false,
      "heavyArmorFullSpeed": false
    },
    "contextNotes": [],
    "links": {
      "children": []
    },
    "tag": "",
    "useCustomTag": false,
    "subType": "gear",
    "equipped": false,
    "damage": {
      "parts": []
    }
  },
  "flags": {},
  "img": "systems/pf1/icons/items/inventory/dice.jpg",
  "effects": []
}