{
  "_id": "74nJBzdY4yvMZcBe",
  "name": "Musical Instrument, Masterwork",
  "permission": {
    "default": 0
  },
  "type": "loot",
  "data": {
    "description": {
      "value": "<p>If you want to perform using a @Compendium[pf1.skills.HhV5UmaRLTjtB3Xh]{Perform} skill associated with a musical instrument (keyboard, percussion, string, or wind), you must have an appropriate musical instrument; otherwise you can't use the skill. The listed cost and weight is for a typical small instrument you could carry by hand, such as a drum, lyre, bell, harp, or flute; larger instruments such as a cello or piano are of course larger and more expensive.</p>\n<p>This high-quality instrument grants a +2 <a href=\"https://www.d20pfsrd.com/basics-ability-scores/glossary#TOC-Circumstance-Bonus\">circumstance bonus</a> on @Compendium[pf1.skills.HhV5UmaRLTjtB3Xh]{Perform} checks made to perform with the instrument.</p>",
      "chat": "",
      "unidentified": ""
    },
    "tags": [],
    "quantity": 1,
    "weight": 3,
    "price": 100,
    "identified": true,
    "hp": {
      "max": 10,
      "value": 10
    },
    "hardness": 0,
    "carried": true,
    "unidentified": {
      "price": 0,
      "name": ""
    },
    "identifiedName": "Musical Instrument, Masterwork",
    "cl": 0,
    "aura": {
      "custom": false,
      "school": ""
    },
    "changes": [],
    "changeFlags": {
      "loseDexToAC": false,
      "noStr": false,
      "noDex": false,
      "oneInt": false,
      "oneWis": false,
      "oneCha": false,
      "noEncumbrance": false,
      "mediumArmorFullSpeed": false,
      "heavyArmorFullSpeed": false
    },
    "contextNotes": [],
    "links": {
      "children": []
    },
    "tag": "",
    "useCustomTag": false,
    "subType": "gear",
    "equipped": false,
    "damage": {
      "parts": [],
      "critParts": [],
      "nonCritParts": []
    }
  },
  "flags": {},
  "img": "systems/pf1/icons/items/inventory/lute.jpg",
  "effects": []
}