{
  "_id": "dkiqzcabqfsinvcr",
  "name": "Oil, Stink",
  "permission": {
    "default": 0
  },
  "type": "loot",
  "data": {
    "description": {
      "value": "\r\n<p class=\"source\"><b>Source</b> <a href=\"http://www.amazon.com/gp/product/1601254881/ref=as_li_qf_sp_asin_il_tl?ie=UTF8&amp;camp=1789&amp;creative=9325&amp;creativeASIN=1601254881&amp;linkCode=as2&amp;tag=httpwwwd20pfs-20\" target=\"_blank\" rel=\"noopener\">PPZO9410</a></p>\r\n<p><b>Price</b> 15 gp; <b>Weight</b> 1 lb.</p>\r\n<p>This glass container of foul-smelling oil shatters easily upon impact. You can throw a vial of stink oil as a <a href=\"https://www.d20pfsrd.com/gamemastering/combat#TOC-Throw-Splash-Weapon\">splash weapon</a> with a range increment of 10 feet. If a creature with the <a href=\"https://www.d20pfsrd.com/gamemastering/special-abilities#TOC-Scent\">scent</a> ability is standing in the square of impact, it must succeed at a DC 14 <a href=\"https://www.d20pfsrd.com/gamemastering/combat#TOC-Fortitude\">Fortitude</a> save or be <a href=\"https://www.d20pfsrd.com/gamemastering/conditions#TOC-Nauseated\">nauseated</a> for 1d4+1 rounds. Any creature with <a href=\"https://www.d20pfsrd.com/gamemastering/special-abilities#TOC-Scent\">scent</a> in an adjacent square must succeed at a DC 12 <a href=\"https://www.d20pfsrd.com/gamemastering/combat#TOC-Fortitude\">Fortitude</a> save or be <a href=\"https://www.d20pfsrd.com/gamemastering/conditions#TOC-Sickened\">sickened</a> for 1 round. Creatures without the <a href=\"https://www.d20pfsrd.com/bestiary/rules-for-monsters/universal-monster-rules#TOC-Scent-Ex-\">scent</a> ability are not affected by stink oil.</p>\r\n",
      "chat": "",
      "unidentified": ""
    },
    "tags": [],
    "quantity": 1,
    "weight": 0,
    "price": 0,
    "identified": true,
    "hp": {
      "max": 10,
      "value": 10
    },
    "hardness": 0,
    "carried": true,
    "unidentified": {
      "price": 0,
      "name": ""
    },
    "identifiedName": "",
    "cl": 0,
    "aura": {
      "custom": false,
      "school": ""
    },
    "changes": [],
    "changeFlags": {
      "loseDexToAC": false,
      "noStr": false,
      "noDex": false,
      "oneInt": false,
      "oneWis": false,
      "oneCha": false,
      "noEncumbrance": false,
      "mediumArmorFullSpeed": false,
      "heavyArmorFullSpeed": false
    },
    "contextNotes": [],
    "links": {
      "children": []
    },
    "tag": "",
    "useCustomTag": false,
    "subType": "gear",
    "equipped": false,
    "damage": {
      "parts": []
    }
  },
  "flags": {},
  "img": "systems/pf1/icons/items/inventory/dice.jpg",
  "effects": []
}