{
  "_id": "rzacjhgfmseobulc",
  "name": "Powder, Insomnia",
  "permission": {
    "default": 0
  },
  "type": "loot",
  "data": {
    "description": {
      "value": "\r\n<p class=\"source\"><b>Source</b> <a href=\"http://www.amazon.com/gp/product/1601255101/ref=as_li_qf_sp_asin_il_tl?ie=UTF8&amp;camp=1789&amp;creative=9325&amp;creativeASIN=1601255101&amp;linkCode=as2&amp;tag=httpwwwd20pfs-20\" target=\"_blank\" rel=\"noopener\">PZO9430</a></p>\r\n<p><b>Price</b> 60 gp; <b>Weight</b> 2 lbs.</p>\r\n<p>This fine white powder is a powerful stimulant that affects the nervous systems of any creatures that inhale or ingest it, preventing them from sleeping for 24 hours. A packet of insomnia powder can be thrown as a <a href=\"https://www.d20pfsrd.com/gamemastering/combat#TOC-Throw-Splash-Weapon\">splash weapon</a> with a range increment of 10 feet. A creature struck by a direct hit must succeed at a DC 12 <a href=\"https://www.d20pfsrd.com/gamemastering/combat#TOC-Fortitude\">Fortitude</a> save to avoid the effect, while those in the splash radius must succeed at DC 8 <a href=\"https://www.d20pfsrd.com/gamemastering/combat#TOC-Fortitude\">Fortitude</a> saves. This is a <a href=\"https://www.d20pfsrd.com/gamemastering/afflictions/poison\">poison</a> effect.</p>\r\n<p>Although it causes no severe damage, insomnia can cause a creature to be more <a href=\"https://www.d20pfsrd.com/gamemastering/conditions#TOC-Prone\">prone</a> to <a href=\"https://www.d20pfsrd.com/gamemastering/conditions#TOC-Fatigued\">fatigue</a> or <a href=\"https://www.d20pfsrd.com/gamemastering/conditions#TOC-Exhausted\">exhaustion</a>. Though it prevents sleep (and thus prevents <a href=\"https://www.d20pfsrd.com/classes/core-classes/wizard\">wizards</a> and some other spellcasters from regaining their spells), insomnia powder does not prevent a creature from meditating or praying. The effects of insomnia powder can be countered by <a class=\"spell\" href=\"https://www.d20pfsrd.com/magic/all-spells/s/sleep\">sleep</a>, <a class=\"spell\" href=\"https://www.d20pfsrd.com/magic/all-spells/n/neutralize-poison\">neutralize poison</a>, or similar effects.</p>\r\n",
      "chat": "",
      "unidentified": ""
    },
    "tags": [],
    "quantity": 1,
    "weight": 2,
    "price": 60,
    "identified": true,
    "hp": {
      "max": 10,
      "value": 10
    },
    "hardness": 0,
    "carried": true,
    "unidentified": {
      "price": 0,
      "name": ""
    },
    "identifiedName": "",
    "cl": 0,
    "aura": {
      "custom": false,
      "school": ""
    },
    "changes": [],
    "changeFlags": {
      "loseDexToAC": false,
      "noStr": false,
      "noDex": false,
      "oneInt": false,
      "oneWis": false,
      "oneCha": false,
      "noEncumbrance": false,
      "mediumArmorFullSpeed": false,
      "heavyArmorFullSpeed": false
    },
    "contextNotes": [],
    "links": {
      "children": []
    },
    "tag": "",
    "useCustomTag": false,
    "subType": "gear",
    "equipped": false,
    "damage": {
      "parts": []
    }
  },
  "flags": {},
  "img": "systems/pf1/icons/items/inventory/dice.jpg",
  "effects": []
}