{
  "_id": "paeyauuevvevpttu",
  "name": "Rat Cage",
  "permission": {
    "default": 0
  },
  "type": "loot",
  "data": {
    "description": {
      "value": "\r\n<p class=\"source\"><b>Source</b>: <a title=\"PZO1135\" href=\"http://amzn.to/2chJpnf\" target=\"_blank\" rel=\"noopener\">PZO1135</a></p>\r\n<p><b>Price</b> 5 gp; <b>Weight</b> 15 lbs.</p>\r\n<p><b>Note</b> Each act of torture shifts the torturer's <a href=\"https://www.d20pfsrd.com/basics-ability-scores/glossary#TOC-Alignment\">alignment</a> one step toward evil, and it counts as a willful evil act for the purpose of effects like <a class=\"spell\" href=\"https://www.d20pfsrd.com/magic/all-spells/a/atonement\">atonement</a>.</p>\r\n<p>This specially crafted steel <a href=\"https://www.d20pfsrd.com/equipment/goods-and-services/animals-animal-gear#TOC-Cage\">cage</a> can hold up to 20 <a href=\"https://www.d20pfsrd.com/bestiary/monster-listings/animals/rat/rat-common\">rats</a>, and includes stout leather straps around its open end and a metal crucible for holding hot <a href=\"https://www.d20pfsrd.com/equipment/goods-and-services/books-paper-writing-supplies#TOC-Charcoal\">charcoal</a> or other fuel on its top end. Torturers tightly strap the open end of the device to a <a href=\"https://www.d20pfsrd.com/gamemastering/conditions#TOC-Helpless\">helpless</a> victim's abdomen, insert the <a href=\"https://www.d20pfsrd.com/bestiary/monster-listings/animals/rat/rat-common\">rats</a> into the <a href=\"https://www.d20pfsrd.com/equipment/goods-and-services/animals-animal-gear#TOC-Cage\">cage</a>, and set the crucible's fuel alight. In 1d10 rounds, the increasing <a href=\"https://www.d20pfsrd.com/bestiary/rules-for-monsters/universal-monster-rules#TOC-Heat-Ex-\">heat</a> causes the <a href=\"https://www.d20pfsrd.com/bestiary/monster-listings/animals/rat/rat-common\">rats</a> to gnaw and dig their way through the victim's abdomen to escape, dealing 1 point of piercing damage per <a href=\"https://www.d20pfsrd.com/bestiary/monster-listings/animals/rat/rat-common\">rat</a> each round. A victim can wiggle free of a <a href=\"https://www.d20pfsrd.com/bestiary/monster-listings/animals/rat/rat-common\">rat</a> <a href=\"https://www.d20pfsrd.com/equipment/goods-and-services/animals-animal-gear#TOC-Cage\">cage</a> with a successful DC 20 <a href=\"https://www.d20pfsrd.com/skills/escape-artist\">Escape Artist</a> check, though some of the voracious <a href=\"https://www.d20pfsrd.com/bestiary/rules-for-monsters/creature-types#TOC-Vermin\">vermin</a> may continue their consumption in subsequent rounds.</p>\r\n\r\n<h4><span id=\"Thumbscrew\"><a name=\"TOC-Thumbscrew\"></a>Thumbscrew</span></h4>\r\n<p class=\"source\"><b>Source</b>: <a title=\"PZO1135\" href=\"http://amzn.to/2chJpnf\" target=\"_blank\" rel=\"noopener\">PZO1135</a></p>\r\n<p><b>Common Price</b> 15 gp; <b>Weight</b> 1 lb.; <b>Masterwork Price</b> 50 gp; <b>Weight</b> 1 lb.</p>\r\n<p><b>Note</b> Each act of torture shifts the torturer's <a href=\"https://www.d20pfsrd.com/basics-ability-scores/glossary#TOC-Alignment\">alignment</a> one step toward evil, and it counts as a willful evil act for the purpose of effects like <a class=\"spell\" href=\"https://www.d20pfsrd.com/magic/all-spells/a/atonement\">atonement</a>.</p>\r\n<p>Both a torture and restraining device, this small, metal armature consists of two parallel, spike-studded bars that close together as the user tightens the frame's screws, crushing a victim's thumbs between them. A victim restrained by a thumbscrew is able to move but can't effectively wield weapons, hold items, or perform any actions or skill checks that require manual dexterity, taking a -5 penalty on all such actions and dealing 1d6 points of <a href=\"https://www.d20pfsrd.com/gamemastering/combat#TOC-Nonlethal-Damage\">nonlethal damage</a> to himself with each attempt (this doesn't include <a href=\"https://www.d20pfsrd.com/skills/escape-artist\">Escape Artist</a> attempts to escape the thumbscrew).</p>\r\n<p>Spellcasters bound by thumbscrews are unable to cast spells with somatic <a href=\"https://www.d20pfsrd.com/magic#TOC-Components\">components</a>.</p>\r\n<p>When using a thumbscrew as a torture device, the user can turn the thumbscrew's bolt to deal 1d6 points of <a href=\"https://www.d20pfsrd.com/gamemastering/combat#TOC-Nonlethal-Damage\">nonlethal damage</a>.</p>\r\n<p>Escaping from a thumbscrew requires a successful DC 28 <a href=\"https://www.d20pfsrd.com/skills/escape-artist\">Escape Artist</a> check (DC 30 for a masterwork thumbscrew).</p>\r\n\r\n<h4><span id=\"Trephine\"><a name=\"TOC-Trephine\"></a>Trephine</span></h4>\r\n<p class=\"source\"><b>Source</b>: <a title=\"PZO1135\" href=\"http://amzn.to/2chJpnf\" target=\"_blank\" rel=\"noopener\">PZO1135</a></p>\r\n<p><b>Price</b> 20 gp; <b>Weight</b> 1 lb.</p>\r\n<p><b>Note</b> Each act of torture shifts the torturer's <a href=\"https://www.d20pfsrd.com/basics-ability-scores/glossary#TOC-Alignment\">alignment</a> one step toward evil, and it counts as a willful evil act for the purpose of effects like <a class=\"spell\" href=\"https://www.d20pfsrd.com/magic/all-spells/a/atonement\">atonement</a>.</p>\r\n<p>This surgical instrument has a serrated, circular blade that is used to bore holes into the skulls of patients to relieve cranial swelling from head trauma or, as some chirurgeons believe, release evil spirits. Use of a trephine takes 10 minutes, and deals 5 points of piercing damage to the subject creature. With a successful DC 25 <a href=\"https://www.d20pfsrd.com/skills/heal\">Heal</a> check, the user can heal up to 1d4 points of <a href=\"https://www.d20pfsrd.com/basics-ability-scores/ability-scores#TOC-Ability-Score-Damage\">ability damage</a> to any one mental ability score caused by physical trauma to the head, such as the critical called shot or debilitating blow called shot, or it can cure the severe brain trauma inflicted by the debilitating blow called shot. If the user fails the check, the subject still takes 5 points of piercing damage. If the user fails the check by 5 or more, the subject instead takes 10 points of piercing damage and 1 point of damage each to its <a href=\"https://www.d20pfsrd.com/basics-ability-scores/ability-scores#TOC-Intelligence-Int-\">Intelligence</a>, <a href=\"https://www.d20pfsrd.com/basics-ability-scores/ability-scores#TOC-Wisdom-Wis-\">Wisdom</a>, and <a href=\"https://www.d20pfsrd.com/basics-ability-scores/ability-scores#TOC-Charisma-Cha-\">Charisma</a> scores.</p>\r\n                                          <div id=\"comments\" ",
      "chat": "",
      "unidentified": ""
    },
    "tags": [],
    "quantity": 1,
    "weight": 15,
    "price": 5,
    "identified": true,
    "hp": {
      "max": 10,
      "value": 10
    },
    "hardness": 0,
    "carried": true,
    "unidentified": {
      "price": 0,
      "name": ""
    },
    "identifiedName": "",
    "cl": 0,
    "aura": {
      "custom": false,
      "school": ""
    },
    "changes": [],
    "changeFlags": {
      "loseDexToAC": false,
      "noStr": false,
      "noDex": false,
      "oneInt": false,
      "oneWis": false,
      "oneCha": false,
      "noEncumbrance": false,
      "mediumArmorFullSpeed": false,
      "heavyArmorFullSpeed": false
    },
    "contextNotes": [],
    "links": {
      "children": []
    },
    "tag": "",
    "useCustomTag": false,
    "subType": "gear",
    "equipped": false,
    "damage": {
      "parts": []
    }
  },
  "flags": {},
  "img": "systems/pf1/icons/items/inventory/dice.jpg",
  "effects": []
}