{
  "_id": "A05glNSu4zuU7ZsN",
  "name": "Skillet",
  "permission": {
    "default": 0
  },
  "type": "loot",
  "data": {
    "description": {
      "value": "<p>Source&nbsp;<a href=\"http://paizo.com/products/btpy8tmc?Pathfinder-Roleplaying-Game-Ultimate-Equipment\" target=\"_blank\" rel=\"noopener\">Ultimate Equipment pg. 57</a><br>Price&nbsp;8 sp (common), 2,001 gp (mithral);&nbsp;Weight&nbsp;4 lbs. (common), 2 lbs. (mithral)</p>\n<h3>Description</h3>\n<p>This 8-inch-diameter skillet has a long handle and feet so you can rest it on a fire or hot coals. Adventurers prefer models with a hinged handle that folds over the top of the skillet for easier storage and transport. A mithral skillet is lighter and food rarely sticks to it.</p>",
      "chat": "",
      "unidentified": ""
    },
    "tags": [],
    "quantity": 1,
    "weight": 4,
    "price": 0.8,
    "identified": true,
    "hp": {
      "max": 10,
      "value": 10
    },
    "hardness": 0,
    "carried": true,
    "unidentified": {
      "price": 0,
      "name": ""
    },
    "identifiedName": "Skillet",
    "cl": 0,
    "aura": {
      "custom": false,
      "school": ""
    },
    "changes": [],
    "changeFlags": {
      "loseDexToAC": false,
      "noStr": false,
      "noDex": false,
      "oneInt": false,
      "oneWis": false,
      "oneCha": false,
      "noEncumbrance": false,
      "mediumArmorFullSpeed": false,
      "heavyArmorFullSpeed": false
    },
    "contextNotes": [],
    "links": {
      "children": []
    },
    "tag": "",
    "useCustomTag": false,
    "subType": "gear",
    "equipped": false,
    "damage": {
      "parts": []
    }
  },
  "flags": {},
  "img": "systems/pf1/icons/items/inventory/dice.jpg",
  "effects": []
}