{
  "_id": "towjvfazznprlghe",
  "name": "Tonic, Medicinal",
  "permission": {
    "default": 0
  },
  "type": "loot",
  "data": {
    "description": {
      "value": "<h4><span id=\"Tonic_Medicinal\"><a name=\"TOC-Tonic-Medicinal\"></a>Tonic, Medicinal</span></h4>\r\n<p class=\"source\"><b>Source</b> <a title=\"PPC:Halflings\" href=\"http://www.amazon.com/gp/product/1601252781/ref=as_li_qf_sp_asin_il_tl?ie=UTF8&amp;camp=1789&amp;creative=9325&amp;creativeASIN=1601252781&amp;linkCode=as2&amp;tag=httpwwwd20pfs-20\" target=\"_blank\" rel=\"noopener\">PPC:Halflings</a></p>\r\n<p>This mild sedative is normally used to treat insomnia, making the drinker reluctant to take hasty actions but adept at remaining still or silent. One cup of the tonic gives a <a href=\"https://www.d20pfsrd.com/races/core-races/halfling\">halfling</a> a -4 penalty on <a href=\"https://www.d20pfsrd.com/gamemastering/combat#TOC-Initiative\">initiative</a> checks for 10 minutes and a +2 <a href=\"https://www.d20pfsrd.com/basics-ability-scores/glossary#TOC-Bonus-Alchemical-\">alchemical bonus</a> on <a href=\"https://www.d20pfsrd.com/skills/stealth\">Stealth</a> checks for that time.</p>\r\n<p><b>Note</b>: Non-<a href=\"https://www.d20pfsrd.com/races/core-races/halfling\">halflings</a> do not receive any bonuses from this drink.</p>\r\n",
      "chat": "",
      "unidentified": ""
    },
    "tags": [],
    "quantity": 1,
    "weight": 0,
    "price": 0,
    "identified": true,
    "hp": {
      "max": 10,
      "value": 10
    },
    "hardness": 0,
    "carried": true,
    "unidentified": {
      "price": 0,
      "name": ""
    },
    "identifiedName": "",
    "cl": 0,
    "aura": {
      "custom": false,
      "school": ""
    },
    "changes": [],
    "changeFlags": {
      "loseDexToAC": false,
      "noStr": false,
      "noDex": false,
      "oneInt": false,
      "oneWis": false,
      "oneCha": false,
      "noEncumbrance": false,
      "mediumArmorFullSpeed": false,
      "heavyArmorFullSpeed": false
    },
    "contextNotes": [],
    "links": {
      "children": []
    },
    "tag": "",
    "useCustomTag": false,
    "subType": "gear",
    "equipped": false,
    "damage": {
      "parts": []
    }
  },
  "flags": {},
  "img": "systems/pf1/icons/items/inventory/dice.jpg",
  "effects": []
}