{
  "_id": "sgcmlqjebhlqagmp",
  "name": "Trap, Bear",
  "permission": {
    "default": 0
  },
  "type": "loot",
  "data": {
    "description": {
      "value": "\r\n<div>\r\n<p>Bear Trap CR 1</p>\r\n<p><b>Price</b> 2 gp; <b>Weight</b> 10 lbs.</p>\r\n<p><b>Type</b> mechanical; <b>Locate</b> <a href=\"https://www.d20pfsrd.com/skills/perception\">Perception</a> DC 15; <b>Disarm</b> <a href=\"https://www.d20pfsrd.com/skills/disable-device\">Disable Device</a> DC 20; <b>Trigger</b> location; <b>Reset</b> manual</p>\r\n<p><b>Effect</b> Atk +10 melee (2d6+3); sharp jaws spring shut around the creature's ankle and halve the creature's base speed (or hold the creature immobile if the <a href=\"https://www.d20pfsrd.com/gamemastering/traps-hazards-and-special-terrains/traps/\">trap</a> is attached to a solid object); the creature can escape with a DC 20 <a href=\"https://www.d20pfsrd.com/skills/disable-device\">Disable Device</a> check, DC 22 <a href=\"https://www.d20pfsrd.com/skills/escape-artist\">Escape Artist</a> check, or DC 26 <a href=\"https://www.d20pfsrd.com/basics-ability-scores/ability-scores#TOC-Strength-Str-\">Strength</a> check.</p>\r\n<p>Although intended for trapping large <a href=\"https://www.d20pfsrd.com/bestiary/rules-for-monsters/creature-types#TOC-Animal\">animals</a>, bear traps work as well for trapping <a href=\"https://www.d20pfsrd.com/bestiary/rules-for-monsters/creature-types#TOC-Humanoid\">humanoids</a> or monsters. The hinged jaws of the <a href=\"https://www.d20pfsrd.com/gamemastering/traps-hazards-and-special-terrains/traps/\">trap</a> are attached to a chain, which in turn is secured to a spike driven into the ground to ensure that the victim cannot simply crawl away. Prying open the jaws or pulling the spike from the ground requires a DC 20 <a href=\"https://www.d20pfsrd.com/basics-ability-scores/ability-scores#TOC-Strength-Str-\">Strength</a> check.</p>\r\n\r\n<h5>Offset Bear Trap CR 1/2</h5>\r\n<p><b>Weight</b> 10 lbs.; <b>Price</b> 3 gp</p>\r\n<p><b>Type</b> mechanical; <b>Notice</b> <a href=\"https://www.d20pfsrd.com/skills/perception\">Perception</a> DC 15; <b>Disable</b> <a href=\"https://www.d20pfsrd.com/skills/disable-device\">Disable Device</a> DC 20</p>\r\n<p><b>Trigger</b> location; <b>Reset</b> manual</p>\r\n<p><b>Effect</b> Atk +10 melee (1d6+2); jaws spring shut around the creature's ankle and hold the creature immobile; the creature can escape with a DC 20 <a href=\"https://www.d20pfsrd.com/skills/disable-device\">Disable Device</a> check, DC 24 <a href=\"https://www.d20pfsrd.com/skills/escape-artist\">Escape Artist</a> check, or DC 28 <a href=\"https://www.d20pfsrd.com/basics-ability-scores/ability-scores#TOC-Strength-Str-\">Strength</a> check.</p>\r\n<p>An offset <a href=\"https://www.d20pfsrd.com/equipment/goods-and-services/hunting-camping-survival-gear#TOC-Trap-Bear\">bear trap</a> is a specialized variety of a <a href=\"https://www.d20pfsrd.com/equipment/goods-and-services/hunting-camping-survival-gear#TOC-Trap-Bear\">bear trap</a> constructed with offset jaws coated in resin.</p>\r\n<p>It inflicts less damage on captured creatures but holds them more securely, and is therefore primarily used by <a href=\"https://www.d20pfsrd.com/bestiary/monster-listings/aberrations/lurking-ray/trapper\">trappers</a> or bounty <a href=\"https://www.d20pfsrd.com/classes/hybrid-classes/hunter\">hunters</a> who do not want to risk killing their prey. Offset bear traps are almost always secured to the ground by a heavy spike and <a href=\"https://www.d20pfsrd.com/equipment/goods-and-services/tools-kits#TOC-Chain\">chain</a> so the captured creature can't wander far.</p>\r\n\r\n<h5>Sawtooth Bear Trap CR 5</h5>\r\n<p><b>Weight</b> 20 lbs.; <b>Price</b> 1,800 gp</p>\r\n<p><b>Type</b> mechanical; <b>Notice</b> <a href=\"https://www.d20pfsrd.com/skills/perception\">Perception</a> DC 25; <b>Disable</b> <a href=\"https://www.d20pfsrd.com/skills/disable-device\">Disable Device</a> DC 25</p>\r\n<p><b>Trigger</b> location; <b>Reset</b> manual</p>\r\n<p><b>Effect</b> Atk +15 melee (3d6+9); serrated jaws spring shut around the creature's ankle and halve the creature's base speed (or hold the creature immobile if the <a href=\"https://www.d20pfsrd.com/gamemastering/traps-hazards-and-special-terrains/traps/\">trap</a> is attached to a solid object); the creature can escape with a DC 25 <a href=\"https://www.d20pfsrd.com/skills/disable-device\">Disable Device</a> check, DC 28 <a href=\"https://www.d20pfsrd.com/skills/escape-artist\">Escape Artist</a> check, or DC 32 <a href=\"https://www.d20pfsrd.com/basics-ability-scores/ability-scores#TOC-Strength-Str-\">Strength</a> check.</p>\r\n<p>A sawtooth <a href=\"https://www.d20pfsrd.com/equipment/goods-and-services/hunting-camping-survival-gear#TOC-Trap-Bear\">bear trap</a> has vicious jaws and tighter springs.</p>\r\n<p>Used primarily against <a href=\"https://www.d20pfsrd.com/bestiary/rules-for-monsters/creature-types#TOC-Humanoid\">humanoids</a> or monsters rather than <a href=\"https://www.d20pfsrd.com/bestiary/rules-for-monsters/creature-types#TOC-Animal\">animals</a>, sawtooth bear traps are often painted in camouflaged colors to <a class=\"spell\" href=\"https://www.d20pfsrd.com/magic/all-spells/b/blend\">blend</a> in with the <a href=\"https://www.d20pfsrd.com/gamemastering/traps-hazards-and-special-terrains/traps/\">trap</a> site. Most include locking plates over the spring mechanisms to prevent tampering by intelligent victims.</p>\r\n</div>\r\n\r\n",
      "chat": "",
      "unidentified": ""
    },
    "tags": [],
    "quantity": 1,
    "weight": 10,
    "price": 2,
    "identified": true,
    "hp": {
      "max": 10,
      "value": 10
    },
    "hardness": 0,
    "carried": true,
    "unidentified": {
      "price": 0,
      "name": ""
    },
    "identifiedName": "",
    "cl": 0,
    "aura": {
      "custom": false,
      "school": ""
    },
    "changes": [],
    "changeFlags": {
      "loseDexToAC": false,
      "noStr": false,
      "noDex": false,
      "oneInt": false,
      "oneWis": false,
      "oneCha": false,
      "noEncumbrance": false,
      "mediumArmorFullSpeed": false,
      "heavyArmorFullSpeed": false
    },
    "contextNotes": [],
    "links": {
      "children": []
    },
    "tag": "",
    "useCustomTag": false,
    "subType": "gear",
    "equipped": false,
    "damage": {
      "parts": []
    }
  },
  "flags": {},
  "img": "systems/pf1/icons/items/inventory/dice.jpg",
  "effects": []
}