{
  "_id": "jzaxdmljvccjgnhr",
  "name": "Trap, Trapped Disguise Kit",
  "permission": {
    "default": 0
  },
  "type": "loot",
  "data": {
    "description": {
      "value": "\r\n<p>This appears to be a normal disguise kit, except that if any of the makeup or false facial hair is applied, the victim is marked with a strong <a href=\"https://www.d20pfsrd.com/gamemastering/special-abilities#TOC-Scent\">scent</a>. This scent mark decreases the DC of tracking the victim by <a href=\"https://www.d20pfsrd.com/gamemastering/special-abilities#TOC-Scent\">scent</a> by 4. The mark can be washed off with vigorous scrubbing, but otherwise fades on its own over several days.</p>\r\n<p><b>Type</b> mechanical; <a href=\"https://www.d20pfsrd.com/skills/perception\">Perception</a> DC 25; <a href=\"https://www.d20pfsrd.com/skills/disable-device\">Disable Device</a> DC 25</p>\r\n<p class=\"divider\">EFFECTS</p>\r\n<p><b>Trigger</b> touch; <b>Reset</b> repair; <b>Effect</b> scent mark; never miss; <b>onset</b> delayed (1 round)</p>\r\n\r\n",
      "chat": "",
      "unidentified": ""
    },
    "tags": [],
    "quantity": 1,
    "weight": 0,
    "price": 0,
    "identified": true,
    "hp": {
      "max": 10,
      "value": 10
    },
    "hardness": 0,
    "carried": true,
    "unidentified": {
      "price": 0,
      "name": ""
    },
    "identifiedName": "",
    "cl": 0,
    "aura": {
      "custom": false,
      "school": ""
    },
    "changes": [],
    "changeFlags": {
      "loseDexToAC": false,
      "noStr": false,
      "noDex": false,
      "oneInt": false,
      "oneWis": false,
      "oneCha": false,
      "noEncumbrance": false,
      "mediumArmorFullSpeed": false,
      "heavyArmorFullSpeed": false
    },
    "contextNotes": [],
    "links": {
      "children": []
    },
    "tag": "",
    "useCustomTag": false,
    "subType": "gear",
    "equipped": false,
    "damage": {
      "parts": []
    }
  },
  "flags": {},
  "img": "systems/pf1/icons/items/inventory/dice.jpg",
  "effects": []
}