{
  "_id": "my3pmvBJuGvimyGX",
  "name": "Whet bone",
  "permission": {
    "default": 0
  },
  "type": "loot",
  "data": {
    "description": {
      "value": "<p>Source&nbsp;<a href=\"http://paizo.com/products/btpy8w7p?Pathfinder-Player-Companion-Animal-Archive\" target=\"_blank\" rel=\"noopener\">Animal Archive pg. 12</a><br>Price&nbsp;1 sp;&nbsp;Weight&nbsp;2 lbs.<br>Category&nbsp;Animal Gear</p>\n<h3>Description</h3>\n<p>This hardened mixture of animal marrow and minerals is shaped into a long bone. When chewed upon by a creature for no fewer than 15 minutes, a whet bone grants the creature a +1 bonus on its next damage roll the first time it hits with a bite attack. This only works on nonmagical bite attacks.</p>",
      "chat": "",
      "unidentified": ""
    },
    "tags": [],
    "quantity": 1,
    "weight": 2,
    "price": 0.1,
    "identified": true,
    "hp": {
      "max": 10,
      "value": 10
    },
    "hardness": 0,
    "carried": true,
    "unidentified": {
      "price": 0,
      "name": ""
    },
    "identifiedName": "Whet bone",
    "cl": 0,
    "aura": {
      "custom": false,
      "school": ""
    },
    "changes": [],
    "changeFlags": {
      "loseDexToAC": false,
      "noStr": false,
      "noDex": false,
      "oneInt": false,
      "oneWis": false,
      "oneCha": false,
      "noEncumbrance": false,
      "mediumArmorFullSpeed": false,
      "heavyArmorFullSpeed": false
    },
    "contextNotes": [],
    "links": {
      "children": []
    },
    "tag": "",
    "useCustomTag": false,
    "subType": "gear",
    "equipped": false,
    "damage": {
      "parts": []
    }
  },
  "flags": {},
  "img": "systems/pf1/icons/items/inventory/dice.jpg",
  "effects": []
}