{
  "_id": "YQvk4IUZqIiKcTrs",
  "name": "Aether Puppet",
  "permission": {
    "default": 0
  },
  "type": "feat",
  "data": {
    "description": {
      "value": "<p><strong>Element&nbsp;</strong>aether;&nbsp;<strong>Type&nbsp;</strong>utility (Sp);&nbsp;<strong>Level&nbsp;</strong>5;&nbsp;<strong>Burn&nbsp;</strong>0</p>\n<p>You use strands of aether to animate an object. You can animate a Medium or smaller object as an animated object (Pathfinder RPG Bestiary&nbsp;14) with no Construction Point abilities (except for stone or metal [common], if the object is constructed of one of those materials). Each round on your turn, you must take a move action to guide the object, or it reverts to its inanimate state.</p>\n<p>By accepting 1 point of burn, you can pour a bit of your own sentience into the aether puppet, allowing the effect to persist for 1 round per kineticist level without requiring additional actions.</p>\n<p>At 12th level, you can animate a Large or smaller object, which gains all the abilities of the Medium animated object plus the additional attack ability.</p>\n<p>At 14th level, you can animate a Huge or smaller object, which gains all the abilities of the Large animated object.</p>\n<p>At 16th level, you can animate a Gargantuan or smaller object, which gains all the abilities of the Huge animated object, as well as the metal (mithral) ability if the object is made of mithral.</p>\n<p>At 18th level, you can animate a Colossal or smaller object, which gains all the abilities of the Gargantuan animated object, plus the metal (adamantine) ability if the object is made of adamantine.</p>",
      "chat": "",
      "unidentified": ""
    },
    "tags": [],
    "activation": {
      "cost": 1,
      "type": ""
    },
    "unchainedAction": {
      "activation": {
        "cost": 1,
        "type": ""
      }
    },
    "duration": {
      "value": null,
      "units": ""
    },
    "target": {
      "value": ""
    },
    "range": {
      "value": null,
      "units": "",
      "maxIncrements": 1,
      "minValue": null,
      "minUnits": "",
      "long": null
    },
    "uses": {
      "value": 0,
      "max": 0,
      "per": null,
      "autoDeductCharges": true,
      "autoDeductChargesCost": "1"
    },
    "measureTemplate": {
      "type": "",
      "size": "",
      "overrideColor": false,
      "customColor": "",
      "overrideTexture": false,
      "customTexture": ""
    },
    "attackName": "",
    "actionType": "",
    "attackBonus": "",
    "critConfirmBonus": "",
    "damage": {
      "parts": [],
      "critParts": [],
      "nonCritParts": []
    },
    "attackParts": [],
    "formula": "",
    "ability": {
      "attack": null,
      "damage": null,
      "damageMult": 1,
      "critRange": 20,
      "critMult": 2
    },
    "save": {
      "dc": 0,
      "type": "",
      "description": ""
    },
    "effectNotes": "",
    "attackNotes": "",
    "soundEffect": "",
    "changes": [],
    "changeFlags": {
      "loseDexToAC": false,
      "noStr": false,
      "noDex": false,
      "oneInt": false,
      "oneWis": false,
      "oneCha": false,
      "noEncumbrance": false,
      "mediumArmorFullSpeed": false,
      "heavyArmorFullSpeed": false
    },
    "contextNotes": [],
    "links": {
      "children": [],
      "charges": []
    },
    "tag": "",
    "useCustomTag": false,
    "armorProf": {
      "value": [],
      "custom": ""
    },
    "weaponProf": {
      "value": [],
      "custom": ""
    },
    "featType": "classFeat",
    "associations": {
      "classes": [
        [
          "Kineticist"
        ]
      ]
    },
    "showInQuickbar": false,
    "nonlethal": false,
    "abilityType": "sp",
    "crOffset": "",
    "attack": {
      "parts": []
    }
  },
  "flags": {},
  "img": "systems/pf1/icons/spells/link-blue-2.jpg",
  "effects": []
}