{
  "_id": "Io7oIAjPo9rRbvDS",
  "name": "Animal Domain",
  "permission": {
    "default": 0
  },
  "type": "feat",
  "data": {
    "description": {
      "value": "<p><strong>Granted Powers:</strong> You can speak with and befriend animals with ease. In addition, you treat Knowledge (nature) as a class skill.</p>\n<p><strong>Domain Spells:</strong></p>\n<ul>\n<li>1st—@Compendium[pf1.spells.5s4e2iifhflglr1t]{Calm Animals}</li>\n<li>2nd—@Compendium[pf1.spells.yyzf346hiq8ixt0u]{Hold Animal}</li>\n<li>3rd—@Compendium[pf1.spells.io2yjhr42chvcfb4]{Dominate Animal}</li>\n<li>4th—@Compendium[pf1.spells.choriern682hgptb]{Summon Nature's Ally IV} (animals only)</li>\n<li>5th—@Compendium[pf1.spells.w88ddxpu89qcr5c0]{Beast Shape III} (animals only)</li>\n<li>6th—@Compendium[pf1.spells.76t09cafayrw13ux]{Antilife Shell}</li>\n<li>7th—@Compendium[pf1.spells.3ah9mmg0odateh8l]{Animal Shapes}</li>\n<li>8th—@Compendium[pf1.spells.lnpyf5gwn8m21y02]{Summon Nature's Ally VIII} (animals only)</li>\n<li>9th—@Compendium[pf1.spells.n3lp01euzcdmtbw5]{Shapechange}</li>\n</ul>",
      "chat": "",
      "unidentified": ""
    },
    "tags": [],
    "activation": {
      "cost": 1,
      "type": ""
    },
    "unchainedAction": {
      "activation": {
        "cost": 1,
        "type": ""
      }
    },
    "duration": {
      "value": null,
      "units": ""
    },
    "target": {
      "value": ""
    },
    "range": {
      "value": null,
      "units": "",
      "maxIncrements": 1,
      "minValue": null,
      "minUnits": "",
      "long": null
    },
    "uses": {
      "value": 0,
      "max": 0,
      "per": null,
      "autoDeductCharges": true,
      "autoDeductChargesCost": "1"
    },
    "measureTemplate": {
      "type": "",
      "size": "0",
      "overrideColor": false,
      "customColor": "",
      "overrideTexture": false,
      "customTexture": ""
    },
    "attackName": "",
    "actionType": "",
    "attackBonus": "",
    "critConfirmBonus": "",
    "damage": {
      "parts": [],
      "critParts": [],
      "nonCritParts": []
    },
    "attackParts": [],
    "formula": "",
    "ability": {
      "attack": null,
      "damage": null,
      "damageMult": 1,
      "critRange": 20,
      "critMult": 2
    },
    "save": {
      "dc": 0,
      "type": "",
      "description": ""
    },
    "effectNotes": "",
    "attackNotes": "",
    "soundEffect": "",
    "changes": [],
    "changeFlags": {
      "loseDexToAC": false,
      "noStr": false,
      "noDex": false,
      "oneInt": false,
      "oneWis": false,
      "oneCha": false,
      "noEncumbrance": false,
      "mediumArmorFullSpeed": false,
      "heavyArmorFullSpeed": false
    },
    "contextNotes": [],
    "links": {
      "children": [],
      "charges": []
    },
    "tag": "",
    "useCustomTag": false,
    "armorProf": {
      "value": [],
      "custom": ""
    },
    "weaponProf": {
      "value": [],
      "custom": ""
    },
    "featType": "classFeat",
    "associations": {
      "classes": [
        [
          "Cleric"
        ]
      ]
    },
    "showInQuickbar": false,
    "nonlethal": false,
    "abilityType": "none",
    "crOffset": "",
    "attack": {
      "parts": []
    }
  },
  "flags": {},
  "img": "systems/pf1/icons/skills/blue_26.jpg",
  "effects": []
}