{
  "_id": "CMm74kETONnAlydH",
  "name": "Arcane Bloodrager Bloodline",
  "permission": {
    "default": 0
  },
  "type": "feat",
  "data": {
    "description": {
      "value": "<p><em>While others of your kin may be powerful wizards and sorcerers, the eldritch nature of the blood coursing through your veins transforms you into a spell-breaking terror.</em><br><br><strong>Bonus Feats: </strong></p>\n<ul>\n<li>@Compendium[pf1.feats.h9nHYLxXvIXBTmup]{Combat Reflexes}</li>\n<li>@Compendium[pf1.feats.QaMwiDFQdDwycTUO]{Disruptive}*</li>\n<li>@Compendium[pf1.feats.Uuiu3p982omhMEPj]{Improved Initiative}</li>\n<li>@Compendium[pf1.feats.iAbIGhm7T2OK9Brt]{Iron Will}</li>\n<li>@Compendium[pf1.feats.FUW5mIXHNBBIQ1Sq]{Power Attack}</li>\n<li>@Compendium[pf1.feats.WKIVfdosc5SqYzmP]{Quick Draw}</li>\n<li>@Compendium[pf1.feats.yE3hVOvBq9rx6TAw]{Spellbreaker}*.</li>\n</ul>\n<p>(Your bloodrager levels count as fighter levels for the purposes of qualifying for any feats marked with an asterisk [*].) This stacks with any levels in fighter you have.</p>\n<p><strong>Bonus Spells:&nbsp;</strong></p>\n<ul>\n<li>@Compendium[pf1.spells.49yc9dpr4kvgki2s]{Magic Missile}&nbsp;(7th),</li>\n<li>@Compendium[pf1.spells.oylikodnyku2zewu]{Invisibility} (10th),</li>\n<li>@Compendium[pf1.spells.m84969gni5iu4bdt]{Lightning Bolt}&nbsp;(13th),&nbsp;</li>\n<li>@Compendium[pf1.spells.ojwg1ki98tq8xyh9]{Dimension Door}&nbsp;(16th)</li>\n</ul>",
      "chat": "",
      "unidentified": ""
    },
    "tags": [],
    "activation": {
      "cost": 1,
      "type": ""
    },
    "unchainedAction": {
      "activation": {
        "cost": 1,
        "type": ""
      }
    },
    "duration": {
      "value": null,
      "units": ""
    },
    "target": {
      "value": ""
    },
    "range": {
      "value": null,
      "units": "",
      "maxIncrements": 1,
      "minValue": null,
      "minUnits": "",
      "long": null
    },
    "uses": {
      "value": 0,
      "max": 0,
      "per": null,
      "autoDeductCharges": true,
      "autoDeductChargesCost": "1"
    },
    "measureTemplate": {
      "type": "",
      "size": "",
      "overrideColor": false,
      "customColor": "",
      "overrideTexture": false,
      "customTexture": ""
    },
    "attackName": "",
    "actionType": "",
    "attackBonus": "",
    "critConfirmBonus": "",
    "damage": {
      "parts": [],
      "critParts": [],
      "nonCritParts": []
    },
    "attackParts": [],
    "formula": "",
    "ability": {
      "attack": null,
      "damage": null,
      "damageMult": 1,
      "critRange": 20,
      "critMult": 2
    },
    "save": {
      "dc": 0,
      "type": "",
      "description": ""
    },
    "effectNotes": "",
    "attackNotes": "",
    "soundEffect": "",
    "changes": [],
    "changeFlags": {
      "loseDexToAC": false,
      "noStr": false,
      "noDex": false,
      "oneInt": false,
      "oneWis": false,
      "oneCha": false,
      "noEncumbrance": false,
      "mediumArmorFullSpeed": false,
      "heavyArmorFullSpeed": false
    },
    "contextNotes": [],
    "links": {
      "children": [],
      "charges": []
    },
    "tag": "",
    "useCustomTag": false,
    "armorProf": {
      "value": [],
      "custom": ""
    },
    "weaponProf": {
      "value": [],
      "custom": ""
    },
    "featType": "classFeat",
    "associations": {
      "classes": [
        [
          "Bloodrager"
        ]
      ]
    },
    "showInQuickbar": false,
    "nonlethal": false,
    "abilityType": "none",
    "crOffset": "",
    "attack": {
      "parts": []
    }
  },
  "flags": {},
  "img": "systems/pf1/icons/skills/red_13.jpg",
  "effects": []
}