{
  "_id": "4QeavCZeba7ApFD2",
  "name": "Blessings",
  "permission": {
    "default": 0
  },
  "type": "feat",
  "data": {
    "description": {
      "value": "<p>A warpriest’s deity influences his alignment, what magic he can perform, his values, and how others see him. Each warpriest can select two blessings from among those granted by his deity (each deity grants the blessings tied to its domains). A warpriest can select an alignment blessing (Chaos, Evil, Good, or Law) only if his alignment matches that domain. If a warpriest isn’t devoted to a particular deity, he still selects two blessings to represent his spiritual inclinations and abilities, subject to GM approval. The restriction on alignment domains still applies.<br><br>Each blessing grants a minor power at 1st level and a major power at 10th level. A warpriest can call upon the power of his blessings a number of times per day (in any combination) equal to 3 + 1/2 his warpriest level (to a maximum of 13 times per day at 20th level). Each time he calls upon any one of his blessings, it counts against his daily limit. The save DC for these blessings is equal to 10 + 1/2 the warpriest’s level + the warpriest’s Wisdom modifier.<br><br>If a warpriest also has levels in a class that grants cleric domains, the blessings chosen must match the domains selected by that class. Subject to GM discretion, the warpriest can change his former blessings or domains to make them conform.</p>",
      "chat": "",
      "unidentified": ""
    },
    "tags": [],
    "activation": {
      "cost": 1,
      "type": "special"
    },
    "unchainedAction": {
      "activation": {
        "cost": 1,
        "type": "special"
      }
    },
    "duration": {
      "value": null,
      "units": ""
    },
    "target": {
      "value": ""
    },
    "range": {
      "value": null,
      "units": "",
      "maxIncrements": 1,
      "minValue": null,
      "minUnits": "",
      "long": null
    },
    "uses": {
      "value": 0,
      "max": 3,
      "per": "day",
      "autoDeductCharges": true,
      "autoDeductChargesCost": "1",
      "maxFormula": "3 + floor(@classes.warpriest.level / 2)"
    },
    "measureTemplate": {
      "type": "",
      "size": "",
      "overrideColor": false,
      "customColor": "",
      "overrideTexture": false,
      "customTexture": ""
    },
    "attackName": "",
    "actionType": "",
    "attackBonus": "",
    "critConfirmBonus": "",
    "damage": {
      "parts": [],
      "critParts": [],
      "nonCritParts": []
    },
    "attackParts": [],
    "formula": "",
    "ability": {
      "attack": null,
      "damage": null,
      "damageMult": 1,
      "critRange": 20,
      "critMult": 2
    },
    "save": {
      "dc": 0,
      "type": "",
      "description": ""
    },
    "effectNotes": "",
    "attackNotes": "",
    "soundEffect": "",
    "changes": [],
    "changeFlags": {
      "loseDexToAC": false,
      "noStr": false,
      "noDex": false,
      "oneInt": false,
      "oneWis": false,
      "oneCha": false,
      "noEncumbrance": false,
      "mediumArmorFullSpeed": false,
      "heavyArmorFullSpeed": false
    },
    "contextNotes": [],
    "links": {
      "children": [],
      "charges": []
    },
    "tag": "",
    "useCustomTag": false,
    "armorProf": {
      "value": [],
      "custom": ""
    },
    "weaponProf": {
      "value": [],
      "custom": ""
    },
    "featType": "classFeat",
    "associations": {
      "classes": [
        [
          "Warpriest"
        ]
      ]
    },
    "showInQuickbar": false,
    "nonlethal": false,
    "abilityType": "su",
    "crOffset": "",
    "attack": {
      "parts": []
    }
  },
  "flags": {},
  "img": "systems/pf1/icons/spells/enchant-magenta-3.jpg",
  "effects": []
}