{
  "_id": "wLecnO73QE7Se9uv",
  "name": "Conspiracies Patron",
  "permission": {
    "default": 0
  },
  "type": "feat",
  "data": {
    "description": {
      "value": "<ul>\n<li>2nd — @Compendium[pf1.spells.afoxrj4mjkhq0cp1]{Lock Gaze}</li>\n<li>4th — @Compendium[pf1.spells.80f89nrksbofs5vx]{Disguise Other}</li>\n<li>6th — @Compendium[pf1.spells.m1rmcpcaixcpz9ib]{Tongues}</li>\n<li>8th — @Compendium[pf1.spells.pyr472hvqn8c8es2]{Hypercognition}</li>\n<li>10th — @Compendium[pf1.spells.q070n0zoq3zojpas]{Dominate Person}</li>\n<li>12th — @Compendium[pf1.spells.1m5rpvirt48brv71]{Symbol of Persuasion}</li>\n<li>14th — @Compendium[pf1.spells.aqeaxoaozlv9vg35]{Vision}</li>\n<li>16th — @Compendium[pf1.spells.ukacuu0cvdjkqxwu]{Frightful Aspect}</li>\n<li>18th — @Compendium[pf1.spells.xuuzj9lr2xbwaim4]{Overwhelming Presence}</li>\n</ul>",
      "chat": "",
      "unidentified": ""
    },
    "tags": [],
    "activation": {
      "cost": 1,
      "type": ""
    },
    "unchainedAction": {
      "activation": {
        "cost": 1,
        "type": ""
      }
    },
    "duration": {
      "value": null,
      "units": ""
    },
    "target": {
      "value": ""
    },
    "range": {
      "value": null,
      "units": "",
      "maxIncrements": 1,
      "minValue": null,
      "minUnits": "",
      "long": null
    },
    "uses": {
      "value": 0,
      "max": 0,
      "per": null,
      "autoDeductCharges": true,
      "autoDeductChargesCost": "1"
    },
    "measureTemplate": {
      "type": "",
      "size": "",
      "overrideColor": false,
      "customColor": "",
      "overrideTexture": false,
      "customTexture": ""
    },
    "attackName": "",
    "actionType": "",
    "attackBonus": "",
    "critConfirmBonus": "",
    "damage": {
      "parts": [],
      "critParts": [],
      "nonCritParts": []
    },
    "attackParts": [],
    "formula": "",
    "ability": {
      "attack": null,
      "damage": null,
      "damageMult": 1,
      "critRange": 20,
      "critMult": 2
    },
    "save": {
      "dc": 0,
      "type": "",
      "description": ""
    },
    "effectNotes": "",
    "attackNotes": "",
    "soundEffect": "",
    "changes": [],
    "changeFlags": {
      "loseDexToAC": false,
      "noStr": false,
      "noDex": false,
      "oneInt": false,
      "oneWis": false,
      "oneCha": false,
      "noEncumbrance": false,
      "mediumArmorFullSpeed": false,
      "heavyArmorFullSpeed": false
    },
    "contextNotes": [],
    "links": {
      "children": [],
      "charges": []
    },
    "tag": "",
    "useCustomTag": false,
    "armorProf": {
      "value": [],
      "custom": ""
    },
    "weaponProf": {
      "value": [],
      "custom": ""
    },
    "featType": "classFeat",
    "associations": {
      "classes": [
        [
          "Witch"
        ]
      ]
    },
    "showInQuickbar": false,
    "nonlethal": false,
    "abilityType": "none",
    "crOffset": "",
    "attack": {
      "parts": []
    }
  },
  "flags": {},
  "img": "systems/pf1/icons/feats/improved-familiar.jpg",
  "effects": []
}