{
  "_id": "TF9JLx9PwVnN5QPx",
  "name": "Deceptive Flourish",
  "permission": {
    "default": 0
  },
  "type": "feat",
  "data": {
    "description": {
      "value": "<p>You gain a +2&nbsp;<a href=\"https://www.d20pfsrd.com/basics-ability-scores/glossary#TOC-Enhancement-Bonus\">enhancement bonus</a>&nbsp;on&nbsp;<a href=\"https://www.d20pfsrd.com/skills/bluff\">Bluff</a>&nbsp;and&nbsp;<a href=\"https://www.d20pfsrd.com/skills/disguise\">Disguise</a>&nbsp;skill checks. This bonus increases by 1 for every 5&nbsp;<a href=\"https://www.d20pfsrd.com/classes/core-classes/wizard\">wizard</a> levels you have, up to a maximum of +6 at 20th level. At 20th level, you gain the benefits of @Compendium[pf1.spells.8nrt26t37v7koqr8]{Misdirection}&nbsp;(<a href=\"https://www.d20pfsrd.com/gamemastering/combat#TOC-Will\">Will</a>&nbsp;DC = 20 + your&nbsp;<a href=\"https://www.d20pfsrd.com/basics-ability-scores/ability-scores#TOC-Intelligence-Int-\">Intelligence</a> modifier) or @Compendium[pf1.spells.awia42zci8nufpfl]{Nondetection}&nbsp;permanently. At will as a&nbsp;<a href=\"https://www.d20pfsrd.com/gamemastering/combat#TOC-Standard-Actions\">standard action</a>, you can change which of the two spells is active, and each time you&nbsp;<a href=\"https://www.d20pfsrd.com/gamemastering/combat#TOC-Activate-Magic-Item\">activate</a> @Compendium[pf1.spells.8nrt26t37v7koqr8]{Misdirection}, you can choose a new creature or object as the secondary object.</p>",
      "chat": "",
      "unidentified": ""
    },
    "tags": [],
    "activation": {
      "cost": 1,
      "type": ""
    },
    "unchainedAction": {
      "activation": {
        "cost": 1,
        "type": ""
      }
    },
    "duration": {
      "value": null,
      "units": ""
    },
    "target": {
      "value": ""
    },
    "range": {
      "value": null,
      "units": "",
      "maxIncrements": 1,
      "minValue": null,
      "minUnits": "",
      "long": null
    },
    "uses": {
      "value": 0,
      "max": 0,
      "per": null,
      "autoDeductCharges": true,
      "autoDeductChargesCost": "1"
    },
    "measureTemplate": {
      "type": "",
      "size": "0",
      "overrideColor": false,
      "customColor": "",
      "overrideTexture": false,
      "customTexture": ""
    },
    "attackName": "",
    "actionType": "",
    "attackBonus": "",
    "critConfirmBonus": "",
    "damage": {
      "parts": [],
      "critParts": [],
      "nonCritParts": []
    },
    "attackParts": [],
    "formula": "",
    "ability": {
      "attack": null,
      "damage": null,
      "damageMult": 1,
      "critRange": 20,
      "critMult": 2
    },
    "save": {
      "dc": 0,
      "type": "",
      "description": ""
    },
    "effectNotes": "",
    "attackNotes": "",
    "soundEffect": "",
    "changes": [
      {
        "_id": "ij6c0rgl",
        "formula": "2 + (floor(@classes.wizard.level / 5))",
        "operator": "+",
        "target": "skill",
        "subTarget": "skill.blf",
        "modifier": "enh",
        "priority": 0,
        "value": 0
      },
      {
        "_id": "h39o8dbh",
        "formula": "2 + (floor(@classes.wizard.level / 5))",
        "operator": "+",
        "target": "skill",
        "subTarget": "skill.dis",
        "modifier": "enh",
        "priority": 0,
        "value": 0
      }
    ],
    "changeFlags": {
      "loseDexToAC": false,
      "noStr": false,
      "noDex": false,
      "oneInt": false,
      "oneWis": false,
      "oneCha": false,
      "noEncumbrance": false,
      "mediumArmorFullSpeed": false,
      "heavyArmorFullSpeed": false
    },
    "contextNotes": [],
    "links": {
      "children": [],
      "charges": []
    },
    "tag": "",
    "useCustomTag": false,
    "armorProf": {
      "value": [],
      "custom": ""
    },
    "weaponProf": {
      "value": [],
      "custom": ""
    },
    "featType": "classFeat",
    "associations": {
      "classes": [
        [
          "Wizard"
        ]
      ]
    },
    "showInQuickbar": false,
    "nonlethal": false,
    "abilityType": "su",
    "crOffset": "",
    "attack": {
      "parts": []
    }
  },
  "flags": {},
  "img": "systems/pf1/icons/skills/violet_03.jpg",
  "effects": []
}