{
  "_id": "z4NJaCcj9VZpBv7d",
  "name": "Divine Bond",
  "permission": {
    "default": 0
  },
  "type": "feat",
  "data": {
    "description": {
      "value": "<p>Upon reaching 5th level, a paladin forms a divine bond with her god. This bond can take one of two forms. Once the form is chosen, it cannot be changed.</p>\n<p>The first type of bond allows the paladin to enhance her weapon as a standard action by calling upon the aid of a celestial spirit for 1 minute per paladin level. When called, the spirit causes the weapon to shed light as a torch. At 5th level, this spirit grants the weapon a +1 enhancement bonus. For every three levels beyond 5th, the weapon gains another +1 enhancement bonus, to a maximum of +6 at 20th level. These bonuses can be added to the weapon, stacking with existing weapon bonuses to a maximum of +5, or they can be used to add any of the following weapon properties:&nbsp;<a href=\"https://www.d20pfsrd.com/magic-items/magic-weapons#TOC-Axiomatic\">axiomatic</a>,&nbsp;<a href=\"https://www.d20pfsrd.com/magic-items/magic-weapons#TOC-Brilliant-Energy\">brilliant energy</a>,&nbsp;<a href=\"https://www.d20pfsrd.com/magic-items/magic-weapons#TOC-Defending\">defending</a>,&nbsp;<a href=\"https://www.d20pfsrd.com/magic-items/magic-weapons/magic-weapon-special-abilities/disruption/\">disruption</a>,&nbsp;<a href=\"https://www.d20pfsrd.com/magic-items/magic-weapons#TOC-Flaming\">flaming</a>,&nbsp;<a href=\"https://www.d20pfsrd.com/magic-items/magic-weapons#TOC-Flaming-Burst\">flaming burst</a>,&nbsp;<a href=\"https://www.d20pfsrd.com/magic-items/magic-weapons#TOC-Holy\">holy</a>,&nbsp;<a href=\"https://www.d20pfsrd.com/magic-items/magic-weapons#TOC-Keen\">keen</a>,&nbsp;<a href=\"https://www.d20pfsrd.com/magic-items/magic-weapons#TOC-Merciful\">merciful</a>, and&nbsp;<a href=\"https://www.d20pfsrd.com/magic-items/magic-weapons#TOC-Speed\">speed</a>. Adding these properties consumes an amount of bonus equal to the property’s cost (see&nbsp;Table: Melee Weapon Special Abilities). These bonuses are added to any properties the weapon already has, but duplicate abilities do not stack. If the weapon is not magical, at least a +1 enhancement bonus must be added before any other properties can be added. The bonus and properties granted by the spirit are determined when the spirit is called and cannot be changed until the spirit is called again. The celestial spirit imparts no bonuses if the weapon is held by anyone other than the paladin but resumes giving bonuses if returned to the paladin. These bonuses apply to only one end of a double weapon. A paladin can use this ability once per day at 5th level, and one additional time per day for every four levels beyond 5th, to a total of four times per day at 17th level.</p>\n<p>If a weapon bonded with a celestial spirit is destroyed, the paladin loses the use of this ability for 30 days, or until she gains a level, whichever comes first. During this 30-day period, the paladin takes a –1 penalty on attack and weapon damage rolls.</p>\n<p>The second type of bond allows a paladin to gain the service of an unusually intelligent, strong, and loyal steed to serve her in her crusade against evil. This mount is usually a heavy horse (for a Medium paladin) or a pony (for a Small paladin), although more exotic mounts, such as a boar, camel, or dog are also suitable. This mount functions as a druid’s&nbsp;<a href=\"https://www.d20pfsrd.com/classes/core-classes/druid/animal-companions\">animal companion</a>, using the paladin’s level as her effective druid level. Bonded mounts have an&nbsp;<a href=\"https://www.d20pfsrd.com/basics-ability-scores/ability-scores#TOC-Intelligence-Int-\">Intelligence</a>&nbsp;of at least 6.</p>\n<p>In addition to horses, a paladin may select (at the GM’s discretion) some less ordinary creatures.</p>\n<p>A Medium paladin can select an elk, giant seahorse, giraffe, yak,&nbsp;or zebra&nbsp;as a bonded mount.</p>\n<p>A Small paladin can select an antelope, capybara, eohippus, giant weasel, ram, reindeer, stag, or wolfdog&nbsp;as a bonded mount.</p>\n<p>The auspice, bodyguard, racer, and totem guide archetypes are all particularly appropriate for a paladin’s bonded mount.</p>\n<p>Once per day, as a full-round action, a paladin may magically call her mount to her side. This ability is the equivalent of a spell of a level equal to one-third the paladin’s level. The mount immediately appears adjacent to the paladin. A paladin can use this ability once per day at 5th level, and one additional time per day for every 4 levels thereafter, for a total of four times per day at 17th level.</p>\n<p>At 11th level, the mount gains the&nbsp;<a href=\"https://www.d20pfsrd.com/bestiary/monster-listings/templates/celestial-creature-cr-special\">celestial creature simple template</a>&nbsp;and becomes a&nbsp;<a href=\"https://www.d20pfsrd.com/bestiary/rules-for-monsters/creature-types#TOC-Magical-Beast\">magical beast</a>&nbsp;for the purposes of determining which spells affect it.</p>\n<p>At 15th level, a paladin’s mount gains&nbsp;<a href=\"https://www.d20pfsrd.com/gamemastering/special-abilities#TOC-Spell-Resistance\">spell resistance</a>&nbsp;equal to the paladin’s level + 11.</p>\n<p>Should the paladin’s mount die, the paladin may not summon another mount for 30 days or until she gains a paladin level, whichever comes first. During this 30-day period, the paladin takes a –1 penalty on attack and weapon damage rolls.</p>",
      "chat": "",
      "unidentified": ""
    },
    "tags": [],
    "activation": {
      "cost": 1,
      "type": "passive"
    },
    "unchainedAction": {
      "activation": {
        "cost": 1,
        "type": "passive"
      }
    },
    "duration": {
      "value": null,
      "units": ""
    },
    "target": {
      "value": ""
    },
    "range": {
      "value": null,
      "units": "",
      "maxIncrements": 1,
      "minValue": null,
      "minUnits": "",
      "long": null
    },
    "uses": {
      "value": 0,
      "max": 0,
      "per": "",
      "autoDeductCharges": true,
      "autoDeductChargesCost": "1"
    },
    "measureTemplate": {
      "type": "",
      "size": "0",
      "overrideColor": false,
      "customColor": "",
      "overrideTexture": false,
      "customTexture": ""
    },
    "attackName": "",
    "actionType": "",
    "attackBonus": "",
    "critConfirmBonus": "",
    "damage": {
      "parts": [],
      "critParts": [],
      "nonCritParts": []
    },
    "attackParts": [],
    "formula": "",
    "ability": {
      "attack": null,
      "damage": null,
      "damageMult": 1,
      "critRange": 20,
      "critMult": 2
    },
    "save": {
      "dc": 0,
      "type": "",
      "description": ""
    },
    "effectNotes": "",
    "attackNotes": "",
    "soundEffect": "",
    "changes": [],
    "changeFlags": {
      "loseDexToAC": false,
      "noStr": false,
      "noDex": false,
      "oneInt": false,
      "oneWis": false,
      "oneCha": false,
      "noEncumbrance": false,
      "mediumArmorFullSpeed": false,
      "heavyArmorFullSpeed": false
    },
    "contextNotes": [],
    "links": {
      "children": [],
      "charges": []
    },
    "tag": "",
    "useCustomTag": false,
    "armorProf": {
      "value": [],
      "custom": ""
    },
    "weaponProf": {
      "value": [],
      "custom": ""
    },
    "featType": "classFeat",
    "associations": {
      "classes": [
        [
          "Paladin"
        ]
      ]
    },
    "showInQuickbar": false,
    "nonlethal": false,
    "abilityType": "sp",
    "crOffset": "",
    "attack": {
      "parts": []
    }
  },
  "flags": {},
  "img": "systems/pf1/icons/feats/animal-affinity.jpg",
  "effects": []
}