{
  "_id": "MdApSQ6WTlfavex0",
  "name": "Dragonfly Aspect",
  "permission": {
    "default": 0
  },
  "type": "feat",
  "data": {
    "description": {
      "value": "<p><em>The aspect of the dragonfly offers the ability to make quick, darting attacks at foes.</em><br><br><strong>Minor Form:</strong> You gain an enhancement bonus of +10 feet to your base speed when charging.</p>\n<p>This bonus increases to +20 feet at 8th level and +30 feet at 15th level.<br><br><strong>Major Form:</strong> Your shape changes to that of a&nbsp;<a href=\"https://www.aonprd.com/MonsterDisplay.aspx?ItemName=Giant%20Dragonfly\">giant dragonfly</a>. While in this form, you gain a fly speed of 60 feet (average), darkvision with a range of 60 feet, and a bite attack (2d6) with the&nbsp;<a href=\"https://www.aonprd.com/UMR.aspx?ItemName=Grab\">grab</a>&nbsp;ability.</p>\n<p>At 8th level, you gain&nbsp;<a href=\"https://www.aonprd.com/FeatDisplay.aspx?ItemName=Flyby%20Attack\">Flyby Attack</a>&nbsp;as a bonus feat, and your fly speed improves to 60 feet (good).</p>\n<p>At 15th level, your fly speed increases to 80 feet (perfect), and if you charge while flying, you gain a +4 bonus on grapple combat maneuver checks for 1 round.<br><br><strong>Alternate Natural Attacks:</strong> Bite (B, P, S), wing (B)</p>",
      "chat": "",
      "unidentified": ""
    },
    "tags": [],
    "activation": {
      "cost": 1,
      "type": ""
    },
    "unchainedAction": {
      "activation": {
        "cost": 1,
        "type": ""
      }
    },
    "duration": {
      "value": null,
      "units": ""
    },
    "target": {
      "value": ""
    },
    "range": {
      "value": null,
      "units": "",
      "maxIncrements": 1,
      "minValue": null,
      "minUnits": "",
      "long": null
    },
    "uses": {
      "value": 0,
      "max": 0,
      "per": null,
      "autoDeductCharges": true,
      "autoDeductChargesCost": "1"
    },
    "measureTemplate": {
      "type": "",
      "size": "",
      "overrideColor": false,
      "customColor": "",
      "overrideTexture": false,
      "customTexture": ""
    },
    "attackName": "",
    "actionType": "",
    "attackBonus": "",
    "critConfirmBonus": "",
    "damage": {
      "parts": [],
      "critParts": [],
      "nonCritParts": []
    },
    "attackParts": [],
    "formula": "",
    "ability": {
      "attack": null,
      "damage": null,
      "damageMult": 1,
      "critRange": 20,
      "critMult": 2
    },
    "save": {
      "dc": 0,
      "type": "",
      "description": ""
    },
    "effectNotes": "",
    "attackNotes": "",
    "soundEffect": "",
    "changes": [],
    "changeFlags": {
      "loseDexToAC": false,
      "noStr": false,
      "noDex": false,
      "oneInt": false,
      "oneWis": false,
      "oneCha": false,
      "noEncumbrance": false,
      "mediumArmorFullSpeed": false,
      "heavyArmorFullSpeed": false
    },
    "contextNotes": [],
    "links": {
      "children": [],
      "charges": []
    },
    "tag": "",
    "useCustomTag": false,
    "armorProf": {
      "value": [],
      "custom": ""
    },
    "weaponProf": {
      "value": [],
      "custom": ""
    },
    "featType": "classFeat",
    "associations": {
      "classes": [
        [
          "Shifter"
        ]
      ]
    },
    "showInQuickbar": false,
    "nonlethal": false,
    "abilityType": "none",
    "crOffset": "",
    "attack": {
      "parts": []
    }
  },
  "flags": {},
  "img": "systems/pf1/icons/skills/blue_29.jpg",
  "effects": []
}