{
  "_id": "wnb7IxOCmhk4SXzR",
  "name": "Enchanting Smile",
  "permission": {
    "default": 0
  },
  "type": "feat",
  "data": {
    "description": {
      "value": "<p>You gain a +2 enhancement bonus on&nbsp;<a href=\"https://www.d20pfsrd.com/skills/bluff\" rel=\"nofollow\">Bluff</a>,&nbsp;<a href=\"https://www.d20pfsrd.com/skills/diplomacy\" rel=\"nofollow\">Diplomacy</a>, and&nbsp;<a href=\"https://www.d20pfsrd.com/skills/intimidate\" rel=\"nofollow\">Intimidate</a>&nbsp;skill checks. This bonus increases by +1 for every five wizard levels you possess, up to a maximum of +6 at 20th level. At 20th level, whenever you succeed at a&nbsp;<a href=\"https://www.d20pfsrd.com/gamemastering/combat#TOC-Saving-Throws\" rel=\"nofollow\">saving throw</a>&nbsp;against a spell of the enchantment school, that spell is reflected back at its caster, as per&nbsp;<a href=\"https://www.d20pfsrd.com/magic/all-spells/s/spell-turning\" rel=\"nofollow\">spell turning</a>.</p>",
      "chat": "",
      "unidentified": ""
    },
    "tags": [],
    "activation": {
      "cost": 1,
      "type": "passive"
    },
    "unchainedAction": {
      "activation": {
        "cost": 1,
        "type": "passive"
      }
    },
    "duration": {
      "value": null,
      "units": ""
    },
    "target": {
      "value": ""
    },
    "range": {
      "value": null,
      "units": "",
      "maxIncrements": 1,
      "minValue": null,
      "minUnits": "",
      "long": null
    },
    "uses": {
      "value": 0,
      "max": 0,
      "per": "",
      "autoDeductCharges": true,
      "autoDeductChargesCost": "1"
    },
    "measureTemplate": {
      "type": "",
      "size": "0",
      "overrideColor": false,
      "customColor": "",
      "overrideTexture": false,
      "customTexture": ""
    },
    "attackName": "",
    "actionType": "",
    "attackBonus": "",
    "critConfirmBonus": "",
    "damage": {
      "parts": [],
      "critParts": [],
      "nonCritParts": []
    },
    "attackParts": [],
    "formula": "",
    "ability": {
      "attack": null,
      "damage": null,
      "damageMult": 1,
      "critRange": 20,
      "critMult": 2
    },
    "save": {
      "dc": 0,
      "type": "",
      "description": ""
    },
    "effectNotes": "",
    "attackNotes": "",
    "soundEffect": "",
    "changes": [
      {
        "_id": "m2d5u906",
        "formula": "2 + floor(@classes.wizard.level / 5)",
        "operator": "+",
        "target": "skill",
        "subTarget": "skill.blf",
        "modifier": "untyped",
        "priority": 0,
        "value": 0
      },
      {
        "_id": "88fd5nrn",
        "formula": "2 + floor(@classes.wizard.level / 5)",
        "operator": "+",
        "target": "skill",
        "subTarget": "skill.dip",
        "modifier": "untyped",
        "priority": 0,
        "value": 0
      },
      {
        "_id": "0szwiif8",
        "formula": "2 + floor(@classes.wizard.level / 5)",
        "operator": "+",
        "target": "skill",
        "subTarget": "skill.int",
        "modifier": "untyped",
        "priority": 0,
        "value": 0
      }
    ],
    "changeFlags": {
      "loseDexToAC": false,
      "noStr": false,
      "noDex": false,
      "oneInt": false,
      "oneWis": false,
      "oneCha": false,
      "noEncumbrance": false,
      "mediumArmorFullSpeed": false,
      "heavyArmorFullSpeed": false
    },
    "contextNotes": [],
    "links": {
      "children": [],
      "charges": []
    },
    "tag": "",
    "useCustomTag": false,
    "armorProf": {
      "value": [],
      "custom": ""
    },
    "weaponProf": {
      "value": [],
      "custom": ""
    },
    "featType": "classFeat",
    "associations": {
      "classes": [
        [
          "Wizard"
        ]
      ]
    },
    "showInQuickbar": false,
    "nonlethal": false,
    "abilityType": "su",
    "crOffset": "",
    "attack": {
      "parts": []
    }
  },
  "flags": {},
  "img": "systems/pf1/icons/skills/light_07.jpg",
  "effects": []
}