{
  "_id": "dwoY5vaPtQychkk9",
  "name": "Enlightenment Discipline",
  "permission": {
    "default": 0
  },
  "type": "feat",
  "data": {
    "description": {
      "value": "<p>Your quest for enlightenment has opened your eyes to new concepts and heights of spiritual awareness. You seek learning that allows you to evolve in mind and spirit, improving your next incarnation.<br><br><strong>Phrenic Pool Ability:</strong> Wisdom<br><br><strong>Bonus Spells:</strong>&nbsp;</p>\n<ul>\n<li>@Compendium[pf1.spells.f9adpo6szijchpva]{Acute Senses} (1st),&nbsp;</li>\n<li>@Compendium[pf1.spells.llxrra87kbofmyhl]{Identify} (4th),&nbsp;</li>\n<li>@Compendium[pf1.spells.6kmkxepwgsbta6ui]{Clairaudience/Clairvoyance} (6th),&nbsp;</li>\n<li>@Compendium[pf1.spells.5wmn4airvkprv3gp]{Thoughtsense} (8th),&nbsp;</li>\n<li>@Compendium[pf1.spells.qr6qcx8zqum6jhc4]{Atonement} (10th),&nbsp;</li>\n<li>@Compendium[pf1.spells.ln4jpuurxbrfxw5j]{Arcane Sight, Greater} (12th),&nbsp;</li>\n<li>@Compendium[pf1.spells.y4881ol4t79wj7sf]{Circle Of Clarity} (14th),&nbsp;</li>\n<li>@Compendium[pf1.spells.0kppkhsencd6tzvh]{Protection from Spells} (16th),&nbsp;</li>\n<li>@Compendium[pf1.spells.xuuzj9lr2xbwaim4]{Overwhelming Presence} (18th).</li>\n</ul>",
      "chat": "",
      "unidentified": ""
    },
    "tags": [],
    "activation": {
      "cost": 1,
      "type": ""
    },
    "unchainedAction": {
      "activation": {
        "cost": 1,
        "type": ""
      }
    },
    "duration": {
      "value": null,
      "units": ""
    },
    "target": {
      "value": ""
    },
    "range": {
      "value": null,
      "units": "",
      "maxIncrements": 1,
      "minValue": null,
      "minUnits": "",
      "long": null
    },
    "uses": {
      "value": 0,
      "max": 0,
      "per": null,
      "autoDeductCharges": true,
      "autoDeductChargesCost": "1"
    },
    "measureTemplate": {
      "type": "",
      "size": "",
      "overrideColor": false,
      "customColor": "",
      "overrideTexture": false,
      "customTexture": ""
    },
    "attackName": "",
    "actionType": "",
    "attackBonus": "",
    "critConfirmBonus": "",
    "damage": {
      "parts": [],
      "critParts": [],
      "nonCritParts": []
    },
    "attackParts": [],
    "formula": "",
    "ability": {
      "attack": null,
      "damage": null,
      "damageMult": 1,
      "critRange": 20,
      "critMult": 2
    },
    "save": {
      "dc": 0,
      "type": "",
      "description": ""
    },
    "effectNotes": "",
    "attackNotes": "",
    "soundEffect": "",
    "changes": [],
    "changeFlags": {
      "loseDexToAC": false,
      "noStr": false,
      "noDex": false,
      "oneInt": false,
      "oneWis": false,
      "oneCha": false,
      "noEncumbrance": false,
      "mediumArmorFullSpeed": false,
      "heavyArmorFullSpeed": false
    },
    "contextNotes": [],
    "links": {
      "children": [],
      "charges": []
    },
    "tag": "",
    "useCustomTag": false,
    "armorProf": {
      "value": [],
      "custom": ""
    },
    "weaponProf": {
      "value": [],
      "custom": ""
    },
    "featType": "classFeat",
    "associations": {
      "classes": [
        [
          "Psychic"
        ]
      ]
    },
    "showInQuickbar": false,
    "nonlethal": false,
    "abilityType": "none",
    "crOffset": "",
    "attack": {
      "parts": []
    }
  },
  "flags": {},
  "img": "systems/pf1/icons/spells/slice-spirit-3.jpg",
  "effects": []
}