{
  "_id": "MQZC1Ahz2xhRZizR",
  "name": "Fate Patron",
  "permission": {
    "default": 0
  },
  "type": "feat",
  "data": {
    "description": {
      "value": "<ul>\n<li>2nd — @Compendium[pf1.spells.wa7p5zwwl1p0rt92]{Doom}</li>\n<li>4th — @Compendium[pf1.spells.ja1p1uuf8fp6fiox]{Anticipate Peril}</li>\n<li>6th — @Compendium[pf1.spells.fp5r5razueuqj8z8]{Helping Hand}</li>\n<li>8th — @Compendium[pf1.spells.scyklgov72pvw884]{Blessing Of Fervor}</li>\n<li>10th — @Compendium[pf1.spells.gn1u9cjc9phsczec]{Forbid Action, Greater}</li>\n<li>12th — @Compendium[pf1.spells.4br9puuneexco5hx]{Contingency}</li>\n<li>14th — @Compendium[pf1.spells.uze75g9ayg8icipx]{Jolting Portent}</li>\n<li>16th — @Compendium[pf1.spells.hi72gh3dlf7a1qyt]{Maze}</li>\n<li>18th — @Compendium[pf1.spells.nnj51dwfkwd15ngj]{Wish}</li>\n</ul>",
      "chat": "",
      "unidentified": ""
    },
    "tags": [],
    "activation": {
      "cost": 1,
      "type": ""
    },
    "unchainedAction": {
      "activation": {
        "cost": 1,
        "type": ""
      }
    },
    "duration": {
      "value": null,
      "units": ""
    },
    "target": {
      "value": ""
    },
    "range": {
      "value": null,
      "units": "",
      "maxIncrements": 1,
      "minValue": null,
      "minUnits": "",
      "long": null
    },
    "uses": {
      "value": 0,
      "max": 0,
      "per": null,
      "autoDeductCharges": true,
      "autoDeductChargesCost": "1"
    },
    "measureTemplate": {
      "type": "",
      "size": "",
      "overrideColor": false,
      "customColor": "",
      "overrideTexture": false,
      "customTexture": ""
    },
    "attackName": "",
    "actionType": "",
    "attackBonus": "",
    "critConfirmBonus": "",
    "damage": {
      "parts": [],
      "critParts": [],
      "nonCritParts": []
    },
    "attackParts": [],
    "formula": "",
    "ability": {
      "attack": null,
      "damage": null,
      "damageMult": 1,
      "critRange": 20,
      "critMult": 2
    },
    "save": {
      "dc": 0,
      "type": "",
      "description": ""
    },
    "effectNotes": "",
    "attackNotes": "",
    "soundEffect": "",
    "changes": [],
    "changeFlags": {
      "loseDexToAC": false,
      "noStr": false,
      "noDex": false,
      "oneInt": false,
      "oneWis": false,
      "oneCha": false,
      "noEncumbrance": false,
      "mediumArmorFullSpeed": false,
      "heavyArmorFullSpeed": false
    },
    "contextNotes": [],
    "links": {
      "children": [],
      "charges": []
    },
    "tag": "",
    "useCustomTag": false,
    "armorProf": {
      "value": [],
      "custom": ""
    },
    "weaponProf": {
      "value": [],
      "custom": ""
    },
    "featType": "classFeat",
    "associations": {
      "classes": [
        [
          "Witch"
        ]
      ]
    },
    "showInQuickbar": false,
    "nonlethal": false,
    "abilityType": "none",
    "crOffset": "",
    "attack": {
      "parts": []
    }
  },
  "flags": {},
  "img": "systems/pf1/icons/feats/improved-familiar.jpg",
  "effects": []
}