{
  "_id": "KbcnBk7n4tctvnI9",
  "name": "Fire Domain",
  "permission": {
    "default": 0
  },
  "type": "feat",
  "data": {
    "description": {
      "value": "<p><strong>Granted Powers:</strong> You can call forth fire, command creatures of the inferno, and your flesh does not burn.</p>\n<p><strong>Domain Spells:</strong></p>\n<ul>\n<li>1st—@Compendium[pf1.spells.lndeaqm2j2nvgm6p]{Burning Hands}</li>\n<li>2nd—@Compendium[pf1.spells.1b6irvf27vdt5c1l]{Produce Flame}</li>\n<li>3rd—@Compendium[pf1.spells.6oq1wcryviik9ice]{Fireball}</li>\n<li>4th—@Compendium[pf1.spells.92hth51cs9oi0nfe]{Wall Of Fire}</li>\n<li>5th—@Compendium[pf1.spells.nfm6i9z9r3n2fku7]{Fire Shield}</li>\n<li>6th—@Compendium[pf1.spells.0hknfnoaljc75fj3]{Fire Seeds}</li>\n<li>7th—@Compendium[pf1.spells.v42t5kpxc8mvd615]{Elemental Body IV} (fire only)</li>\n<li>8th—@Compendium[pf1.spells.iq0as5470o8q9y39]{Incendiary Cloud}</li>\n<li>9th—@Compendium[pf1.spells.pfy97qyneoa391ek]{Elemental Swarm} (fire spell only)</li>\n</ul>",
      "chat": "",
      "unidentified": ""
    },
    "tags": [],
    "activation": {
      "cost": 1,
      "type": ""
    },
    "unchainedAction": {
      "activation": {
        "cost": 1,
        "type": ""
      }
    },
    "duration": {
      "value": null,
      "units": ""
    },
    "target": {
      "value": ""
    },
    "range": {
      "value": null,
      "units": "",
      "maxIncrements": 1,
      "minValue": null,
      "minUnits": "",
      "long": null
    },
    "uses": {
      "value": 0,
      "max": 0,
      "per": null,
      "autoDeductCharges": true,
      "autoDeductChargesCost": "1"
    },
    "measureTemplate": {
      "type": "",
      "size": "0",
      "overrideColor": false,
      "customColor": "",
      "overrideTexture": false,
      "customTexture": ""
    },
    "attackName": "",
    "actionType": "",
    "attackBonus": "",
    "critConfirmBonus": "",
    "damage": {
      "parts": [],
      "critParts": [],
      "nonCritParts": []
    },
    "attackParts": [],
    "formula": "",
    "ability": {
      "attack": null,
      "damage": null,
      "damageMult": 1,
      "critRange": 20,
      "critMult": 2
    },
    "save": {
      "dc": 0,
      "type": "",
      "description": ""
    },
    "effectNotes": "",
    "attackNotes": "",
    "soundEffect": "",
    "changes": [],
    "changeFlags": {
      "loseDexToAC": false,
      "noStr": false,
      "noDex": false,
      "oneInt": false,
      "oneWis": false,
      "oneCha": false,
      "noEncumbrance": false,
      "mediumArmorFullSpeed": false,
      "heavyArmorFullSpeed": false
    },
    "contextNotes": [],
    "links": {
      "children": [],
      "charges": []
    },
    "tag": "",
    "useCustomTag": false,
    "armorProf": {
      "value": [],
      "custom": ""
    },
    "weaponProf": {
      "value": [],
      "custom": ""
    },
    "featType": "classFeat",
    "associations": {
      "classes": [
        [
          "Cleric"
        ]
      ]
    },
    "showInQuickbar": false,
    "nonlethal": false,
    "abilityType": "none",
    "crOffset": "",
    "attack": {
      "parts": []
    }
  },
  "flags": {},
  "img": "systems/pf1/icons/skills/fire_10.jpg",
  "effects": []
}