{
  "_id": "vcGT0hBqKwvkXEbi",
  "name": "God-Meddled Curse",
  "permission": {
    "default": 0
  },
  "type": "feat",
  "data": {
    "description": {
      "value": "<p>The isle of Iblydos is populated and watched over by hero-gods, some of whom are known for entangling mortals in their own affairs. The gods’ interference in your life has left you with strange, unpredictable powers dependent on divine whim. Bizarre side effects occur whenever you are affected by a spell from a divine caster—for better or for worse. Once per round, when a creature casts a divine spell including you as a target, roll 1d20 and consult the table below. The effect resulting from this roll begins at the end of that enemy’s turn. This effect targets only you, even if other creatures were included as targets of the triggering spell.</p>\n<p>At 5th level, you gain a +2 competence bonus on saving throws to resist divine spells.</p>\n<p>At 10th level, you become immune to the confused condition.</p>\n<p>At 15th level, you gain a +4 competence bonus on saving throws to resist mind-affecting effects.<br><br></p>\n<h2>God-Meddled Effects</h2>\n<table class=\"inner\" style=\"border-color: white; color: #ffffff; font-family: 'Century Gothic', CenturyGothic, AppleGothic, sans-serif; font-size: 15px; background-color: #0f0f0f; height: 456px;\">\n<tbody style=\"margin-top: 0px;\">\n<tr style=\"margin-top: 0px;\">\n<td style=\"margin: 0px; border: 1px solid white; padding: 1px 5px; text-align: center; height: 19px; width: 27px;\">d20</td>\n<td style=\"border: 1px solid white; padding: 1px 5px; margin: 0px; text-align: center; height: 19px; width: 341px;\">Effect</td>\n</tr>\n<tr style=\"background: #3e3e3e;\">\n<td style=\"margin: 0px; border: 1px solid white; padding: 1px 5px; text-align: center; height: 152px; width: 27px;\">1</td>\n<td style=\"border: 1px solid white; padding: 1px 5px; margin: 0px; text-align: center; height: 152px; width: 341px;\">You provoke an attack of opportunity from one enemy adjacent to you. If no enemy is adjacent, the closest enemy can move its full movement speed in your direction as a free action. If multiple enemies qualify, the GM determines which creature attacks or moves. This movement does not trigger attacks of opportunity.</td>\n</tr>\n<tr style=\"height: 19px;\">\n<td style=\"margin: 0px; border: 1px solid white; padding: 1px 5px; text-align: center; height: 19px; width: 27px;\">2-3</td>\n<td style=\"border: 1px solid white; padding: 1px 5px; margin: 0px; text-align: center; height: 19px; width: 341px;\">Your movement speed is halved for 1 round.</td>\n</tr>\n<tr style=\"background: #3e3e3e;\">\n<td style=\"margin: 0px; border: 1px solid white; padding: 1px 5px; text-align: center; height: 19px; width: 27px;\">4-5</td>\n<td style=\"border: 1px solid white; padding: 1px 5px; margin: 0px; text-align: center; height: 19px; width: 341px;\">You are deafened for 1 round.</td>\n</tr>\n<tr style=\"height: 19px;\">\n<td style=\"margin: 0px; border: 1px solid white; padding: 1px 5px; text-align: center; height: 19px; width: 27px;\">6-7</td>\n<td style=\"border: 1px solid white; padding: 1px 5px; margin: 0px; text-align: center; height: 19px; width: 341px;\">You are knocked prone.</td>\n</tr>\n<tr style=\"background: #3e3e3e;\">\n<td style=\"margin: 0px; border: 1px solid white; padding: 1px 5px; text-align: center; height: 38px; width: 27px;\">8-10</td>\n<td style=\"border: 1px solid white; padding: 1px 5px; margin: 0px; text-align: center; height: 38px; width: 341px;\">You shrink by one size category for 1 round, as @Compendium[pf1.spells.2y9e1l6zso9tdg0a]{Reduce Person}.</td>\n</tr>\n<tr style=\"height: 38px;\">\n<td style=\"margin: 0px; border: 1px solid white; padding: 1px 5px; text-align: center; height: 38px; width: 27px;\">11-13</td>\n<td style=\"border: 1px solid white; padding: 1px 5px; margin: 0px; text-align: center; height: 38px; width: 341px;\">You grow by one size category for 1 round, as @Compendium[pf1.spells.jnlr9cuepka1l26e]{Enlarge Person}.</td>\n</tr>\n<tr style=\"background: #3e3e3e;\">\n<td style=\"margin: 0px; border: 1px solid white; padding: 1px 5px; text-align: center; height: 38px; width: 27px;\">14-15</td>\n<td style=\"border: 1px solid white; padding: 1px 5px; margin: 0px; text-align: center; height: 38px; width: 341px;\">Your caster level is treated as 1 higher for the purpose of spell durations for 1 round.</td>\n</tr>\n<tr style=\"height: 57px;\">\n<td style=\"margin: 0px; border: 1px solid white; padding: 1px 5px; text-align: center; height: 57px; width: 27px;\">16-17</td>\n<td style=\"border: 1px solid white; padding: 1px 5px; margin: 0px; text-align: center; height: 57px; width: 341px;\">Creatures in squares adjacent to you are pushed 10 feet away from the space you occupy.</td>\n</tr>\n<tr style=\"background: #3e3e3e;\">\n<td style=\"margin: 0px; border: 1px solid white; padding: 1px 5px; text-align: center; height: 38px; width: 27px;\">18-19</td>\n<td style=\"border: 1px solid white; padding: 1px 5px; margin: 0px; text-align: center; height: 38px; width: 341px;\">You are able to understand all languages for 1 round.</td>\n</tr>\n<tr style=\"height: 19px;\">\n<td style=\"margin: 0px; border: 1px solid white; padding: 1px 5px; text-align: center; height: 19px; width: 27px;\">20</td>\n<td style=\"border: 1px solid white; padding: 1px 5px; margin: 0px; text-align: center; height: 19px; width: 341px;\">You gain the benefits of @Compendium[pf1.spells.s9amdo5398alb5p0]{Haste}&nbsp;for 1 round.</td>\n</tr>\n</tbody>\n</table>",
      "chat": "",
      "unidentified": ""
    },
    "tags": [],
    "activation": {
      "cost": 1,
      "type": ""
    },
    "unchainedAction": {
      "activation": {
        "cost": 1,
        "type": ""
      }
    },
    "duration": {
      "value": null,
      "units": ""
    },
    "target": {
      "value": ""
    },
    "range": {
      "value": null,
      "units": "",
      "maxIncrements": 1,
      "minValue": null,
      "minUnits": "",
      "long": null
    },
    "uses": {
      "value": 0,
      "max": 0,
      "per": null,
      "autoDeductCharges": true,
      "autoDeductChargesCost": "1"
    },
    "measureTemplate": {
      "type": "",
      "size": "",
      "overrideColor": false,
      "customColor": "",
      "overrideTexture": false,
      "customTexture": ""
    },
    "attackName": "",
    "actionType": "",
    "attackBonus": "",
    "critConfirmBonus": "",
    "damage": {
      "parts": [],
      "critParts": [],
      "nonCritParts": []
    },
    "attackParts": [],
    "formula": "",
    "ability": {
      "attack": null,
      "damage": null,
      "damageMult": 1,
      "critRange": 20,
      "critMult": 2
    },
    "save": {
      "dc": 0,
      "type": "",
      "description": ""
    },
    "effectNotes": "",
    "attackNotes": "",
    "soundEffect": "",
    "changes": [],
    "changeFlags": {
      "loseDexToAC": false,
      "noStr": false,
      "noDex": false,
      "oneInt": false,
      "oneWis": false,
      "oneCha": false,
      "noEncumbrance": false,
      "mediumArmorFullSpeed": false,
      "heavyArmorFullSpeed": false
    },
    "contextNotes": [],
    "links": {
      "children": [],
      "charges": []
    },
    "tag": "",
    "useCustomTag": false,
    "armorProf": {
      "value": [],
      "custom": ""
    },
    "weaponProf": {
      "value": [],
      "custom": ""
    },
    "featType": "classFeat",
    "associations": {
      "classes": [
        [
          "Oracle"
        ]
      ]
    },
    "showInQuickbar": false,
    "nonlethal": false,
    "abilityType": "none",
    "crOffset": "",
    "attack": {
      "parts": []
    }
  },
  "flags": {},
  "img": "systems/pf1/icons/spells/horror-eerie-1.jpg",
  "effects": []
}