{
  "_id": "Ah0k65fajVE804wu",
  "name": "Grappling Infusion",
  "permission": {
    "default": 0
  },
  "type": "feat",
  "data": {
    "description": {
      "value": "<p><strong>Element&nbsp;</strong>universal;&nbsp;<strong>Type&nbsp;</strong>substance infusion;&nbsp;<strong>Level&nbsp;</strong>5;&nbsp;<strong>Burn&nbsp;</strong>3<br><strong>Associated Blasts&nbsp;</strong>any<br><strong>Saving Throw&nbsp;</strong>none</p>\n<p>Your cloud, deadly earth, or wall blast grows tendrils that hold your enemies in place. Whenever a creature takes damage from the infused blast, you can attempt a combat maneuver check to have the blast grapple that opponent. Your bonus on this check is equal to 2 + your kineticist level + your Constitution modifier (treat the blast as a Huge creature). The blast only grapples opponents; it can’t perform other functions of grapple maneuvers such as pinning or moving the opponent.</p>\n<p>If the blast is already grappling an opponent, it receives a +5 bonus on its combat maneuver check to maintain the grapple, as normal. You can use this infusion only if you also use the cloud, deadly earth, or wall form infusion.</p>",
      "chat": "",
      "unidentified": ""
    },
    "tags": [],
    "activation": {
      "cost": 1,
      "type": ""
    },
    "unchainedAction": {
      "activation": {
        "cost": 1,
        "type": ""
      }
    },
    "duration": {
      "value": null,
      "units": ""
    },
    "target": {
      "value": ""
    },
    "range": {
      "value": null,
      "units": "",
      "maxIncrements": 1,
      "minValue": null,
      "minUnits": "",
      "long": null
    },
    "uses": {
      "value": 0,
      "max": 0,
      "per": null,
      "autoDeductCharges": true,
      "autoDeductChargesCost": "1"
    },
    "measureTemplate": {
      "type": "",
      "size": "",
      "overrideColor": false,
      "customColor": "",
      "overrideTexture": false,
      "customTexture": ""
    },
    "attackName": "",
    "actionType": "",
    "attackBonus": "",
    "critConfirmBonus": "",
    "damage": {
      "parts": [],
      "critParts": [],
      "nonCritParts": []
    },
    "attackParts": [],
    "formula": "",
    "ability": {
      "attack": null,
      "damage": null,
      "damageMult": 1,
      "critRange": 20,
      "critMult": 2
    },
    "save": {
      "dc": 0,
      "type": "",
      "description": ""
    },
    "effectNotes": "",
    "attackNotes": "",
    "soundEffect": "",
    "changes": [],
    "changeFlags": {
      "loseDexToAC": false,
      "noStr": false,
      "noDex": false,
      "oneInt": false,
      "oneWis": false,
      "oneCha": false,
      "noEncumbrance": false,
      "mediumArmorFullSpeed": false,
      "heavyArmorFullSpeed": false
    },
    "contextNotes": [],
    "links": {
      "children": [],
      "charges": []
    },
    "tag": "",
    "useCustomTag": false,
    "armorProf": {
      "value": [],
      "custom": ""
    },
    "weaponProf": {
      "value": [],
      "custom": ""
    },
    "featType": "classFeat",
    "associations": {
      "classes": [
        [
          "Kineticist"
        ]
      ]
    },
    "showInQuickbar": false,
    "nonlethal": false,
    "abilityType": "none",
    "crOffset": "",
    "attack": {
      "parts": []
    }
  },
  "flags": {},
  "img": "systems/pf1/icons/spells/runes-blue-1.jpg",
  "effects": []
}