{
  "_id": "Go7S9L2FSDAlLsNW",
  "name": "Guardian Spirit",
  "permission": {
    "default": 0
  },
  "type": "feat",
  "data": {
    "description": {
      "value": "<p><em>A guardian spirit is an exemplar of protection and defense.</em></p>\n<p><br><strong>Spirit Bonus: </strong>When you channel a guardian, your spirit bonus applies to AC and on Constitution checks, Fortitude saves, and Reflex saves.</p>\n<p><strong>Seance Boon: </strong>You gain a +1 bonus to CMD.</p>\n<p><strong>Favored Locations: </strong>City walls, forts, gates, keeps.</p>\n<p><strong>Influence Penalty: </strong>You are incredibly cautious and guarded in all things, and your caution sometimes gets in the way. When attacking, you always fight defensively, and when casting a spell, you always cast defensively. Because of your focus on defense, you take a penalty on damage rolls equal to your spirit bonus.</p>\n<p><strong>Taboos: </strong>Choose one: you must always protect others from danger when you can (including defeated enemies, but not enemies that are an active threat to you and others); you must keep your body in fit physical condition, and you break this taboo every time you drop below half your maximum hit points; you must speak no words and use no abilities with the sonic descriptor, and you break this taboo if you become enraged, frightened, or panicked.</p>",
      "chat": "",
      "unidentified": ""
    },
    "tags": [],
    "activation": {
      "cost": 1,
      "type": ""
    },
    "unchainedAction": {
      "activation": {
        "cost": 1,
        "type": ""
      }
    },
    "duration": {
      "value": null,
      "units": ""
    },
    "target": {
      "value": ""
    },
    "range": {
      "value": null,
      "units": "",
      "maxIncrements": 1,
      "minValue": null,
      "minUnits": "",
      "long": null
    },
    "uses": {
      "value": 0,
      "max": 0,
      "per": null,
      "autoDeductCharges": true,
      "autoDeductChargesCost": "1"
    },
    "measureTemplate": {
      "type": "",
      "size": "",
      "overrideColor": false,
      "customColor": "",
      "overrideTexture": false,
      "customTexture": ""
    },
    "attackName": "",
    "actionType": "",
    "attackBonus": "",
    "critConfirmBonus": "",
    "damage": {
      "parts": [],
      "critParts": [],
      "nonCritParts": []
    },
    "attackParts": [],
    "formula": "",
    "ability": {
      "attack": null,
      "damage": null,
      "damageMult": 1,
      "critRange": 20,
      "critMult": 2
    },
    "save": {
      "dc": 0,
      "type": "",
      "description": ""
    },
    "effectNotes": "",
    "attackNotes": "",
    "soundEffect": "",
    "changes": [],
    "changeFlags": {
      "loseDexToAC": false,
      "noStr": false,
      "noDex": false,
      "oneInt": false,
      "oneWis": false,
      "oneCha": false,
      "noEncumbrance": false,
      "mediumArmorFullSpeed": false,
      "heavyArmorFullSpeed": false
    },
    "contextNotes": [],
    "links": {
      "children": [],
      "charges": []
    },
    "tag": "",
    "useCustomTag": false,
    "armorProf": {
      "value": [],
      "custom": ""
    },
    "weaponProf": {
      "value": [],
      "custom": ""
    },
    "featType": "classFeat",
    "associations": {
      "classes": [
        [
          "Medium"
        ]
      ]
    },
    "showInQuickbar": false,
    "nonlethal": false,
    "abilityType": "none",
    "crOffset": "",
    "attack": {
      "parts": []
    }
  },
  "flags": {},
  "img": "systems/pf1/icons/skills/blue_18.jpg",
  "effects": []
}