{
  "_id": "cLu4xA5vSXJZKJ1G",
  "name": "Hag Bloodrager Bloodline",
  "permission": {
    "default": 0
  },
  "type": "feat",
  "data": {
    "description": {
      "value": "<p><em>Hags interbreed with other races frequently, and those children who escape their grasp may pass their heritage on to later generations before it reemerges. The potent humors that accompany hag blood are better suited to a bloodrager’s ferocity than to traditional spellcasting.</em><br><br>Bonus Feats:</p>\n<ul>\n<li>@Compendium[pf1.feats.pmAO1Sni8xx71pLF]{Blind-Fight}</li>\n<li>@Compendium[pf1.feats.SUACufUXl12sUvnQ]{Deceitful}</li>\n<li>@Compendium[pf1.feats.fVRnBIHR4Jq6btvm]{Great Fortitude}</li>\n<li>Improved Natural Attack,</li>\n<li>@Compendium[pf1.feats.O0jbkTJcIji9BNiF]{Intimidating Prowess}</li>\n<li>Mother’s Gift.</li>\n</ul>\n<p>Bonus Spells:&nbsp;</p>\n<ul>\n<li>@Compendium[pf1.spells.to1cdmyh5rtfyg2s]{Chill Touch} (7th),&nbsp;</li>\n<li>@Compendium[pf1.spells.k7cf5gshkp8xxqux]{Blindness/Deafness} (10th),&nbsp;</li>\n<li>@Compendium[pf1.spells.lsboosfk26m0ycqv]{Bestow Curse} (13th),&nbsp;</li>\n<li>@Compendium[pf1.spells.smbkd2yobhshbpqf]{Charm Monster} (16th)</li>\n</ul>",
      "chat": "",
      "unidentified": ""
    },
    "tags": [],
    "activation": {
      "cost": 1,
      "type": ""
    },
    "unchainedAction": {
      "activation": {
        "cost": 1,
        "type": ""
      }
    },
    "duration": {
      "value": null,
      "units": ""
    },
    "target": {
      "value": ""
    },
    "range": {
      "value": null,
      "units": "",
      "maxIncrements": 1,
      "minValue": null,
      "minUnits": "",
      "long": null
    },
    "uses": {
      "value": 0,
      "max": 0,
      "per": null,
      "autoDeductCharges": true,
      "autoDeductChargesCost": "1"
    },
    "measureTemplate": {
      "type": "",
      "size": "",
      "overrideColor": false,
      "customColor": "",
      "overrideTexture": false,
      "customTexture": ""
    },
    "attackName": "",
    "actionType": "",
    "attackBonus": "",
    "critConfirmBonus": "",
    "damage": {
      "parts": [],
      "critParts": [],
      "nonCritParts": []
    },
    "attackParts": [],
    "formula": "",
    "ability": {
      "attack": null,
      "damage": null,
      "damageMult": 1,
      "critRange": 20,
      "critMult": 2
    },
    "save": {
      "dc": 0,
      "type": "",
      "description": ""
    },
    "effectNotes": "",
    "attackNotes": "",
    "soundEffect": "",
    "changes": [],
    "changeFlags": {
      "loseDexToAC": false,
      "noStr": false,
      "noDex": false,
      "oneInt": false,
      "oneWis": false,
      "oneCha": false,
      "noEncumbrance": false,
      "mediumArmorFullSpeed": false,
      "heavyArmorFullSpeed": false
    },
    "contextNotes": [],
    "links": {
      "children": [],
      "charges": []
    },
    "tag": "",
    "useCustomTag": false,
    "armorProf": {
      "value": [],
      "custom": ""
    },
    "weaponProf": {
      "value": [],
      "custom": ""
    },
    "featType": "classFeat",
    "associations": {
      "classes": [
        [
          "Bloodrager"
        ]
      ]
    },
    "showInQuickbar": false,
    "nonlethal": false,
    "abilityType": "none",
    "crOffset": "",
    "attack": {
      "parts": []
    }
  },
  "flags": {},
  "img": "systems/pf1/icons/skills/red_13.jpg",
  "effects": []
}