{
  "_id": "yHDVCenLfvduBVM7",
  "name": "Infernal Bloodline",
  "permission": {
    "default": 0
  },
  "type": "feat",
  "data": {
    "description": {
      "value": "<p><em>Somewhere in your family’s history, a relative made a deal with a devil, and that pact has influenced your family line ever since. In you, it manifests in direct and obvious ways, granting you powers and abilities. While your fate is still your own, you can’t help but wonder if your ultimate reward is bound to the Pit.</em></p>\n<p><strong>Class Skill:</strong>&nbsp;<a href=\"https://www.d20pfsrd.com/skills/diplomacy\" rel=\"nofollow\">Diplomacy</a>.</p>\n<p><strong>Bonus Spells:</strong></p>\n<ul>\n<li>@Compendium[pf1.spells.71g6nmvy8qnodwyz]{Protection From Good}&nbsp;(3rd),</li>\n<li>@Compendium[pf1.spells.q4ixxjb4v281g2xv]{Scorching Ray}&nbsp;(5th),</li>\n<li>@Compendium[pf1.spells.zqj5qzyl46af27v0]{Suggestion}&nbsp;(7th),</li>\n<li>@Compendium[pf1.spells.smbkd2yobhshbpqf]{Charm Monster}&nbsp;(9th),</li>\n<li>@Compendium[pf1.spells.q070n0zoq3zojpas]{Dominate Person}&nbsp;(11th),</li>\n<li>@Compendium[pf1.spells.qf4bqjgeff1q4hjt]{Planar Binding}&nbsp;(devils and creatures with the fiendish template only) (13th),</li>\n<li>@Compendium[pf1.spells.5cdmojmydhwowzy1]{Teleport, Greater}&nbsp;(15th),</li>\n<li>@Compendium[pf1.spells.ol9newf4vrcx0kpf]{Power Word Stun}&nbsp;(17th),</li>\n<li>@Compendium[pf1.spells.xhzme0v6tjq95fg6]{Meteor Swarm}&nbsp;(19th).</li>\n</ul>\n<p><strong>Bonus Feats:</strong></p>\n<ul>\n<li>@Compendium[pf1.feats.pmAO1Sni8xx71pLF]{Blind-Fight},</li>\n<li>@Compendium[pf1.feats.NFxHebU1XhEs5WJh]{Combat Expertise},</li>\n<li>@Compendium[pf1.feats.SUACufUXl12sUvnQ]{Deceitful},</li>\n<li>@Compendium[pf1.feats.btXWioB3SKJv8YEG]{Extend Spell},</li>\n<li>@Compendium[pf1.feats.711B9WNFgpdDKKf2]{Improved Disarm},&nbsp;</li>\n<li>@Compendium[pf1.feats.iAbIGhm7T2OK9Brt]{Iron Will},</li>\n<li>@Compendium[pf1.feats.7zJTztNW7hdaqjKc]{Skill Focus}&nbsp;(<a href=\"https://www.d20pfsrd.com/skills/knowledge\" rel=\"nofollow\">Knowledge</a>&nbsp;[planes]),</li>\n<li>@Compendium[pf1.feats.nWFr8SNcjcMqsXSH]{Spell Penetration}.<a name=\"TOC-Bloodline-Arcana\"></a></li>\n</ul>\n<p><strong>Bloodline Arcana:</strong> Whenever you cast a spell of the&nbsp;<a href=\"https://www.d20pfsrd.com/magic#charm\" rel=\"nofollow\">charm</a>&nbsp;subschool, increase the spell’s DC by +2.</p>",
      "chat": "",
      "unidentified": ""
    },
    "tags": [],
    "activation": {
      "cost": 1,
      "type": ""
    },
    "unchainedAction": {
      "activation": {
        "cost": 1,
        "type": ""
      }
    },
    "duration": {
      "value": null,
      "units": ""
    },
    "target": {
      "value": ""
    },
    "range": {
      "value": null,
      "units": "",
      "maxIncrements": 1,
      "minValue": null,
      "minUnits": "",
      "long": null
    },
    "uses": {
      "value": 0,
      "max": 0,
      "per": null,
      "autoDeductCharges": true,
      "autoDeductChargesCost": "1"
    },
    "measureTemplate": {
      "type": "",
      "size": "0",
      "overrideColor": false,
      "customColor": "",
      "overrideTexture": false,
      "customTexture": ""
    },
    "attackName": "",
    "actionType": "",
    "attackBonus": "",
    "critConfirmBonus": "",
    "damage": {
      "parts": [],
      "critParts": [],
      "nonCritParts": []
    },
    "attackParts": [],
    "formula": "",
    "ability": {
      "attack": null,
      "damage": null,
      "damageMult": 1,
      "critRange": 20,
      "critMult": 2
    },
    "save": {
      "dc": 0,
      "type": "",
      "description": ""
    },
    "effectNotes": "",
    "attackNotes": "",
    "soundEffect": "",
    "changes": [],
    "changeFlags": {
      "loseDexToAC": false,
      "noStr": false,
      "noDex": false,
      "oneInt": false,
      "oneWis": false,
      "oneCha": false,
      "noEncumbrance": false,
      "mediumArmorFullSpeed": false,
      "heavyArmorFullSpeed": false
    },
    "contextNotes": [],
    "links": {
      "children": [],
      "charges": []
    },
    "tag": "",
    "useCustomTag": false,
    "armorProf": {
      "value": [],
      "custom": ""
    },
    "weaponProf": {
      "value": [],
      "custom": ""
    },
    "featType": "classFeat",
    "associations": {
      "classes": [
        [
          "Sorcerer"
        ]
      ]
    },
    "showInQuickbar": false,
    "nonlethal": false,
    "abilityType": "none",
    "crOffset": "",
    "attack": {
      "parts": []
    }
  },
  "flags": {},
  "img": "systems/pf1/icons/skills/blood_13.jpg",
  "effects": []
}