{
  "_id": "51FDels17DGl7Yq9",
  "name": "Legend Subdomain",
  "permission": {
    "default": 0
  },
  "type": "feat",
  "data": {
    "description": {
      "value": "<p><strong>Replacement Power:</strong> In campaigns that use the optional hero point system (Pathfinder RPG Advanced Player’s Guide 322), you gain Hero’s Fortune (Advanced Player’s Guide 324) as a bonus feat. Otherwise, you gain Marked for Glory (Pathfinder RPG Mythic Adventures 69) as a bonus feat, even if you do not meet its prerequisites.</p>\n<p><strong>Replacement Domain Spells:</strong></p>\n<ul>\n<li>2nd—@Compendium[pf1.spells.ibk7jrc5rwubpia6]{Aid}, 3rd—@Compendium[pf1.spells.3wcvosazm31i8758]{Contagious Zeal}</li>\n<li>4th— @Compendium[pf1.spells.dm52jk1e37b05v9d]{Righteous Vigor}</li>\n<li>6th— @Compendium[pf1.spells.p4h6ocn0axh59xrc]{Unshakable Zeal}</li>\n<li>If you are evil, replace the domain spells @Compendium[pf1.spells.erndkoe44rgj0lob]{Holy Smite}, @Compendium[pf1.spells.osi62mwn6rpkwlm6]{Holy Sword}, and @Compendium[pf1.spells.n0vm6or4nwaylpfa]{Holy Aura} with @Compendium[pf1.spells.okui7mft5bquqfrg]{Unholy Blight}, @Compendium[pf1.spells.ftrg3ira8jwicetv]{Unholy Sword}, and @Compendium[pf1.spells.flrn1xmm2wfrxbkf]{Unholy Aura} respectively.</li>\n</ul>",
      "chat": "",
      "unidentified": ""
    },
    "tags": [],
    "activation": {
      "cost": 1,
      "type": ""
    },
    "unchainedAction": {
      "activation": {
        "cost": 1,
        "type": ""
      }
    },
    "duration": {
      "value": null,
      "units": ""
    },
    "target": {
      "value": ""
    },
    "range": {
      "value": null,
      "units": "",
      "maxIncrements": 1,
      "minValue": null,
      "minUnits": "",
      "long": null
    },
    "uses": {
      "value": 0,
      "max": 0,
      "per": null,
      "autoDeductCharges": true,
      "autoDeductChargesCost": "1"
    },
    "measureTemplate": {
      "type": "",
      "size": "0",
      "overrideColor": false,
      "customColor": "",
      "overrideTexture": false,
      "customTexture": ""
    },
    "attackName": "",
    "actionType": "",
    "attackBonus": "",
    "critConfirmBonus": "",
    "damage": {
      "parts": [],
      "critParts": [],
      "nonCritParts": []
    },
    "attackParts": [],
    "formula": "",
    "ability": {
      "attack": null,
      "damage": null,
      "damageMult": 1,
      "critRange": 20,
      "critMult": 2
    },
    "save": {
      "dc": 0,
      "type": "",
      "description": ""
    },
    "effectNotes": "",
    "attackNotes": "",
    "soundEffect": "",
    "changes": [],
    "changeFlags": {
      "loseDexToAC": false,
      "noStr": false,
      "noDex": false,
      "oneInt": false,
      "oneWis": false,
      "oneCha": false,
      "noEncumbrance": false,
      "mediumArmorFullSpeed": false,
      "heavyArmorFullSpeed": false
    },
    "contextNotes": [],
    "links": {
      "children": [],
      "charges": []
    },
    "tag": "",
    "useCustomTag": false,
    "armorProf": {
      "value": [],
      "custom": ""
    },
    "weaponProf": {
      "value": [],
      "custom": ""
    },
    "featType": "classFeat",
    "associations": {
      "classes": [
        [
          "Cleric"
        ]
      ]
    },
    "showInQuickbar": false,
    "nonlethal": false,
    "abilityType": "none",
    "crOffset": "",
    "attack": {
      "parts": []
    }
  },
  "flags": {},
  "img": "systems/pf1/icons/skills/yellow_07.jpg",
  "effects": []
}