{
  "_id": "zAlltOosqAw3v0d4",
  "name": "Metal Mystery",
  "permission": {
    "default": 0
  },
  "type": "feat",
  "data": {
    "description": {
      "value": "<p><strong>Class Skills:</strong> An oracle with the metal mystery adds Appraise, Bluff, Disable Device, and Intimidate to her list of class skills.<br><br><strong>Bonus Spells:</strong>&nbsp;</p>\n<ul>\n<li>@Compendium[pf1.spells.d0rd4z2kcln69xif]{Lead Blades} (2nd),&nbsp;</li>\n<li>@Compendium[pf1.spells.3b1x69kfhnsa2d54]{Heat Metal} (4th),&nbsp;</li>\n<li>@Compendium[pf1.spells.bbrkkjmgo5kof6gn]{Keen Edge} (6th),&nbsp;</li>\n<li>@Compendium[pf1.spells.vjnynvz1omleni8a]{Versatile Weapon} (8th),&nbsp;</li>\n<li>@Compendium[pf1.spells.b8lt1275mz4ez4d8]{Major Creation} (metal items only) (10th),&nbsp;</li>\n<li>@Compendium[pf1.spells.fnxgq54y02f6ri82]{Wall of Iron}&nbsp;(12th),&nbsp;</li>\n<li>@Compendium[pf1.spells.g52zx1t1giteg5h1]{Statue} (metal statue instead of iron) (14th),&nbsp;</li>\n<li>@Compendium[pf1.spells.oeemcnfjod9zd7my]{Repel Metal or Stone} (16th),&nbsp;</li>\n<li>@Compendium[pf1.spells.mkrjbrp57yfdqrx0]{Iron Body} (18th).</li>\n</ul>",
      "chat": "",
      "unidentified": ""
    },
    "tags": [],
    "activation": {
      "cost": 1,
      "type": ""
    },
    "unchainedAction": {
      "activation": {
        "cost": 1,
        "type": ""
      }
    },
    "duration": {
      "value": null,
      "units": ""
    },
    "target": {
      "value": ""
    },
    "range": {
      "value": null,
      "units": "",
      "maxIncrements": 1,
      "minValue": null,
      "minUnits": "",
      "long": null
    },
    "uses": {
      "value": 0,
      "max": 0,
      "per": null,
      "autoDeductCharges": true,
      "autoDeductChargesCost": "1"
    },
    "measureTemplate": {
      "type": "",
      "size": "",
      "overrideColor": false,
      "customColor": "",
      "overrideTexture": false,
      "customTexture": ""
    },
    "attackName": "",
    "actionType": "",
    "attackBonus": "",
    "critConfirmBonus": "",
    "damage": {
      "parts": [],
      "critParts": [],
      "nonCritParts": []
    },
    "attackParts": [],
    "formula": "",
    "ability": {
      "attack": null,
      "damage": null,
      "damageMult": 1,
      "critRange": 20,
      "critMult": 2
    },
    "save": {
      "dc": 0,
      "type": "",
      "description": ""
    },
    "effectNotes": "",
    "attackNotes": "",
    "soundEffect": "",
    "changes": [],
    "changeFlags": {
      "loseDexToAC": false,
      "noStr": false,
      "noDex": false,
      "oneInt": false,
      "oneWis": false,
      "oneCha": false,
      "noEncumbrance": false,
      "mediumArmorFullSpeed": false,
      "heavyArmorFullSpeed": false
    },
    "contextNotes": [],
    "links": {
      "children": [],
      "charges": []
    },
    "tag": "",
    "useCustomTag": false,
    "armorProf": {
      "value": [],
      "custom": ""
    },
    "weaponProf": {
      "value": [],
      "custom": ""
    },
    "featType": "classFeat",
    "associations": {
      "classes": [
        [
          "Oracle"
        ]
      ]
    },
    "showInQuickbar": false,
    "nonlethal": false,
    "abilityType": "none",
    "crOffset": "",
    "attack": {
      "parts": []
    }
  },
  "flags": {},
  "img": "systems/pf1/icons/spells/light-magenta-2.jpg",
  "effects": []
}