{
  "_id": "qJIdQ0udgHVZEhui",
  "name": "Nanite Resurgence",
  "permission": {
    "default": 0
  },
  "type": "feat",
  "data": {
    "description": {
      "value": "<p>At 9th level, once per day as an&nbsp;<a href=\"https://www.d20pfsrd.com/gamemastering/combat#TOC-Immediate-Actions\">immediate action</a>&nbsp;upon being reduced to one-quarter your maximum&nbsp;<a href=\"https://www.d20pfsrd.com/gamemastering/combat#TOC-Hit-Points\">hit points</a>, you can force the mechanical&nbsp;<a href=\"https://www.d20pfsrd.com/bestiary/rules-for-monsters/creature-types#TOC-Swarm\">swarm</a>&nbsp;living inside you to keep you alive. This ability functions like a @Compendium[pf1.spells.u7y6niex9e7tbhyp]{Resurgent Transformation}&nbsp;spell using your&nbsp;<a href=\"https://www.d20pfsrd.com/classes/core-classes/sorcerer\">sorcerer</a>&nbsp;level as the&nbsp;<a href=\"https://www.d20pfsrd.com/magic#TOC-Caster-Level\">caster level</a>, except it is an extraordinary ability and cannot be dispelled.</p>\n<p>At 17th level, you can use this ability twice per day (though using this ability twice in one 24-hour period entails a chance of system shock and death; see the spell’s description for more details).</p>\n<p>At 20th level, you never die of system shock from using this ability.</p>",
      "chat": "",
      "unidentified": ""
    },
    "tags": [],
    "activation": {
      "cost": 1,
      "type": "immediate"
    },
    "unchainedAction": {
      "activation": {
        "cost": 1,
        "type": "reaction"
      }
    },
    "duration": {
      "value": null,
      "units": "inst"
    },
    "target": {
      "value": "Self"
    },
    "range": {
      "value": null,
      "units": "personal",
      "maxIncrements": 1,
      "minValue": null,
      "minUnits": "",
      "long": null
    },
    "uses": {
      "value": 0,
      "max": 1,
      "per": "day",
      "autoDeductCharges": true,
      "autoDeductChargesCost": "1",
      "maxFormula": "@classes.sorcerer.level >= 17 ? 2 : 1"
    },
    "measureTemplate": {
      "type": "",
      "size": "0",
      "overrideColor": false,
      "customColor": "",
      "overrideTexture": false,
      "customTexture": ""
    },
    "attackName": "",
    "actionType": "",
    "attackBonus": "",
    "critConfirmBonus": "",
    "damage": {
      "parts": [],
      "critParts": [],
      "nonCritParts": []
    },
    "attackParts": [],
    "formula": "",
    "ability": {
      "attack": null,
      "damage": null,
      "damageMult": 1,
      "critRange": 20,
      "critMult": 2
    },
    "save": {
      "dc": 0,
      "type": "",
      "description": ""
    },
    "effectNotes": "",
    "attackNotes": "",
    "soundEffect": "",
    "changes": [],
    "changeFlags": {
      "loseDexToAC": false,
      "noStr": false,
      "noDex": false,
      "oneInt": false,
      "oneWis": false,
      "oneCha": false,
      "noEncumbrance": false,
      "mediumArmorFullSpeed": false,
      "heavyArmorFullSpeed": false
    },
    "contextNotes": [],
    "links": {
      "children": [],
      "charges": []
    },
    "tag": "",
    "useCustomTag": false,
    "armorProf": {
      "value": [],
      "custom": ""
    },
    "weaponProf": {
      "value": [],
      "custom": ""
    },
    "featType": "classFeat",
    "associations": {
      "classes": [
        [
          "Sorcerer"
        ]
      ]
    },
    "showInQuickbar": false,
    "nonlethal": false,
    "abilityType": "ex",
    "crOffset": "",
    "attack": {
      "parts": []
    }
  },
  "flags": {},
  "img": "systems/pf1/icons/skills/violet_06.jpg",
  "effects": []
}