{
  "_id": "3qFmAobC6GigC4bE",
  "name": "Orc Bloodline",
  "permission": {
    "default": 0
  },
  "type": "feat",
  "data": {
    "description": {
      "value": "<p><em>The rage of your ancestors burns within you, and the taint of savage orc blood flows through your veins. Your anger is never far from the surface, giving you strength and driving you to seek greater power.</em></p>\n<p><strong>Class Skill:</strong>&nbsp;<a href=\"https://www.d20pfsrd.com/skills/survival\">Survival</a>.</p>\n<p><strong>Bonus Spells:</strong></p>\n<ul>\n<li>@Compendium[pf1.spells.lndeaqm2j2nvgm6p]{Burning Hands}&nbsp;(3rd),</li>\n<li>@Compendium[pf1.spells.05i5rxwim12hwktu]{Bull's Strength}&nbsp;(5th),</li>\n<li>@Compendium[pf1.spells.8u1xa5javcxc6szk]{Rage}&nbsp;(7th),</li>\n<li>@Compendium[pf1.spells.92hth51cs9oi0nfe]{Wall Of Fire}&nbsp;(9th),</li>\n<li>@Compendium[pf1.spells.im8z5kfg8ohowie9]{Cloudkill}&nbsp;(11th),</li>\n<li>@Compendium[pf1.spells.9pbl3ktd5oqejl19]{Transformation}&nbsp;(13th),</li>\n<li>@Compendium[pf1.spells.cm3l4h4mld9j8lar]{Delayed Blast Fireball}&nbsp;(15th),</li>\n<li>@Compendium[pf1.spells.mkrjbrp57yfdqrx0]{Iron Body}&nbsp;(17th),</li>\n<li>@Compendium[pf1.spells.xhzme0v6tjq95fg6]{Meteor Swarm}&nbsp;(19th).</li>\n</ul>\n<p><strong>Bonus Feats:</strong></p>\n<ul>\n<li>@Compendium[pf1.feats.O0e0UCim27GPKFuW]{Diehard},</li>\n<li>@Compendium[pf1.feats.ehqx8txNRGMaNOPt]{Endurance},</li>\n<li>@Compendium[pf1.feats.fVRnBIHR4Jq6btvm]{Great Fortitude},</li>\n<li>@Compendium[pf1.feats.O0jbkTJcIji9BNiF]{Intimidating Prowess},</li>\n<li>@Compendium[pf1.feats.go4xOiSUP8R1QJ5N]{Improved Overrun},</li>\n<li>@Compendium[pf1.feats.FUW5mIXHNBBIQ1Sq]{Power Attack},</li>\n<li>@Compendium[pf1.feats.8snLqsJN4LLL00Nq]{Toughness},</li>\n<li>@Compendium[pf1.feats.h8Ap9cxdsXWRC6Tc]{Widen Spell}.</li>\n</ul>\n<p><strong>Bloodline Arcana:</strong> You gain the&nbsp;<a href=\"https://www.d20pfsrd.com/bestiary/rules-for-monsters/creature-types#TOC-Orc\">orc</a>&nbsp;subtype, including&nbsp;<a href=\"https://www.d20pfsrd.com/gamemastering/special-abilities#TOC-Darkvision\">darkvision</a>&nbsp;60 feet and&nbsp;<a href=\"https://www.d20pfsrd.com/bestiary/rules-for-monsters/universal-monster-rules#TOC-Light-Sensitivity-Ex-\">light sensitivity</a>. If you already have&nbsp;<a href=\"https://www.d20pfsrd.com/gamemastering/special-abilities#TOC-Darkvision\">darkvision</a>, its range increases to 90 feet. Whenever you cast a spell that deals damage, that spell deals +1 point of damage per die rolled.</p>",
      "chat": "",
      "unidentified": ""
    },
    "tags": [],
    "activation": {
      "cost": 1,
      "type": ""
    },
    "unchainedAction": {
      "activation": {
        "cost": 1,
        "type": ""
      }
    },
    "duration": {
      "value": null,
      "units": ""
    },
    "target": {
      "value": ""
    },
    "range": {
      "value": null,
      "units": "",
      "maxIncrements": 1,
      "minValue": null,
      "minUnits": "",
      "long": null
    },
    "uses": {
      "value": 0,
      "max": 0,
      "per": null,
      "autoDeductCharges": true,
      "autoDeductChargesCost": "1"
    },
    "measureTemplate": {
      "type": "",
      "size": "0",
      "overrideColor": false,
      "customColor": "",
      "overrideTexture": false,
      "customTexture": ""
    },
    "attackName": "",
    "actionType": "",
    "attackBonus": "",
    "critConfirmBonus": "",
    "damage": {
      "parts": [],
      "critParts": [],
      "nonCritParts": []
    },
    "attackParts": [],
    "formula": "",
    "ability": {
      "attack": null,
      "damage": null,
      "damageMult": 1,
      "critRange": 20,
      "critMult": 2
    },
    "save": {
      "dc": 0,
      "type": "",
      "description": ""
    },
    "effectNotes": "",
    "attackNotes": "",
    "soundEffect": "",
    "changes": [],
    "changeFlags": {
      "loseDexToAC": false,
      "noStr": false,
      "noDex": false,
      "oneInt": false,
      "oneWis": false,
      "oneCha": false,
      "noEncumbrance": false,
      "mediumArmorFullSpeed": false,
      "heavyArmorFullSpeed": false
    },
    "contextNotes": [],
    "links": {
      "children": [],
      "charges": []
    },
    "tag": "",
    "useCustomTag": false,
    "armorProf": {
      "value": [],
      "custom": ""
    },
    "weaponProf": {
      "value": [],
      "custom": ""
    },
    "featType": "classFeat",
    "associations": {
      "classes": [
        [
          "Sorcerer"
        ]
      ]
    },
    "showInQuickbar": false,
    "nonlethal": false,
    "abilityType": "none",
    "crOffset": "",
    "attack": {
      "parts": []
    }
  },
  "flags": {},
  "img": "systems/pf1/icons/races/orc.png",
  "effects": []
}