{
  "_id": "783ZlVJfCgXAvAAl",
  "name": "Order of the Flame",
  "permission": {
    "default": 0
  },
  "type": "feat",
  "data": {
    "description": {
      "value": "<p>A cavalier of the order of the flame devotes his life to the pursuit of personal glory. Even if such pursuit puts his own life on the line, the cavalier pursues legendary status and the fame and glory associated with such renown.<br><br><strong>Edicts:</strong> The cavalier must pursue glory for himself and those with whom he associates. He must strive to heap glory upon his name, no matter the costs. He must challenge and defeat an ever-increasing host of rivals to further cement his illustrious reputation.<br><br><strong>Challenge:</strong> A cavalier of the order of the flame becomes ever more emboldened with each glorious victory. As an immediate action after reducing the target of his challenge to 0 hit points or fewer, the cavalier can elect to issue a glorious challenge to an opponent within 15 feet.</p>\n<ul>\n<li><em>Glorious Challenge:</em> A glorious challenge does not count against the cavalier’s number of challenges per day, but otherwise acts like a cavalier’s challenge class feature. When he issues a glorious challenge, the cavalier takes a –2 penalty to AC for the duration of the glorious challenge (this penalty stacks with the usual –2 AC penalty against opponents other than the target of the cavalier’s challenge). The cavalier gains a morale bonus on melee damage rolls against the target of his glorious challenge equal to 2 × the number of consecutive glorious challenges he has issued thus far. As long as he continues to defeat targets of his glorious challenges and there are more opponents in range, the cavalier can continue to issue glorious challenges indefinitely, with the penalty to AC and the bonus on damage rolls increasing with each subsequent foe. For example, a 5th-level cavalier that has just issued his third glorious challenge after defeating the original target of his challenge takes a –6 penalty to AC (–8 against creatures other than the target of his glorious challenge) and gains a +11 bonus on melee damage rolls (a +5 bonus from his base challenge ability plus a +6 morale bonus for three consecutive glorious challenges).</li>\n</ul>\n<p><br><strong>Skills:</strong> A cavalier of the order of the flame adds Knowledge (local) and Survival to his class skills. Whenever the cavalier’s current hit point total matches or exceeds his maximum hit point total, he gains a bonus on Intimidate checks equal to 1/2 his cavalier level (minimum +1).</p>",
      "chat": "",
      "unidentified": ""
    },
    "tags": [],
    "activation": {
      "cost": 1,
      "type": ""
    },
    "unchainedAction": {
      "activation": {
        "cost": 1,
        "type": ""
      }
    },
    "duration": {
      "value": null,
      "units": ""
    },
    "target": {
      "value": ""
    },
    "range": {
      "value": null,
      "units": "",
      "maxIncrements": 1,
      "minValue": null,
      "minUnits": "",
      "long": null
    },
    "uses": {
      "value": 0,
      "max": 0,
      "per": null,
      "autoDeductCharges": true,
      "autoDeductChargesCost": "1"
    },
    "measureTemplate": {
      "type": "",
      "size": "0",
      "overrideColor": false,
      "customColor": "",
      "overrideTexture": false,
      "customTexture": ""
    },
    "attackName": "",
    "actionType": "",
    "attackBonus": "",
    "critConfirmBonus": "",
    "damage": {
      "parts": [],
      "critParts": [],
      "nonCritParts": []
    },
    "attackParts": [],
    "formula": "",
    "ability": {
      "attack": null,
      "damage": null,
      "damageMult": 1,
      "critRange": 20,
      "critMult": 2
    },
    "save": {
      "dc": 0,
      "type": "",
      "description": ""
    },
    "effectNotes": "",
    "attackNotes": "",
    "soundEffect": "",
    "changes": [],
    "changeFlags": {
      "loseDexToAC": false,
      "noStr": false,
      "noDex": false,
      "oneInt": false,
      "oneWis": false,
      "oneCha": false,
      "noEncumbrance": false,
      "mediumArmorFullSpeed": false,
      "heavyArmorFullSpeed": false
    },
    "contextNotes": [],
    "links": {
      "children": [],
      "charges": []
    },
    "tag": "",
    "useCustomTag": false,
    "armorProf": {
      "value": [],
      "custom": ""
    },
    "weaponProf": {
      "value": [],
      "custom": ""
    },
    "featType": "classFeat",
    "associations": {
      "classes": [
        [
          "Cavalier"
        ]
      ]
    },
    "showInQuickbar": false,
    "nonlethal": false,
    "abilityType": "none",
    "crOffset": "",
    "attack": {
      "parts": []
    }
  },
  "flags": {},
  "img": "systems/pf1/icons/items/inventory/banner-green.jpg",
  "effects": []
}