{
  "_id": "Ak6o3FhAhaOF7CaO",
  "name": "Order of the Sword",
  "permission": {
    "default": 0
  },
  "type": "feat",
  "data": {
    "description": {
      "value": "<p>Cavaliers who join the order of the sword dedicate their lives to the code of chivalry, living a life of honor, valor, and fairness. Cavaliers of this order tend to swear service to a lord or a lady. Of all the orders, the order of the sword is perhaps the broadest in terms of its focus and ideals.<br><br><strong>Edicts:</strong> The cavalier must show courage in the face of danger, mercy to those who have wronged him, and charity to the poor and the meek. He must be just and honorable at all times and in all things. He must defend his honor and, above all else, the honor of those he serves.<br><br><strong>Challenge:</strong> Whenever an order of the sword cavalier issues a challenge, he receives a +1 morale bonus on attack rolls against the target of his challenge so long as he is astride his mount. The bonus increases by +1 for every four levels the cavalier possesses.<br><br><strong>Skills:</strong> An order of the sword cavalier adds Knowledge (nobility) (Int) and Knowledge (religion) (Int) to his list of class skills. Whenever the cavalier uses Sense Motive to oppose a Bluff check, he receives a competence bonus on the check equal to 1/2 his cavalier level (minimum +1).</p>",
      "chat": "",
      "unidentified": ""
    },
    "tags": [],
    "activation": {
      "cost": 1,
      "type": ""
    },
    "unchainedAction": {
      "activation": {
        "cost": 1,
        "type": ""
      }
    },
    "duration": {
      "value": null,
      "units": ""
    },
    "target": {
      "value": ""
    },
    "range": {
      "value": null,
      "units": "",
      "maxIncrements": 1,
      "minValue": null,
      "minUnits": "",
      "long": null
    },
    "uses": {
      "value": 0,
      "max": 0,
      "per": null,
      "autoDeductCharges": true,
      "autoDeductChargesCost": "1"
    },
    "measureTemplate": {
      "type": "",
      "size": "0",
      "overrideColor": false,
      "customColor": "",
      "overrideTexture": false,
      "customTexture": ""
    },
    "attackName": "",
    "actionType": "",
    "attackBonus": "",
    "critConfirmBonus": "",
    "damage": {
      "parts": [],
      "critParts": [],
      "nonCritParts": []
    },
    "attackParts": [],
    "formula": "",
    "ability": {
      "attack": null,
      "damage": null,
      "damageMult": 1,
      "critRange": 20,
      "critMult": 2
    },
    "save": {
      "dc": 0,
      "type": "",
      "description": ""
    },
    "effectNotes": "",
    "attackNotes": "",
    "soundEffect": "",
    "changes": [],
    "changeFlags": {
      "loseDexToAC": false,
      "noStr": false,
      "noDex": false,
      "oneInt": false,
      "oneWis": false,
      "oneCha": false,
      "noEncumbrance": false,
      "mediumArmorFullSpeed": false,
      "heavyArmorFullSpeed": false
    },
    "contextNotes": [],
    "links": {
      "children": [],
      "charges": []
    },
    "tag": "",
    "useCustomTag": false,
    "armorProf": {
      "value": [],
      "custom": ""
    },
    "weaponProf": {
      "value": [],
      "custom": ""
    },
    "featType": "classFeat",
    "associations": {
      "classes": [
        [
          "Cavalier"
        ]
      ]
    },
    "showInQuickbar": false,
    "nonlethal": false,
    "abilityType": "none",
    "crOffset": "",
    "attack": {
      "parts": []
    }
  },
  "flags": {},
  "img": "systems/pf1/icons/items/inventory/banner-green.jpg",
  "effects": []
}