{
  "_id": "rz4xnCDMtAWGzSBR",
  "name": "Pestilence Bloodline",
  "permission": {
    "default": 0
  },
  "type": "feat",
  "data": {
    "description": {
      "value": "<p><em>You were born during the height of a great magical plague, to a mother suffering from an eldritch disease, or you suffered an eldritch pox as a child, such that your very soul now carries a blight of pestilence within it.</em></p>\n<p><strong>Class Skill:</strong>&nbsp;<a href=\"https://www.d20pfsrd.com/skills/heal\">Heal</a>.</p>\n<p><strong>Bonus Spells:</strong></p>\n<ul>\n<li>@Compendium[pf1.spells.pg7dbmuuaksxhp3v]{Charm Animal}&nbsp;(3rd),</li>\n<li>@Compendium[pf1.spells.vxi9c3xwa83xthka]{Summon Swarm}&nbsp;(5th),</li>\n<li>@Compendium[pf1.spells.ppeb97nxg1rmdpme]{Contagion}&nbsp;(7th),</li>\n<li>@Compendium[pf1.spells.zonwg3yt8pswj03y]{Repel Vermin}&nbsp;(9th),</li>\n<li>@Compendium[pf1.spells.jdp0mts5razk0qms]{Insect Plague}&nbsp;(11th),</li>\n<li>@Compendium[pf1.spells.z8xnkfpufuqapseq]{Eyebite}&nbsp;(13th),</li>\n<li>@Compendium[pf1.spells.f828mjoo5afszqnk]{Creeping Doom}&nbsp;(15th),</li>\n<li>@Compendium[pf1.spells.e8zen5nzixnt7bde]{Horrid Wilting}&nbsp;(17th),</li>\n<li>@Compendium[pf1.spells.51ob5y7phwlhcuzz]{Power Word Kill}&nbsp;(19th).</li>\n</ul>\n<p><strong>Bonus Feats:</strong></p>\n<ul>\n<li>@Compendium[pf1.feats.nNVFVFRBCT4O2ab9]{Brew Potion},</li>\n<li>@Compendium[pf1.feats.O0e0UCim27GPKFuW]{Diehard},</li>\n<li>@Compendium[pf1.feats.ehqx8txNRGMaNOPt]{Endurance},</li>\n<li>@Compendium[pf1.feats.fVRnBIHR4Jq6btvm]{Great Fortitude},</li>\n<li>@Compendium[pf1.feats.8VZQJOyAXbXghxd7]{Self-Sufficient},</li>\n<li>@Compendium[pf1.feats.7zJTztNW7hdaqjKc]{Skill Focus}&nbsp;(<a href=\"https://www.d20pfsrd.com/skills/knowledge\">Knowledge</a>&nbsp;[nature]),</li>\n<li>@Compendium[pf1.feats.2YuxcUNFMPNBpekG]{Silent Spell},</li>\n<li>@Compendium[pf1.feats.8snLqsJN4LLL00Nq]{Toughness}.</li>\n</ul>\n<p><strong>Bloodline Arcana:</strong>&nbsp;<a href=\"https://www.d20pfsrd.com/bestiary/rules-for-monsters/creature-types#TOC-Vermin\">Vermin</a>&nbsp;are susceptible to your mind-affecting spells. They are treated as&nbsp;<a href=\"https://www.d20pfsrd.com/bestiary/rules-for-monsters/creature-types#TOC-Animal\">animals</a>&nbsp;for the purposes of determining which mind-affecting spells affect them.</p>",
      "chat": "",
      "unidentified": ""
    },
    "tags": [],
    "activation": {
      "cost": 1,
      "type": ""
    },
    "unchainedAction": {
      "activation": {
        "cost": 1,
        "type": ""
      }
    },
    "duration": {
      "value": null,
      "units": ""
    },
    "target": {
      "value": ""
    },
    "range": {
      "value": null,
      "units": "",
      "maxIncrements": 1,
      "minValue": null,
      "minUnits": "",
      "long": null
    },
    "uses": {
      "value": 0,
      "max": 0,
      "per": null,
      "autoDeductCharges": true,
      "autoDeductChargesCost": "1"
    },
    "measureTemplate": {
      "type": "",
      "size": "0",
      "overrideColor": false,
      "customColor": "",
      "overrideTexture": false,
      "customTexture": ""
    },
    "attackName": "",
    "actionType": "",
    "attackBonus": "",
    "critConfirmBonus": "",
    "damage": {
      "parts": [],
      "critParts": [],
      "nonCritParts": []
    },
    "attackParts": [],
    "formula": "",
    "ability": {
      "attack": null,
      "damage": null,
      "damageMult": 1,
      "critRange": 20,
      "critMult": 2
    },
    "save": {
      "dc": 0,
      "type": "",
      "description": ""
    },
    "effectNotes": "",
    "attackNotes": "",
    "soundEffect": "",
    "changes": [],
    "changeFlags": {
      "loseDexToAC": false,
      "noStr": false,
      "noDex": false,
      "oneInt": false,
      "oneWis": false,
      "oneCha": false,
      "noEncumbrance": false,
      "mediumArmorFullSpeed": false,
      "heavyArmorFullSpeed": false
    },
    "contextNotes": [],
    "links": {
      "children": [],
      "charges": []
    },
    "tag": "",
    "useCustomTag": false,
    "armorProf": {
      "value": [],
      "custom": ""
    },
    "weaponProf": {
      "value": [],
      "custom": ""
    },
    "featType": "classFeat",
    "associations": {
      "classes": [
        [
          "Sorcerer"
        ]
      ]
    },
    "showInQuickbar": false,
    "nonlethal": false,
    "abilityType": "none",
    "crOffset": "",
    "attack": {
      "parts": []
    }
  },
  "flags": {},
  "img": "systems/pf1/icons/skills/green_12.jpg",
  "effects": []
}