{
  "_id": "fukX7UOOr7xTSBPv",
  "name": "Rivethun Discipline",
  "permission": {
    "default": 0
  },
  "type": "feat",
  "data": {
    "description": {
      "value": "<p>You have embraced those aspects of your body that cause you agony, respecting the perspective they grant you if not necessarily the roles they’ve condemned you to in life.<br><br><strong>Phrenic Pool Ability:</strong> Charisma<br><br><strong>Bonus Spells:</strong>&nbsp;</p>\n<ul>\n<li>@Compendium[pf1.spells.r8bhei88g6h26fp0]{Heightened Awareness} (1st),&nbsp;</li>\n<li>@Compendium[pf1.spells.usdv1eqvibmxun6x]{Bear's Endurance} (4th),&nbsp;</li>\n<li>@Compendium[pf1.spells.isrnyw9biluqoo80]{Aura Sight} (6th),&nbsp;</li>\n<li>@Compendium[pf1.spells.ev845glbl54em94v]{Persistent Vigor} (8th),&nbsp;</li>\n<li>@Compendium[pf1.spells.jbqo4o2b2tmdz7wv]{True Seeing} (10th),&nbsp;</li>\n<li>@Compendium[pf1.spells.37ubwx82nqaog3ib]{Thought Shield V} (12th),&nbsp;</li>\n<li>@Compendium[pf1.spells.blvetbc929cfx4m8]{Mind Blank} (14th),&nbsp;</li>\n<li>@Compendium[pf1.spells.mkrjbrp57yfdqrx0]{Iron Body} (16th),&nbsp;</li>\n<li>@Compendium[pf1.spells.au6p72aztjhtokwr]{Akashic Form} (18th).</li>\n</ul>",
      "chat": "",
      "unidentified": ""
    },
    "tags": [],
    "activation": {
      "cost": 1,
      "type": ""
    },
    "unchainedAction": {
      "activation": {
        "cost": 1,
        "type": ""
      }
    },
    "duration": {
      "value": null,
      "units": ""
    },
    "target": {
      "value": ""
    },
    "range": {
      "value": null,
      "units": "",
      "maxIncrements": 1,
      "minValue": null,
      "minUnits": "",
      "long": null
    },
    "uses": {
      "value": 0,
      "max": 0,
      "per": null,
      "autoDeductCharges": true,
      "autoDeductChargesCost": "1"
    },
    "measureTemplate": {
      "type": "",
      "size": "",
      "overrideColor": false,
      "customColor": "",
      "overrideTexture": false,
      "customTexture": ""
    },
    "attackName": "",
    "actionType": "",
    "attackBonus": "",
    "critConfirmBonus": "",
    "damage": {
      "parts": [],
      "critParts": [],
      "nonCritParts": []
    },
    "attackParts": [],
    "formula": "",
    "ability": {
      "attack": null,
      "damage": null,
      "damageMult": 1,
      "critRange": 20,
      "critMult": 2
    },
    "save": {
      "dc": 0,
      "type": "",
      "description": ""
    },
    "effectNotes": "",
    "attackNotes": "",
    "soundEffect": "",
    "changes": [],
    "changeFlags": {
      "loseDexToAC": false,
      "noStr": false,
      "noDex": false,
      "oneInt": false,
      "oneWis": false,
      "oneCha": false,
      "noEncumbrance": false,
      "mediumArmorFullSpeed": false,
      "heavyArmorFullSpeed": false
    },
    "contextNotes": [],
    "links": {
      "children": [],
      "charges": []
    },
    "tag": "",
    "useCustomTag": false,
    "armorProf": {
      "value": [],
      "custom": ""
    },
    "weaponProf": {
      "value": [],
      "custom": ""
    },
    "featType": "classFeat",
    "associations": {
      "classes": [
        [
          "Psychic"
        ]
      ]
    },
    "showInQuickbar": false,
    "nonlethal": false,
    "abilityType": "none",
    "crOffset": "",
    "attack": {
      "parts": []
    }
  },
  "flags": {},
  "img": "systems/pf1/icons/spells/slice-spirit-3.jpg",
  "effects": []
}