{
  "_id": "7osv5VD81jr1YgEv",
  "name": "Snake Aspect",
  "permission": {
    "default": 0
  },
  "type": "feat",
  "data": {
    "description": {
      "value": "<p><em>The snake is a sneaky and lethal foe who strikes unexpectedly with deadly effect, while avoiding opportune strikes made in return.</em><br><br><strong>Minor Form:</strong> You gain a +2 bonus on attack rolls when making attacks of opportunity and a +2 dodge bonus to your AC against attacks of opportunity.</p>\n<p>These bonuses increase to +4 at 8th level and +6 at 15th level.<br><br><strong>Major Form: </strong>Your shape changes to that of an emperor cobra (Pathfinder RPG&nbsp;Bestiary&nbsp;2 252). While in this form, you gain a base speed of 30 feet, a climb speed of 30 feet, a swim speed of 30 feet, lowlight vision, scent (30 feet), a bite attack (2d6 damage), and the Combat Reflexes feat. If you already have Combat Reflexes or your Dexterity score is not high enough to gain more attacks of opportunity from Combat Reflexes, you can instead make one additional attack of opportunity each round.</p>\n<p>At 8th level, you gain a +4 racial bonus on Acrobatics and Stealth checks.</p>\n<p>At 15th level, when you make an attack of opportunity with your bite attack, that attack also applies the following poison.<br><br><em>Poison (Ex): </em>Bite—injury;&nbsp;save&nbsp;Fort DC = 10 + half your shifter level + your Constitution modifier;&nbsp;frequency&nbsp;1/round for 6 rounds;&nbsp;effect&nbsp;1d3 Con damage;&nbsp;cure&nbsp;2 consecutive saves.<br><br><strong>Alternate Natural Attacks: </strong>Bite (B, P, S), tail slap (B)</p>",
      "chat": "",
      "unidentified": ""
    },
    "tags": [],
    "activation": {
      "cost": 1,
      "type": ""
    },
    "unchainedAction": {
      "activation": {
        "cost": 1,
        "type": ""
      }
    },
    "duration": {
      "value": null,
      "units": ""
    },
    "target": {
      "value": ""
    },
    "range": {
      "value": null,
      "units": "",
      "maxIncrements": 1,
      "minValue": null,
      "minUnits": "",
      "long": null
    },
    "uses": {
      "value": 0,
      "max": 0,
      "per": null,
      "autoDeductCharges": true,
      "autoDeductChargesCost": "1"
    },
    "measureTemplate": {
      "type": "",
      "size": "",
      "overrideColor": false,
      "customColor": "",
      "overrideTexture": false,
      "customTexture": ""
    },
    "attackName": "",
    "actionType": "",
    "attackBonus": "",
    "critConfirmBonus": "",
    "damage": {
      "parts": [],
      "critParts": [],
      "nonCritParts": []
    },
    "attackParts": [],
    "formula": "",
    "ability": {
      "attack": null,
      "damage": null,
      "damageMult": 1,
      "critRange": 20,
      "critMult": 2
    },
    "save": {
      "dc": 0,
      "type": "",
      "description": ""
    },
    "effectNotes": "",
    "attackNotes": "",
    "soundEffect": "",
    "changes": [],
    "changeFlags": {
      "loseDexToAC": false,
      "noStr": false,
      "noDex": false,
      "oneInt": false,
      "oneWis": false,
      "oneCha": false,
      "noEncumbrance": false,
      "mediumArmorFullSpeed": false,
      "heavyArmorFullSpeed": false
    },
    "contextNotes": [],
    "links": {
      "children": [],
      "charges": []
    },
    "tag": "",
    "useCustomTag": false,
    "armorProf": {
      "value": [],
      "custom": ""
    },
    "weaponProf": {
      "value": [],
      "custom": ""
    },
    "featType": "classFeat",
    "associations": {
      "classes": [
        [
          "Shifter"
        ]
      ]
    },
    "showInQuickbar": false,
    "nonlethal": false,
    "abilityType": "none",
    "crOffset": "",
    "attack": {
      "parts": []
    }
  },
  "flags": {},
  "img": "systems/pf1/icons/skills/blue_29.jpg",
  "effects": []
}