{
  "_id": "4lA5PZjFcR1veuyL",
  "name": "Spark of Innovation",
  "permission": {
    "default": 0
  },
  "type": "feat",
  "data": {
    "description": {
      "value": "<p><strong>Element&nbsp;</strong>earth;&nbsp;<strong>Type&nbsp;</strong>utility (Sp);&nbsp;<strong>Level&nbsp;</strong>5;&nbsp;<strong>Burn&nbsp;</strong>0<br><strong>Prerequisite&nbsp;</strong>metal blast</p>\n<p>You shape metal into a clockwork creature, as&nbsp;<a href=\"https://aonprd.com/KineticistTalentsDisplay.aspx?ItemName=Spark%20of%20Life\">spark of life</a>&nbsp;except you summon a clockwork earth elemental. The elemental’s type is changed to construct (clockwork) and it gains construct traits and&nbsp;<a href=\"https://aonprd.com/MonsterSubtypes.aspx?ItemName=Clockwork\">clockwork traits</a>&nbsp;instead of elemental traits. The creature loses any spell-like abilities or supernatural abilities it normally has. If you have the&nbsp;<a href=\"https://aonprd.com/KineticistTalentsDisplay.aspx?ItemName=Greater%20Elemental%20Whispers\">greater elemental whispers</a>&nbsp;utility wild talent, you can take a&nbsp;<a href=\"https://aonprd.com/MonsterDisplay.aspx?ItemName=Clockwork%20Familiar\">clockwork familiar</a>&nbsp;as an improved familiar with that ability instead of an earth elemental.</p>",
      "chat": "",
      "unidentified": ""
    },
    "tags": [],
    "activation": {
      "cost": 1,
      "type": ""
    },
    "unchainedAction": {
      "activation": {
        "cost": 1,
        "type": ""
      }
    },
    "duration": {
      "value": null,
      "units": ""
    },
    "target": {
      "value": ""
    },
    "range": {
      "value": null,
      "units": "",
      "maxIncrements": 1,
      "minValue": null,
      "minUnits": "",
      "long": null
    },
    "uses": {
      "value": 0,
      "max": 0,
      "per": null,
      "autoDeductCharges": true,
      "autoDeductChargesCost": "1"
    },
    "measureTemplate": {
      "type": "",
      "size": "",
      "overrideColor": false,
      "customColor": "",
      "overrideTexture": false,
      "customTexture": ""
    },
    "attackName": "",
    "actionType": "",
    "attackBonus": "",
    "critConfirmBonus": "",
    "damage": {
      "parts": [],
      "critParts": [],
      "nonCritParts": []
    },
    "attackParts": [],
    "formula": "",
    "ability": {
      "attack": null,
      "damage": null,
      "damageMult": 1,
      "critRange": 20,
      "critMult": 2
    },
    "save": {
      "dc": 0,
      "type": "",
      "description": ""
    },
    "effectNotes": "",
    "attackNotes": "",
    "soundEffect": "",
    "changes": [],
    "changeFlags": {
      "loseDexToAC": false,
      "noStr": false,
      "noDex": false,
      "oneInt": false,
      "oneWis": false,
      "oneCha": false,
      "noEncumbrance": false,
      "mediumArmorFullSpeed": false,
      "heavyArmorFullSpeed": false
    },
    "contextNotes": [],
    "links": {
      "children": [],
      "charges": []
    },
    "tag": "",
    "useCustomTag": false,
    "armorProf": {
      "value": [],
      "custom": ""
    },
    "weaponProf": {
      "value": [],
      "custom": ""
    },
    "featType": "classFeat",
    "associations": {
      "classes": [
        [
          "Kineticist"
        ]
      ]
    },
    "showInQuickbar": false,
    "nonlethal": false,
    "abilityType": "sp",
    "crOffset": "",
    "attack": {
      "parts": []
    }
  },
  "flags": {},
  "img": "systems/pf1/icons/spells/rock-sky-3.jpg",
  "effects": []
}