{
  "_id": "OjUWyvWC2WDjORSw",
  "name": "Succor Mystery",
  "permission": {
    "default": 0
  },
  "type": "feat",
  "data": {
    "description": {
      "value": "<p><strong>Class Skills:</strong> An oracle with the succor mystery adds Handle Animal, Knowledge (nature), and Survival to her list of class skills.<br><br><strong>Bonus Spells:</strong>&nbsp;</p>\n<ul>\n<li>@Compendium[pf1.spells.mczdgwo3xl8c6e26]{Ray Of Enfeeblement} (2nd),&nbsp;</li>\n<li>@Compendium[pf1.spells.qc7vnye0x975gxdf]{Shield Of Fortification} (4th),&nbsp;</li>\n<li>@Compendium[pf1.spells.lisojmynoblunlex]{Coordinated Effort} (6th),&nbsp;</li>\n<li>@Compendium[pf1.spells.rxenoze8iyh9iyng]{Shield Of Fortification, Greater} (8th),&nbsp;</li>\n<li>@Compendium[pf1.spells.knyako6zopc1chrv]{Stoneskin} (10th),&nbsp;</li>\n<li>@Compendium[pf1.spells.z0duc2v2n3ioynta]{Heroism, Greater} (12th),&nbsp;</li>\n<li>@Compendium[pf1.spells.uuzeynxotp9dzu15]{Expend} (14th),&nbsp;</li>\n<li>@Compendium[pf1.spells.cc0or00vpiky87n7]{Spellcrash, Greater} (16th),&nbsp;</li>\n<li>@Compendium[pf1.spells.77bihy40diufd6p1]{Wall of Suppression} (18th).</li>\n</ul>",
      "chat": "",
      "unidentified": ""
    },
    "tags": [],
    "activation": {
      "cost": 1,
      "type": ""
    },
    "unchainedAction": {
      "activation": {
        "cost": 1,
        "type": ""
      }
    },
    "duration": {
      "value": null,
      "units": ""
    },
    "target": {
      "value": ""
    },
    "range": {
      "value": null,
      "units": "",
      "maxIncrements": 1,
      "minValue": null,
      "minUnits": "",
      "long": null
    },
    "uses": {
      "value": 0,
      "max": 0,
      "per": null,
      "autoDeductCharges": true,
      "autoDeductChargesCost": "1"
    },
    "measureTemplate": {
      "type": "",
      "size": "",
      "overrideColor": false,
      "customColor": "",
      "overrideTexture": false,
      "customTexture": ""
    },
    "attackName": "",
    "actionType": "",
    "attackBonus": "",
    "critConfirmBonus": "",
    "damage": {
      "parts": [],
      "critParts": [],
      "nonCritParts": []
    },
    "attackParts": [],
    "formula": "",
    "ability": {
      "attack": null,
      "damage": null,
      "damageMult": 1,
      "critRange": 20,
      "critMult": 2
    },
    "save": {
      "dc": 0,
      "type": "",
      "description": ""
    },
    "effectNotes": "",
    "attackNotes": "",
    "soundEffect": "",
    "changes": [],
    "changeFlags": {
      "loseDexToAC": false,
      "noStr": false,
      "noDex": false,
      "oneInt": false,
      "oneWis": false,
      "oneCha": false,
      "noEncumbrance": false,
      "mediumArmorFullSpeed": false,
      "heavyArmorFullSpeed": false
    },
    "contextNotes": [],
    "links": {
      "children": [],
      "charges": []
    },
    "tag": "",
    "useCustomTag": false,
    "armorProf": {
      "value": [],
      "custom": ""
    },
    "weaponProf": {
      "value": [],
      "custom": ""
    },
    "featType": "classFeat",
    "associations": {
      "classes": [
        [
          "Oracle"
        ]
      ]
    },
    "showInQuickbar": false,
    "nonlethal": false,
    "abilityType": "none",
    "crOffset": "",
    "attack": {
      "parts": []
    }
  },
  "flags": {},
  "img": "systems/pf1/icons/spells/light-magenta-2.jpg",
  "effects": []
}