{
  "_id": "pMpN2f4mTgLt2NaR",
  "name": "Summon Monster (UC)",
  "permission": {
    "default": 0
  },
  "type": "feat",
  "data": {
    "description": {
      "value": "<p>Starting at 1st level, a summoner can cast @Compendium[pf1.spells.kyo0kwhw2jhuztju]{Summon Monster I}&nbsp;as a spell-like ability a number of times per day equal to 3 + his Charisma modifier. Drawing upon this ability uses up the same power as the summoner uses to call his eidolon. As a result, he can only use this ability when his eidolon is not summoned. He can cast this spell as a standard action and the creatures remain for 1 minute per level (instead of 1 round per level). At 3rd level, and every 2 levels thereafter, the power of this ability increases by one spell level, allowing him to summon more powerful creatures (to a maximum of @Compendium[pf1.spells.mi52crelhwuy6bmp]{Summon Monster IX}&nbsp;at 17th level). At 19th level, this ability can be used as @Compendium[pf1.spells.ursm11405zobemi3]{Gate}&nbsp;or @Compendium[pf1.spells.mi52crelhwuy6bmp]{Summon Monster IX}. If used as&nbsp;gate, the summoner must pay any required material components. A summoner cannot have more than one summon monster or gate spell active in this way at one time. If this ability is used again, any existing&nbsp;summon monster&nbsp;or&nbsp;gate&nbsp;immediately ends. These summon spells are considered to be part of his spell list for the purposes of spell trigger and spell completion items. In addition, he can expend uses of this ability to fufill the construction requirements of any magic item he creates, so long as he can use this ability to cast the required spell.</p>",
      "chat": "",
      "unidentified": ""
    },
    "tags": [],
    "activation": {
      "cost": 1,
      "type": "standard"
    },
    "unchainedAction": {
      "activation": {
        "cost": 2,
        "type": "action"
      }
    },
    "duration": {
      "value": "@classes.summonerUnchained.level",
      "units": "minute"
    },
    "target": {
      "value": ""
    },
    "range": {
      "value": null,
      "units": "",
      "maxIncrements": 1,
      "minValue": null,
      "minUnits": "",
      "long": null
    },
    "uses": {
      "value": 0,
      "max": 3,
      "per": "day",
      "autoDeductCharges": true,
      "autoDeductChargesCost": "1",
      "maxFormula": "3 + @abilities.cha.mod"
    },
    "measureTemplate": {
      "type": "",
      "size": "0",
      "overrideColor": false,
      "customColor": "",
      "overrideTexture": false,
      "customTexture": ""
    },
    "attackName": "",
    "actionType": "",
    "attackBonus": "",
    "critConfirmBonus": "",
    "damage": {
      "parts": [],
      "critParts": [],
      "nonCritParts": []
    },
    "attackParts": [],
    "formula": "",
    "ability": {
      "attack": null,
      "damage": null,
      "damageMult": 1,
      "critRange": 20,
      "critMult": 2
    },
    "save": {
      "dc": 0,
      "type": "",
      "description": ""
    },
    "effectNotes": "",
    "attackNotes": "",
    "soundEffect": "",
    "changes": [],
    "changeFlags": {
      "loseDexToAC": false,
      "noStr": false,
      "noDex": false,
      "oneInt": false,
      "oneWis": false,
      "oneCha": false,
      "noEncumbrance": false,
      "mediumArmorFullSpeed": false,
      "heavyArmorFullSpeed": false
    },
    "contextNotes": [],
    "links": {
      "children": [],
      "charges": []
    },
    "tag": "summonMonsterUc",
    "useCustomTag": false,
    "armorProf": {
      "value": [],
      "custom": ""
    },
    "weaponProf": {
      "value": [],
      "custom": ""
    },
    "featType": "classFeat",
    "associations": {
      "classes": [
        [
          "Summoner"
        ]
      ]
    },
    "showInQuickbar": false,
    "nonlethal": false,
    "abilityType": "sp",
    "crOffset": "",
    "attack": {
      "parts": []
    }
  },
  "flags": {},
  "img": "systems/pf1/icons/spells/runes-magenta-3.jpg",
  "effects": []
}