{
  "_id": "U4P7uFtZwlQn7X8i",
  "name": "Symbiosis Discipline",
  "permission": {
    "default": 0
  },
  "type": "feat",
  "data": {
    "description": {
      "value": "<p>Like pollen on the wind or the roots of plants in the ground, your thoughts permeate your surroundings, allowing you to study and manipulate the world around you.<br><br><strong>Phrenic Pool Ability:</strong> Charisma<br><br><strong>Bonus Spells:</strong>&nbsp;</p>\n<ul>\n<li>@Compendium[pf1.spells.zkvylzsupqboef0z]{Hide from Animals} (1st),&nbsp;</li>\n<li>@Compendium[pf1.spells.yyzf346hiq8ixt0u]{Hold Animal} (4th),&nbsp;</li>\n<li>@Compendium[pf1.spells.io2yjhr42chvcfb4]{Dominate Animal} (6th),&nbsp;</li>\n<li>@Compendium[pf1.spells.wi9uvm8p12qvq616]{Command Plants} (8th),&nbsp;</li>\n<li>@Compendium[pf1.spells.h9qiwo9kx8d1hqrn]{Awaken} (10th),&nbsp;</li>\n<li>@Compendium[pf1.spells.ed0epy1pofukpgm6]{Liveoak} (12th),&nbsp;</li>\n<li>@Compendium[pf1.spells.glt6uk3n6g6l2p6l]{Scrying, Greater} (14th),&nbsp;</li>\n<li>@Compendium[pf1.spells.szzwom7utm3sm15z]{Control Plants} (16th),&nbsp;</li>\n<li>@Compendium[pf1.spells.66s5qm8kwycgobce]{Dominate Monster} (18th).</li>\n</ul>",
      "chat": "",
      "unidentified": ""
    },
    "tags": [],
    "activation": {
      "cost": 1,
      "type": ""
    },
    "unchainedAction": {
      "activation": {
        "cost": 1,
        "type": ""
      }
    },
    "duration": {
      "value": null,
      "units": ""
    },
    "target": {
      "value": ""
    },
    "range": {
      "value": null,
      "units": "",
      "maxIncrements": 1,
      "minValue": null,
      "minUnits": "",
      "long": null
    },
    "uses": {
      "value": 0,
      "max": 0,
      "per": null,
      "autoDeductCharges": true,
      "autoDeductChargesCost": "1"
    },
    "measureTemplate": {
      "type": "",
      "size": "",
      "overrideColor": false,
      "customColor": "",
      "overrideTexture": false,
      "customTexture": ""
    },
    "attackName": "",
    "actionType": "",
    "attackBonus": "",
    "critConfirmBonus": "",
    "damage": {
      "parts": [],
      "critParts": [],
      "nonCritParts": []
    },
    "attackParts": [],
    "formula": "",
    "ability": {
      "attack": null,
      "damage": null,
      "damageMult": 1,
      "critRange": 20,
      "critMult": 2
    },
    "save": {
      "dc": 0,
      "type": "",
      "description": ""
    },
    "effectNotes": "",
    "attackNotes": "",
    "soundEffect": "",
    "changes": [],
    "changeFlags": {
      "loseDexToAC": false,
      "noStr": false,
      "noDex": false,
      "oneInt": false,
      "oneWis": false,
      "oneCha": false,
      "noEncumbrance": false,
      "mediumArmorFullSpeed": false,
      "heavyArmorFullSpeed": false
    },
    "contextNotes": [],
    "links": {
      "children": [],
      "charges": []
    },
    "tag": "",
    "useCustomTag": false,
    "armorProf": {
      "value": [],
      "custom": ""
    },
    "weaponProf": {
      "value": [],
      "custom": ""
    },
    "featType": "classFeat",
    "associations": {
      "classes": [
        [
          "Psychic"
        ]
      ]
    },
    "showInQuickbar": false,
    "nonlethal": false,
    "abilityType": "none",
    "crOffset": "",
    "attack": {
      "parts": []
    }
  },
  "flags": {},
  "img": "systems/pf1/icons/spells/slice-spirit-3.jpg",
  "effects": []
}