{
  "_id": "sdPGUAeJkb8LuSE4",
  "name": "Timeless Soul",
  "permission": {
    "default": 0
  },
  "type": "feat",
  "data": {
    "description": {
      "value": "<p>At 20th level, the silver skies and conduits of the&nbsp;<a href=\"https://www.d20pfsrd.com/gamemastering/environment/the-planes#TOC-Astral-Plane\">Astral Plane</a>&nbsp;are permanently connected to you. You become immune to the retroactive aging side effects incurred when leaving a plane with the timeless planar trait. You do not gain&nbsp;<a href=\"https://www.d20pfsrd.com/gamemastering/special-abilities#TOC-Energy-Drain-and-Negative-Levels\">negative levels</a>&nbsp;when slain on the&nbsp;<a href=\"https://www.d20pfsrd.com/gamemastering/environment/the-planes#TOC-Astral-Plane\">Astral Plane</a>&nbsp;while using @Compendium[pf1.spells.lnahlmp5mih2ongh]{Astral Projection}, and any effect that would sever your silver cord instead returns you to your physical body if you succeed at a&nbsp;<a href=\"https://www.d20pfsrd.com/gamemastering/combat#TOC-Will\">Will</a>&nbsp;save (DC = 10 + the CR of the creature or&nbsp;<a href=\"https://www.d20pfsrd.com/magic#TOC-Caster-Level\">caster level</a>&nbsp;of the effect that severed the cord). In addition, when applying the @Compendium[pf1.feats.wFoLrh5FeeqBXsQ8]{Quicken Spell}&nbsp;<a href=\"https://www.d20pfsrd.com/feats/metamagic-feats\">metamagic feat</a>&nbsp;to a spell, it uses up a spell slot only 3 levels higher than the spell’s actual level. This ability does not stack with other abilities that would reduce the spell’s final adjusted level.</p>",
      "chat": "",
      "unidentified": ""
    },
    "tags": [],
    "activation": {
      "cost": 1,
      "type": "passive"
    },
    "unchainedAction": {
      "activation": {
        "cost": 1,
        "type": "passive"
      }
    },
    "duration": {
      "value": null,
      "units": ""
    },
    "target": {
      "value": ""
    },
    "range": {
      "value": null,
      "units": "",
      "maxIncrements": 1,
      "minValue": null,
      "minUnits": "",
      "long": null
    },
    "uses": {
      "value": 0,
      "max": 0,
      "per": "",
      "autoDeductCharges": true,
      "autoDeductChargesCost": "1"
    },
    "measureTemplate": {
      "type": "",
      "size": "0",
      "overrideColor": false,
      "customColor": "",
      "overrideTexture": false,
      "customTexture": ""
    },
    "attackName": "",
    "actionType": "",
    "attackBonus": "",
    "critConfirmBonus": "",
    "damage": {
      "parts": [],
      "critParts": [],
      "nonCritParts": []
    },
    "attackParts": [],
    "formula": "",
    "ability": {
      "attack": null,
      "damage": null,
      "damageMult": 1,
      "critRange": 20,
      "critMult": 2
    },
    "save": {
      "dc": 0,
      "type": "",
      "description": ""
    },
    "effectNotes": "",
    "attackNotes": "",
    "soundEffect": "",
    "changes": [],
    "changeFlags": {
      "loseDexToAC": false,
      "noStr": false,
      "noDex": false,
      "oneInt": false,
      "oneWis": false,
      "oneCha": false,
      "noEncumbrance": false,
      "mediumArmorFullSpeed": false,
      "heavyArmorFullSpeed": false
    },
    "contextNotes": [],
    "links": {
      "children": [],
      "charges": []
    },
    "tag": "",
    "useCustomTag": false,
    "armorProf": {
      "value": [],
      "custom": ""
    },
    "weaponProf": {
      "value": [],
      "custom": ""
    },
    "featType": "classFeat",
    "associations": {
      "classes": [
        [
          "Sorcerer"
        ]
      ]
    },
    "showInQuickbar": false,
    "nonlethal": false,
    "abilityType": "ex",
    "crOffset": "",
    "attack": {
      "parts": []
    }
  },
  "flags": {},
  "img": "systems/pf1/icons/spells/runes-magenta-3.jpg",
  "effects": []
}