{
  "_id": "31auwd242ar8KxET",
  "name": "Ultimate Magic (4 pts)",
  "permission": {
    "default": 0
  },
  "type": "feat",
  "data": {
    "description": {
      "value": "<p>An eidolon learns to cast a powerful spell as a spell-like ability. Select one spell from the following list:&nbsp;</p>\n<ul>\n<li>@Compendium[pf1.spells.2dc7e9wby8qpi6m0]{Arcane Sight}</li>\n<li>@Compendium[pf1.spells.qn947hen3wrelxhz]{Create Food and Water}</li>\n<li>@Compendium[pf1.spells.norn02g8zdsspf2j]{Cure Serious Wounds}</li>\n<li>@Compendium[pf1.spells.7x2z0i8rcx7s81fk]{Daylight}</li>\n<li>@Compendium[pf1.spells.6oq1wcryviik9ice]{Fireball}</li>\n<li>@Compendium[pf1.spells.7d6sv5ecvi7kho3m]{Fly}</li>\n<li>@Compendium[pf1.spells.mqdoexj35atgqafn]{Gaseous Form}</li>\n<li>@Compendium[pf1.spells.m84969gni5iu4bdt]{Lightning Bolt}</li>\n<li>@Compendium[pf1.spells.7rx66m98dwo18fy8]{Major Image}</li>\n<li>@Compendium[pf1.spells.kjke96zd1j1jz48z]{Stinking Cloud}</li>\n<li>@Compendium[pf1.spells.m1rmcpcaixcpz9ib]{Tongues}</li>\n<li>@Compendium[pf1.spells.7m5us8d4a9lwh1ap]{Water Breathing}</li>\n</ul>\n<p>This spell can be cast once per day as a spell-like ability. The caster level for this evolution is equal to the eidolon's Hit Dice – 2. The save DC for this spell is 10 + 1/2 the eidolon's HD + the eidolon's Charisma modifier. The eidolon must have a Charisma score of at least 13 and must possess the major magic evolution to take this evolution.<br><br>The summoner must be at least 11th level before selecting this evolution.</p>\n<p>This evolution can be selected more than once. Each time an eidolon selects this evolution, it applies to a new spell from the above list.</p>",
      "chat": "",
      "unidentified": ""
    },
    "tags": [],
    "activation": {
      "cost": 1,
      "type": ""
    },
    "unchainedAction": {
      "activation": {
        "cost": 1,
        "type": ""
      }
    },
    "duration": {
      "value": null,
      "units": ""
    },
    "target": {
      "value": ""
    },
    "range": {
      "value": null,
      "units": "",
      "maxIncrements": 1,
      "minValue": null,
      "minUnits": "",
      "long": null
    },
    "uses": {
      "value": 0,
      "max": 0,
      "per": null,
      "autoDeductCharges": true,
      "autoDeductChargesCost": "1"
    },
    "measureTemplate": {
      "type": "",
      "size": "",
      "overrideColor": false,
      "customColor": "",
      "overrideTexture": false,
      "customTexture": ""
    },
    "attackName": "",
    "actionType": "",
    "attackBonus": "",
    "critConfirmBonus": "",
    "damage": {
      "parts": [],
      "critParts": [],
      "nonCritParts": []
    },
    "attackParts": [],
    "formula": "",
    "ability": {
      "attack": null,
      "damage": null,
      "damageMult": 1,
      "critRange": 20,
      "critMult": 2
    },
    "save": {
      "dc": 0,
      "type": "",
      "description": ""
    },
    "effectNotes": "",
    "attackNotes": "",
    "soundEffect": "",
    "changes": [],
    "changeFlags": {
      "loseDexToAC": false,
      "noStr": false,
      "noDex": false,
      "oneInt": false,
      "oneWis": false,
      "oneCha": false,
      "noEncumbrance": false,
      "mediumArmorFullSpeed": false,
      "heavyArmorFullSpeed": false
    },
    "contextNotes": [],
    "links": {
      "children": [],
      "charges": []
    },
    "tag": "",
    "useCustomTag": false,
    "armorProf": {
      "value": [],
      "custom": ""
    },
    "weaponProf": {
      "value": [],
      "custom": ""
    },
    "featType": "classFeat",
    "associations": {
      "classes": [
        [
          "Eidolon"
        ]
      ]
    },
    "showInQuickbar": false,
    "nonlethal": false,
    "abilityType": "sp",
    "crOffset": "",
    "attack": {
      "parts": []
    }
  },
  "flags": {},
  "img": "systems/pf1/icons/skills/blue_26.jpg",
  "effects": []
}