{
  "_id": "vsJbpWNPb1YEO5ia",
  "name": "Void Domain",
  "permission": {
    "default": 0
  },
  "type": "feat",
  "data": {
    "description": {
      "value": "<p><strong>Granted Powers: </strong>You can call upon the cold darkness between the stars to gain flight, travel to other worlds, or summon monsters from beyond to do your bidding.</p>\n<p><strong>Domain Spells: </strong></p>\n<ul>\n<li>1st—@Compendium[pf1.spells.68m9du7zw2di7ew6]{Feather Fall}</li>\n<li>2nd—@Compendium[pf1.spells.plou8h168bfn5hq6]{Levitate}</li>\n<li>3rd—@Compendium[pf1.spells.7d6sv5ecvi7kho3m]{Fly}</li>\n<li>4th—@Compendium[pf1.spells.y4b1zmhmsa0gvf06]{Planar Binding, Lesser}</li>\n<li>5th—@Compendium[pf1.spells.wqvy12w1xgk6l9b0]{Overland Flight}</li>\n<li>6th—@Compendium[pf1.spells.qf4bqjgeff1q4hjt]{Planar Binding}</li>\n<li>7th—@Compendium[pf1.spells.3bdfw5f15hwcxlth]{Reverse Gravity}</li>\n<li>8th—@Compendium[pf1.spells.bbmd0fj17jsf5300]{Planar Binding, Greater}</li>\n<li>9th—@Compendium[pf1.spells.4qriqew7d2ot7wr5]{Interplanetary Teleport}</li>\n</ul>",
      "chat": "",
      "unidentified": ""
    },
    "tags": [],
    "activation": {
      "cost": 1,
      "type": ""
    },
    "unchainedAction": {
      "activation": {
        "cost": 1,
        "type": ""
      }
    },
    "duration": {
      "value": null,
      "units": ""
    },
    "target": {
      "value": ""
    },
    "range": {
      "value": null,
      "units": "",
      "maxIncrements": 1,
      "minValue": null,
      "minUnits": "",
      "long": null
    },
    "uses": {
      "value": 0,
      "max": 0,
      "per": null,
      "autoDeductCharges": true,
      "autoDeductChargesCost": "1"
    },
    "measureTemplate": {
      "type": "",
      "size": "0",
      "overrideColor": false,
      "customColor": "",
      "overrideTexture": false,
      "customTexture": ""
    },
    "attackName": "",
    "actionType": "",
    "attackBonus": "",
    "critConfirmBonus": "",
    "damage": {
      "parts": [],
      "critParts": [],
      "nonCritParts": []
    },
    "attackParts": [],
    "formula": "",
    "ability": {
      "attack": null,
      "damage": null,
      "damageMult": 1,
      "critRange": 20,
      "critMult": 2
    },
    "save": {
      "dc": 0,
      "type": "",
      "description": ""
    },
    "effectNotes": "",
    "attackNotes": "",
    "soundEffect": "",
    "changes": [],
    "changeFlags": {
      "loseDexToAC": false,
      "noStr": false,
      "noDex": false,
      "oneInt": false,
      "oneWis": false,
      "oneCha": false,
      "noEncumbrance": false,
      "mediumArmorFullSpeed": false,
      "heavyArmorFullSpeed": false
    },
    "contextNotes": [],
    "links": {
      "children": [],
      "charges": []
    },
    "tag": "",
    "useCustomTag": false,
    "armorProf": {
      "value": [],
      "custom": ""
    },
    "weaponProf": {
      "value": [],
      "custom": ""
    },
    "featType": "classFeat",
    "associations": {
      "classes": [
        [
          "Cleric"
        ]
      ]
    },
    "showInQuickbar": false,
    "nonlethal": false,
    "abilityType": "none",
    "crOffset": "",
    "attack": {
      "parts": []
    }
  },
  "flags": {},
  "img": "systems/pf1/icons/spells/rip-sky-1.jpg",
  "effects": []
}