{
  "_id": "WgnN4RsZOddfufJ4",
  "name": "Volcano Mystery",
  "permission": {
    "default": 0
  },
  "type": "feat",
  "data": {
    "description": {
      "value": "<p><strong>Class Skills:</strong> An oracle with the volcano mystery adds Climb, Intimidate, Knowledge (geography), and Survival to her list of class skills.<br><br><strong>Bonus Spells:</strong>&nbsp;</p>\n<ul>\n<li>@Compendium[pf1.spells.lndeaqm2j2nvgm6p]{Burning Hands} (2nd),&nbsp;</li>\n<li>@Compendium[pf1.spells.3b1x69kfhnsa2d54]{Heat Metal} (4th),&nbsp;</li>\n<li>@Compendium[pf1.spells.1vh2ewwvzvxunoxk]{Protection from Energy} (6th),&nbsp;</li>\n<li>@Compendium[pf1.spells.8qligfr61kotnlwx]{Volcanic Storm} (8th),&nbsp;</li>\n<li>@Compendium[pf1.spells.nll8ip8348eti0ff]{Geyser} (10th),&nbsp;</li>\n<li>@Compendium[pf1.spells.0cbreqkr1vp7meyi]{Contagious Flame} (12th),&nbsp;</li>\n<li>@Compendium[pf1.spells.9wl8ijy6argdvz5f]{Fire Storm} (14th),&nbsp;</li>\n<li>@Compendium[pf1.spells.h17ad4lpmphnospf]{Wall of Lava} (16th),&nbsp;</li>\n<li>@Compendium[pf1.spells.xhzme0v6tjq95fg6]{Meteor Swarm} (18th).</li>\n</ul>",
      "chat": "",
      "unidentified": ""
    },
    "tags": [],
    "activation": {
      "cost": 1,
      "type": ""
    },
    "unchainedAction": {
      "activation": {
        "cost": 1,
        "type": ""
      }
    },
    "duration": {
      "value": null,
      "units": ""
    },
    "target": {
      "value": ""
    },
    "range": {
      "value": null,
      "units": "",
      "maxIncrements": 1,
      "minValue": null,
      "minUnits": "",
      "long": null
    },
    "uses": {
      "value": 0,
      "max": 0,
      "per": null,
      "autoDeductCharges": true,
      "autoDeductChargesCost": "1"
    },
    "measureTemplate": {
      "type": "",
      "size": "",
      "overrideColor": false,
      "customColor": "",
      "overrideTexture": false,
      "customTexture": ""
    },
    "attackName": "",
    "actionType": "",
    "attackBonus": "",
    "critConfirmBonus": "",
    "damage": {
      "parts": [],
      "critParts": [],
      "nonCritParts": []
    },
    "attackParts": [],
    "formula": "",
    "ability": {
      "attack": null,
      "damage": null,
      "damageMult": 1,
      "critRange": 20,
      "critMult": 2
    },
    "save": {
      "dc": 0,
      "type": "",
      "description": ""
    },
    "effectNotes": "",
    "attackNotes": "",
    "soundEffect": "",
    "changes": [],
    "changeFlags": {
      "loseDexToAC": false,
      "noStr": false,
      "noDex": false,
      "oneInt": false,
      "oneWis": false,
      "oneCha": false,
      "noEncumbrance": false,
      "mediumArmorFullSpeed": false,
      "heavyArmorFullSpeed": false
    },
    "contextNotes": [],
    "links": {
      "children": [],
      "charges": []
    },
    "tag": "",
    "useCustomTag": false,
    "armorProf": {
      "value": [],
      "custom": ""
    },
    "weaponProf": {
      "value": [],
      "custom": ""
    },
    "featType": "classFeat",
    "associations": {
      "classes": [
        [
          "Oracle"
        ]
      ]
    },
    "showInQuickbar": false,
    "nonlethal": false,
    "abilityType": "none",
    "crOffset": "",
    "attack": {
      "parts": []
    }
  },
  "flags": {},
  "img": "systems/pf1/icons/spells/light-magenta-2.jpg",
  "effects": []
}