{
  "_id": "RzEzudurxQFirFoF",
  "name": "Weapon Training",
  "permission": {
    "default": 0
  },
  "type": "feat",
  "data": {
    "description": {
      "value": "<p>Starting at 5th level, a fighter can select one group of weapons, as noted below. Whenever he attacks with a weapon from this group, he gains a +1 bonus on attack and damage rolls.</p>\n<p>Every four levels thereafter (9th*, 13th, and 17th), a fighter becomes further trained in another group of weapons. He gains a +1 bonus on attack and damage rolls when using a weapon from this group. In addition, the bonuses granted by previous weapon groups increase by +1 each. For example, when a fighter reaches 9th level, he receives a +1 bonus on attack and damage rolls with one weapon group and a +2 bonus on attack and damage rolls with the weapon group selected at 5th level. Bonuses granted from overlapping groups do not stack. Take the highest bonus granted for a weapon if it resides in two or more groups.</p>\n<p>A fighter also adds this bonus to any combat maneuver checks made with weapons from his group. This bonus also applies to the fighter’s Combat Maneuver Defense when defending against disarm and sunder attempts made against weapons from this group.</p>\n<p>Weapon groups are defined as follows (GMs may add other weapons to these groups, or add entirely new groups):</p>\n<p><a name=\"weapon-groups\"></a></p>\n<div>\n<p><strong>Axes:</strong> axe-gauntlet, dwarven heavy,&nbsp;axe-gauntlet, dwarven light,&nbsp;<a href=\"https://www.d20pfsrd.com/equipment/weapons/weapon-descriptions/bardiche\">bardiche</a>,&nbsp;<a href=\"https://www.d20pfsrd.com/equipment/weapons/weapon-descriptions/axe-battle\">battleaxe</a>, boarding axe, butchering axe, collapsible kumade,&nbsp;<a href=\"https://www.d20pfsrd.com/equipment/weapons/weapon-descriptions/waraxe-dwarven\">dwarven waraxe</a>, gandasa,&nbsp;<a href=\"https://www.d20pfsrd.com/equipment/weapons/weapon-descriptions/axe-great\">greataxe</a>,&nbsp;<a href=\"https://www.d20pfsrd.com/equipment/weapons/weapon-descriptions/handaxe\">handaxe</a>,&nbsp;<a href=\"https://www.d20pfsrd.com/equipment/weapons/weapon-descriptions/pick-heavy\">heavy pick</a>,&nbsp;<a href=\"https://www.d20pfsrd.com/equipment/weapons/weapon-descriptions/axe-hooked\">hooked axe</a>,&nbsp;<a href=\"https://www.d20pfsrd.com/equipment/weapons/weapon-descriptions/axe-knuckle\">knuckle axe</a>, kumade,&nbsp;kumade, collapsible,&nbsp;<a href=\"https://www.d20pfsrd.com/equipment/weapons/weapon-descriptions/pick-light\">light pick</a>,&nbsp;<a href=\"https://www.d20pfsrd.com/equipment/weapons/weapon-descriptions/mattock\">mattock</a>,&nbsp;<a href=\"https://www.d20pfsrd.com/equipment/weapons/weapon-descriptions/axe-orc-double\">orc double axe</a>,&nbsp;<a href=\"https://www.d20pfsrd.com/equipment/weapons/weapon-descriptions/pata\">pata</a>,&nbsp;<a href=\"https://www.d20pfsrd.com/equipment/weapons/weapon-descriptions/axe-throwing\">throwing axe</a>, and tongi.</p>\n<p><strong>Blades, Heavy:</strong> ankus,&nbsp;<a href=\"https://www.d20pfsrd.com/equipment/weapons/weapon-descriptions/sword-bastard\">bastard sword</a>,&nbsp;<a href=\"https://www.d20pfsrd.com/equipment/weapons/weapon-descriptions/chakram-crystal\">chakram</a>,&nbsp;cutlass,&nbsp;double,&nbsp;<a href=\"https://www.d20pfsrd.com/equipment/weapons/weapon-descriptions/double-chicken-saber\">double chicken saber</a>,&nbsp;<a href=\"https://www.d20pfsrd.com/equipment/weapons/weapon-descriptions/double-walking-stick-katana\">double walking stick katana</a>,&nbsp;<a href=\"https://www.d20pfsrd.com/equipment/weapons/weapon-descriptions/sword-dueling\">dueling sword</a>,&nbsp;<a href=\"https://www.d20pfsrd.com/equipment/weapons/weapon-descriptions/curve-blade-elven\">elven curve blade</a>, estoc,&nbsp;<a href=\"https://www.d20pfsrd.com/equipment/weapons/weapon-descriptions/falcata\">falcata</a>,&nbsp;<a href=\"https://www.d20pfsrd.com/equipment/weapons/weapon-descriptions/falchion\">falchion</a>,&nbsp;<a href=\"https://www.d20pfsrd.com/equipment/weapons/weapon-descriptions/flambard\">flambard</a>,&nbsp;<a href=\"https://www.d20pfsrd.com/equipment/weapons/weapon-descriptions/greatsword\">greatsword</a>,&nbsp;<a href=\"https://www.d20pfsrd.com/equipment/weapons/weapon-descriptions/terbutje-great\">great terbutje</a>,&nbsp;greatsword,&nbsp;<a href=\"https://www.d20pfsrd.com/equipment/weapons/weapon-descriptions/katana\">katana</a>,&nbsp;<a href=\"https://www.d20pfsrd.com/equipment/weapons/weapon-descriptions/khopesh\">khopesh</a>,&nbsp;<a href=\"https://www.d20pfsrd.com/equipment/weapons/weapon-descriptions/klar\">klar</a>,&nbsp;<a href=\"https://www.d20pfsrd.com/equipment/weapons/weapon-descriptions/longsword\">longsword</a>,&nbsp;<a href=\"https://www.d20pfsrd.com/equipment/weapons/weapon-descriptions/broadsword-nine-ring\">nine-ring broadsword</a>,&nbsp;<a href=\"https://www.d20pfsrd.com/equipment/weapons/weapon-descriptions/nodachi\">nodachi</a>,&nbsp;rhoka sword,&nbsp;sawtooth sabre,&nbsp;<a href=\"https://www.d20pfsrd.com/equipment/weapons/weapon-descriptions/scimitar\">scimitar</a>,&nbsp;<a href=\"https://www.d20pfsrd.com/equipment/weapons/weapon-descriptions/scythe\">scythe</a>,&nbsp;<a href=\"https://www.d20pfsrd.com/equipment/weapons/weapon-descriptions/sword-seven-branched\">seven-branched sword</a>,&nbsp;<a href=\"https://www.d20pfsrd.com/equipment/weapons/weapon-descriptions/shotel\">shotel</a>, sickle-sword,&nbsp;<a href=\"https://www.d20pfsrd.com/equipment/weapons/weapon-descriptions/split-blade-sword-heavy-blades-group/\">split-blade sword</a>, switchscythe,&nbsp;<a href=\"https://www.d20pfsrd.com/equipment/weapons/weapon-descriptions/sword-temple\">temple sword</a>,&nbsp;<a href=\"https://www.d20pfsrd.com/equipment/weapons/weapon-descriptions/terbutje\">terbutje</a>, and&nbsp;<a href=\"https://www.d20pfsrd.com/equipment/weapons/weapon-descriptions/sword-two-bladed\">two-bladed sword</a>.</p>\n<p><strong>Blades, Light:</strong>&nbsp;<a href=\"https://www.d20pfsrd.com/equipment/weapons/weapon-descriptions/bayonet\">bayonet</a>,&nbsp;<a href=\"https://www.d20pfsrd.com/equipment/weapons/weapon-descriptions/broken-back-seax-light-blades-group/\">broken-back seax</a>,&nbsp;<a href=\"https://www.d20pfsrd.com/equipment/weapons/weapon-descriptions/knife-butterfly\">butterfly knife</a>,&nbsp;<a href=\"https://www.d20pfsrd.com/equipment/weapons/weapon-descriptions/butterfly-sword\">butterfly sword</a>,&nbsp;<a href=\"https://www.d20pfsrd.com/equipment/weapons/weapon-descriptions/chakram-crystal\">chakram</a>,&nbsp;<a href=\"https://www.d20pfsrd.com/equipment/weapons/weapon-descriptions/dagger\">dagger</a>, deer horn knife, dogslicer, drow razor, dueling dagger,&nbsp;<a href=\"https://www.d20pfsrd.com/equipment/weapons/weapon-descriptions/gladius\">gladius</a>,&nbsp;<a href=\"https://www.d20pfsrd.com/equipment/weapons/weapon-descriptions/hunga-munga\">hunga munga</a>,&nbsp;<a href=\"https://www.d20pfsrd.com/equipment/weapons/weapon-descriptions/kama\">kama</a>,&nbsp;<a href=\"https://www.d20pfsrd.com/equipment/weapons/weapon-descriptions/katar-tri-bladed\">katar</a>,&nbsp;<a href=\"https://www.d20pfsrd.com/equipment/weapons/weapon-descriptions/kerambit\">kerambit</a>,&nbsp;<a href=\"https://www.d20pfsrd.com/equipment/weapons/weapon-descriptions/kukri\">kukri</a>, machete,&nbsp;<a href=\"https://www.d20pfsrd.com/equipment/weapons/weapon-descriptions/madu\">madu</a>, manople,&nbsp;<a href=\"https://www.d20pfsrd.com/equipment/weapons/weapon-descriptions/pata\">pata</a>,&nbsp;<a href=\"https://www.d20pfsrd.com/equipment/weapons/weapon-descriptions/quadrens\">quadrens</a>,&nbsp;<a href=\"https://www.d20pfsrd.com/equipment/weapons/weapon-descriptions/rapier\">rapier</a>, sanpkhang,&nbsp;<a href=\"https://www.d20pfsrd.com/equipment/weapons/weapon-descriptions/sabre-sawtooth\">sawtooth sabre</a>,&nbsp;<a href=\"https://www.d20pfsrd.com/equipment/weapons/weapon-descriptions/scizore\">scizore</a>,&nbsp;<a href=\"https://www.d20pfsrd.com/equipment/weapons/weapon-descriptions/shortsword\">shortsword</a>,&nbsp;<a href=\"https://www.d20pfsrd.com/equipment/weapons/weapon-descriptions/sica\">sica</a>,&nbsp;<a href=\"https://www.d20pfsrd.com/equipment/weapons/weapon-descriptions/sickle\">sickle</a>, spiral rapier,&nbsp;<a href=\"https://www.d20pfsrd.com/equipment/weapons/weapon-descriptions/starknife\">starknife</a>,&nbsp;<a href=\"https://www.d20pfsrd.com/equipment/weapons/weapon-descriptions/dagger-swordbreaker\">swordbreaker dagger</a>,&nbsp;<a href=\"https://www.d20pfsrd.com/equipment/weapons/weapon-descriptions/swordcane\">sword cane</a>,&nbsp;<a href=\"https://www.d20pfsrd.com/equipment/weapons/weapon-descriptions/wakizashi\">wakizashi</a>, and&nbsp;<a href=\"https://www.d20pfsrd.com/equipment/weapons/weapon-descriptions/war-razor\">war razor</a>.</p>\n<p><strong>Bows:</strong>&nbsp;<a href=\"https://www.d20pfsrd.com/equipment/weapons/weapon-descriptions/longbow-composite\">composite longbow</a>,&nbsp;<a href=\"https://www.d20pfsrd.com/equipment/weapons/weapon-descriptions/shortbow-composite\">composite shortbow</a>,&nbsp;<a href=\"https://www.d20pfsrd.com/equipment/weapons/weapon-descriptions/longbow\">longbow</a>, orc hornbow, and&nbsp;<a href=\"https://www.d20pfsrd.com/equipment/weapons/weapon-descriptions/shortbow\">shortbow</a>.</p>\n<p><strong>Close:</strong>&nbsp;axe-gauntlet, dwarven heavy,&nbsp;axe-gauntlet, dwarven light,&nbsp;<a href=\"https://www.d20pfsrd.com/equipment/weapons/weapon-descriptions/bayonet\">bayonet</a>,&nbsp;<a href=\"https://www.d20pfsrd.com/equipment/weapons/weapon-descriptions/brass-knuckles\">brass knuckles</a>,&nbsp;<a href=\"https://www.d20pfsrd.com/equipment/weapons/weapon-descriptions/cestus\">cestus</a>,&nbsp;<a href=\"https://www.d20pfsrd.com/equipment/weapons/weapon-descriptions/dan-bong\">dan bong</a>, dwarven war-shield,&nbsp;<a href=\"https://www.d20pfsrd.com/equipment/weapons/weapon-descriptions/emei-piercer\">emei piercer</a>,&nbsp;<a href=\"https://www.d20pfsrd.com/equipment/weapons/weapon-descriptions/fighting-fan\">fighting fan</a>,&nbsp;<a href=\"https://www.d20pfsrd.com/equipment/weapons/weapon-descriptions/gauntlet\">gauntlet</a>,&nbsp;<a href=\"https://www.d20pfsrd.com/equipment/armor/shield-heavy-wooden-or-steel\">heavy shield</a>,&nbsp;<a href=\"https://www.d20pfsrd.com/equipment/weapons/weapon-descriptions/iron-brush\">iron brush</a>,&nbsp;<a href=\"https://www.d20pfsrd.com/equipment/weapons/weapon-descriptions/katar-tri-bladed\">katar</a>,&nbsp;<a href=\"https://www.d20pfsrd.com/equipment/weapons/weapon-descriptions/klar\">klar</a>,&nbsp;<a href=\"https://www.d20pfsrd.com/equipment/armor/shield-light-wooden-or-steel\">light shield</a>,&nbsp;<a href=\"https://www.d20pfsrd.com/equipment/weapons/weapon-descriptions/madu\">madu</a>,&nbsp;<a href=\"https://www.d20pfsrd.com/equipment/weapons/weapon-descriptions/mere-club\">mere club</a>,&nbsp;<a href=\"https://www.d20pfsrd.com/equipment/weapons/weapon-descriptions/dagger-punching\">punching dagger</a>,&nbsp;<a href=\"https://www.d20pfsrd.com/equipment/weapons/weapon-descriptions/rope-gauntlet\">rope gauntlet</a>,&nbsp;<a href=\"https://www.d20pfsrd.com/equipment/weapons/weapon-descriptions/sap\">sap</a>,&nbsp;<a href=\"https://www.d20pfsrd.com/equipment/weapons/weapon-descriptions/scizore\">scizore</a>,&nbsp;<a href=\"https://www.d20pfsrd.com/equipment/weapons/weapon-descriptions/spiked-armor\">spiked armor</a>,&nbsp;<a href=\"https://www.d20pfsrd.com/equipment/weapons/weapon-descriptions/gauntlet\">spiked gauntlet</a>,&nbsp;<a href=\"https://www.d20pfsrd.com/equipment/weapons/weapon-descriptions/spiked-shield-heavy-or-light\">spiked shield</a>,&nbsp;<a href=\"https://www.d20pfsrd.com/equipment/weapons/weapon-descriptions/tekko-kagi\">tekko-kagi</a>,&nbsp;<a href=\"https://www.d20pfsrd.com/equipment/weapons/weapon-descriptions/tonfa\">tonfa</a>, tri-bladed katar,&nbsp;<a href=\"https://www.d20pfsrd.com/equipment/weapons/weapon-descriptions/strike-unarmed\">unarmed strike</a>,&nbsp;<a href=\"https://www.d20pfsrd.com/equipment/weapons/weapon-descriptions/stake-wooden\">wooden stake</a>, waveblade, and&nbsp;<a href=\"https://www.d20pfsrd.com/equipment/weapons/weapon-descriptions/dart-wushu\">wushu dart</a>.</p>\n<p><strong>Crossbows:</strong>&nbsp;<a href=\"https://www.d20pfsrd.com/equipment/weapons/weapon-descriptions/crossbow-double\">double crossbow</a>,&nbsp;<a href=\"https://www.d20pfsrd.com/equipment/weapons/weapon-descriptions/crossbow-hand\">hand crossbow</a>,&nbsp;<a href=\"https://www.d20pfsrd.com/equipment/weapons/weapon-descriptions/crossbow-heavy\">heavy crossbow</a>,&nbsp;<a href=\"https://www.d20pfsrd.com/equipment/weapons/weapon-descriptions/crossbow-launching\">launching crossbow</a>,&nbsp;<a href=\"https://www.d20pfsrd.com/equipment/weapons/weapon-descriptions/crossbow-repeating\">light repeating crossbow</a>, heavy repeating crossbow, pelletbow, dwarven heavy,&nbsp;pelletbow, dwarven light,&nbsp;and&nbsp;<a href=\"https://www.d20pfsrd.com/equipment/weapons/weapon-descriptions/tube-arrow-shooter\">tube arrow shooter</a>, underwater heavy crossbow,&nbsp;underwater light crossbow</p>\n<p><strong>Double:</strong>&nbsp;<a href=\"https://www.d20pfsrd.com/equipment/weapons/weapon-descriptions/staff-bo\">bo staff</a>, boarding gaff, chain-hammer,&nbsp;<a href=\"https://www.d20pfsrd.com/equipment/weapons/weapon-descriptions/chain-spear\">chain spear</a>,&nbsp;<a href=\"https://www.d20pfsrd.com/equipment/weapons/weapon-descriptions/flail-dire\">dire flail</a>,&nbsp;<a href=\"https://www.d20pfsrd.com/equipment/weapons/weapon-descriptions/double-walking-stick-katana\">double walking stick katana</a>, double-chained kama,&nbsp;<a href=\"https://www.d20pfsrd.com/equipment/weapons/weapon-descriptions/urgrosh-dwarven\">dwarven urgrosh</a>, gnome battle ladder,&nbsp;<a href=\"https://www.d20pfsrd.com/equipment/weapons/weapon-descriptions/hammer-gnome-hooked\">gnome hooked hammer</a>,&nbsp;<a href=\"https://www.d20pfsrd.com/equipment/weapons/weapon-descriptions/kusarigama\">kusarigama</a>,&nbsp;<a href=\"https://www.d20pfsrd.com/equipment/weapons/weapon-descriptions/monk-s-spade\">monk’s spade</a>,&nbsp;<a href=\"https://www.d20pfsrd.com/equipment/weapons/weapon-descriptions/axe-orc-double\">orc double axe</a>,&nbsp;<a href=\"https://www.d20pfsrd.com/equipment/weapons/weapon-descriptions/quarterstaff\">quarterstaff</a>,&nbsp;<a href=\"https://www.d20pfsrd.com/equipment/weapons/weapon-descriptions/taiaha\">taiaha</a>,&nbsp;<a href=\"https://www.d20pfsrd.com/equipment/weapons/weapon-descriptions/sword-two-bladed\">two-bladed sword</a>, and weighted spear.</p>\n<p>Firearms: all one-handed, two-handed, and siege firearms.</p>\n<p><strong>Flails:&nbsp;</strong><a href=\"https://www.d20pfsrd.com/equipment/weapons/weapon-descriptions/battle-poi\">battle poi</a>,&nbsp;<a href=\"https://www.d20pfsrd.com/equipment/weapons/weapon-descriptions/scarf-bladed\">bladed scarf</a>, cat-o’-nine-tails,&nbsp;<a href=\"https://www.d20pfsrd.com/equipment/weapons/weapon-descriptions/chain-spear\">chain spear</a>,&nbsp;<a href=\"https://www.d20pfsrd.com/equipment/weapons/weapon-descriptions/flail-dire\">dire flail</a>,&nbsp;<a href=\"https://www.d20pfsrd.com/equipment/weapons/weapon-descriptions/kama-double-chained\">double chained kama</a>, dwarven dorn-dergar,&nbsp;<a href=\"https://www.d20pfsrd.com/equipment/weapons/weapon-descriptions/flail\">flail</a>,&nbsp;<a href=\"https://www.d20pfsrd.com/equipment/weapons/weapon-descriptions/spear-chain-flying-talon\">flying talon</a>, gnome pincher, halfling rope-shot,&nbsp;<a href=\"https://www.d20pfsrd.com/equipment/weapons/weapon-descriptions/flail-heavy\">heavy flail</a>,&nbsp;<a href=\"https://www.d20pfsrd.com/equipment/weapons/weapon-descriptions/kusarigama\">kusarigama</a>,&nbsp;<a href=\"https://www.d20pfsrd.com/equipment/weapons/weapon-descriptions/kyoketsu-shoge\">kyoketsu shoge</a>,&nbsp;<a href=\"https://www.d20pfsrd.com/equipment/weapons/weapon-descriptions/meteor-hammer\">meteor hammer</a>,&nbsp;<a href=\"https://www.d20pfsrd.com/equipment/weapons/weapon-descriptions/morningstar\">morningstar</a>,&nbsp;<a href=\"https://www.d20pfsrd.com/equipment/weapons/weapon-descriptions/whip-nine-section\">nine-section whip</a>,&nbsp;<a href=\"https://www.d20pfsrd.com/equipment/weapons/weapon-descriptions/nunchaku\">nunchaku</a>,&nbsp;<a href=\"https://www.d20pfsrd.com/equipment/weapons/weapon-descriptions/sansetsukon-three-section-staff\">sansetsukon</a>,&nbsp;<a href=\"https://www.d20pfsrd.com/bestiary/monster-listings/vermin/scorpion\">scorpion</a>&nbsp;<a href=\"https://www.d20pfsrd.com/equipment/weapons/weapon-descriptions/whip\">whip</a>,&nbsp;<a href=\"https://www.d20pfsrd.com/equipment/weapons/weapon-descriptions/chain-spiked\">spiked chain</a>,&nbsp;<a href=\"https://www.d20pfsrd.com/equipment/weapons/weapon-descriptions/urumi\">urumi</a>, and&nbsp;<a href=\"https://www.d20pfsrd.com/equipment/weapons/weapon-descriptions/whip\">whip</a>.</p>\n<p><strong>Hammers:</strong>&nbsp;<a href=\"https://www.d20pfsrd.com/equipment/weapons/weapon-descriptions/aklys\">aklys</a>,&nbsp;<a href=\"https://www.d20pfsrd.com/equipment/weapons/weapon-descriptions/battle-aspergillum\">battle aspergillum</a>, chain-hammer,&nbsp;<a href=\"https://www.d20pfsrd.com/equipment/weapons/weapon-descriptions/club\">club</a>, earth breaker, gnome piston maul,&nbsp;<a href=\"https://www.d20pfsrd.com/equipment/weapons/weapon-descriptions/club-great\">greatclub</a>,&nbsp;<a href=\"https://www.d20pfsrd.com/equipment/weapons/weapon-descriptions/mace-heavy\">heavy mace</a>, lantern staff,&nbsp;<a href=\"https://www.d20pfsrd.com/equipment/weapons/weapon-descriptions/hammer-light\">light hammer</a>,&nbsp;<a href=\"https://www.d20pfsrd.com/equipment/weapons/weapon-descriptions/mace-light\">light mace</a>,&nbsp;<a href=\"https://www.d20pfsrd.com/equipment/weapons/weapon-descriptions/mere-club\">mere club</a>, planson,&nbsp;ram hammer, dwarven,&nbsp;sphinx hammer, dwarven,&nbsp;<a href=\"https://www.d20pfsrd.com/equipment/weapons/weapon-descriptions/taiaha\">taiaha</a>,&nbsp;<a href=\"https://www.d20pfsrd.com/equipment/weapons/weapon-descriptions/tetsubo\">tetsubo</a>,&nbsp;<a href=\"https://www.d20pfsrd.com/equipment/weapons/weapon-descriptions/wahaika\">wahaika</a>, and&nbsp;<a href=\"https://www.d20pfsrd.com/equipment/weapons/weapon-descriptions/warhammer\">warhammer</a>.</p>\n<p><strong>Monk:</strong>&nbsp;<a href=\"https://www.d20pfsrd.com/equipment/weapons/weapon-descriptions/staff-bo\">bo staff</a>,&nbsp;<a href=\"https://www.d20pfsrd.com/equipment/weapons/weapon-descriptions/brass-knuckles\">brass knuckles</a>,&nbsp;<a href=\"https://www.d20pfsrd.com/equipment/weapons/weapon-descriptions/butterfly-sword\">butterfly sword</a>,&nbsp;<a href=\"https://www.d20pfsrd.com/equipment/weapons/weapon-descriptions/cestus\">cestus</a>,&nbsp;<a href=\"https://www.d20pfsrd.com/equipment/weapons/weapon-descriptions/dan-bong\">dan bong</a>, deer horn knife,&nbsp;<a href=\"https://www.d20pfsrd.com/equipment/weapons/weapon-descriptions/kama-double-chained\">double chained kama</a>,&nbsp;<a href=\"https://www.d20pfsrd.com/equipment/weapons/weapon-descriptions/double-chicken-saber\">double chicken saber</a>,&nbsp;<a href=\"https://www.d20pfsrd.com/equipment/weapons/weapon-descriptions/emei-piercer\">emei piercer</a>,&nbsp;<a href=\"https://www.d20pfsrd.com/equipment/weapons/weapon-descriptions/fighting-fan\">fighting fan</a>,&nbsp;<a href=\"https://www.d20pfsrd.com/equipment/weapons/weapon-descriptions/hanbo\">hanbo</a>,&nbsp;<a href=\"https://www.d20pfsrd.com/equipment/weapons/weapon-descriptions/jutte\">jutte</a>,&nbsp;<a href=\"https://www.d20pfsrd.com/equipment/weapons/weapon-descriptions/kama\">kama</a>,&nbsp;<a href=\"https://www.d20pfsrd.com/equipment/weapons/weapon-descriptions/kusarigama\">kusarigama</a>,&nbsp;<a href=\"https://www.d20pfsrd.com/equipment/weapons/weapon-descriptions/kyoketsu-shoge\">kyoketsu shoge</a>, lungshuan tamo,&nbsp;<a href=\"https://www.d20pfsrd.com/equipment/weapons/weapon-descriptions/monk-s-spade\">monk’s spade</a>,&nbsp;<a href=\"https://www.d20pfsrd.com/equipment/weapons/weapon-descriptions/broadsword-nine-ring\">nine-ring broadsword</a>,&nbsp;<a href=\"https://www.d20pfsrd.com/equipment/weapons/weapon-descriptions/whip-nine-section\">nine-section whip</a>,&nbsp;<a href=\"https://www.d20pfsrd.com/equipment/weapons/weapon-descriptions/nunchaku\">nunchaku</a>,&nbsp;<a href=\"https://www.d20pfsrd.com/equipment/weapons/weapon-descriptions/quarterstaff\">quarterstaff</a>,&nbsp;<a href=\"https://www.d20pfsrd.com/equipment/weapons/weapon-descriptions/rope-dart\">rope dart</a>,&nbsp;<a href=\"https://www.d20pfsrd.com/equipment/weapons/weapon-descriptions/sai\">sai</a>, sanpkhang,&nbsp;<a href=\"https://www.d20pfsrd.com/equipment/weapons/weapon-descriptions/sansetsukon-three-section-staff\">sansetsukon</a>,&nbsp;<a href=\"https://www.d20pfsrd.com/equipment/weapons/weapon-descriptions/sword-seven-branched\">seven-branched sword</a>,&nbsp;<a href=\"https://www.d20pfsrd.com/equipment/weapons/weapon-descriptions/shang-gou\">shang gou</a>,&nbsp;<a href=\"https://www.d20pfsrd.com/equipment/weapons/weapon-descriptions/ammunition/ammunition-thrown-shuriken\">shuriken</a>,&nbsp;<a href=\"https://www.d20pfsrd.com/equipment/weapons/weapon-descriptions/siangham\">siangham</a>,&nbsp;<a href=\"https://www.d20pfsrd.com/equipment/weapons/weapon-descriptions/sword-temple\">temple sword</a>,&nbsp;<a href=\"https://www.d20pfsrd.com/equipment/weapons/weapon-descriptions/tiger-fork\">tiger fork</a>,&nbsp;<a href=\"https://www.d20pfsrd.com/equipment/weapons/weapon-descriptions/tonfa\">tonfa</a>,&nbsp;<a href=\"https://www.d20pfsrd.com/equipment/weapons/weapon-descriptions/traveling-kettle-monk-group/\">traveling kettle</a>,&nbsp;<a href=\"https://www.d20pfsrd.com/equipment/weapons/weapon-descriptions/sword-tri-point-double-edged\">tri-point double-edged sword</a>,&nbsp;<a href=\"https://www.d20pfsrd.com/equipment/weapons/weapon-descriptions/strike-unarmed\">unarmed strike</a>,&nbsp;<a href=\"https://www.d20pfsrd.com/equipment/weapons/weapon-descriptions/urumi\">urumi</a>, and&nbsp;<a href=\"https://www.d20pfsrd.com/equipment/weapons/weapon-descriptions/dart-wushu\">wushu dart</a>.</p>\n<p><strong>Natural:</strong>&nbsp;<a href=\"https://www.d20pfsrd.com/equipment/weapons/weapon-descriptions/strike-unarmed\">unarmed strike</a>&nbsp;and all&nbsp;<a href=\"https://www.d20pfsrd.com/bestiary/rules-for-monsters/universal-monster-rules#TOC-Natural-Attacks\">natural weapons</a>, such as bite, claw, gore, tail, and wing.</p>\n<p><strong>Polearms:</strong>&nbsp;<a href=\"https://www.d20pfsrd.com/equipment/weapons/weapon-descriptions/bardiche\">bardiche</a>,&nbsp;<a href=\"https://www.d20pfsrd.com/equipment/weapons/weapon-descriptions/bec-de-corbin\">bec de corbin</a>,&nbsp;<a href=\"https://www.d20pfsrd.com/equipment/weapons/weapon-descriptions/bill\">bill</a>, boarding gaff, crook,&nbsp;<a href=\"https://www.d20pfsrd.com/equipment/weapons/weapon-descriptions/fauchard\">fauchard</a>, giant-sticker, dwarven,&nbsp;<a href=\"https://www.d20pfsrd.com/equipment/weapons/weapon-descriptions/glaive\">glaive</a>,&nbsp;<a href=\"https://www.d20pfsrd.com/equipment/weapons/weapon-descriptions/glaive-guisarme\">glaive-guisarme</a>, gnome ripsaw glaive,&nbsp;<a href=\"https://www.d20pfsrd.com/equipment/weapons/weapon-descriptions/guisarme\">guisarme</a>,&nbsp;<a href=\"https://www.d20pfsrd.com/equipment/weapons/weapon-descriptions/halberd\">halberd</a>,&nbsp;<a href=\"https://www.d20pfsrd.com/equipment/weapons/weapon-descriptions/lance-hooked\">hooked lance</a>,&nbsp;horsechopper,&nbsp;<a href=\"https://www.d20pfsrd.com/equipment/weapons/weapon-descriptions/hammer-lucerne\">lucerne hammer</a>,&nbsp;<a href=\"https://www.d20pfsrd.com/equipment/weapons/weapon-descriptions/mancatcher\">mancatcher</a>,&nbsp;<a href=\"https://www.d20pfsrd.com/equipment/weapons/weapon-descriptions/monk-s-spade\">monk’s spade</a>,&nbsp;<a href=\"https://www.d20pfsrd.com/equipment/weapons/weapon-descriptions/naginata\">naginata</a>,&nbsp;<a href=\"https://www.d20pfsrd.com/equipment/weapons/weapon-descriptions/nodachi\">nodachi</a>,&nbsp;ogre hook,&nbsp;<a href=\"https://www.d20pfsrd.com/equipment/weapons/weapon-descriptions/ranseur\">ranseur</a>,&nbsp;<a href=\"https://www.d20pfsrd.com/equipment/weapons/weapon-descriptions/rhomphaia\">rhomphaia</a>,&nbsp;<a href=\"https://www.d20pfsrd.com/equipment/weapons/weapon-descriptions/tepoztopilli\">tepoztopilli</a>, and&nbsp;<a href=\"https://www.d20pfsrd.com/equipment/weapons/weapon-descriptions/tiger-fork\">tiger fork</a>.</p>\n<p><strong>Siege engines: </strong>Ballista, bombard, catapult, corvus, firedrake, firewyrm, gallery, ram, siege tower, springal, trebuchet, and all other siege engines.</p>\n<p><strong>Spears:</strong>&nbsp;<a href=\"https://www.d20pfsrd.com/equipment/weapons/weapon-descriptions/amentum\">amentum</a>,&nbsp;<a href=\"https://www.d20pfsrd.com/equipment/weapons/weapon-descriptions/spear-boar\">boar spear</a>,&nbsp;<a href=\"https://www.d20pfsrd.com/equipment/weapons/weapon-descriptions/chain-spear\">chain spear</a>,&nbsp;<a href=\"https://www.d20pfsrd.com/equipment/weapons/weapon-descriptions/double-spear-spears-group/\">double spear</a>, elven branched spear,&nbsp;<a href=\"https://www.d20pfsrd.com/equipment/weapons/weapon-descriptions/harpoon\">harpoon</a>,&nbsp;<a href=\"https://www.d20pfsrd.com/equipment/weapons/weapon-descriptions/javelin\">javelin</a>,&nbsp;<a href=\"https://www.d20pfsrd.com/equipment/weapons/weapon-descriptions/lance\">lance</a>,&nbsp;<a href=\"https://www.d20pfsrd.com/equipment/weapons/weapon-descriptions/longspear\">longspear</a>, orc skull ram,&nbsp;<a href=\"https://www.d20pfsrd.com/equipment/weapons/weapon-descriptions/pilum\">pilum</a>, planson,&nbsp;<a href=\"https://www.d20pfsrd.com/equipment/weapons/weapon-descriptions/shortspear\">shortspear</a>,&nbsp;<a href=\"https://www.d20pfsrd.com/equipment/weapons/weapon-descriptions/sibat\">sibat</a>,&nbsp;<a href=\"https://www.d20pfsrd.com/equipment/weapons/weapon-descriptions/spear\">spear</a>, stormshaft javelin,&nbsp;<a href=\"https://www.d20pfsrd.com/equipment/weapons/weapon-descriptions/tiger-fork\">tiger fork</a>,&nbsp;<a href=\"https://www.d20pfsrd.com/equipment/weapons/weapon-descriptions/trident\">trident</a>, and weighted spear.</p>\n<p><strong>Thrown:</strong>&nbsp;<a href=\"https://www.d20pfsrd.com/equipment/weapons/weapon-descriptions/aklys\">aklys</a>,&nbsp;<a href=\"https://www.d20pfsrd.com/equipment/weapons/weapon-descriptions/amentum\">amentum</a>,&nbsp;<a href=\"https://www.d20pfsrd.com/equipment/weapons/weapon-descriptions/atlatl\">atlatl</a>,&nbsp;<a href=\"https://www.d20pfsrd.com/equipment/weapons/weapon-descriptions/blowgun\">blowgun</a>,&nbsp;<a href=\"https://www.d20pfsrd.com/equipment/weapons/weapon-descriptions/bolas\">bolas</a>,&nbsp;<a href=\"https://www.d20pfsrd.com/equipment/weapons/weapon-descriptions/boomerang\">boomerang</a>,&nbsp;<a href=\"https://www.d20pfsrd.com/equipment/weapons/weapon-descriptions/brutal-bolas\">brutal bolas</a>, chain-hammer,&nbsp;<a href=\"https://www.d20pfsrd.com/equipment/weapons/weapon-descriptions/chakram-crystal\">chakram</a>,&nbsp;<a href=\"https://www.d20pfsrd.com/equipment/weapons/weapon-descriptions/club\">club</a>,&nbsp;<a href=\"https://www.d20pfsrd.com/equipment/weapons/weapon-descriptions/dagger\">dagger</a>,&nbsp;<a href=\"https://www.d20pfsrd.com/equipment/weapons/weapon-descriptions/ammunition/ammunition-thrown-darts\">dart</a>, deer horn knife, dueling dagger,&nbsp;<a href=\"https://www.d20pfsrd.com/equipment/weapons/weapon-descriptions/flask-thrower\">flask thrower</a>,&nbsp;<a href=\"https://www.d20pfsrd.com/equipment/weapons/weapon-descriptions/sling-staff-halfling\">halfling sling staff</a>,&nbsp;<a href=\"https://www.d20pfsrd.com/equipment/weapons/weapon-descriptions/harpoon\">harpoon</a>,&nbsp;<a href=\"https://www.d20pfsrd.com/equipment/weapons/weapon-descriptions/hunga-munga\">hunga munga</a>,&nbsp;<a href=\"https://www.d20pfsrd.com/equipment/weapons/weapon-descriptions/javelin\">javelin</a>,&nbsp;<a href=\"https://www.d20pfsrd.com/equipment/weapons/weapon-descriptions/kestros\">kestros</a>,&nbsp;<a href=\"https://www.d20pfsrd.com/equipment/weapons/weapon-descriptions/lasso\">lasso</a>, light hammer,&nbsp;<a href=\"https://www.d20pfsrd.com/equipment/weapons/weapon-descriptions/net\">net</a>,&nbsp;<a href=\"https://www.d20pfsrd.com/equipment/weapons/weapon-descriptions/pilum\">pilum</a>,&nbsp;<a href=\"https://www.d20pfsrd.com/equipment/weapons/weapon-descriptions/poisoned-sand-tube\">poisoned sand tube</a>,&nbsp;ram hammer, dwarven,&nbsp;<a href=\"https://www.d20pfsrd.com/equipment/weapons/weapon-descriptions/rope-dart\">rope dart</a>,&nbsp;<a href=\"https://www.d20pfsrd.com/equipment/weapons/weapon-descriptions/shortspear\">shortspear</a>,&nbsp;<a href=\"https://www.d20pfsrd.com/equipment/weapons/weapon-descriptions/ammunition/ammunition-thrown-shuriken\">shuriken</a>,&nbsp;<a href=\"https://www.d20pfsrd.com/equipment/weapons/weapon-descriptions/sibat\">sibat</a>,&nbsp;<a href=\"https://www.d20pfsrd.com/equipment/weapons/weapon-descriptions/sling\">sling</a>,&nbsp;<a href=\"https://www.d20pfsrd.com/equipment/weapons/weapon-descriptions/sling-glove\">sling glove</a>,&nbsp;snag net,&nbsp;<a href=\"https://www.d20pfsrd.com/equipment/weapons/weapon-descriptions/spear\">spear</a>,&nbsp;sphinx hammer, dwarven,&nbsp;<a href=\"https://www.d20pfsrd.com/equipment/weapons/weapon-descriptions/starknife\">starknife</a>, stormshaft javelin,&nbsp;<a href=\"https://www.d20pfsrd.com/equipment/weapons/weapon-descriptions/axe-throwing\">throwing axe</a>, throwing shield,&nbsp;<a href=\"https://www.d20pfsrd.com/equipment/weapons/weapon-descriptions/trident\">trident</a>, and&nbsp;<a href=\"https://www.d20pfsrd.com/equipment/weapons/weapon-descriptions/dart-wushu\">wushu dart</a>.</p>\n<p><strong>Tribal:</strong>&nbsp;<a href=\"https://www.d20pfsrd.com/equipment/weapons/weapon-descriptions/club\">Club</a>,&nbsp;<a href=\"https://www.d20pfsrd.com/equipment/weapons/weapon-descriptions/dagger\">dagger</a>,&nbsp;<a href=\"https://www.d20pfsrd.com/equipment/weapons/weapon-descriptions/club-great\">greatclub</a>,&nbsp;<a href=\"https://www.d20pfsrd.com/equipment/weapons/weapon-descriptions/handaxe\">handaxe</a>,&nbsp;<a href=\"https://www.d20pfsrd.com/equipment/weapons/weapon-descriptions/handaxe\">heavy shield</a>,&nbsp;<a href=\"https://www.d20pfsrd.com/equipment/armor/shield-light-wooden-or-steel\">light shield</a>,&nbsp;<a href=\"https://www.d20pfsrd.com/equipment/weapons/weapon-descriptions/shortspear\">shortspear</a>,&nbsp;<a href=\"https://www.d20pfsrd.com/equipment/weapons/weapon-descriptions/spear\">spear</a>,&nbsp;<a href=\"https://www.d20pfsrd.com/equipment/weapons/weapon-descriptions/axe-throwing\">throwing axe</a>, and&nbsp;<a href=\"https://www.d20pfsrd.com/equipment/weapons/weapon-descriptions/strike-unarmed\">unarmed strike</a>.</p>\n</div>",
      "chat": "",
      "unidentified": ""
    },
    "tags": [],
    "activation": {
      "cost": 1,
      "type": "passive"
    },
    "unchainedAction": {
      "activation": {
        "cost": 1,
        "type": "passive"
      }
    },
    "duration": {
      "value": null,
      "units": ""
    },
    "target": {
      "value": ""
    },
    "range": {
      "value": null,
      "units": "",
      "maxIncrements": 1,
      "minValue": null,
      "minUnits": "",
      "long": null
    },
    "uses": {
      "value": 0,
      "max": 0,
      "per": "",
      "autoDeductCharges": true,
      "autoDeductChargesCost": "1"
    },
    "measureTemplate": {
      "type": "",
      "size": "0",
      "overrideColor": false,
      "customColor": "",
      "overrideTexture": false,
      "customTexture": ""
    },
    "attackName": "",
    "actionType": "",
    "attackBonus": "",
    "critConfirmBonus": "",
    "damage": {
      "parts": [],
      "critParts": [],
      "nonCritParts": []
    },
    "attackParts": [],
    "formula": "",
    "ability": {
      "attack": null,
      "damage": null,
      "damageMult": 1,
      "critRange": 20,
      "critMult": 2
    },
    "save": {
      "dc": 0,
      "type": "",
      "description": ""
    },
    "effectNotes": "",
    "attackNotes": "",
    "soundEffect": "",
    "changes": [],
    "changeFlags": {
      "loseDexToAC": false,
      "noStr": false,
      "noDex": false,
      "oneInt": false,
      "oneWis": false,
      "oneCha": false,
      "noEncumbrance": false,
      "mediumArmorFullSpeed": false,
      "heavyArmorFullSpeed": false
    },
    "contextNotes": [],
    "links": {
      "children": [],
      "charges": []
    },
    "tag": "",
    "useCustomTag": false,
    "armorProf": {
      "value": [],
      "custom": ""
    },
    "weaponProf": {
      "value": [],
      "custom": ""
    },
    "featType": "classFeat",
    "associations": {
      "classes": [
        [
          "Fighter"
        ]
      ]
    },
    "showInQuickbar": false,
    "nonlethal": false,
    "abilityType": "ex",
    "crOffset": "",
    "attack": {
      "parts": []
    },
    "conditionals": [],
    "identifiedName": "Weapon Training"
  },
  "flags": {},
  "img": "systems/pf1/icons/items/weapons/dagger-swordbreaker.PNG",
  "effects": []
}