{
  "_id": "tPnQOky1T8jX38WU",
  "name": "Wind Mystery",
  "permission": {
    "default": 0
  },
  "type": "feat",
  "data": {
    "description": {
      "value": "<p><strong>Class Skills:</strong> An oracle with the wind mystery adds Acrobatics, Escape Artist, Fly, and Stealth to her list of class skills.<br><br><strong>Bonus Spells:</strong>&nbsp;</p>\n<ul>\n<li>@Compendium[pf1.spells.nkd3xocluvt1rovu]{Alter Winds} (2nd),&nbsp;</li>\n<li>@Compendium[pf1.spells.cnuin981hdq7ryit]{Gust Of Wind} (4th),&nbsp;</li>\n<li>@Compendium[pf1.spells.fe8jy0h1l3su2322]{Cloak of Winds} (6th),&nbsp;</li>\n<li>@Compendium[pf1.spells.4gxx3bodf76e63en]{River of Wind} (8th),&nbsp;</li>\n<li>@Compendium[pf1.spells.g9koefk7x9szoheo]{Control Winds} (10th),&nbsp;</li>\n<li>@Compendium[pf1.spells.nk37t5em8q4v1djs]{Sirocco} (12th),&nbsp;</li>\n<li>@Compendium[pf1.spells.578t0lra5ll3aifs]{Control Weather} (14th),&nbsp;</li>\n<li>@Compendium[pf1.spells.i9greyz3c0ap32vi]{Whirlwind} (16th),&nbsp;</li>\n<li>@Compendium[pf1.spells.lun2gymejsmkjg4g]{Winds of Vengeance} (18th).</li>\n</ul>",
      "chat": "",
      "unidentified": ""
    },
    "tags": [],
    "activation": {
      "cost": 1,
      "type": ""
    },
    "unchainedAction": {
      "activation": {
        "cost": 1,
        "type": ""
      }
    },
    "duration": {
      "value": null,
      "units": ""
    },
    "target": {
      "value": ""
    },
    "range": {
      "value": null,
      "units": "",
      "maxIncrements": 1,
      "minValue": null,
      "minUnits": "",
      "long": null
    },
    "uses": {
      "value": 0,
      "max": 0,
      "per": null,
      "autoDeductCharges": true,
      "autoDeductChargesCost": "1"
    },
    "measureTemplate": {
      "type": "",
      "size": "",
      "overrideColor": false,
      "customColor": "",
      "overrideTexture": false,
      "customTexture": ""
    },
    "attackName": "",
    "actionType": "",
    "attackBonus": "",
    "critConfirmBonus": "",
    "damage": {
      "parts": [],
      "critParts": [],
      "nonCritParts": []
    },
    "attackParts": [],
    "formula": "",
    "ability": {
      "attack": null,
      "damage": null,
      "damageMult": 1,
      "critRange": 20,
      "critMult": 2
    },
    "save": {
      "dc": 0,
      "type": "",
      "description": ""
    },
    "effectNotes": "",
    "attackNotes": "",
    "soundEffect": "",
    "changes": [],
    "changeFlags": {
      "loseDexToAC": false,
      "noStr": false,
      "noDex": false,
      "oneInt": false,
      "oneWis": false,
      "oneCha": false,
      "noEncumbrance": false,
      "mediumArmorFullSpeed": false,
      "heavyArmorFullSpeed": false
    },
    "contextNotes": [],
    "links": {
      "children": [],
      "charges": []
    },
    "tag": "",
    "useCustomTag": false,
    "armorProf": {
      "value": [],
      "custom": ""
    },
    "weaponProf": {
      "value": [],
      "custom": ""
    },
    "featType": "classFeat",
    "associations": {
      "classes": [
        [
          "Oracle"
        ]
      ]
    },
    "showInQuickbar": false,
    "nonlethal": false,
    "abilityType": "none",
    "crOffset": "",
    "attack": {
      "parts": []
    }
  },
  "flags": {},
  "img": "systems/pf1/icons/spells/light-magenta-2.jpg",
  "effects": []
}