{
  "_id": "1z7euBqoJ1ZDCRW4",
  "name": "Fox's Cunning",
  "permission": {
    "default": 0
  },
  "type": "buff",
  "data": {
    "description": {
      "value": "<p>The subject has a +4 enhancement bonus to Intelligence.</p>",
      "chat": "",
      "unidentified": ""
    },
    "tags": [],
    "changes": [
      {
        "_id": "11mnkusb",
        "formula": "4",
        "operator": "+",
        "target": "ability",
        "subTarget": "int",
        "modifier": "enh",
        "priority": 0,
        "value": 0
      }
    ],
    "changeFlags": {
      "loseDexToAC": false,
      "noStr": false,
      "noDex": false,
      "oneInt": false,
      "oneWis": false,
      "oneCha": false,
      "noEncumbrance": false,
      "mediumArmorFullSpeed": false,
      "heavyArmorFullSpeed": false
    },
    "contextNotes": [],
    "links": {
      "children": []
    },
    "buffType": "temp",
    "active": false,
    "level": "",
    "hideFromToken": false,
    "damage": {
      "parts": []
    }
  },
  "sort": 100001,
  "flags": {},
  "img": "systems/pf1/icons/spells/runes-royal-1.jpg",
  "effects": []
}