{
  "_id": "IlO0CNpAIKZtNYu8",
  "name": "Mage Armor",
  "permission": {
    "default": 0
  },
  "type": "buff",
  "data": {
    "description": {
      "value": "<p>An invisible but tangible field of force surrounds you, providing a +4 armor bonus to AC.</p>\n<p>Since&nbsp;mage armor&nbsp;is made of force,&nbsp;<a href=\"https://www.d20pfsrd.com/gamemastering/conditions#TOC-Incorporeal\">incorporeal</a>&nbsp;creatures can’t bypass it the way they do normal armor.</p>",
      "chat": "",
      "unidentified": ""
    },
    "tags": [],
    "changes": [
      {
        "_id": "o4qpth3y",
        "formula": "4",
        "operator": "+",
        "target": "ac",
        "subTarget": "aac",
        "modifier": "base",
        "priority": 0,
        "value": 0
      }
    ],
    "changeFlags": {
      "loseDexToAC": false,
      "noStr": false,
      "noDex": false,
      "oneInt": false,
      "oneWis": false,
      "oneCha": false,
      "noEncumbrance": false,
      "mediumArmorFullSpeed": false,
      "heavyArmorFullSpeed": false
    },
    "contextNotes": [],
    "links": {
      "children": []
    },
    "buffType": "temp",
    "active": false,
    "level": "",
    "hideFromToken": false,
    "damage": {
      "parts": []
    }
  },
  "sort": 5500000,
  "flags": {},
  "img": "systems/pf1/icons/spells/protect-sky-1.jpg",
  "effects": []
}