{
  "_id": "BcwA1AvqiRsnk9Vg",
  "name": "Banelight",
  "permission": {
    "default": 0
  },
  "type": "npc",
  "data": {
    "abilities": {
      "str": {
        "total": 12,
        "mod": 1,
        "value": 12,
        "carryBonus": 0,
        "carryMultiplier": 1,
        "checkMod": 0,
        "damage": 0,
        "drain": 0,
        "penalty": 0,
        "userPenalty": 0,
        "base": 10,
        "baseMod": 0
      },
      "dex": {
        "total": 32,
        "mod": 11,
        "value": 32,
        "checkMod": 0,
        "damage": 0,
        "drain": 0,
        "penalty": 0,
        "userPenalty": 0,
        "base": 10,
        "baseMod": 0
      },
      "con": {
        "total": 25,
        "mod": 7,
        "value": 25,
        "checkMod": 0,
        "damage": 0,
        "drain": 0,
        "penalty": 0,
        "userPenalty": 0,
        "base": 10,
        "baseMod": 0
      },
      "int": {
        "total": 21,
        "mod": 5,
        "value": 21,
        "checkMod": 0,
        "damage": 0,
        "drain": 0,
        "penalty": 0,
        "userPenalty": 0,
        "base": 10,
        "baseMod": 0
      },
      "wis": {
        "total": 22,
        "mod": 6,
        "value": 22,
        "checkMod": 0,
        "damage": 0,
        "drain": 0,
        "penalty": 0,
        "userPenalty": 0,
        "base": 10,
        "baseMod": 0
      },
      "cha": {
        "total": 23,
        "mod": 6,
        "value": 23,
        "checkMod": 0,
        "damage": 0,
        "drain": 0,
        "penalty": 0,
        "userPenalty": 0,
        "base": 10,
        "baseMod": 0
      }
    },
    "resources": {},
    "attributes": {
      "encumbrance": {
        "level": 0,
        "levels": {
          "light": 43,
          "medium": 86,
          "heavy": 130,
          "carry": 260,
          "drag": 650
        },
        "carriedWeight": 0
      },
      "hpAbility": "con",
      "cmbAbility": "str",
      "hd": {
        "total": 16,
        "max": {
          "_deprecated": true,
          "value": 0
        }
      },
      "naturalAC": 6,
      "ac": {
        "normal": {
          "value": 0,
          "total": 10
        },
        "touch": {
          "value": 0,
          "total": 10
        },
        "flatFooted": {
          "value": 0,
          "total": 10
        }
      },
      "bab": {
        "value": 8,
        "total": 8
      },
      "cmd": {
        "value": "9",
        "total": 10,
        "flatFootedTotal": 10
      },
      "cmb": {
        "value": 38,
        "total": 0
      },
      "sr": {
        "formula": 0,
        "total": 0
      },
      "saveNotes": "",
      "acNotes": "(+11 Dex, +6 natural)",
      "cmdNotes": "",
      "srNotes": "",
      "attack": {
        "general": 0,
        "shared": 0,
        "melee": 0,
        "ranged": 0,
        "meleeAbility": "str",
        "rangedAbility": "dex"
      },
      "damage": {
        "general": 0,
        "weapon": 0,
        "spell": 0
      },
      "maxDexBonus": null,
      "mDex": {
        "armorBonus": 0,
        "shieldBonus": 0
      },
      "acp": {
        "gear": 0,
        "encumbrance": 0,
        "total": 0,
        "armorBonus": 0,
        "shieldBonus": 0,
        "attackPenalty": 0
      },
      "energyDrain": 0,
      "quadruped": false,
      "savingThrows": {
        "fort": {
          "total": 14,
          "ability": "con"
        },
        "ref": {
          "total": 21,
          "ability": "dex"
        },
        "will": {
          "total": 16,
          "ability": "wis"
        }
      },
      "hp": {
        "value": 168,
        "max": 0,
        "temp": null,
        "nonlethal": null,
        "min": -100
      },
      "wounds": {
        "min": 0,
        "value": 50,
        "max": 50
      },
      "vigor": {
        "min": 0,
        "value": 56,
        "temp": 0,
        "max": 56
      },
      "woundThresholds": {
        "penalty": 0,
        "mod": 0,
        "level": 0,
        "override": -1
      },
      "init": {
        "value": 0,
        "bonus": 0,
        "total": 0,
        "ability": ""
      },
      "prof": 2,
      "speed": {
        "land": {
          "base": 20,
          "total": 20
        },
        "climb": {
          "base": 0,
          "total": 0
        },
        "swim": {
          "base": 0,
          "total": 0
        },
        "burrow": {
          "base": 0,
          "total": 0
        },
        "fly": {
          "base": 100,
          "total": 100,
          "maneuverability": "perfect"
        }
      },
      "conditions": {
        "bleed": false,
        "blind": false,
        "confused": false,
        "dazzled": false,
        "deaf": false,
        "entangled": false,
        "fatigued": false,
        "exhausted": false,
        "grappled": false,
        "helpless": false,
        "incorporeal": false,
        "invisible": false,
        "paralyzed": false,
        "pinned": false,
        "prone": false,
        "fear": false,
        "sickened": false,
        "staggered": false,
        "stunned": false
      },
      "spells": {
        "usedSpellbooks": [
          "spelllike"
        ],
        "spellbooks": {
          "primary": {
            "name": "Primary",
            "class": "",
            "cl": {
              "base": 0,
              "value": 0,
              "total": 0,
              "formula": ""
            },
            "concentration": 0,
            "concentrationFormula": "",
            "concentrationNotes": "",
            "clNotes": "",
            "ability": "int",
            "autoSpellLevels": true,
            "arcaneSpellFailure": true,
            "baseDCFormula": "10 + @sl + @ablMod",
            "spontaneous": false,
            "spellPoints": {
              "useSystem": false,
              "value": 0,
              "max": 0,
              "maxFormula": "",
              "restoreFormula": ""
            },
            "spellSlotAbilityBonusFormula": "",
            "domainSlotValue": 1,
            "spells": {
              "spell0": {
                "value": 0,
                "max": 0,
                "base": null
              },
              "spell1": {
                "value": 0,
                "max": 0,
                "base": null
              },
              "spell2": {
                "value": 0,
                "max": 0,
                "base": null
              },
              "spell3": {
                "value": 0,
                "max": 0,
                "base": null
              },
              "spell4": {
                "value": 0,
                "max": 0,
                "base": null
              },
              "spell5": {
                "value": 0,
                "max": 0,
                "base": null
              },
              "spell6": {
                "value": 0,
                "max": 0,
                "base": null
              },
              "spell7": {
                "value": 0,
                "max": 0,
                "base": null
              },
              "spell8": {
                "value": 0,
                "max": 0,
                "base": null
              },
              "spell9": {
                "value": 0,
                "max": 0,
                "base": null
              }
            }
          },
          "secondary": {
            "name": "Secondary",
            "class": "",
            "cl": {
              "base": 0,
              "value": 0,
              "total": 0,
              "formula": ""
            },
            "concentration": 0,
            "concentrationFormula": "",
            "concentrationNotes": "",
            "clNotes": "",
            "ability": "int",
            "autoSpellLevels": true,
            "arcaneSpellFailure": true,
            "baseDCFormula": "10 + @sl + @ablMod",
            "spontaneous": false,
            "spellPoints": {
              "useSystem": false,
              "value": 0,
              "max": 0,
              "maxFormula": "",
              "restoreFormula": ""
            },
            "spellSlotAbilityBonusFormula": "",
            "domainSlotValue": 1,
            "spells": {
              "spell0": {
                "value": 0,
                "max": 0,
                "base": null
              },
              "spell1": {
                "value": 0,
                "max": 0,
                "base": null
              },
              "spell2": {
                "value": 0,
                "max": 0,
                "base": null
              },
              "spell3": {
                "value": 0,
                "max": 0,
                "base": null
              },
              "spell4": {
                "value": 0,
                "max": 0,
                "base": null
              },
              "spell5": {
                "value": 0,
                "max": 0,
                "base": null
              },
              "spell6": {
                "value": 0,
                "max": 0,
                "base": null
              },
              "spell7": {
                "value": 0,
                "max": 0,
                "base": null
              },
              "spell8": {
                "value": 0,
                "max": 0,
                "base": null
              },
              "spell9": {
                "value": 0,
                "max": 0,
                "base": null
              }
            }
          },
          "tertiary": {
            "name": "Tertiary",
            "class": "",
            "cl": {
              "base": 0,
              "value": 0,
              "total": 0,
              "formula": ""
            },
            "concentration": 0,
            "concentrationFormula": "",
            "concentrationNotes": "",
            "clNotes": "",
            "ability": "int",
            "autoSpellLevels": true,
            "arcaneSpellFailure": true,
            "baseDCFormula": "10 + @sl + @ablMod",
            "spontaneous": false,
            "spellPoints": {
              "useSystem": false,
              "value": 0,
              "max": 0,
              "maxFormula": "",
              "restoreFormula": ""
            },
            "spellSlotAbilityBonusFormula": "",
            "domainSlotValue": 1,
            "spells": {
              "spell0": {
                "value": 0,
                "max": 0,
                "base": null
              },
              "spell1": {
                "value": 0,
                "max": 0,
                "base": null
              },
              "spell2": {
                "value": 0,
                "max": 0,
                "base": null
              },
              "spell3": {
                "value": 0,
                "max": 0,
                "base": null
              },
              "spell4": {
                "value": 0,
                "max": 0,
                "base": null
              },
              "spell5": {
                "value": 0,
                "max": 0,
                "base": null
              },
              "spell6": {
                "value": 0,
                "max": 0,
                "base": null
              },
              "spell7": {
                "value": 0,
                "max": 0,
                "base": null
              },
              "spell8": {
                "value": 0,
                "max": 0,
                "base": null
              },
              "spell9": {
                "value": 0,
                "max": 0,
                "base": null
              }
            }
          },
          "spelllike": {
            "name": "Spell-likes",
            "class": "",
            "cl": {
              "base": 0,
              "value": 12,
              "total": 12,
              "formula": "12"
            },
            "concentration": "+18",
            "concentrationFormula": "",
            "concentrationNotes": "",
            "clNotes": "",
            "ability": "cha",
            "autoSpellLevels": true,
            "arcaneSpellFailure": true,
            "baseDCFormula": "10 + @sl + @ablMod",
            "spontaneous": true,
            "spellPoints": {
              "useSystem": false,
              "value": 0,
              "max": 0,
              "maxFormula": "",
              "restoreFormula": ""
            },
            "spellSlotAbilityBonusFormula": "",
            "domainSlotValue": 1,
            "spells": {
              "spell0": {
                "value": 3,
                "max": 3,
                "base": "3"
              },
              "spell1": {
                "value": 0,
                "max": 0,
                "base": null
              },
              "spell2": {
                "value": 0,
                "max": 0,
                "base": null
              },
              "spell3": {
                "value": 0,
                "max": 0,
                "base": null
              },
              "spell4": {
                "value": 0,
                "max": 0,
                "base": null
              },
              "spell5": {
                "value": 0,
                "max": 0,
                "base": null
              },
              "spell6": {
                "value": 0,
                "max": 0,
                "base": null
              },
              "spell7": {
                "value": 0,
                "max": 0,
                "base": null
              },
              "spell8": {
                "value": 0,
                "max": 0,
                "base": null
              },
              "spell9": {
                "value": 0,
                "max": 0,
                "base": null
              }
            }
          }
        },
        "concentration": {
          "bonus": 0,
          "context": ""
        }
      },
      "spellcasting": {
        "_deprecated": true
      },
      "spelldc": {
        "_deprecated": true
      },
      "spellLevel": 0,
      "cmbNotes": "(42 vs. trip)",
      "mods": {
        "skills": {}
      },
      "creatureType": "humanoid"
    },
    "details": {
      "level": {
        "value": 16,
        "min": 0,
        "max": 40
      },
      "mythicTier": 0,
      "bonusFeatFormula": "",
      "alignment": "ne",
      "biography": {
        "value": "",
        "public": ""
      },
      "notes": {
        "value": "",
        "public": ""
      },
      "bonusSkillRankFormula": "",
      "type": "",
      "environment": "",
      "cr": {
        "base": 12,
        "total": 12
      },
      "xp": {
        "value": "19200"
      }
    },
    "skills": {
      "acr": {
        "value": 0,
        "ability": "dex",
        "rt": false,
        "acp": true,
        "rank": 16,
        "mod": 30,
        "background": false,
        "notes": "",
        "cs": true,
        "changeBonus": 0
      },
      "apr": {
        "value": 0,
        "ability": "int",
        "rt": false,
        "acp": false,
        "rank": 0,
        "mod": 5,
        "background": true,
        "notes": "",
        "cs": false,
        "changeBonus": 0
      },
      "art": {
        "value": 0,
        "ability": "int",
        "rt": false,
        "acp": false,
        "rank": 0,
        "mod": 5,
        "background": true,
        "notes": "",
        "subSkills": {},
        "cs": false,
        "changeBonus": 0
      },
      "blf": {
        "value": 0,
        "ability": "cha",
        "rt": false,
        "acp": false,
        "rank": 16,
        "mod": 25,
        "background": false,
        "notes": "",
        "cs": true,
        "changeBonus": 0
      },
      "clm": {
        "value": 0,
        "ability": "str",
        "rt": false,
        "acp": true,
        "rank": 0,
        "mod": 1,
        "background": false,
        "notes": "",
        "cs": true,
        "changeBonus": 0
      },
      "crf": {
        "value": 0,
        "ability": "int",
        "rt": false,
        "acp": false,
        "rank": 0,
        "mod": 5,
        "background": true,
        "notes": "",
        "subSkills": {},
        "cs": true,
        "changeBonus": 0
      },
      "dip": {
        "value": 0,
        "ability": "cha",
        "rt": false,
        "acp": false,
        "rank": 0,
        "mod": 6,
        "background": false,
        "notes": "",
        "cs": true,
        "changeBonus": 0
      },
      "dev": {
        "value": 0,
        "ability": "dex",
        "rt": true,
        "acp": true,
        "rank": 0,
        "mod": 11,
        "background": false,
        "notes": "",
        "cs": false,
        "changeBonus": 0
      },
      "dis": {
        "value": 0,
        "ability": "cha",
        "rt": false,
        "acp": false,
        "rank": 0,
        "mod": 6,
        "background": false,
        "notes": "",
        "cs": true,
        "changeBonus": 0
      },
      "esc": {
        "value": 0,
        "ability": "dex",
        "rt": false,
        "acp": true,
        "rank": 16,
        "mod": 30,
        "background": false,
        "notes": "",
        "cs": true,
        "changeBonus": 0
      },
      "fly": {
        "value": 0,
        "ability": "dex",
        "rt": false,
        "acp": true,
        "rank": 16,
        "mod": 38,
        "background": false,
        "notes": "",
        "cs": true,
        "changeBonus": 0
      },
      "han": {
        "value": 0,
        "ability": "cha",
        "rt": true,
        "acp": false,
        "rank": 0,
        "mod": 6,
        "background": true,
        "notes": "",
        "cs": false,
        "changeBonus": 0
      },
      "hea": {
        "value": 0,
        "ability": "wis",
        "rt": false,
        "acp": false,
        "rank": 0,
        "mod": 6,
        "background": false,
        "notes": "",
        "cs": false,
        "changeBonus": 0
      },
      "int": {
        "value": 0,
        "ability": "cha",
        "rt": false,
        "acp": false,
        "rank": 16,
        "mod": 22,
        "background": false,
        "notes": "",
        "cs": false,
        "changeBonus": 0
      },
      "kar": {
        "value": 0,
        "ability": "int",
        "rt": true,
        "acp": false,
        "rank": 0,
        "mod": 5,
        "background": false,
        "notes": "",
        "cs": false,
        "changeBonus": 0
      },
      "kdu": {
        "value": 0,
        "ability": "int",
        "rt": true,
        "acp": false,
        "rank": 0,
        "mod": 5,
        "background": false,
        "notes": "",
        "cs": false,
        "changeBonus": 0
      },
      "ken": {
        "value": 0,
        "ability": "int",
        "rt": true,
        "acp": false,
        "rank": 0,
        "mod": 5,
        "background": true,
        "notes": "",
        "cs": false,
        "changeBonus": 0
      },
      "kge": {
        "value": 0,
        "ability": "int",
        "rt": true,
        "acp": false,
        "rank": 0,
        "mod": 5,
        "background": true,
        "notes": "",
        "cs": true,
        "changeBonus": 0
      },
      "khi": {
        "value": 0,
        "ability": "int",
        "rt": true,
        "acp": false,
        "rank": 0,
        "mod": 5,
        "background": true,
        "notes": "",
        "cs": false,
        "changeBonus": 0
      },
      "klo": {
        "value": 0,
        "ability": "int",
        "rt": true,
        "acp": false,
        "rank": 0,
        "mod": 5,
        "background": false,
        "notes": "",
        "cs": true,
        "changeBonus": 0
      },
      "kna": {
        "value": 0,
        "ability": "int",
        "rt": true,
        "acp": false,
        "rank": 16,
        "mod": 24,
        "background": false,
        "notes": "",
        "cs": true,
        "changeBonus": 0
      },
      "kno": {
        "value": 0,
        "ability": "int",
        "rt": true,
        "acp": false,
        "rank": 0,
        "mod": 5,
        "background": true,
        "notes": "",
        "cs": false,
        "changeBonus": 0
      },
      "kpl": {
        "value": 0,
        "ability": "int",
        "rt": true,
        "acp": false,
        "rank": 0,
        "mod": 5,
        "background": false,
        "notes": "",
        "cs": false,
        "changeBonus": 0
      },
      "kre": {
        "value": 0,
        "ability": "int",
        "rt": true,
        "acp": false,
        "rank": 0,
        "mod": 5,
        "background": false,
        "notes": "",
        "cs": false,
        "changeBonus": 0
      },
      "lin": {
        "value": 0,
        "ability": "int",
        "rt": true,
        "acp": false,
        "rank": 0,
        "mod": 5,
        "background": true,
        "notes": "",
        "cs": false,
        "changeBonus": 0
      },
      "lor": {
        "value": 0,
        "ability": "int",
        "rt": true,
        "acp": false,
        "rank": 0,
        "mod": 5,
        "background": true,
        "notes": "",
        "subSkills": {},
        "cs": false,
        "changeBonus": 0
      },
      "per": {
        "value": 0,
        "ability": "wis",
        "rt": false,
        "acp": false,
        "rank": 16,
        "mod": 25,
        "background": false,
        "notes": "",
        "cs": true,
        "changeBonus": 0
      },
      "prf": {
        "value": 0,
        "ability": "cha",
        "rt": false,
        "acp": false,
        "rank": 0,
        "mod": 6,
        "background": true,
        "notes": "",
        "subSkills": {},
        "cs": true,
        "changeBonus": 0
      },
      "pro": {
        "value": 0,
        "ability": "wis",
        "rt": true,
        "acp": false,
        "rank": 0,
        "mod": 6,
        "background": true,
        "notes": "",
        "subSkills": {},
        "cs": false,
        "changeBonus": 0
      },
      "rid": {
        "value": 0,
        "ability": "dex",
        "rt": false,
        "acp": true,
        "rank": 0,
        "mod": 11,
        "background": false,
        "notes": "",
        "cs": false,
        "changeBonus": 0
      },
      "sen": {
        "value": 0,
        "ability": "wis",
        "rt": false,
        "acp": false,
        "rank": 16,
        "mod": 25,
        "background": false,
        "notes": "",
        "cs": true,
        "changeBonus": 0
      },
      "slt": {
        "value": 0,
        "ability": "dex",
        "rt": true,
        "acp": true,
        "rank": 0,
        "mod": 11,
        "background": true,
        "notes": "",
        "cs": true,
        "changeBonus": 0
      },
      "spl": {
        "value": 0,
        "ability": "int",
        "rt": true,
        "acp": false,
        "rank": 16,
        "mod": 21,
        "background": false,
        "notes": "",
        "cs": false,
        "changeBonus": 0
      },
      "ste": {
        "value": 0,
        "ability": "dex",
        "rt": false,
        "acp": true,
        "rank": 16,
        "mod": 30,
        "background": false,
        "notes": "",
        "cs": true,
        "changeBonus": 0
      },
      "sur": {
        "value": 0,
        "ability": "wis",
        "rt": false,
        "acp": false,
        "rank": 0,
        "mod": 6,
        "background": false,
        "notes": "",
        "cs": false,
        "changeBonus": 0
      },
      "swm": {
        "value": 0,
        "ability": "str",
        "rt": false,
        "acp": true,
        "rank": 0,
        "mod": 1,
        "background": false,
        "notes": "",
        "cs": true,
        "changeBonus": 0
      },
      "umd": {
        "value": 0,
        "ability": "cha",
        "rt": true,
        "acp": false,
        "rank": 16,
        "mod": 25,
        "background": false,
        "notes": "",
        "cs": true,
        "changeBonus": 0
      }
    },
    "customSkills": {},
    "traits": {
      "size": "med",
      "senses": "blindsight 60 ft., low-light vision; Perception +25",
      "dr": "10/cold iron Immune magic  Weaknesses susceptible to darkness",
      "eres": "",
      "cres": "",
      "regen": "",
      "fastHealing": "10",
      "languages": {
        "value": [
          "aklo",
          "auran",
          "common",
          "draconic",
          "sylvan"
        ],
        "custom": ""
      },
      "di": {
        "value": [],
        "custom": ""
      },
      "dv": {
        "value": [],
        "custom": "susceptible to darkness"
      },
      "ci": {
        "value": [],
        "custom": "magic  Weaknesses susceptible to darkness"
      },
      "perception": {
        "_deprecated": true
      },
      "stature": "tall"
    },
    "currency": {
      "pp": 0,
      "gp": 0,
      "sp": 0,
      "cp": 0
    },
    "altCurrency": {
      "pp": 0,
      "gp": 0,
      "sp": 0,
      "cp": 0
    },
    "classes": {}
  },
  "sort": 100001,
  "flags": {
    "pf1": {}
  },
  "img": "systems/pf1/icons/races/creature-types/fey.png",
  "token": {
    "flags": {
      "pf1": {
        "lowLightVision": false
      }
    },
    "name": "Banelight",
    "displayName": 0,
    "img": "systems/pf1/icons/races/creature-types/fey.png",
    "tint": null,
    "width": 1,
    "height": 1,
    "scale": 1,
    "lockRotation": false,
    "rotation": 0,
    "vision": true,
    "dimSight": 0,
    "brightSight": 0,
    "dimLight": 0,
    "brightLight": 0,
    "sightAngle": 360,
    "lightAngle": 360,
    "lightAlpha": 1,
    "lightAnimation": {
      "speed": 5,
      "intensity": 5
    },
    "actorId": "BcwA1AvqiRsnk9Vg",
    "actorLink": false,
    "disposition": -1,
    "displayBars": 0,
    "bar1": {
      "attribute": "attributes.hp"
    },
    "bar2": {},
    "randomImg": false
  },
  "items": [
    {
      "_id": "2KjPRyDTEHgkRY2o",
      "name": "Aura: Banelight (60 Ft.)",
      "type": "feat",
      "data": {
        "description": {
          "value": "<p>sbc | Automatically generated via statblock, check values as needed!</p>",
          "chat": "",
          "unidentified": ""
        },
        "tags": [],
        "activation": {
          "cost": 1,
          "type": "passive"
        },
        "unchainedAction": {
          "activation": {
            "cost": 1,
            "type": "passive"
          }
        },
        "duration": {
          "value": null,
          "units": "perm"
        },
        "target": {
          "value": ""
        },
        "range": {
          "value": "60",
          "units": "ft",
          "maxIncrements": 1,
          "minValue": null,
          "minUnits": "",
          "long": null
        },
        "uses": {
          "value": 0,
          "max": 0,
          "per": null,
          "autoDeductCharges": true,
          "autoDeductChargesCost": "1"
        },
        "measureTemplate": {
          "type": "circle",
          "size": "60",
          "overrideColor": false,
          "customColor": "",
          "overrideTexture": false,
          "customTexture": ""
        },
        "attackName": "",
        "actionType": "",
        "attackBonus": "",
        "critConfirmBonus": "",
        "damage": {
          "parts": [],
          "critParts": [],
          "nonCritParts": []
        },
        "attackParts": [],
        "formula": "",
        "ability": {
          "attack": "",
          "damage": "",
          "damageMult": 1,
          "critRange": 20,
          "critMult": 2
        },
        "save": {
          "dc": "",
          "type": "",
          "description": ""
        },
        "effectNotes": "",
        "attackNotes": "",
        "soundEffect": "",
        "changes": [],
        "changeFlags": {
          "loseDexToAC": false,
          "noStr": false,
          "noDex": false,
          "oneInt": false,
          "oneWis": false,
          "oneCha": false,
          "noEncumbrance": false,
          "mediumArmorFullSpeed": false,
          "heavyArmorFullSpeed": false
        },
        "contextNotes": [],
        "links": {
          "children": [],
          "charges": []
        },
        "tag": "",
        "useCustomTag": false,
        "armorProf": {
          "value": [],
          "custom": ""
        },
        "weaponProf": {
          "value": [],
          "custom": ""
        },
        "featType": "misc",
        "associations": {
          "classes": []
        },
        "showInQuickbar": false,
        "nonlethal": false,
        "abilityType": "",
        "crOffset": "0",
        "attack": {
          "parts": []
        }
      },
      "sort": 1000000,
      "flags": {},
      "img": "icons/svg/mystery-man.svg",
      "effects": []
    },
    {
      "_id": "VFAIBjsQifU6FIxN",
      "name": "Aura: \n",
      "type": "feat",
      "data": {
        "description": {
          "value": "<p>sbc | Automatically generated via statblock, check values as needed!</p>",
          "chat": "",
          "unidentified": ""
        },
        "tags": [],
        "activation": {
          "cost": 1,
          "type": "passive"
        },
        "unchainedAction": {
          "activation": {
            "cost": 1,
            "type": "passive"
          }
        },
        "duration": {
          "value": null,
          "units": "perm"
        },
        "target": {
          "value": ""
        },
        "range": {
          "value": 0,
          "units": "ft",
          "maxIncrements": 1,
          "minValue": null,
          "minUnits": "",
          "long": null
        },
        "uses": {
          "value": 0,
          "max": 0,
          "per": null,
          "autoDeductCharges": true,
          "autoDeductChargesCost": "1"
        },
        "measureTemplate": {
          "type": "circle",
          "size": "0",
          "overrideColor": false,
          "customColor": "",
          "overrideTexture": false,
          "customTexture": ""
        },
        "attackName": "",
        "actionType": "",
        "attackBonus": "",
        "critConfirmBonus": "",
        "damage": {
          "parts": [],
          "critParts": [],
          "nonCritParts": []
        },
        "attackParts": [],
        "formula": "",
        "ability": {
          "attack": "",
          "damage": "",
          "damageMult": 1,
          "critRange": 20,
          "critMult": 2
        },
        "save": {
          "dc": "",
          "type": "",
          "description": ""
        },
        "effectNotes": "",
        "attackNotes": "",
        "soundEffect": "",
        "changes": [],
        "changeFlags": {
          "loseDexToAC": false,
          "noStr": false,
          "noDex": false,
          "oneInt": false,
          "oneWis": false,
          "oneCha": false,
          "noEncumbrance": false,
          "mediumArmorFullSpeed": false,
          "heavyArmorFullSpeed": false
        },
        "contextNotes": [],
        "links": {
          "children": [],
          "charges": []
        },
        "tag": "",
        "useCustomTag": false,
        "armorProf": {
          "value": [],
          "custom": ""
        },
        "weaponProf": {
          "value": [],
          "custom": ""
        },
        "featType": "misc",
        "associations": {
          "classes": []
        },
        "showInQuickbar": false,
        "nonlethal": false,
        "abilityType": "",
        "crOffset": "0",
        "attack": {
          "parts": []
        }
      },
      "sort": 1000000,
      "flags": {},
      "img": "icons/svg/mystery-man.svg",
      "effects": []
    },
    {
      "_id": "SieDmvmnX5s5Jr8X",
      "name": "Fey",
      "type": "class",
      "data": {
        "description": {
          "value": "<p>A fey is a creature with supernatural abilities and connections to nature or to some other force or place. Fey are usually human-shaped.</p>\n<h2><span id=\"Features\">Features</span></h2>\n<p>A fey has the following features.</p>\n<ul>\n<li>d6 Hit Die.</li>\n<li>Base attack bonus equal to 1/2 total Hit Dice (slow progression).</li>\n<li>Good&nbsp;<a href=\"https://www.d20pfsrd.com/gamemastering/combat#TOC-Reflex\">Reflex</a>&nbsp;and&nbsp;<a href=\"https://www.d20pfsrd.com/gamemastering/combat#TOC-Will\">Will</a>&nbsp;Saves.</li>\n<li>Skill points equal to 6 + Int modifier (minimum 1) per Hit Die. The following are class skills for fey: <a href=\"https://www.d20pfsrd.com/skills/acrobatics\">Acrobatics</a>, <a href=\"https://www.d20pfsrd.com/skills/bluff\">Bluff</a>, <a href=\"https://www.d20pfsrd.com/skills/climb\">Climb</a>, <a href=\"https://www.d20pfsrd.com/skills/craft\">Craft</a>, <a href=\"https://www.d20pfsrd.com/skills/diplomacy\">Diplomacy</a>, <a href=\"https://www.d20pfsrd.com/skills/disguise\">Disguise</a>, <a href=\"https://www.d20pfsrd.com/skills/escape-artist\">Escape Artist</a>, <a href=\"https://www.d20pfsrd.com/skills/fly\">Fly</a>, <a href=\"https://www.d20pfsrd.com/skills/knowledge\">Knowledge</a>&nbsp;(geography), <a href=\"https://www.d20pfsrd.com/skills/knowledge\">Knowledge</a>&nbsp;(local), <a href=\"https://www.d20pfsrd.com/skills/knowledge\">Knowledge</a>&nbsp;(nature), <a href=\"https://www.d20pfsrd.com/skills/perception\">Perception</a>, <a href=\"https://www.d20pfsrd.com/skills/perform\">Perform</a>, <a href=\"https://www.d20pfsrd.com/skills/sense-motive\">Sense Motive</a>, <a href=\"https://www.d20pfsrd.com/skills/sleight-of-hand\">Sleight of Hand</a>, <a href=\"https://www.d20pfsrd.com/skills/stealth\">Stealth</a>, <a href=\"https://www.d20pfsrd.com/skills/swim\">Swim</a>, <a href=\"https://www.d20pfsrd.com/skills/use-magic-device\">Use Magic Device</a>.</li>\n</ul>\n<h2>Traits</h2>\n<p>A fey possesses the following traits (unless otherwise noted in a creature’s entry).</p>\n<ul>\n<li><a href=\"https://www.d20pfsrd.com/gamemastering/special-abilities#TOC-Low-Light-Vision\">Low-light vision</a>.</li>\n<li>Proficient with all simple weapons and any weapons mentioned in its entry.</li>\n<li>Proficient with whatever type of armor (light, medium, or heavy) it is described as wearing, as well as all lighter types. Fey not indicated as wearing armor are not proficient with armor. Fey are proficient with shields if they are proficient with any form of armor.</li>\n<li>Fey breathe, eat, and sleep.</li>\n</ul>",
          "chat": "",
          "unidentified": ""
        },
        "tags": [],
        "changes": [],
        "changeFlags": {
          "loseDexToAC": false,
          "noStr": false,
          "noDex": false,
          "oneInt": false,
          "oneWis": false,
          "oneCha": false,
          "noEncumbrance": false,
          "mediumArmorFullSpeed": false,
          "heavyArmorFullSpeed": false
        },
        "links": {
          "children": []
        },
        "tag": "fey",
        "useCustomTag": false,
        "armorProf": {
          "value": [],
          "custom": ""
        },
        "weaponProf": {
          "value": [],
          "custom": ""
        },
        "classType": "racial",
        "levels": 1,
        "level": 16,
        "hd": 6,
        "hp": 56,
        "bab": "low",
        "skillsPerLevel": 6,
        "savingThrows": {
          "fort": {
            "value": "low"
          },
          "ref": {
            "value": "high"
          },
          "will": {
            "value": "high"
          }
        },
        "fc": {
          "hp": {
            "value": 0
          },
          "skill": {
            "value": 0
          },
          "alt": {
            "value": 0
          }
        },
        "classSkills": {
          "acr": true,
          "apr": false,
          "art": false,
          "blf": true,
          "clm": true,
          "crf": true,
          "dip": true,
          "dev": false,
          "dis": true,
          "esc": true,
          "fly": true,
          "han": false,
          "hea": false,
          "int": false,
          "kar": false,
          "kdu": false,
          "ken": false,
          "kge": true,
          "khi": false,
          "klo": true,
          "kna": true,
          "kno": false,
          "kpl": false,
          "kre": false,
          "lin": false,
          "lor": false,
          "per": true,
          "prf": true,
          "pro": false,
          "rid": false,
          "sen": true,
          "slt": true,
          "spl": false,
          "ste": true,
          "sur": false,
          "swm": true,
          "umd": true
        },
        "damage": {
          "parts": []
        },
        "range": {
          "maxIncrements": 1
        }
      },
      "sort": 100000,
      "flags": {},
      "img": "systems/pf1/icons/skills/green_10.jpg",
      "effects": []
    },
    {
      "_id": "0dDgDf20lpXtRS07",
      "name": "light vortices",
      "type": "attack",
      "data": {
        "description": {
          "value": "",
          "chat": "",
          "unidentified": ""
        },
        "tags": [],
        "activation": {
          "cost": 1,
          "type": "standard"
        },
        "unchainedAction": {
          "activation": {
            "cost": 2,
            "type": "action"
          }
        },
        "duration": {
          "value": null,
          "units": "inst"
        },
        "target": {
          "value": ""
        },
        "range": {
          "value": null,
          "units": "",
          "maxIncrements": 1,
          "minValue": null,
          "minUnits": "",
          "long": null
        },
        "uses": {
          "value": 0,
          "max": 0,
          "per": "",
          "autoDeductCharges": false,
          "autoDeductChargesCost": "1"
        },
        "measureTemplate": {
          "type": "",
          "size": "0",
          "overrideColor": false,
          "customColor": "",
          "overrideTexture": false,
          "customTexture": ""
        },
        "attackName": "",
        "actionType": "mwak",
        "attackBonus": "10",
        "critConfirmBonus": "",
        "damage": {
          "parts": [
            [
              "sizeRoll(5, 8, @size, 4) + -1",
              ""
            ]
          ],
          "critParts": [],
          "nonCritParts": []
        },
        "attackParts": [
          [
            "0",
            "Additional Attack: 1"
          ]
        ],
        "formula": "",
        "ability": {
          "attack": "str",
          "damage": "str",
          "damageMult": 1,
          "critRange": 20,
          "critMult": 2
        },
        "save": {
          "dc": "",
          "type": "",
          "description": ""
        },
        "effectNotes": "",
        "attackNotes": "touch\nReach: 5 ft.\n2 light vortices +19 (5d8)",
        "soundEffect": "",
        "links": {
          "children": [],
          "charges": []
        },
        "tag": "",
        "useCustomTag": false,
        "attackType": "weapon",
        "masterwork": false,
        "nonlethal": false,
        "enh": null,
        "proficient": true,
        "primaryAttack": true,
        "showInQuickbar": true,
        "broken": false,
        "held": "normal",
        "conditionals": [],
        "attack": {
          "parts": []
        }
      },
      "sort": 100000,
      "flags": {},
      "img": "icons/svg/mystery-man.svg",
      "effects": []
    },
    {
      "_id": "lAX13wUiY7Gw9erR",
      "name": "light vortices",
      "type": "attack",
      "data": {
        "description": {
          "value": "",
          "chat": "",
          "unidentified": ""
        },
        "tags": [],
        "activation": {
          "cost": 1,
          "type": "standard"
        },
        "unchainedAction": {
          "activation": {
            "cost": 2,
            "type": "action"
          }
        },
        "duration": {
          "value": null,
          "units": "inst"
        },
        "target": {
          "value": ""
        },
        "range": {
          "value": null,
          "units": "",
          "maxIncrements": 1,
          "minValue": null,
          "minUnits": "",
          "long": null
        },
        "uses": {
          "value": 0,
          "max": 0,
          "per": "",
          "autoDeductCharges": false,
          "autoDeductChargesCost": "1"
        },
        "measureTemplate": {
          "type": "",
          "size": "0",
          "overrideColor": false,
          "customColor": "",
          "overrideTexture": false,
          "customTexture": ""
        },
        "attackName": "",
        "actionType": "rwak",
        "attackBonus": "0",
        "critConfirmBonus": "",
        "damage": {
          "parts": [
            [
              "sizeRoll(5, 8, @size, 4) + -1",
              ""
            ]
          ],
          "critParts": [],
          "nonCritParts": []
        },
        "attackParts": [
          [
            "0",
            "Additional Attack: 1"
          ]
        ],
        "formula": "",
        "ability": {
          "attack": "dex",
          "damage": "str",
          "damageMult": 1,
          "critRange": 20,
          "critMult": 2
        },
        "save": {
          "dc": "",
          "type": "",
          "description": ""
        },
        "effectNotes": "",
        "attackNotes": "touch\n2 light vortices +19 (5d8)",
        "soundEffect": "",
        "links": {
          "children": [],
          "charges": []
        },
        "tag": "",
        "useCustomTag": false,
        "attackType": "weapon",
        "masterwork": false,
        "nonlethal": false,
        "enh": null,
        "proficient": true,
        "primaryAttack": true,
        "showInQuickbar": true,
        "broken": false,
        "held": "normal",
        "conditionals": [],
        "attack": {
          "parts": []
        }
      },
      "sort": 100000,
      "flags": {},
      "img": "icons/svg/mystery-man.svg",
      "effects": []
    },
    {
      "_id": "MlDXiTgJXruw3989",
      "name": "Special Attack: Create Will-o'-wisp",
      "type": "attack",
      "data": {
        "description": {
          "value": "",
          "chat": "",
          "unidentified": ""
        },
        "tags": [],
        "activation": {
          "cost": 1,
          "type": "standard"
        },
        "unchainedAction": {
          "activation": {
            "cost": 2,
            "type": "action"
          }
        },
        "duration": {
          "value": null,
          "units": "inst"
        },
        "target": {
          "value": ""
        },
        "range": {
          "value": null,
          "units": "",
          "maxIncrements": 1,
          "minValue": null,
          "minUnits": "",
          "long": null
        },
        "uses": {
          "value": 0,
          "max": 0,
          "per": "",
          "autoDeductCharges": false,
          "autoDeductChargesCost": "1"
        },
        "measureTemplate": {
          "type": "",
          "size": "0",
          "overrideColor": false,
          "customColor": "",
          "overrideTexture": false,
          "customTexture": ""
        },
        "attackName": "",
        "actionType": "other",
        "attackBonus": "-9",
        "critConfirmBonus": "",
        "damage": {
          "parts": [
            [
              0,
              ""
            ]
          ],
          "critParts": [],
          "nonCritParts": []
        },
        "attackParts": [],
        "formula": "",
        "ability": {
          "attack": "str",
          "damage": "str",
          "damageMult": 1,
          "critRange": 20,
          "critMult": 2
        },
        "save": {
          "dc": "",
          "type": "",
          "description": ""
        },
        "effectNotes": "",
        "attackNotes": "",
        "soundEffect": "",
        "links": {
          "children": [],
          "charges": []
        },
        "tag": "",
        "useCustomTag": false,
        "attackType": "weapon",
        "masterwork": false,
        "nonlethal": false,
        "enh": null,
        "proficient": true,
        "primaryAttack": true,
        "showInQuickbar": true,
        "broken": false,
        "held": "normal",
        "conditionals": [],
        "attack": {
          "parts": []
        }
      },
      "sort": 100000,
      "flags": {},
      "img": "icons/svg/mystery-man.svg",
      "effects": []
    },
    {
      "_id": "0yosmw5rDZ13LPxM",
      "name": "Combat Reflexes",
      "type": "feat",
      "data": {
        "description": {
          "value": "",
          "chat": "",
          "unidentified": ""
        },
        "tags": [],
        "activation": {
          "cost": 1,
          "type": ""
        },
        "unchainedAction": {
          "activation": {
            "cost": 1,
            "type": ""
          }
        },
        "duration": {
          "value": null,
          "units": ""
        },
        "target": {
          "value": ""
        },
        "range": {
          "value": null,
          "units": "",
          "maxIncrements": 1,
          "minValue": null,
          "minUnits": "",
          "long": null
        },
        "uses": {
          "value": 0,
          "max": 0,
          "per": null,
          "autoDeductCharges": true,
          "autoDeductChargesCost": "1"
        },
        "measureTemplate": {
          "type": "",
          "size": "0",
          "overrideColor": false,
          "customColor": "",
          "overrideTexture": false,
          "customTexture": ""
        },
        "attackName": "",
        "actionType": null,
        "attackBonus": "",
        "critConfirmBonus": "",
        "damage": {
          "parts": [],
          "critParts": [],
          "nonCritParts": []
        },
        "attackParts": [],
        "formula": "",
        "ability": {
          "attack": null,
          "damage": null,
          "damageMult": 1,
          "critRange": 20,
          "critMult": 2
        },
        "save": {
          "dc": 0,
          "type": "",
          "description": ""
        },
        "effectNotes": "",
        "attackNotes": "",
        "soundEffect": "",
        "changes": [],
        "changeFlags": {
          "loseDexToAC": false,
          "noStr": false,
          "noDex": false,
          "oneInt": false,
          "oneWis": false,
          "oneCha": false,
          "noEncumbrance": false,
          "mediumArmorFullSpeed": false,
          "heavyArmorFullSpeed": false
        },
        "contextNotes": [],
        "links": {
          "children": [],
          "charges": []
        },
        "tag": "",
        "useCustomTag": false,
        "armorProf": {
          "value": [],
          "custom": ""
        },
        "weaponProf": {
          "value": [],
          "custom": ""
        },
        "featType": "feat",
        "associations": {
          "classes": []
        },
        "showInQuickbar": false,
        "nonlethal": false,
        "abilityType": "none",
        "crOffset": "",
        "attack": {
          "parts": []
        }
      },
      "sort": 100000,
      "flags": {},
      "img": "icons/svg/mystery-man.svg",
      "effects": []
    },
    {
      "_id": "FLDLXkkMqwMBhP6U",
      "name": "Defensive Combat Training",
      "type": "feat",
      "data": {
        "description": {
          "value": "",
          "chat": "",
          "unidentified": ""
        },
        "tags": [],
        "activation": {
          "cost": 1,
          "type": ""
        },
        "unchainedAction": {
          "activation": {
            "cost": 1,
            "type": ""
          }
        },
        "duration": {
          "value": null,
          "units": ""
        },
        "target": {
          "value": ""
        },
        "range": {
          "value": null,
          "units": "",
          "maxIncrements": 1,
          "minValue": null,
          "minUnits": "",
          "long": null
        },
        "uses": {
          "value": 0,
          "max": 0,
          "per": null,
          "autoDeductCharges": true,
          "autoDeductChargesCost": "1"
        },
        "measureTemplate": {
          "type": "",
          "size": "0",
          "overrideColor": false,
          "customColor": "",
          "overrideTexture": false,
          "customTexture": ""
        },
        "attackName": "",
        "actionType": null,
        "attackBonus": "",
        "critConfirmBonus": "",
        "damage": {
          "parts": [],
          "critParts": [],
          "nonCritParts": []
        },
        "attackParts": [],
        "formula": "",
        "ability": {
          "attack": null,
          "damage": null,
          "damageMult": 1,
          "critRange": 20,
          "critMult": 2
        },
        "save": {
          "dc": 0,
          "type": "",
          "description": ""
        },
        "effectNotes": "",
        "attackNotes": "",
        "soundEffect": "",
        "changes": [],
        "changeFlags": {
          "loseDexToAC": false,
          "noStr": false,
          "noDex": false,
          "oneInt": false,
          "oneWis": false,
          "oneCha": false,
          "noEncumbrance": false,
          "mediumArmorFullSpeed": false,
          "heavyArmorFullSpeed": false
        },
        "contextNotes": [],
        "links": {
          "children": [],
          "charges": []
        },
        "tag": "",
        "useCustomTag": false,
        "armorProf": {
          "value": [],
          "custom": ""
        },
        "weaponProf": {
          "value": [],
          "custom": ""
        },
        "featType": "feat",
        "associations": {
          "classes": []
        },
        "showInQuickbar": false,
        "nonlethal": false,
        "abilityType": "none",
        "crOffset": "",
        "attack": {
          "parts": []
        }
      },
      "sort": 100000,
      "flags": {},
      "img": "icons/svg/mystery-man.svg",
      "effects": []
    },
    {
      "_id": "R2Gs3h7dQqQRo6sY",
      "name": "Great Fortitude",
      "type": "feat",
      "data": {
        "description": {
          "value": "",
          "chat": "",
          "unidentified": ""
        },
        "tags": [],
        "activation": {
          "cost": 1,
          "type": ""
        },
        "unchainedAction": {
          "activation": {
            "cost": 1,
            "type": ""
          }
        },
        "duration": {
          "value": null,
          "units": ""
        },
        "target": {
          "value": ""
        },
        "range": {
          "value": null,
          "units": "",
          "maxIncrements": 1,
          "minValue": null,
          "minUnits": "",
          "long": null
        },
        "uses": {
          "value": 0,
          "max": 0,
          "per": null,
          "autoDeductCharges": true,
          "autoDeductChargesCost": "1"
        },
        "measureTemplate": {
          "type": "",
          "size": "0",
          "overrideColor": false,
          "customColor": "",
          "overrideTexture": false,
          "customTexture": ""
        },
        "attackName": "",
        "actionType": null,
        "attackBonus": "",
        "critConfirmBonus": "",
        "damage": {
          "parts": [],
          "critParts": [],
          "nonCritParts": []
        },
        "attackParts": [],
        "formula": "",
        "ability": {
          "attack": null,
          "damage": null,
          "damageMult": 1,
          "critRange": 20,
          "critMult": 2
        },
        "save": {
          "dc": 0,
          "type": "",
          "description": ""
        },
        "effectNotes": "",
        "attackNotes": "",
        "soundEffect": "",
        "changes": [],
        "changeFlags": {
          "loseDexToAC": false,
          "noStr": false,
          "noDex": false,
          "oneInt": false,
          "oneWis": false,
          "oneCha": false,
          "noEncumbrance": false,
          "mediumArmorFullSpeed": false,
          "heavyArmorFullSpeed": false
        },
        "contextNotes": [],
        "links": {
          "children": [],
          "charges": []
        },
        "tag": "",
        "useCustomTag": false,
        "armorProf": {
          "value": [],
          "custom": ""
        },
        "weaponProf": {
          "value": [],
          "custom": ""
        },
        "featType": "feat",
        "associations": {
          "classes": []
        },
        "showInQuickbar": false,
        "nonlethal": false,
        "abilityType": "none",
        "crOffset": "",
        "attack": {
          "parts": []
        }
      },
      "sort": 100000,
      "flags": {},
      "img": "icons/svg/mystery-man.svg",
      "effects": []
    },
    {
      "_id": "DQI5H7G2YeXcsw3x",
      "name": "Improved Great Fortitude",
      "type": "feat",
      "data": {
        "description": {
          "value": "",
          "chat": "",
          "unidentified": ""
        },
        "tags": [],
        "activation": {
          "cost": 1,
          "type": ""
        },
        "unchainedAction": {
          "activation": {
            "cost": 1,
            "type": ""
          }
        },
        "duration": {
          "value": null,
          "units": ""
        },
        "target": {
          "value": ""
        },
        "range": {
          "value": null,
          "units": "",
          "maxIncrements": 1,
          "minValue": null,
          "minUnits": "",
          "long": null
        },
        "uses": {
          "value": 0,
          "max": 0,
          "per": null,
          "autoDeductCharges": true,
          "autoDeductChargesCost": "1"
        },
        "measureTemplate": {
          "type": "",
          "size": "0",
          "overrideColor": false,
          "customColor": "",
          "overrideTexture": false,
          "customTexture": ""
        },
        "attackName": "",
        "actionType": null,
        "attackBonus": "",
        "critConfirmBonus": "",
        "damage": {
          "parts": [],
          "critParts": [],
          "nonCritParts": []
        },
        "attackParts": [],
        "formula": "",
        "ability": {
          "attack": null,
          "damage": null,
          "damageMult": 1,
          "critRange": 20,
          "critMult": 2
        },
        "save": {
          "dc": 0,
          "type": "",
          "description": ""
        },
        "effectNotes": "",
        "attackNotes": "",
        "soundEffect": "",
        "changes": [],
        "changeFlags": {
          "loseDexToAC": false,
          "noStr": false,
          "noDex": false,
          "oneInt": false,
          "oneWis": false,
          "oneCha": false,
          "noEncumbrance": false,
          "mediumArmorFullSpeed": false,
          "heavyArmorFullSpeed": false
        },
        "contextNotes": [],
        "links": {
          "children": [],
          "charges": []
        },
        "tag": "",
        "useCustomTag": false,
        "armorProf": {
          "value": [],
          "custom": ""
        },
        "weaponProf": {
          "value": [],
          "custom": ""
        },
        "featType": "feat",
        "associations": {
          "classes": []
        },
        "showInQuickbar": false,
        "nonlethal": false,
        "abilityType": "none",
        "crOffset": "",
        "attack": {
          "parts": []
        }
      },
      "sort": 100000,
      "flags": {},
      "img": "icons/svg/mystery-man.svg",
      "effects": []
    },
    {
      "_id": "CFQdnfgw2k6eEQkB",
      "name": "Improved Initiative",
      "type": "feat",
      "data": {
        "description": {
          "value": "",
          "chat": "",
          "unidentified": ""
        },
        "tags": [],
        "activation": {
          "cost": 1,
          "type": ""
        },
        "unchainedAction": {
          "activation": {
            "cost": 1,
            "type": ""
          }
        },
        "duration": {
          "value": null,
          "units": ""
        },
        "target": {
          "value": ""
        },
        "range": {
          "value": null,
          "units": "",
          "maxIncrements": 1,
          "minValue": null,
          "minUnits": "",
          "long": null
        },
        "uses": {
          "value": 0,
          "max": 0,
          "per": null,
          "autoDeductCharges": true,
          "autoDeductChargesCost": "1"
        },
        "measureTemplate": {
          "type": "",
          "size": "0",
          "overrideColor": false,
          "customColor": "",
          "overrideTexture": false,
          "customTexture": ""
        },
        "attackName": "",
        "actionType": null,
        "attackBonus": "",
        "critConfirmBonus": "",
        "damage": {
          "parts": [],
          "critParts": [],
          "nonCritParts": []
        },
        "attackParts": [],
        "formula": "",
        "ability": {
          "attack": null,
          "damage": null,
          "damageMult": 1,
          "critRange": 20,
          "critMult": 2
        },
        "save": {
          "dc": 0,
          "type": "",
          "description": ""
        },
        "effectNotes": "",
        "attackNotes": "",
        "soundEffect": "",
        "changes": [],
        "changeFlags": {
          "loseDexToAC": false,
          "noStr": false,
          "noDex": false,
          "oneInt": false,
          "oneWis": false,
          "oneCha": false,
          "noEncumbrance": false,
          "mediumArmorFullSpeed": false,
          "heavyArmorFullSpeed": false
        },
        "contextNotes": [],
        "links": {
          "children": [],
          "charges": []
        },
        "tag": "",
        "useCustomTag": false,
        "armorProf": {
          "value": [],
          "custom": ""
        },
        "weaponProf": {
          "value": [],
          "custom": ""
        },
        "featType": "feat",
        "associations": {
          "classes": []
        },
        "showInQuickbar": false,
        "nonlethal": false,
        "abilityType": "none",
        "crOffset": "",
        "attack": {
          "parts": []
        }
      },
      "sort": 100000,
      "flags": {},
      "img": "icons/svg/mystery-man.svg",
      "effects": []
    },
    {
      "_id": "vXS9IyI2kj4O2D6I",
      "name": "Quicken Spell-Like Ability (wandering star motes)",
      "type": "feat",
      "data": {
        "description": {
          "value": "",
          "chat": "",
          "unidentified": ""
        },
        "tags": [],
        "activation": {
          "cost": 1,
          "type": ""
        },
        "unchainedAction": {
          "activation": {
            "cost": 1,
            "type": ""
          }
        },
        "duration": {
          "value": null,
          "units": ""
        },
        "target": {
          "value": ""
        },
        "range": {
          "value": null,
          "units": "",
          "maxIncrements": 1,
          "minValue": null,
          "minUnits": "",
          "long": null
        },
        "uses": {
          "value": 0,
          "max": 0,
          "per": null,
          "autoDeductCharges": true,
          "autoDeductChargesCost": "1"
        },
        "measureTemplate": {
          "type": "",
          "size": "0",
          "overrideColor": false,
          "customColor": "",
          "overrideTexture": false,
          "customTexture": ""
        },
        "attackName": "",
        "actionType": null,
        "attackBonus": "",
        "critConfirmBonus": "",
        "damage": {
          "parts": [],
          "critParts": [],
          "nonCritParts": []
        },
        "attackParts": [],
        "formula": "",
        "ability": {
          "attack": null,
          "damage": null,
          "damageMult": 1,
          "critRange": 20,
          "critMult": 2
        },
        "save": {
          "dc": 0,
          "type": "",
          "description": ""
        },
        "effectNotes": "",
        "attackNotes": "",
        "soundEffect": "",
        "changes": [],
        "changeFlags": {
          "loseDexToAC": false,
          "noStr": false,
          "noDex": false,
          "oneInt": false,
          "oneWis": false,
          "oneCha": false,
          "noEncumbrance": false,
          "mediumArmorFullSpeed": false,
          "heavyArmorFullSpeed": false
        },
        "contextNotes": [],
        "links": {
          "children": [],
          "charges": []
        },
        "tag": "",
        "useCustomTag": false,
        "armorProf": {
          "value": [],
          "custom": ""
        },
        "weaponProf": {
          "value": [],
          "custom": ""
        },
        "featType": "feat",
        "associations": {
          "classes": []
        },
        "showInQuickbar": false,
        "nonlethal": false,
        "abilityType": "none",
        "crOffset": "",
        "attack": {
          "parts": []
        }
      },
      "sort": 100000,
      "flags": {},
      "img": "icons/svg/mystery-man.svg",
      "effects": []
    },
    {
      "_id": "nWSMs0XIs514nvgM",
      "name": "Vital Strike",
      "type": "feat",
      "data": {
        "description": {
          "value": "",
          "chat": "",
          "unidentified": ""
        },
        "tags": [],
        "activation": {
          "cost": 1,
          "type": ""
        },
        "unchainedAction": {
          "activation": {
            "cost": 1,
            "type": ""
          }
        },
        "duration": {
          "value": null,
          "units": ""
        },
        "target": {
          "value": ""
        },
        "range": {
          "value": null,
          "units": "",
          "maxIncrements": 1,
          "minValue": null,
          "minUnits": "",
          "long": null
        },
        "uses": {
          "value": 0,
          "max": 0,
          "per": null,
          "autoDeductCharges": true,
          "autoDeductChargesCost": "1"
        },
        "measureTemplate": {
          "type": "",
          "size": "0",
          "overrideColor": false,
          "customColor": "",
          "overrideTexture": false,
          "customTexture": ""
        },
        "attackName": "",
        "actionType": null,
        "attackBonus": "",
        "critConfirmBonus": "",
        "damage": {
          "parts": [],
          "critParts": [],
          "nonCritParts": []
        },
        "attackParts": [],
        "formula": "",
        "ability": {
          "attack": null,
          "damage": null,
          "damageMult": 1,
          "critRange": 20,
          "critMult": 2
        },
        "save": {
          "dc": 0,
          "type": "",
          "description": ""
        },
        "effectNotes": "",
        "attackNotes": "",
        "soundEffect": "",
        "changes": [],
        "changeFlags": {
          "loseDexToAC": false,
          "noStr": false,
          "noDex": false,
          "oneInt": false,
          "oneWis": false,
          "oneCha": false,
          "noEncumbrance": false,
          "mediumArmorFullSpeed": false,
          "heavyArmorFullSpeed": false
        },
        "contextNotes": [],
        "links": {
          "children": [],
          "charges": []
        },
        "tag": "",
        "useCustomTag": false,
        "armorProf": {
          "value": [],
          "custom": ""
        },
        "weaponProf": {
          "value": [],
          "custom": ""
        },
        "featType": "feat",
        "associations": {
          "classes": []
        },
        "showInQuickbar": false,
        "nonlethal": false,
        "abilityType": "none",
        "crOffset": "",
        "attack": {
          "parts": []
        }
      },
      "sort": 100000,
      "flags": {},
      "img": "icons/svg/mystery-man.svg",
      "effects": []
    },
    {
      "_id": "9bZlZlxf2zSLW5db",
      "name": "Weapon Finesse ",
      "type": "feat",
      "data": {
        "description": {
          "value": "",
          "chat": "",
          "unidentified": ""
        },
        "tags": [],
        "activation": {
          "cost": 1,
          "type": ""
        },
        "unchainedAction": {
          "activation": {
            "cost": 1,
            "type": ""
          }
        },
        "duration": {
          "value": null,
          "units": ""
        },
        "target": {
          "value": ""
        },
        "range": {
          "value": null,
          "units": "",
          "maxIncrements": 1,
          "minValue": null,
          "minUnits": "",
          "long": null
        },
        "uses": {
          "value": 0,
          "max": 0,
          "per": null,
          "autoDeductCharges": true,
          "autoDeductChargesCost": "1"
        },
        "measureTemplate": {
          "type": "",
          "size": "0",
          "overrideColor": false,
          "customColor": "",
          "overrideTexture": false,
          "customTexture": ""
        },
        "attackName": "",
        "actionType": null,
        "attackBonus": "",
        "critConfirmBonus": "",
        "damage": {
          "parts": [],
          "critParts": [],
          "nonCritParts": []
        },
        "attackParts": [],
        "formula": "",
        "ability": {
          "attack": null,
          "damage": null,
          "damageMult": 1,
          "critRange": 20,
          "critMult": 2
        },
        "save": {
          "dc": 0,
          "type": "",
          "description": ""
        },
        "effectNotes": "",
        "attackNotes": "",
        "soundEffect": "",
        "changes": [],
        "changeFlags": {
          "loseDexToAC": false,
          "noStr": false,
          "noDex": false,
          "oneInt": false,
          "oneWis": false,
          "oneCha": false,
          "noEncumbrance": false,
          "mediumArmorFullSpeed": false,
          "heavyArmorFullSpeed": false
        },
        "contextNotes": [],
        "links": {
          "children": [],
          "charges": []
        },
        "tag": "",
        "useCustomTag": false,
        "armorProf": {
          "value": [],
          "custom": ""
        },
        "weaponProf": {
          "value": [],
          "custom": ""
        },
        "featType": "feat",
        "associations": {
          "classes": []
        },
        "showInQuickbar": false,
        "nonlethal": false,
        "abilityType": "none",
        "crOffset": "",
        "attack": {
          "parts": []
        }
      },
      "sort": 100000,
      "flags": {},
      "img": "icons/svg/mystery-man.svg",
      "effects": []
    },
    {
      "_id": "MV1VSFLuybnyMP2z",
      "name": "sbc | Conversion Changes",
      "type": "buff",
      "data": {
        "description": {
          "value": "<h2>Actor created with Lavaeolous' StatBlock Converter</h2>\n<p>This Buff contains data that could not be represented in other ways. It is advised to re-check the stats in this when adding new features, such as Feats (e.g. Improved Initiative).</p>",
          "chat": "",
          "unidentified": ""
        },
        "tags": [],
        "changes": [
          {
            "_id": "n9d1amrt",
            "formula": "4",
            "operator": "+",
            "target": "misc",
            "subTarget": "init",
            "modifier": "untyped",
            "priority": 1,
            "value": 0
          },
          {
            "_id": "tnhkj9dw",
            "formula": "2",
            "operator": "+",
            "target": "savingThrows",
            "subTarget": "fort",
            "modifier": "untyped",
            "priority": 1,
            "value": 0
          },
          {
            "_id": "xg5jgso8",
            "formula": "0",
            "operator": "+",
            "target": "savingThrows",
            "subTarget": "ref",
            "modifier": "untyped",
            "priority": 1,
            "value": 0
          },
          {
            "_id": "8ykriq87",
            "formula": "0",
            "operator": "+",
            "target": "savingThrows",
            "subTarget": "will",
            "modifier": "untyped",
            "priority": 1,
            "value": 0
          }
        ],
        "changeFlags": {
          "loseDexToAC": false,
          "noStr": false,
          "noDex": false,
          "oneInt": false,
          "oneWis": false,
          "oneCha": false,
          "noEncumbrance": false,
          "mediumArmorFullSpeed": false,
          "heavyArmorFullSpeed": false
        },
        "contextNotes": [],
        "links": {
          "children": []
        },
        "tag": "",
        "useCustomTag": false,
        "buffType": "perm",
        "active": true,
        "level": "",
        "hideFromToken": true,
        "damage": {
          "parts": []
        },
        "range": {
          "maxIncrements": 1
        }
      },
      "sort": 100001,
      "flags": {},
      "img": "systems/pf1/icons/skills/yellow_36.jpg",
      "effects": []
    },
    {
      "_id": "ni93l43asrq29ytd",
      "name": "quickened wandering star motes",
      "type": "spell",
      "data": {
        "description": {
          "value": "<div class=\"spell-description\">\n  <p>\n    <strong>School</strong>&nbsp;illusion&nbsp;(pattern)&nbsp;[light, mind-affecting];\n    <strong>Level</strong>&nbsp;bard 4, occultist 4, psychic 4, shaman 4, sorcerer/wizard 4, witch 4;\n    \n    \n    \n    \n  </p>\n  <p>\n    <strong>Casting Time</strong>&nbsp;1 standard action<br>\n    <strong>Components</strong>&nbsp;V, S, M (a sprinkle of flash powder)<br>\n  </p>\n  <p>\n    <strong>Range</strong>&nbsp;close (25 ft. + 5 ft./2 levels)<br>\n    \n    <strong>Targets</strong>&nbsp;one living creature and special; see text<br>\n    \n    <strong>Duration</strong>&nbsp;1/round per level<br>\n    <strong>Saving Throw</strong>&nbsp;Will negates; see text;&nbsp;<strong>Spell Resistance</strong>&nbsp;yes<br>\n  </p>\n  <h2>Description</h2>\n  <p>You create sparkling motes of bright light that shoot toward the target and swirl around it in a complex pattern. The pattern clearly outlines the target and radiates light as if it were a sunrod, negating any concealment for the target. The target must make a successful Will save. If the target fails its save, it is dazed for 1 round and must make another save on its next turn or be dazed again for 1 round. The target must continue making Will saves each round. If a target makes its Will save, the <i>wandering star motes</i> jump to the nearest enemy within 30 feet, who must now make Will saves every round or be dazed. Any time a target makes its Will save, the <i>wandering star motes</i> jump to the next nearest enemy within 30 feet.</p><p>A given creature can only be affected by the <i>wandering star motes</i> once; once a target has successfully saved against the spell, it cannot be affected again. If there are no new targets within 30 feet of a target that has successfully made its save, the spell immediately ends. The spell only affects enemy creatures; your allies are not affected.</p>\n</div>\n",
          "chat": "",
          "unidentified": ""
        },
        "tags": [],
        "activation": {
          "cost": 1,
          "type": "standard"
        },
        "unchainedAction": {
          "activation": {
            "cost": 2,
            "type": "action"
          }
        },
        "duration": {
          "value": null,
          "units": ""
        },
        "target": {
          "value": "one living creature and special; see text"
        },
        "range": {
          "value": null,
          "units": "close",
          "maxIncrements": 1,
          "minValue": null,
          "minUnits": "",
          "long": null
        },
        "uses": {
          "value": null,
          "max": null,
          "per": null,
          "autoDeductCharges": true,
          "autoDeductChargesCost": "1"
        },
        "measureTemplate": {
          "type": "",
          "size": "0",
          "overrideColor": false,
          "customColor": "",
          "overrideTexture": false,
          "customTexture": ""
        },
        "attackName": "",
        "actionType": "spellsave",
        "attackBonus": "",
        "critConfirmBonus": "",
        "damage": {
          "parts": [],
          "critParts": [],
          "nonCritParts": []
        },
        "attackParts": [],
        "formula": "",
        "ability": {
          "attack": "",
          "damage": "",
          "damageMult": 1,
          "critRange": 20,
          "critMult": 2
        },
        "save": {
          "dc": "0",
          "type": "will",
          "description": "Will negates; see text"
        },
        "effectNotes": "",
        "attackNotes": "",
        "soundEffect": "",
        "links": {
          "children": []
        },
        "learnedAt": {
          "class": [
            [
              "sorcerer/wizard",
              4
            ],
            [
              "bard",
              4
            ],
            [
              "witch",
              4
            ],
            [
              "shaman",
              4
            ],
            [
              "psychic",
              4
            ],
            [
              "occultist",
              4
            ]
          ],
          "domain": [],
          "subDomain": [],
          "elementalSchool": [],
          "bloodline": []
        },
        "level": "0",
        "clOffset": 0,
        "slOffset": 0,
        "school": "ill",
        "subschool": "pattern",
        "types": "light, mind-affecting",
        "nonlethal": false,
        "conditionals": [],
        "components": {
          "value": "",
          "verbal": true,
          "somatic": true,
          "material": true,
          "focus": false,
          "divineFocus": 0
        },
        "castTime": "",
        "materials": {
          "value": "a sprinkle of flash powder",
          "focus": "",
          "gpValue": 0
        },
        "spellbook": "spelllike",
        "preparation": {
          "preparedAmount": 3,
          "maxAmount": 3,
          "autoDeductCharges": true,
          "spontaneousPrepared": true,
          "mode": "prepared"
        },
        "atWill": false,
        "sr": true,
        "shortDescription": "<p>You create sparkling motes of bright light that shoot toward the target and swirl around it in a complex pattern. The pattern clearly outlines the target and radiates light as if it were a sunrod, negating any concealment for the target. The target must make a successful Will save. If the target fails its save, it is dazed for 1 round and must make another save on its next turn or be dazed again for 1 round. The target must continue making Will saves each round. If a target makes its Will save, the <i>wandering star motes</i> jump to the nearest enemy within 30 feet, who must now make Will saves every round or be dazed. Any time a target makes its Will save, the <i>wandering star motes</i> jump to the next nearest enemy within 30 feet.</p><p>A given creature can only be affected by the <i>wandering star motes</i> once; once a target has successfully saved against the spell, it cannot be affected again. If there are no new targets within 30 feet of a target that has successfully made its save, the spell immediately ends. The spell only affects enemy creatures; your allies are not affected.</p>",
        "spellDuration": "1/round per level",
        "spellEffect": "",
        "spellArea": "",
        "showInQuickbar": false,
        "spellPoints": {
          "cost": "1 + @sl"
        },
        "domain": false,
        "slotCost": 1,
        "attack": {
          "parts": []
        }
      },
      "sort": 1100000,
      "flags": {},
      "img": "systems/pf1/icons/misc/magic-swirl.png",
      "effects": []
    }
  ],
  "effects": []
}