{
  "_id": "aigibmi32id0cl65",
  "name": "Ally Across Time",
  "permission": {
    "default": 0
  },
  "type": "spell",
  "data": {
    "description": {
      "value": "<div class=\"spell-description\">\n  <p>\n    <strong>School</strong>&nbsp;conjuration&nbsp;(summoning);\n    <strong>Level</strong>&nbsp;bard 2, cleric/oracle 2, hunter 1, inquisitor 2, medium 1, psychic 2, ranger 1, sorcerer/wizard 2;\n    \n    \n    \n    \n  </p>\n  <p>\n    <strong>Casting Time</strong>&nbsp;1 standard action<br>\n    <strong>Components</strong>&nbsp;V, S<br>\n  </p>\n  <p>\n    <strong>Range</strong>&nbsp;close (25 ft. + 5 ft./2 levels)<br>\n    \n    \n    <strong>Effect</strong>&nbsp;one 5-ft. cube of temporal possibility/2 levels<br>\n    <strong>Duration</strong>&nbsp;1 round/level<br>\n    <strong>Saving Throw</strong>&nbsp;none;&nbsp;<strong>Spell Resistance</strong>&nbsp;no<br>\n  </p>\n  <h2>Description</h2>\n  <p>You create one or more 5-foot cubes of temporal possibility where your timeline overlaps with those of your parallel existences. As a free action, you can summon a duplicate of yourself (not including any animal companions, familiars, intelligent items, or other creatures) from an alternate timeline in one of the cubes you can see, which lasts until the end of your turn. This duplicate has your statistics (though its hit points equal your caster level), threatens all squares adjacent to it, and has any teamwork feats you have. Although the duplicate appears with all of the equipment you currently carry, it cannot use any of its equipment and all its equipment disappears when the duplicate does. This duplicate cannot voluntarily move from the space in which it's summoned. During its brief existence, a duplicate can use the aid another action once to assist you, but it cannot take any other type of action. Once a duplicate disappears, the cube of temporal possibility it occupied dissipates.  You can summon only one duplicate before the spell ends. For every 4 caster levels you have beyond 3rd, you can summon an additional duplicate before the spell ends, though you cannot have more than one duplicate in existence at once.</p>\n</div>\n",
      "chat": "",
      "unidentified": ""
    },
    "tags": [],
    "activation": {
      "cost": 1,
      "type": "standard"
    },
    "unchainedAction": {
      "activation": {
        "cost": 2,
        "type": "action"
      }
    },
    "duration": {
      "value": null,
      "units": ""
    },
    "target": {
      "value": ""
    },
    "range": {
      "value": null,
      "units": "close",
      "maxIncrements": 1,
      "minValue": null,
      "minUnits": ""
    },
    "uses": {
      "value": 0,
      "max": 0,
      "per": "",
      "autoDeductCharges": true,
      "autoDeductChargesCost": "1"
    },
    "measureTemplate": {
      "type": "",
      "size": "0",
      "overrideColor": false,
      "customColor": "",
      "overrideTexture": false,
      "customTexture": ""
    },
    "attackName": "",
    "actionType": "other",
    "attackBonus": "",
    "critConfirmBonus": "",
    "damage": {
      "parts": [],
      "critParts": [],
      "nonCritParts": []
    },
    "attackParts": [],
    "formula": "",
    "ability": {
      "attack": "",
      "damage": "",
      "damageMult": 1,
      "critRange": 20,
      "critMult": 2
    },
    "save": {
      "dc": "0",
      "type": "",
      "description": ""
    },
    "effectNotes": "",
    "attackNotes": "",
    "soundEffect": "",
    "links": {
      "children": []
    },
    "learnedAt": {
      "class": [
        [
          "sorcerer/wizard",
          2
        ],
        [
          "cleric/oracle",
          2
        ],
        [
          "ranger",
          1
        ],
        [
          "bard",
          2
        ],
        [
          "inquisitor",
          2
        ],
        [
          "psychic",
          2
        ],
        [
          "medium",
          1
        ],
        [
          "hunter",
          1
        ]
      ],
      "domain": [],
      "subDomain": [],
      "elementalSchool": [],
      "bloodline": []
    },
    "level": 2,
    "clOffset": 0,
    "slOffset": 0,
    "school": "con",
    "subschool": "summoning",
    "types": "",
    "nonlethal": false,
    "conditionals": [],
    "components": {
      "value": "",
      "verbal": true,
      "somatic": true,
      "material": false,
      "focus": false,
      "divineFocus": 0
    },
    "castTime": "",
    "materials": {
      "value": "",
      "focus": "",
      "gpValue": 0
    },
    "spellbook": "primary",
    "preparation": {
      "preparedAmount": 0,
      "maxAmount": 0,
      "autoDeductCharges": true,
      "spontaneousPrepared": true,
      "mode": "prepared"
    },
    "atWill": false,
    "sr": false,
    "shortDescription": "<p>You create one or more 5-foot cubes of temporal possibility where your timeline overlaps with those of your parallel existences. As a free action, you can summon a duplicate of yourself (not including any animal companions, familiars, intelligent items, or other creatures) from an alternate timeline in one of the cubes you can see, which lasts until the end of your turn. This duplicate has your statistics (though its hit points equal your caster level), threatens all squares adjacent to it, and has any teamwork feats you have. Although the duplicate appears with all of the equipment you currently carry, it cannot use any of its equipment and all its equipment disappears when the duplicate does. This duplicate cannot voluntarily move from the space in which it's summoned. During its brief existence, a duplicate can use the aid another action once to assist you, but it cannot take any other type of action. Once a duplicate disappears, the cube of temporal possibility it occupied dissipates.  You can summon only one duplicate before the spell ends. For every 4 caster levels you have beyond 3rd, you can summon an additional duplicate before the spell ends, though you cannot have more than one duplicate in existence at once.</p>",
    "spellDuration": "1 round/level",
    "spellEffect": "one 5-ft. cube of temporal possibility/2 levels",
    "spellArea": "",
    "showInQuickbar": false,
    "spellPoints": {
      "cost": "1 + @sl"
    },
    "domain": false,
    "slotCost": 1
  },
  "flags": {},
  "img": "systems/pf1/icons/misc/magic-swirl.png",
  "effects": []
}