{
  "_id": "dkg7ixwrhp7zx1ui",
  "name": "Apathy",
  "permission": {
    "default": 0
  },
  "type": "spell",
  "data": {
    "description": {
      "value": "<div class=\"spell-description\">\n  <p>\n    <strong>School</strong>&nbsp;enchantment&nbsp;(compulsion)&nbsp;[emotion, mind-affecting];\n    <strong>Level</strong>&nbsp;bard 4, mesmerist 4, psychic 5, sorcerer/wizard 5, witch 5;\n    \n    \n    \n    \n  </p>\n  <p>\n    <strong>Casting Time</strong>&nbsp;1 standard action<br>\n    <strong>Components</strong>&nbsp;V, S, M (a shiny bead)<br>\n  </p>\n  <p>\n    <strong>Range</strong>&nbsp;long (400 ft. + 40 ft./level)<br>\n    \n    <strong>Targets</strong>&nbsp;one creature<br>\n    \n    <strong>Duration</strong>&nbsp;1 hour/level<br>\n    <strong>Saving Throw</strong>&nbsp;Will negates;&nbsp;<strong>Spell Resistance</strong>&nbsp;yes<br>\n  </p>\n  <h2>Description</h2>\n  <p>You cause a creature to temporarily lose interest in a passion or pursuit, taking the heat off your trail to facilitate a getaway, the finalization of a scheme, or the elimination of incriminating evidence. When casting the spell, you designate a subject or activity about which the target becomes indifferent. While under the effects of <i>apathy</i>, the target takes a -5 penalty on all skill checks and ability checks to investigate, pursue, or otherwise advance its goals in relation to the designated subject. In most cases, however, the target does not attempt such checks if they can be avoided, as it simply has no interest in putting effort into the endeavor.  If the chosen activity is something that would be harmful for the target to refrain from doing (such as eating, sleeping, or holding its breath underwater), the target receives a +5 bonus on the saving throw or other check required by its inaction, and receives a new saving throw to negate the effects of this spell with the same +5 bonus immediately after. The bonus on these saving throws and checks increases by 1 for each subsequent check required by the same condition. If you directly interact with the target of this spell (such as engaging it in combat or targeting it with another spell or effect), the spell immediately ends.</p>\n</div>\n",
      "chat": "",
      "unidentified": ""
    },
    "tags": [],
    "activation": {
      "cost": 1,
      "type": "standard"
    },
    "unchainedAction": {
      "activation": {
        "cost": 2,
        "type": "action"
      }
    },
    "duration": {
      "value": null,
      "units": ""
    },
    "target": {
      "value": "one creature"
    },
    "range": {
      "value": null,
      "units": "long",
      "maxIncrements": 1,
      "minValue": null,
      "minUnits": ""
    },
    "uses": {
      "value": 0,
      "max": 0,
      "per": "",
      "autoDeductCharges": true,
      "autoDeductChargesCost": "1"
    },
    "measureTemplate": {
      "type": "",
      "size": "0",
      "overrideColor": false,
      "customColor": "",
      "overrideTexture": false,
      "customTexture": ""
    },
    "attackName": "",
    "actionType": "spellsave",
    "attackBonus": "",
    "critConfirmBonus": "",
    "damage": {
      "parts": [],
      "critParts": [],
      "nonCritParts": []
    },
    "attackParts": [],
    "formula": "",
    "ability": {
      "attack": "",
      "damage": "",
      "damageMult": 1,
      "critRange": 20,
      "critMult": 2
    },
    "save": {
      "dc": "0",
      "type": "will",
      "description": "Will negates"
    },
    "effectNotes": "",
    "attackNotes": "",
    "soundEffect": "",
    "links": {
      "children": []
    },
    "learnedAt": {
      "class": [
        [
          "sorcerer/wizard",
          5
        ],
        [
          "bard",
          4
        ],
        [
          "witch",
          5
        ],
        [
          "psychic",
          5
        ],
        [
          "mesmerist",
          4
        ]
      ],
      "domain": [],
      "subDomain": [],
      "elementalSchool": [],
      "bloodline": []
    },
    "level": 5,
    "clOffset": 0,
    "slOffset": 0,
    "school": "enc",
    "subschool": "compulsion",
    "types": "emotion, mind-affecting",
    "nonlethal": false,
    "conditionals": [],
    "components": {
      "value": "",
      "verbal": true,
      "somatic": true,
      "material": true,
      "focus": false,
      "divineFocus": 0
    },
    "castTime": "",
    "materials": {
      "value": "a shiny bead",
      "focus": "",
      "gpValue": 0
    },
    "spellbook": "primary",
    "preparation": {
      "preparedAmount": 0,
      "maxAmount": 0,
      "autoDeductCharges": true,
      "spontaneousPrepared": true,
      "mode": "prepared"
    },
    "atWill": false,
    "sr": true,
    "shortDescription": "<p>You cause a creature to temporarily lose interest in a passion or pursuit, taking the heat off your trail to facilitate a getaway, the finalization of a scheme, or the elimination of incriminating evidence. When casting the spell, you designate a subject or activity about which the target becomes indifferent. While under the effects of <i>apathy</i>, the target takes a -5 penalty on all skill checks and ability checks to investigate, pursue, or otherwise advance its goals in relation to the designated subject. In most cases, however, the target does not attempt such checks if they can be avoided, as it simply has no interest in putting effort into the endeavor.  If the chosen activity is something that would be harmful for the target to refrain from doing (such as eating, sleeping, or holding its breath underwater), the target receives a +5 bonus on the saving throw or other check required by its inaction, and receives a new saving throw to negate the effects of this spell with the same +5 bonus immediately after. The bonus on these saving throws and checks increases by 1 for each subsequent check required by the same condition. If you directly interact with the target of this spell (such as engaging it in combat or targeting it with another spell or effect), the spell immediately ends.</p>",
    "spellDuration": "1 hour/level",
    "spellEffect": "",
    "spellArea": "",
    "showInQuickbar": false,
    "spellPoints": {
      "cost": "1 + @sl"
    },
    "domain": false,
    "slotCost": 1
  },
  "flags": {},
  "img": "systems/pf1/icons/misc/magic-swirl.png",
  "effects": []
}