{
  "_id": "2dc7e9wby8qpi6m0",
  "name": "Arcane Sight",
  "permission": {
    "default": 0
  },
  "type": "spell",
  "data": {
    "description": {
      "value": "<div class=\"spell-description\">\n  <p>\n    <strong>School</strong>&nbsp;divination;\n    <strong>Level</strong>&nbsp;alchemist 3, inquisitor 3, magus 3, occultist 3, psychic 3, sorcerer/wizard 3, witch 3;\n    \n    \n    \n    \n  </p>\n  <p>\n    <strong>Casting Time</strong>&nbsp;1 standard action<br>\n    <strong>Components</strong>&nbsp;V, S<br>\n  </p>\n  <p>\n    <strong>Range</strong>&nbsp;personal<br>\n    \n    <strong>Targets</strong>&nbsp;you<br>\n    \n    <strong>Duration</strong>&nbsp;1 min./level<br>\n    \n  </p>\n  <h2>Description</h2>\n  <p>This spell makes your eyes glow blue and allows you to see magical auras within 120 feet of you. The effect is similar to that of a <i>detect magic</i> spell, but <i>arcane sight</i> does not require concentration and discerns aura location and power more quickly.</p><p>You know the location and power of all magical auras within your sight. An aura's power depends on a spell's functioning level or an item's caster level, as noted in the description of the <i>detect magic</i> spell. If the items or creatures bearing the auras are in line of sight, you can make Spellcraft skill checks to determine the school of magic involved in each. (Make one check per aura; DC 15 + spell level, or 15 + half caster level for a nonspell effect.) If you concentrate on a specific creature within 120 feet of you as a standard action, you can determine whether it has any spellcasting or spell-like abilities, whether these are arcane or divine (spell-like abilities register as arcane), and the strength of the most powerful spell or spell-like ability the creature currently has available for use.</p><p>As with <i>detect magic</i>, you can use this spell to identify the properties of magic items, but not artifacts.</p><p><i>Arcane sight</i> can be made permanent with a <i>permanency</i> spell.</p>\n</div>\n",
      "chat": "",
      "unidentified": ""
    },
    "tags": [],
    "activation": {
      "cost": 1,
      "type": "standard"
    },
    "unchainedAction": {
      "activation": {
        "cost": 2,
        "type": "action"
      }
    },
    "duration": {
      "value": null,
      "units": ""
    },
    "target": {
      "value": "you"
    },
    "range": {
      "value": null,
      "units": "personal",
      "maxIncrements": 1,
      "minValue": null,
      "minUnits": ""
    },
    "uses": {
      "value": 0,
      "max": 0,
      "per": "",
      "autoDeductCharges": true,
      "autoDeductChargesCost": "1"
    },
    "measureTemplate": {
      "type": "",
      "size": "0",
      "overrideColor": false,
      "customColor": "",
      "overrideTexture": false,
      "customTexture": ""
    },
    "attackName": "",
    "actionType": "",
    "attackBonus": "",
    "critConfirmBonus": "",
    "damage": {
      "parts": [],
      "critParts": [],
      "nonCritParts": []
    },
    "attackParts": [],
    "formula": "",
    "ability": {
      "attack": "",
      "damage": "",
      "damageMult": 1,
      "critRange": 20,
      "critMult": 2
    },
    "save": {
      "dc": "0",
      "type": "",
      "description": ""
    },
    "effectNotes": "",
    "attackNotes": "",
    "soundEffect": "",
    "links": {
      "children": []
    },
    "learnedAt": {
      "class": [
        [
          "sorcerer/wizard",
          3
        ],
        [
          "alchemist",
          3
        ],
        [
          "witch",
          3
        ],
        [
          "inquisitor",
          3
        ],
        [
          "magus",
          3
        ],
        [
          "psychic",
          3
        ],
        [
          "occultist",
          3
        ]
      ],
      "domain": [],
      "subDomain": [],
      "elementalSchool": [],
      "bloodline": []
    },
    "level": 3,
    "clOffset": 0,
    "slOffset": 0,
    "school": "div",
    "subschool": "",
    "types": "",
    "nonlethal": false,
    "conditionals": [],
    "components": {
      "value": "",
      "verbal": true,
      "somatic": true,
      "material": false,
      "focus": false,
      "divineFocus": 0
    },
    "castTime": "",
    "materials": {
      "value": "",
      "focus": "",
      "gpValue": 0
    },
    "spellbook": "primary",
    "preparation": {
      "preparedAmount": 0,
      "maxAmount": 0,
      "autoDeductCharges": true,
      "spontaneousPrepared": true,
      "mode": "prepared"
    },
    "atWill": false,
    "sr": false,
    "shortDescription": "<p>This spell makes your eyes glow blue and allows you to see magical auras within 120 feet of you. The effect is similar to that of a <i>detect magic</i> spell, but <i>arcane sight</i> does not require concentration and discerns aura location and power more quickly.</p><p>You know the location and power of all magical auras within your sight. An aura's power depends on a spell's functioning level or an item's caster level, as noted in the description of the <i>detect magic</i> spell. If the items or creatures bearing the auras are in line of sight, you can make Spellcraft skill checks to determine the school of magic involved in each. (Make one check per aura; DC 15 + spell level, or 15 + half caster level for a nonspell effect.) If you concentrate on a specific creature within 120 feet of you as a standard action, you can determine whether it has any spellcasting or spell-like abilities, whether these are arcane or divine (spell-like abilities register as arcane), and the strength of the most powerful spell or spell-like ability the creature currently has available for use.</p><p>As with <i>detect magic</i>, you can use this spell to identify the properties of magic items, but not artifacts.</p><p><i>Arcane sight</i> can be made permanent with a <i>permanency</i> spell.</p>",
    "spellDuration": "1 min./level",
    "spellEffect": "",
    "spellArea": "",
    "showInQuickbar": false,
    "spellPoints": {
      "cost": "1 + @sl"
    },
    "domain": false,
    "slotCost": 1
  },
  "flags": {},
  "img": "systems/pf1/icons/misc/magic-swirl.png",
  "effects": []
}