{
  "_id": "tj3amjrh75dlniwy",
  "name": "Arcane Disruption",
  "permission": {
    "default": 0
  },
  "type": "spell",
  "data": {
    "description": {
      "value": "<div class=\"spell-description\">\n  <p>\n    <strong>School</strong>&nbsp;enchantment&nbsp;(compulsion)&nbsp;[curse, mind-affecting];\n    <strong>Level</strong>&nbsp;bard 2, bloodrager 2, magus 2, sorcerer/wizard 2, witch 2;\n    \n    \n    \n    \n  </p>\n  <p>\n    <strong>Casting Time</strong>&nbsp;1 standard action<br>\n    <strong>Components</strong>&nbsp;V, S, M (a pinch of pepper)<br>\n  </p>\n  <p>\n    <strong>Range</strong>&nbsp;close (25 ft. + 5 ft./2 levels)<br>\n    \n    <strong>Targets</strong>&nbsp;one creature<br>\n    \n    <strong>Duration</strong>&nbsp;1 round/level<br>\n    <strong>Saving Throw</strong>&nbsp;Will negates;&nbsp;<strong>Spell Resistance</strong>&nbsp;yes<br>\n  </p>\n  <h2>Description</h2>\n  <p>This spell makes it difficult for the subject to cast arcane spells, use spell-like abilities, and use some abilities granted by arcane spellcasting classes. The subject must succeed at a concentration check (DC = 10 + 1/2 its caster level) in order to cast an arcane spell, use any spell-like ability (even those that come from a divine source), use arcane spell completion or spell trigger magic items, or use any of the following class features that come from an arcane spellcasting class: arcane school powers, arcanist exploits, bardic performances, magus arcana, or witch hexes. Spells, spell-like abilities, or class features that take a free, swift, or immediate action aren't affected by this spell, nor are mythic spells or mythic powers.  While under the effect of this spell, if the subject must attempt a concentration check to cast an arcane spell or use an arcane spell-like ability for any reason other than the effect of this spell (such as casting defensively, being injured while casting, and so on), it takes a penalty on that check equal to 1/2 its caster level.</p>\n</div>\n",
      "chat": "",
      "unidentified": ""
    },
    "tags": [],
    "activation": {
      "cost": 1,
      "type": "standard"
    },
    "unchainedAction": {
      "activation": {
        "cost": 2,
        "type": "action"
      }
    },
    "duration": {
      "value": null,
      "units": ""
    },
    "target": {
      "value": "one creature"
    },
    "range": {
      "value": null,
      "units": "close",
      "maxIncrements": 1,
      "minValue": null,
      "minUnits": ""
    },
    "uses": {
      "value": 0,
      "max": 0,
      "per": "",
      "autoDeductCharges": true,
      "autoDeductChargesCost": "1"
    },
    "measureTemplate": {
      "type": "",
      "size": "0",
      "overrideColor": false,
      "customColor": "",
      "overrideTexture": false,
      "customTexture": ""
    },
    "attackName": "",
    "actionType": "spellsave",
    "attackBonus": "",
    "critConfirmBonus": "",
    "damage": {
      "parts": [],
      "critParts": [],
      "nonCritParts": []
    },
    "attackParts": [],
    "formula": "",
    "ability": {
      "attack": "",
      "damage": "",
      "damageMult": 1,
      "critRange": 20,
      "critMult": 2
    },
    "save": {
      "dc": "0",
      "type": "will",
      "description": "Will negates"
    },
    "effectNotes": "",
    "attackNotes": "",
    "soundEffect": "",
    "links": {
      "children": []
    },
    "learnedAt": {
      "class": [
        [
          "sorcerer/wizard",
          2
        ],
        [
          "bard",
          2
        ],
        [
          "witch",
          2
        ],
        [
          "magus",
          2
        ],
        [
          "bloodrager",
          2
        ]
      ],
      "domain": [],
      "subDomain": [],
      "elementalSchool": [],
      "bloodline": []
    },
    "level": 2,
    "clOffset": 0,
    "slOffset": 0,
    "school": "enc",
    "subschool": "compulsion",
    "types": "curse, mind-affecting",
    "nonlethal": false,
    "conditionals": [],
    "components": {
      "value": "",
      "verbal": true,
      "somatic": true,
      "material": true,
      "focus": false,
      "divineFocus": 0
    },
    "castTime": "",
    "materials": {
      "value": "a pinch of pepper",
      "focus": "",
      "gpValue": 0
    },
    "spellbook": "primary",
    "preparation": {
      "preparedAmount": 0,
      "maxAmount": 0,
      "autoDeductCharges": true,
      "spontaneousPrepared": true,
      "mode": "prepared"
    },
    "atWill": false,
    "sr": true,
    "shortDescription": "<p>This spell makes it difficult for the subject to cast arcane spells, use spell-like abilities, and use some abilities granted by arcane spellcasting classes. The subject must succeed at a concentration check (DC = 10 + 1/2 its caster level) in order to cast an arcane spell, use any spell-like ability (even those that come from a divine source), use arcane spell completion or spell trigger magic items, or use any of the following class features that come from an arcane spellcasting class: arcane school powers, arcanist exploits, bardic performances, magus arcana, or witch hexes. Spells, spell-like abilities, or class features that take a free, swift, or immediate action aren't affected by this spell, nor are mythic spells or mythic powers.  While under the effect of this spell, if the subject must attempt a concentration check to cast an arcane spell or use an arcane spell-like ability for any reason other than the effect of this spell (such as casting defensively, being injured while casting, and so on), it takes a penalty on that check equal to 1/2 its caster level.</p>",
    "spellDuration": "1 round/level",
    "spellEffect": "",
    "spellArea": "",
    "showInQuickbar": false,
    "spellPoints": {
      "cost": "1 + @sl"
    },
    "domain": false,
    "slotCost": 1
  },
  "flags": {},
  "img": "systems/pf1/icons/misc/magic-swirl.png",
  "effects": []
}