{
  "_id": "isrnyw9biluqoo80",
  "name": "Aura Sight",
  "permission": {
    "default": 0
  },
  "type": "spell",
  "data": {
    "description": {
      "value": "<div class=\"spell-description\">\n  <p>\n    <strong>School</strong>&nbsp;divination;\n    <strong>Level</strong>&nbsp;alchemist 3, cleric/oracle 3, inquisitor 4, mesmerist 3, psychic 3, shaman 3, sorcerer/wizard 3, spiritualist 3, witch 3;\n    \n    \n    \n    \n  </p>\n  <p>\n    <strong>Casting Time</strong>&nbsp;1 standard action<br>\n    <strong>Components</strong>&nbsp;V, S<br>\n  </p>\n  <p>\n    <strong>Range</strong>&nbsp;personal<br>\n    \n    <strong>Targets</strong>&nbsp;you<br>\n    \n    <strong>Duration</strong>&nbsp;1 minute/level (D)<br>\n    \n  </p>\n  <h2>Description</h2>\n  <p>This spell makes your eyes glow and allows you to see alignment auras within 120 feet of you. The effect is similar to that of a <i>detect chaos/evil/good/law</i> spell, but <i>aura sight</i> does not require concentration, and it discerns an aura's location and power more quickly.</p><p>You know the location and power of all chaotic, evil, good, and lawful auras within your sight. An aura's power depends on a creature's Hit Dice or an item's caster level, as noted in the description of the <i>detect evil</i> spell. If an item or a creature bearing an aura is in line of sight, you can attempt a Knowledge (religion) check to determine the aura's strength (one check per aura; DC 15 + spell level, or 15 + 1/2 caster level for a non-spell effect).</p><p><i>Aura sight</i> can be made permanent with a <i>permanency</i> spell by a caster of 11th level or higher at a cost of 7,500 gp.</p>\n</div>\n",
      "chat": "",
      "unidentified": ""
    },
    "tags": [],
    "activation": {
      "cost": 1,
      "type": "standard"
    },
    "unchainedAction": {
      "activation": {
        "cost": 2,
        "type": "action"
      }
    },
    "duration": {
      "value": null,
      "units": ""
    },
    "target": {
      "value": "you"
    },
    "range": {
      "value": null,
      "units": "personal",
      "maxIncrements": 1,
      "minValue": null,
      "minUnits": ""
    },
    "uses": {
      "value": 0,
      "max": 0,
      "per": "",
      "autoDeductCharges": true,
      "autoDeductChargesCost": "1"
    },
    "measureTemplate": {
      "type": "",
      "size": "0",
      "overrideColor": false,
      "customColor": "",
      "overrideTexture": false,
      "customTexture": ""
    },
    "attackName": "",
    "actionType": "",
    "attackBonus": "",
    "critConfirmBonus": "",
    "damage": {
      "parts": [],
      "critParts": [],
      "nonCritParts": []
    },
    "attackParts": [],
    "formula": "",
    "ability": {
      "attack": "",
      "damage": "",
      "damageMult": 1,
      "critRange": 20,
      "critMult": 2
    },
    "save": {
      "dc": "0",
      "type": "",
      "description": ""
    },
    "effectNotes": "",
    "attackNotes": "",
    "soundEffect": "",
    "links": {
      "children": []
    },
    "learnedAt": {
      "class": [
        [
          "sorcerer/wizard",
          3
        ],
        [
          "cleric/oracle",
          3
        ],
        [
          "alchemist",
          3
        ],
        [
          "witch",
          3
        ],
        [
          "inquisitor",
          4
        ],
        [
          "shaman",
          3
        ],
        [
          "psychic",
          3
        ],
        [
          "mesmerist",
          3
        ],
        [
          "spiritualist",
          3
        ]
      ],
      "domain": [],
      "subDomain": [],
      "elementalSchool": [],
      "bloodline": []
    },
    "level": 3,
    "clOffset": 0,
    "slOffset": 0,
    "school": "div",
    "subschool": "",
    "types": "",
    "nonlethal": false,
    "conditionals": [],
    "components": {
      "value": "",
      "verbal": true,
      "somatic": true,
      "material": false,
      "focus": false,
      "divineFocus": 0
    },
    "castTime": "",
    "materials": {
      "value": "",
      "focus": "",
      "gpValue": 0
    },
    "spellbook": "primary",
    "preparation": {
      "preparedAmount": 0,
      "maxAmount": 0,
      "autoDeductCharges": true,
      "spontaneousPrepared": true,
      "mode": "prepared"
    },
    "atWill": false,
    "sr": false,
    "shortDescription": "<p>This spell makes your eyes glow and allows you to see alignment auras within 120 feet of you. The effect is similar to that of a <i>detect chaos/evil/good/law</i> spell, but <i>aura sight</i> does not require concentration, and it discerns an aura's location and power more quickly.</p><p>You know the location and power of all chaotic, evil, good, and lawful auras within your sight. An aura's power depends on a creature's Hit Dice or an item's caster level, as noted in the description of the <i>detect evil</i> spell. If an item or a creature bearing an aura is in line of sight, you can attempt a Knowledge (religion) check to determine the aura's strength (one check per aura; DC 15 + spell level, or 15 + 1/2 caster level for a non-spell effect).</p><p><i>Aura sight</i> can be made permanent with a <i>permanency</i> spell by a caster of 11th level or higher at a cost of 7,500 gp.</p>",
    "spellDuration": "1 minute/level (D)",
    "spellEffect": "",
    "spellArea": "",
    "showInQuickbar": false,
    "spellPoints": {
      "cost": "1 + @sl"
    },
    "domain": false,
    "slotCost": 1
  },
  "flags": {},
  "img": "systems/pf1/icons/misc/magic-swirl.png",
  "effects": []
}