{
  "_id": "t4l1o78v9gcp3jag",
  "name": "Banishing Blade",
  "permission": {
    "default": 0
  },
  "type": "spell",
  "data": {
    "description": {
      "value": "<div class=\"spell-description\">\n  <p>\n    <strong>School</strong>&nbsp;abjuration;\n    <strong>Level</strong>&nbsp;antipaladin 4, bloodrager 4, inquisitor 5, magus 5, medium 4, paladin 4, shaman 5, sorcerer/wizard 5, spiritualist 5, summoner 5, unchained Summoner 5;\n    \n    \n    \n    \n  </p>\n  <p>\n    <strong>Casting Time</strong>&nbsp;1 standard action<br>\n    <strong>Components</strong>&nbsp;V, S<br>\n  </p>\n  <p>\n    <strong>Range</strong>&nbsp;close (25 ft. + 5 ft./2 levels)<br>\n    \n    \n    <strong>Effect</strong>&nbsp;one melee weapon<br>\n    <strong>Duration</strong>&nbsp;1 round/level or until discharged<br>\n    <strong>Saving Throw</strong>&nbsp;none and Will partial (see text);&nbsp;<strong>Spell Resistance</strong>&nbsp;yes<br>\n  </p>\n  <h2>Description</h2>\n  <p>You imbue a weapon with the power to drive foes back. The first time each round the weapon strikes a creature, the weapon attempts a free bull rush combat maneuver check against that creature. This does not provoke attacks of opportunity. The combat maneuver for the bull rush is equal to 1d20 + your caster level. You do not have to move to push creatures more than 5 feet with this bull rush. If a creature you strike has spell resistance, you must attempt a caster level check to overcome its spell resistance the first time you strike it. If you fail, that creature is immune to the effects of this casting of <i><i>banishing</i> blade</i>.  The first time each extraplanar creature whose Hit Dice don't exceed your caster level is driven back at least 10 feet by this spell, it must attempt a Will save. If it fails, it is sent back to its home plane. Whether it succeeds or fails, that creature is staggered for 1 round and <i><i>banishing</i> blade</i>'s duration ends.</p>\n</div>\n",
      "chat": "",
      "unidentified": ""
    },
    "tags": [],
    "activation": {
      "cost": 1,
      "type": "standard"
    },
    "unchainedAction": {
      "activation": {
        "cost": 2,
        "type": "action"
      }
    },
    "duration": {
      "value": null,
      "units": ""
    },
    "target": {
      "value": ""
    },
    "range": {
      "value": null,
      "units": "close",
      "maxIncrements": 1,
      "minValue": null,
      "minUnits": ""
    },
    "uses": {
      "value": 0,
      "max": 0,
      "per": "",
      "autoDeductCharges": true,
      "autoDeductChargesCost": "1"
    },
    "measureTemplate": {
      "type": "",
      "size": "0",
      "overrideColor": false,
      "customColor": "",
      "overrideTexture": false,
      "customTexture": ""
    },
    "attackName": "",
    "actionType": "spellsave",
    "attackBonus": "",
    "critConfirmBonus": "",
    "damage": {
      "parts": [],
      "critParts": [],
      "nonCritParts": []
    },
    "attackParts": [],
    "formula": "",
    "ability": {
      "attack": "",
      "damage": "",
      "damageMult": 1,
      "critRange": 20,
      "critMult": 2
    },
    "save": {
      "dc": "0",
      "type": "will",
      "description": "none and Will partial (see text)"
    },
    "effectNotes": "",
    "attackNotes": "",
    "soundEffect": "",
    "links": {
      "children": []
    },
    "learnedAt": {
      "class": [
        [
          "sorcerer/wizard",
          5
        ],
        [
          "paladin",
          4
        ],
        [
          "summoner",
          5
        ],
        [
          "inquisitor",
          5
        ],
        [
          "antipaladin",
          4
        ],
        [
          "magus",
          5
        ],
        [
          "bloodrager",
          4
        ],
        [
          "shaman",
          5
        ],
        [
          "medium",
          4
        ],
        [
          "spiritualist",
          5
        ],
        [
          "unchained Summoner",
          5
        ]
      ],
      "domain": [],
      "subDomain": [],
      "elementalSchool": [],
      "bloodline": []
    },
    "level": 5,
    "clOffset": 0,
    "slOffset": 0,
    "school": "abj",
    "subschool": "",
    "types": "",
    "nonlethal": false,
    "conditionals": [],
    "components": {
      "value": "",
      "verbal": true,
      "somatic": true,
      "material": false,
      "focus": false,
      "divineFocus": 0
    },
    "castTime": "",
    "materials": {
      "value": "",
      "focus": "",
      "gpValue": 0
    },
    "spellbook": "primary",
    "preparation": {
      "preparedAmount": 0,
      "maxAmount": 0,
      "autoDeductCharges": true,
      "spontaneousPrepared": true,
      "mode": "prepared"
    },
    "atWill": false,
    "sr": true,
    "shortDescription": "<p>You imbue a weapon with the power to drive foes back. The first time each round the weapon strikes a creature, the weapon attempts a free bull rush combat maneuver check against that creature. This does not provoke attacks of opportunity. The combat maneuver for the bull rush is equal to 1d20 + your caster level. You do not have to move to push creatures more than 5 feet with this bull rush. If a creature you strike has spell resistance, you must attempt a caster level check to overcome its spell resistance the first time you strike it. If you fail, that creature is immune to the effects of this casting of <i><i>banishing</i> blade</i>.  The first time each extraplanar creature whose Hit Dice don't exceed your caster level is driven back at least 10 feet by this spell, it must attempt a Will save. If it fails, it is sent back to its home plane. Whether it succeeds or fails, that creature is staggered for 1 round and <i><i>banishing</i> blade</i>'s duration ends.</p>",
    "spellDuration": "1 round/level or until discharged",
    "spellEffect": "one melee weapon",
    "spellArea": "",
    "showInQuickbar": false,
    "spellPoints": {
      "cost": "1 + @sl"
    },
    "domain": false,
    "slotCost": 1
  },
  "flags": {},
  "img": "systems/pf1/icons/misc/magic-swirl.png",
  "effects": []
}