{
  "_id": "qmorw7eojkfqr00m",
  "name": "Blink",
  "permission": {
    "default": 0
  },
  "type": "spell",
  "data": {
    "description": {
      "value": "<div class=\"spell-description\">\n  <p>\n    <strong>School</strong>&nbsp;transmutation;\n    <strong>Level</strong>&nbsp;bard 3, magus 3, psychic 3, sorcerer/wizard 3;\n    \n    \n    \n    <strong>Bloodline</strong>&nbsp;Starsoul 3;\n  </p>\n  <p>\n    <strong>Casting Time</strong>&nbsp;1 standard action<br>\n    <strong>Components</strong>&nbsp;V, S<br>\n  </p>\n  <p>\n    <strong>Range</strong>&nbsp;personal<br>\n    \n    <strong>Targets</strong>&nbsp;you<br>\n    \n    <strong>Duration</strong>&nbsp;1 round/level (D)<br>\n    \n  </p>\n  <h2>Description</h2>\n  <p>You \"blink\" quickly back and forth between the Material Plane and the Ethereal Plane and look as though you're winking in and out of reality at random. <i>Blink</i> has several effects, as follows.</p><p>Physical attacks against you have a 50% miss chance, and the Blind-Fight feat doesn't help opponents, since you're ethereal and not merely invisible. If the attack is capable of striking ethereal creatures, the miss chance is only 20% (for concealment).</p><p>If the attacker can see invisible creatures, the miss chance is also only 20%. (For an attacker who can both see and strike ethereal creatures, there is no miss chance.) Likewise, your own attacks have a 20% miss chance, since you sometimes go ethereal just as you are about to strike.</p><p>Any individually targeted spell has a 50% chance to fail against you while you're blinking unless your attacker can target invisible, ethereal creatures. Your own spells have a 20% chance to activate just as you go ethereal, in which case they typically do not affect the Material Plane (but they might affect targets on the Ethereal Plane).</p><p>While blinking, you take only half damage from area attacks (but full damage from those that extend onto the Ethereal Plane).</p><p>Although you are only partially visible, you are not considered invisible and targets retain their Dexterity bonus to AC against your attacks. You do receive a +2 bonus on attack rolls made against enemies that cannot see invisible creatures.</p><p>You take only half damage from falling, since you fall only while you are material.</p><p>While blinking, you can step through (but not see through) solid objects. For each 5 feet of solid material you walk through, there is a 50% chance that you become material. If this occurs, you are shunted off to the nearest open space and take 1d6 points of damage per 5 feet so traveled.</p><p>Since you spend about half your time on the Ethereal Plane, you can see and even attack ethereal creatures. You interact with ethereal creatures roughly the same way you interact with material ones.</p><p>An ethereal creature is invisible, incorporeal, and capable of moving in any direction, even up or down. As an incorporeal creature, you can move through solid objects, including living creatures.</p><p>An ethereal creature can see and hear the Material Plane, but everything looks gray and insubstantial. Sight and hearing on the Material Plane are limited to 60 feet.</p><p>Force effects and abjurations affect you normally. Their effects extend onto the Ethereal Plane from the Material Plane, but not vice versa. An ethereal creature can't attack material creatures, and spells you cast while ethereal affect only other ethereal things.</p><p>Certain material creatures or objects have attacks or effects that work on the Ethereal Plane. Treat other ethereal creatures and objects as material.</p>\n</div>\n",
      "chat": "",
      "unidentified": ""
    },
    "tags": [],
    "activation": {
      "cost": 1,
      "type": "standard"
    },
    "unchainedAction": {
      "activation": {
        "cost": 2,
        "type": "action"
      }
    },
    "duration": {
      "value": null,
      "units": ""
    },
    "target": {
      "value": "you"
    },
    "range": {
      "value": null,
      "units": "personal",
      "maxIncrements": 1,
      "minValue": null,
      "minUnits": ""
    },
    "uses": {
      "value": 0,
      "max": 0,
      "per": "",
      "autoDeductCharges": true,
      "autoDeductChargesCost": "1"
    },
    "measureTemplate": {
      "type": "",
      "size": "0",
      "overrideColor": false,
      "customColor": "",
      "overrideTexture": false,
      "customTexture": ""
    },
    "attackName": "",
    "actionType": "",
    "attackBonus": "",
    "critConfirmBonus": "",
    "damage": {
      "parts": [],
      "critParts": [],
      "nonCritParts": []
    },
    "attackParts": [],
    "formula": "",
    "ability": {
      "attack": "",
      "damage": "",
      "damageMult": 1,
      "critRange": 20,
      "critMult": 2
    },
    "save": {
      "dc": "0",
      "type": "",
      "description": ""
    },
    "effectNotes": "",
    "attackNotes": "",
    "soundEffect": "",
    "links": {
      "children": []
    },
    "learnedAt": {
      "class": [
        [
          "sorcerer/wizard",
          3
        ],
        [
          "bard",
          3
        ],
        [
          "magus",
          3
        ],
        [
          "psychic",
          3
        ]
      ],
      "domain": [],
      "subDomain": [],
      "elementalSchool": [],
      "bloodline": [
        [
          "Starsoul",
          3
        ]
      ]
    },
    "level": 3,
    "clOffset": 0,
    "slOffset": 0,
    "school": "trs",
    "subschool": "",
    "types": "",
    "nonlethal": false,
    "conditionals": [],
    "components": {
      "value": "",
      "verbal": true,
      "somatic": true,
      "material": false,
      "focus": false,
      "divineFocus": 0
    },
    "castTime": "",
    "materials": {
      "value": "",
      "focus": "",
      "gpValue": 0
    },
    "spellbook": "primary",
    "preparation": {
      "preparedAmount": 0,
      "maxAmount": 0,
      "autoDeductCharges": true,
      "spontaneousPrepared": true,
      "mode": "prepared"
    },
    "atWill": false,
    "sr": false,
    "shortDescription": "<p>You \"blink\" quickly back and forth between the Material Plane and the Ethereal Plane and look as though you're winking in and out of reality at random. <i>Blink</i> has several effects, as follows.</p><p>Physical attacks against you have a 50% miss chance, and the Blind-Fight feat doesn't help opponents, since you're ethereal and not merely invisible. If the attack is capable of striking ethereal creatures, the miss chance is only 20% (for concealment).</p><p>If the attacker can see invisible creatures, the miss chance is also only 20%. (For an attacker who can both see and strike ethereal creatures, there is no miss chance.) Likewise, your own attacks have a 20% miss chance, since you sometimes go ethereal just as you are about to strike.</p><p>Any individually targeted spell has a 50% chance to fail against you while you're blinking unless your attacker can target invisible, ethereal creatures. Your own spells have a 20% chance to activate just as you go ethereal, in which case they typically do not affect the Material Plane (but they might affect targets on the Ethereal Plane).</p><p>While blinking, you take only half damage from area attacks (but full damage from those that extend onto the Ethereal Plane).</p><p>Although you are only partially visible, you are not considered invisible and targets retain their Dexterity bonus to AC against your attacks. You do receive a +2 bonus on attack rolls made against enemies that cannot see invisible creatures.</p><p>You take only half damage from falling, since you fall only while you are material.</p><p>While blinking, you can step through (but not see through) solid objects. For each 5 feet of solid material you walk through, there is a 50% chance that you become material. If this occurs, you are shunted off to the nearest open space and take 1d6 points of damage per 5 feet so traveled.</p><p>Since you spend about half your time on the Ethereal Plane, you can see and even attack ethereal creatures. You interact with ethereal creatures roughly the same way you interact with material ones.</p><p>An ethereal creature is invisible, incorporeal, and capable of moving in any direction, even up or down. As an incorporeal creature, you can move through solid objects, including living creatures.</p><p>An ethereal creature can see and hear the Material Plane, but everything looks gray and insubstantial. Sight and hearing on the Material Plane are limited to 60 feet.</p><p>Force effects and abjurations affect you normally. Their effects extend onto the Ethereal Plane from the Material Plane, but not vice versa. An ethereal creature can't attack material creatures, and spells you cast while ethereal affect only other ethereal things.</p><p>Certain material creatures or objects have attacks or effects that work on the Ethereal Plane. Treat other ethereal creatures and objects as material.</p>",
    "spellDuration": "1 round/level (D)",
    "spellEffect": "",
    "spellArea": "",
    "showInQuickbar": false,
    "spellPoints": {
      "cost": "1 + @sl"
    },
    "domain": false,
    "slotCost": 1
  },
  "flags": {},
  "img": "systems/pf1/icons/misc/magic-swirl.png",
  "effects": []
}