{
  "_id": "4gec71ccemrq7lyq",
  "name": "Brand of Conformity",
  "permission": {
    "default": 0
  },
  "type": "spell",
  "data": {
    "description": {
      "value": "<div class=\"spell-description\">\n  <p>\n    <strong>School</strong>&nbsp;transmutation&nbsp;[curse];\n    <strong>Level</strong>&nbsp;inquisitor 1;\n    \n    \n    \n    \n  </p>\n  <p>\n    <strong>Casting Time</strong>&nbsp;1 round<br>\n    <strong>Components</strong>&nbsp;V, S, DF<br>\n  </p>\n  <p>\n    <strong>Range</strong>&nbsp;touch<br>\n    \n    <strong>Targets</strong>&nbsp;creature touched<br>\n    \n    <strong>Duration</strong>&nbsp;1 day/level<br>\n    <strong>Saving Throw</strong>&nbsp;Fortitude negates;&nbsp;<strong>Spell Resistance</strong>&nbsp;yes<br>\n  </p>\n  <h2>Description</h2>\n  <p>This spell etches the symbol of a nation, organization, or order on the target, dealing 1 point of damage. The mark can be placed on any exposed portion of the creature, typically the head or forearm. While branded in this way, the recipient loses the ability to speak or understand its racial language and the language of its homeland or primary culture (if these are different). For example, an elf raised among the Shoanti would lose Elven and Shoanti (if she knew both those languages), while a halfling raised among dwarves would lose both Halfling and Dwarven (if she knew both those languages). A gnome raised among gnomes would lose Gnome, but no other language. This spell never suppresses Common or Undercommon, nor does it prevent spellcasting, though it may prevent a target from speaking intelligibly if it suppresses all of the target's languages. A Brand of Conformity can be hidden beneath clothing or removed by scraping it away (the latter deals 1d6 points of damage, though the brand returns if that damage is healed). In any event, the language-suppression element of a Brand of Conformity continues to function even when hidden or scraped away.</p>\n</div>\n",
      "chat": "",
      "unidentified": ""
    },
    "tags": [],
    "activation": {
      "cost": 1,
      "type": "round"
    },
    "unchainedAction": {
      "activation": {
        "cost": 3,
        "type": "action"
      }
    },
    "duration": {
      "value": null,
      "units": ""
    },
    "target": {
      "value": "creature touched"
    },
    "range": {
      "value": null,
      "units": "touch",
      "maxIncrements": 1,
      "minValue": null,
      "minUnits": ""
    },
    "uses": {
      "value": 0,
      "max": 0,
      "per": "",
      "autoDeductCharges": true,
      "autoDeductChargesCost": "1"
    },
    "measureTemplate": {
      "type": "",
      "size": "0",
      "overrideColor": false,
      "customColor": "",
      "overrideTexture": false,
      "customTexture": ""
    },
    "attackName": "",
    "actionType": "spellsave",
    "attackBonus": "",
    "critConfirmBonus": "",
    "damage": {
      "parts": [],
      "critParts": [],
      "nonCritParts": []
    },
    "attackParts": [],
    "formula": "",
    "ability": {
      "attack": "",
      "damage": "",
      "damageMult": 1,
      "critRange": 20,
      "critMult": 2
    },
    "save": {
      "dc": "0",
      "type": "fort",
      "description": "Fortitude negates"
    },
    "effectNotes": "",
    "attackNotes": "",
    "soundEffect": "",
    "links": {
      "children": []
    },
    "learnedAt": {
      "class": [
        [
          "inquisitor",
          1
        ]
      ],
      "domain": [],
      "subDomain": [],
      "elementalSchool": [],
      "bloodline": []
    },
    "level": 1,
    "clOffset": 0,
    "slOffset": 0,
    "school": "trs",
    "subschool": "",
    "types": "curse",
    "nonlethal": false,
    "conditionals": [],
    "components": {
      "value": "",
      "verbal": true,
      "somatic": true,
      "material": false,
      "focus": false,
      "divineFocus": 1
    },
    "castTime": "",
    "materials": {
      "value": "",
      "focus": "",
      "gpValue": 0
    },
    "spellbook": "primary",
    "preparation": {
      "preparedAmount": 0,
      "maxAmount": 0,
      "autoDeductCharges": true,
      "spontaneousPrepared": true,
      "mode": "prepared"
    },
    "atWill": false,
    "sr": true,
    "shortDescription": "<p>This spell etches the symbol of a nation, organization, or order on the target, dealing 1 point of damage. The mark can be placed on any exposed portion of the creature, typically the head or forearm. While branded in this way, the recipient loses the ability to speak or understand its racial language and the language of its homeland or primary culture (if these are different). For example, an elf raised among the Shoanti would lose Elven and Shoanti (if she knew both those languages), while a halfling raised among dwarves would lose both Halfling and Dwarven (if she knew both those languages). A gnome raised among gnomes would lose Gnome, but no other language. This spell never suppresses Common or Undercommon, nor does it prevent spellcasting, though it may prevent a target from speaking intelligibly if it suppresses all of the target's languages. A Brand of Conformity can be hidden beneath clothing or removed by scraping it away (the latter deals 1d6 points of damage, though the brand returns if that damage is healed). In any event, the language-suppression element of a Brand of Conformity continues to function even when hidden or scraped away.</p>",
    "spellDuration": "1 day/level",
    "spellEffect": "",
    "spellArea": "",
    "showInQuickbar": false,
    "spellPoints": {
      "cost": "1 + @sl"
    },
    "domain": false,
    "slotCost": 1
  },
  "flags": {},
  "img": "systems/pf1/icons/misc/magic-swirl.png",
  "effects": []
}