{
  "_id": "qwwoz7mmwfmrwaif",
  "name": "Build Trust",
  "permission": {
    "default": 0
  },
  "type": "spell",
  "data": {
    "description": {
      "value": "<div class=\"spell-description\">\n  <p>\n    <strong>School</strong>&nbsp;divination;\n    <strong>Level</strong>&nbsp;bard 2, cleric/oracle 2, inquisitor 2, mesmerist 2, paladin 1, psychic 2;\n    \n    \n    \n    \n  </p>\n  <p>\n    <strong>Casting Time</strong>&nbsp;1 standard action<br>\n    <strong>Components</strong>&nbsp;V, S, M (a gold piece)<br>\n  </p>\n  <p>\n    <strong>Range</strong>&nbsp;close (25 ft. + 5 ft./2 levels)<br>\n    \n    <strong>Targets</strong>&nbsp;one creature<br>\n    \n    <strong>Duration</strong>&nbsp;1 day/level; see text<br>\n    <strong>Saving Throw</strong>&nbsp;Will negates;&nbsp;<strong>Spell Resistance</strong>&nbsp;yes<br>\n  </p>\n  <h2>Description</h2>\n  <p>You get a sense of the best way to interact with the target in order to encourage positive regard and fellowship toward you. You gain a +2 circumstance bonus on all Charisma checks and Charisma-based skill checks you attempt when interacting with the target. In addition, whenever you fail a Charisma  check or Charisma-based skill check when interacting with the target, you can reroll the check as an immediate action. Attempting this reroll grants the target a new saving throw to end the spell. The target doesn't become hostile to you when the spell ends, but it does become disillusioned of its new trust in you. Attacking the target or taking an obvious hostile action against it automatically ends the spell.  If you are using the contacts rules (<i>Ultimate Campaign</i> 148), your trust score with the target increases by 1 for the duration of the spell. If you're using the individual influence system (see pages 102-109), if the target fails its initial saving throw you learn one of its influence skills, strengths, or weaknesses as though you had succeeded at a discovery check.</p>\n</div>\n",
      "chat": "",
      "unidentified": ""
    },
    "tags": [],
    "activation": {
      "cost": 1,
      "type": "standard"
    },
    "unchainedAction": {
      "activation": {
        "cost": 2,
        "type": "action"
      }
    },
    "duration": {
      "value": null,
      "units": ""
    },
    "target": {
      "value": "one creature"
    },
    "range": {
      "value": null,
      "units": "close",
      "maxIncrements": 1,
      "minValue": null,
      "minUnits": ""
    },
    "uses": {
      "value": 0,
      "max": 0,
      "per": "",
      "autoDeductCharges": true,
      "autoDeductChargesCost": "1"
    },
    "measureTemplate": {
      "type": "",
      "size": "0",
      "overrideColor": false,
      "customColor": "",
      "overrideTexture": false,
      "customTexture": ""
    },
    "attackName": "",
    "actionType": "spellsave",
    "attackBonus": "",
    "critConfirmBonus": "",
    "damage": {
      "parts": [],
      "critParts": [],
      "nonCritParts": []
    },
    "attackParts": [],
    "formula": "",
    "ability": {
      "attack": "",
      "damage": "",
      "damageMult": 1,
      "critRange": 20,
      "critMult": 2
    },
    "save": {
      "dc": "0",
      "type": "will",
      "description": "Will negates"
    },
    "effectNotes": "",
    "attackNotes": "",
    "soundEffect": "",
    "links": {
      "children": []
    },
    "learnedAt": {
      "class": [
        [
          "cleric/oracle",
          2
        ],
        [
          "bard",
          2
        ],
        [
          "paladin",
          1
        ],
        [
          "inquisitor",
          2
        ],
        [
          "psychic",
          2
        ],
        [
          "mesmerist",
          2
        ]
      ],
      "domain": [],
      "subDomain": [],
      "elementalSchool": [],
      "bloodline": []
    },
    "level": 2,
    "clOffset": 0,
    "slOffset": 0,
    "school": "div",
    "subschool": "",
    "types": "",
    "nonlethal": false,
    "conditionals": [],
    "components": {
      "value": "",
      "verbal": true,
      "somatic": true,
      "material": true,
      "focus": false,
      "divineFocus": 0
    },
    "castTime": "",
    "materials": {
      "value": "a gold piece",
      "focus": "",
      "gpValue": 0
    },
    "spellbook": "primary",
    "preparation": {
      "preparedAmount": 0,
      "maxAmount": 0,
      "autoDeductCharges": true,
      "spontaneousPrepared": true,
      "mode": "prepared"
    },
    "atWill": false,
    "sr": true,
    "shortDescription": "<p>You get a sense of the best way to interact with the target in order to encourage positive regard and fellowship toward you. You gain a +2 circumstance bonus on all Charisma checks and Charisma-based skill checks you attempt when interacting with the target. In addition, whenever you fail a Charisma  check or Charisma-based skill check when interacting with the target, you can reroll the check as an immediate action. Attempting this reroll grants the target a new saving throw to end the spell. The target doesn't become hostile to you when the spell ends, but it does become disillusioned of its new trust in you. Attacking the target or taking an obvious hostile action against it automatically ends the spell.  If you are using the contacts rules (<i>Ultimate Campaign</i> 148), your trust score with the target increases by 1 for the duration of the spell. If you're using the individual influence system (see pages 102-109), if the target fails its initial saving throw you learn one of its influence skills, strengths, or weaknesses as though you had succeeded at a discovery check.</p>",
    "spellDuration": "1 day/level; see text",
    "spellEffect": "",
    "spellArea": "",
    "showInQuickbar": false,
    "spellPoints": {
      "cost": "1 + @sl"
    },
    "domain": false,
    "slotCost": 1
  },
  "flags": {},
  "img": "systems/pf1/icons/misc/magic-swirl.png",
  "effects": []
}