{
  "_id": "i39073pzg8e59qrg",
  "name": "Caging Bomb Admixture",
  "permission": {
    "default": 0
  },
  "type": "spell",
  "data": {
    "description": {
      "value": "<div class=\"spell-description\">\n  <p>\n    <strong>School</strong>&nbsp;evocation&nbsp;[force];\n    <strong>Level</strong>&nbsp;alchemist 6;\n    \n    \n    \n    \n  </p>\n  <p>\n    <strong>Casting Time</strong>&nbsp;1 standard action<br>\n    <strong>Components</strong>&nbsp;V, S<br>\n  </p>\n  <p>\n    <strong>Range</strong>&nbsp;personal<br>\n    \n    <strong>Targets</strong>&nbsp;you<br>\n    \n    <strong>Duration</strong>&nbsp;1 round/level<br>\n    \n  </p>\n  <h2>Description</h2>\n  <p>Upon drinking an extract created with this formulae, you make a significant change to your magical reserve that modifies the nature of all bombs you create and throw during this extract's duration. This effect on your magical reserve has no effect on any discoveries that you use to modify your bombs, but you can only have one admixture effect (formulae with the word \"bomb admixture\" in its title) active at a time. If you drink another bomb admixture, the effects of the former bomb admixture end and the new one becomes active.</p><p>When you throw a bomb and hit a direct target, it creates an invisible cubical prison composed of a solid Wall of Force.</p><p>The prison is as large as the splash area of the bomb that you threw, and traps any creature that is entirely inside the area.</p><p>Creatures within the area are caught and contained unless any creature within the splash radius is too big to fit inside, in which case the effect automatically fails. Teleportation and other forms of astral travel provide means for escape, but the force walls extend into the Ethereal Plane, blocking ethereal travel.</p><p>Like a Wall of Force, the cage created by the caging bomb admixture resists dispel magic, although a mage's disjunction still functions. The walls of the cage can be damaged by spells as normal, except for disintegrate, which automatically destroys the cage. The walls of this cage can be damaged by weapons and supernatural abilities, but the cage has a hardness of 20 and a number of hit points equal to 20 per alchemist level.</p><p>Contact with a sphere of annihilation or a rod of cancellation instantly destroys this cage.</p><p>When using caging bomb admixture, an alchemist can only have one cage in effect at a time. If the alchemist throws another bomb during the duration of caging bomb admixture, any other cage created by the earlier admixture ends, and a new one is created. When the duration of the caging bomb admixture ends, so does any remaining cage created by this admixture's effect.</p>\n</div>\n",
      "chat": "",
      "unidentified": ""
    },
    "tags": [],
    "activation": {
      "cost": 1,
      "type": "standard"
    },
    "unchainedAction": {
      "activation": {
        "cost": 2,
        "type": "action"
      }
    },
    "duration": {
      "value": null,
      "units": ""
    },
    "target": {
      "value": "you"
    },
    "range": {
      "value": null,
      "units": "personal",
      "maxIncrements": 1,
      "minValue": null,
      "minUnits": ""
    },
    "uses": {
      "value": 0,
      "max": 0,
      "per": "",
      "autoDeductCharges": true,
      "autoDeductChargesCost": "1"
    },
    "measureTemplate": {
      "type": "",
      "size": "0",
      "overrideColor": false,
      "customColor": "",
      "overrideTexture": false,
      "customTexture": ""
    },
    "attackName": "",
    "actionType": "",
    "attackBonus": "",
    "critConfirmBonus": "",
    "damage": {
      "parts": [],
      "critParts": [],
      "nonCritParts": []
    },
    "attackParts": [],
    "formula": "",
    "ability": {
      "attack": "",
      "damage": "",
      "damageMult": 1,
      "critRange": 20,
      "critMult": 2
    },
    "save": {
      "dc": "0",
      "type": "",
      "description": ""
    },
    "effectNotes": "",
    "attackNotes": "",
    "soundEffect": "",
    "links": {
      "children": []
    },
    "learnedAt": {
      "class": [
        [
          "alchemist",
          6
        ]
      ],
      "domain": [],
      "subDomain": [],
      "elementalSchool": [],
      "bloodline": []
    },
    "level": 6,
    "clOffset": 0,
    "slOffset": 0,
    "school": "evo",
    "subschool": "",
    "types": "force",
    "nonlethal": false,
    "conditionals": [],
    "components": {
      "value": "",
      "verbal": true,
      "somatic": true,
      "material": false,
      "focus": false,
      "divineFocus": 0
    },
    "castTime": "",
    "materials": {
      "value": "",
      "focus": "",
      "gpValue": 0
    },
    "spellbook": "primary",
    "preparation": {
      "preparedAmount": 0,
      "maxAmount": 0,
      "autoDeductCharges": true,
      "spontaneousPrepared": true,
      "mode": "prepared"
    },
    "atWill": false,
    "sr": false,
    "shortDescription": "<p>Upon drinking an extract created with this formulae, you make a significant change to your magical reserve that modifies the nature of all bombs you create and throw during this extract's duration. This effect on your magical reserve has no effect on any discoveries that you use to modify your bombs, but you can only have one admixture effect (formulae with the word \"bomb admixture\" in its title) active at a time. If you drink another bomb admixture, the effects of the former bomb admixture end and the new one becomes active.</p><p>When you throw a bomb and hit a direct target, it creates an invisible cubical prison composed of a solid Wall of Force.</p><p>The prison is as large as the splash area of the bomb that you threw, and traps any creature that is entirely inside the area.</p><p>Creatures within the area are caught and contained unless any creature within the splash radius is too big to fit inside, in which case the effect automatically fails. Teleportation and other forms of astral travel provide means for escape, but the force walls extend into the Ethereal Plane, blocking ethereal travel.</p><p>Like a Wall of Force, the cage created by the caging bomb admixture resists dispel magic, although a mage's disjunction still functions. The walls of the cage can be damaged by spells as normal, except for disintegrate, which automatically destroys the cage. The walls of this cage can be damaged by weapons and supernatural abilities, but the cage has a hardness of 20 and a number of hit points equal to 20 per alchemist level.</p><p>Contact with a sphere of annihilation or a rod of cancellation instantly destroys this cage.</p><p>When using caging bomb admixture, an alchemist can only have one cage in effect at a time. If the alchemist throws another bomb during the duration of caging bomb admixture, any other cage created by the earlier admixture ends, and a new one is created. When the duration of the caging bomb admixture ends, so does any remaining cage created by this admixture's effect.</p>",
    "spellDuration": "1 round/level",
    "spellEffect": "",
    "spellArea": "",
    "showInQuickbar": false,
    "spellPoints": {
      "cost": "1 + @sl"
    },
    "domain": false,
    "slotCost": 1
  },
  "flags": {},
  "img": "systems/pf1/icons/misc/magic-swirl.png",
  "effects": []
}