{
  "_id": "3wcvosazm31i8758",
  "name": "Contagious Zeal",
  "permission": {
    "default": 0
  },
  "type": "spell",
  "data": {
    "description": {
      "value": "<div class=\"spell-description\">\n  <p>\n    <strong>School</strong>&nbsp;enchantment&nbsp;(compulsion)&nbsp;[emotion, mind-affecting];\n    <strong>Level</strong>&nbsp;bard 2, cleric/oracle 3, inquisitor 3, psychic 3, sorcerer/wizard 3, spiritualist 3;\n    \n    \n    \n    \n  </p>\n  <p>\n    <strong>Casting Time</strong>&nbsp;1 standard action<br>\n    <strong>Components</strong>&nbsp;V, S<br>\n  </p>\n  <p>\n    <strong>Range</strong>&nbsp;close (25 ft. + 5 ft./2 levels)<br>\n    \n    <strong>Targets</strong>&nbsp;one creature<br>\n    \n    <strong>Duration</strong>&nbsp;1 round/level<br>\n    <strong>Saving Throw</strong>&nbsp;Will negates (harmless);&nbsp;<strong>Spell Resistance</strong>&nbsp;yes<br>\n  </p>\n  <h2>Description</h2>\n  <p>The target gains a +2 morale bonus on attack rolls and weapon damage rolls, 1d6 temporary hit points, and a +4 morale bonus on saving throws against fear effects and to the DC of  Intimidate checks attempted against her. Once per round, the target can select one other creature to gain this bonus as well. The chosen creature can be no farther from the target than 25 feet + 5 feet for every 2 caster levels you possess, and a creature can't be selected more than once in this way. Such allies gain only the bonuses and temporary hit points; they don't continue to spread it to other creatures. The additional creatures' bonuses and temporary hit points share the original spell's duration, so when that duration ends, all affected creatures lose their bonuses and any remaining temporary hit points from this spell.</p>\n</div>\n",
      "chat": "",
      "unidentified": ""
    },
    "tags": [],
    "activation": {
      "cost": 1,
      "type": "standard"
    },
    "unchainedAction": {
      "activation": {
        "cost": 2,
        "type": "action"
      }
    },
    "duration": {
      "value": null,
      "units": ""
    },
    "target": {
      "value": "one creature"
    },
    "range": {
      "value": null,
      "units": "close",
      "maxIncrements": 1,
      "minValue": null,
      "minUnits": ""
    },
    "uses": {
      "value": 0,
      "max": 0,
      "per": "",
      "autoDeductCharges": true,
      "autoDeductChargesCost": "1"
    },
    "measureTemplate": {
      "type": "",
      "size": "0",
      "overrideColor": false,
      "customColor": "",
      "overrideTexture": false,
      "customTexture": ""
    },
    "attackName": "",
    "actionType": "spellsave",
    "attackBonus": "",
    "critConfirmBonus": "",
    "damage": {
      "parts": [],
      "critParts": [],
      "nonCritParts": []
    },
    "attackParts": [],
    "formula": "",
    "ability": {
      "attack": "",
      "damage": "",
      "damageMult": 1,
      "critRange": 20,
      "critMult": 2
    },
    "save": {
      "dc": "0",
      "type": "will",
      "description": "Will negates (harmless)"
    },
    "effectNotes": "",
    "attackNotes": "",
    "soundEffect": "",
    "links": {
      "children": []
    },
    "learnedAt": {
      "class": [
        [
          "sorcerer/wizard",
          3
        ],
        [
          "cleric/oracle",
          3
        ],
        [
          "bard",
          2
        ],
        [
          "inquisitor",
          3
        ],
        [
          "psychic",
          3
        ],
        [
          "spiritualist",
          3
        ]
      ],
      "domain": [],
      "subDomain": [],
      "elementalSchool": [],
      "bloodline": []
    },
    "level": 3,
    "clOffset": 0,
    "slOffset": 0,
    "school": "enc",
    "subschool": "compulsion",
    "types": "emotion, mind-affecting",
    "nonlethal": false,
    "conditionals": [],
    "components": {
      "value": "",
      "verbal": true,
      "somatic": true,
      "material": false,
      "focus": false,
      "divineFocus": 0
    },
    "castTime": "",
    "materials": {
      "value": "",
      "focus": "",
      "gpValue": 0
    },
    "spellbook": "primary",
    "preparation": {
      "preparedAmount": 0,
      "maxAmount": 0,
      "autoDeductCharges": true,
      "spontaneousPrepared": true,
      "mode": "prepared"
    },
    "atWill": false,
    "sr": true,
    "shortDescription": "<p>The target gains a +2 morale bonus on attack rolls and weapon damage rolls, 1d6 temporary hit points, and a +4 morale bonus on saving throws against fear effects and to the DC of  Intimidate checks attempted against her. Once per round, the target can select one other creature to gain this bonus as well. The chosen creature can be no farther from the target than 25 feet + 5 feet for every 2 caster levels you possess, and a creature can't be selected more than once in this way. Such allies gain only the bonuses and temporary hit points; they don't continue to spread it to other creatures. The additional creatures' bonuses and temporary hit points share the original spell's duration, so when that duration ends, all affected creatures lose their bonuses and any remaining temporary hit points from this spell.</p>",
    "spellDuration": "1 round/level",
    "spellEffect": "",
    "spellArea": "",
    "showInQuickbar": false,
    "spellPoints": {
      "cost": "1 + @sl"
    },
    "domain": false,
    "slotCost": 1
  },
  "flags": {},
  "img": "systems/pf1/icons/misc/magic-swirl.png",
  "effects": []
}