{
  "_id": "gl524v9qd5jji2ex",
  "name": "Contact Entity I",
  "permission": {
    "default": 0
  },
  "type": "spell",
  "data": {
    "description": {
      "value": "<div class=\"spell-description\">\n  <p>\n    <strong>School</strong>&nbsp;evocation;\n    <strong>Level</strong>&nbsp;cleric/oracle 2, medium 1, occultist 2, psychic 2, shaman 2, sorcerer/wizard 2, summoner 2, unchained Summoner 2, witch 2;\n    \n    \n    \n    \n  </p>\n  <p>\n    <strong>Casting Time</strong>&nbsp;1 minute<br>\n    <strong>Components</strong>&nbsp;V, S, M (see text)<br>\n  </p>\n  <p>\n    <strong>Range</strong>&nbsp;100 miles<br>\n    \n    <strong>Targets</strong>&nbsp;up to 20 entities of 6 HD or fewer; see text<br>\n    \n    <strong>Duration</strong>&nbsp;instantaneous<br>\n    <strong>Saving Throw</strong>&nbsp;none;&nbsp;<strong>Spell Resistance</strong>&nbsp;no<br>\n  </p>\n  <h2>Description</h2>\n  <p>You send out a magical message to any eldritch entities of a particular kind within a 100-mile radius, which can be delivered to up to 20 such creatures, starting with the nearest creatures until the limit has been met. This spell can't contact creatures with more than 6 Hit Dice. You can't send a specific message, but this spell (and all similar <i>contact entity</i> spells) can be characterized as an open invitation to make contact and establish communication. If there is an appropriate entity within range, the spell succeeds automatically. You don't know whether the message was received, nor any specific details about what creatures received it or how many. Creatures that receive the message know the location and distance from where the spell was cast. Because this spell doesn't  call or summon the target, the target must have its own way to reach the place where the spell was cast.  How creatures respond to a contact spell is circumstantial and it is possible the creatures will simply ignore the spell. Creatures that come and investigate do so in their own time. They usually arrive cautiously, aware of the potential for ambush. Targets of the spell might inform their organization or community if they have one. There are no restrictions on how the creatures react to being contacted, and they might respond with hostility, parley, entertain an alliance, or subjugate the caster and their related community. Using this spell counts as mentally contacting the creature for the purpose of any of its special abilities (such as the star-spawn's overwhelming mind). For the purpose of spells like <i>scrying</i>, the creature has firsthand knowledge of you and a connection similar to if it possessed a likeness of you.  Each type of creature requires a different material component that must be included when casting the spell, as shown on Table 4-1: Contact Entity on page 112. Some of these components are expensive or might require quests to acquire. Contacting certain types of creatures makes the spell chaotic, evil, or both, as indicated on the table.</p>\n</div>\n",
      "chat": "",
      "unidentified": ""
    },
    "tags": [],
    "activation": {
      "cost": 1,
      "type": "minute"
    },
    "unchainedAction": {
      "activation": {
        "cost": 1,
        "type": "minute"
      }
    },
    "duration": {
      "value": null,
      "units": ""
    },
    "target": {
      "value": "up to 20 entities of 6 HD or fewer; see text"
    },
    "range": {
      "value": 100,
      "units": "mi",
      "maxIncrements": 1,
      "minValue": null,
      "minUnits": ""
    },
    "uses": {
      "value": 0,
      "max": 0,
      "per": "",
      "autoDeductCharges": true,
      "autoDeductChargesCost": "1"
    },
    "measureTemplate": {
      "type": "",
      "size": "0",
      "overrideColor": false,
      "customColor": "",
      "overrideTexture": false,
      "customTexture": ""
    },
    "attackName": "",
    "actionType": "",
    "attackBonus": "",
    "critConfirmBonus": "",
    "damage": {
      "parts": [],
      "critParts": [],
      "nonCritParts": []
    },
    "attackParts": [],
    "formula": "",
    "ability": {
      "attack": "",
      "damage": "",
      "damageMult": 1,
      "critRange": 20,
      "critMult": 2
    },
    "save": {
      "dc": "0",
      "type": "",
      "description": ""
    },
    "effectNotes": "",
    "attackNotes": "",
    "soundEffect": "",
    "links": {
      "children": []
    },
    "learnedAt": {
      "class": [
        [
          "sorcerer/wizard",
          2
        ],
        [
          "cleric/oracle",
          2
        ],
        [
          "summoner",
          2
        ],
        [
          "witch",
          2
        ],
        [
          "shaman",
          2
        ],
        [
          "psychic",
          2
        ],
        [
          "medium",
          1
        ],
        [
          "occultist",
          2
        ],
        [
          "unchained Summoner",
          2
        ]
      ],
      "domain": [],
      "subDomain": [],
      "elementalSchool": [],
      "bloodline": []
    },
    "level": 2,
    "clOffset": 0,
    "slOffset": 0,
    "school": "evo",
    "subschool": "",
    "types": "",
    "nonlethal": false,
    "conditionals": [],
    "components": {
      "value": "",
      "verbal": true,
      "somatic": true,
      "material": true,
      "focus": false,
      "divineFocus": 0
    },
    "castTime": "",
    "materials": {
      "value": "see text",
      "focus": "",
      "gpValue": 0
    },
    "spellbook": "primary",
    "preparation": {
      "preparedAmount": 0,
      "maxAmount": 0,
      "autoDeductCharges": true,
      "spontaneousPrepared": true,
      "mode": "prepared"
    },
    "atWill": false,
    "sr": false,
    "shortDescription": "<p>You send out a magical message to any eldritch entities of a particular kind within a 100-mile radius, which can be delivered to up to 20 such creatures, starting with the nearest creatures until the limit has been met. This spell can't contact creatures with more than 6 Hit Dice. You can't send a specific message, but this spell (and all similar <i>contact entity</i> spells) can be characterized as an open invitation to make contact and establish communication. If there is an appropriate entity within range, the spell succeeds automatically. You don't know whether the message was received, nor any specific details about what creatures received it or how many. Creatures that receive the message know the location and distance from where the spell was cast. Because this spell doesn't  call or summon the target, the target must have its own way to reach the place where the spell was cast.  How creatures respond to a contact spell is circumstantial and it is possible the creatures will simply ignore the spell. Creatures that come and investigate do so in their own time. They usually arrive cautiously, aware of the potential for ambush. Targets of the spell might inform their organization or community if they have one. There are no restrictions on how the creatures react to being contacted, and they might respond with hostility, parley, entertain an alliance, or subjugate the caster and their related community. Using this spell counts as mentally contacting the creature for the purpose of any of its special abilities (such as the star-spawn's overwhelming mind). For the purpose of spells like <i>scrying</i>, the creature has firsthand knowledge of you and a connection similar to if it possessed a likeness of you.  Each type of creature requires a different material component that must be included when casting the spell, as shown on Table 4-1: Contact Entity on page 112. Some of these components are expensive or might require quests to acquire. Contacting certain types of creatures makes the spell chaotic, evil, or both, as indicated on the table.</p>",
    "spellDuration": "instantaneous",
    "spellEffect": "",
    "spellArea": "",
    "showInQuickbar": false,
    "spellPoints": {
      "cost": "1 + @sl"
    },
    "domain": false,
    "slotCost": 1
  },
  "flags": {},
  "img": "systems/pf1/icons/misc/magic-swirl.png",
  "effects": []
}