{
  "_id": "yjuvcb803ozfosf8",
  "name": "Coward's Lament",
  "permission": {
    "default": 0
  },
  "type": "spell",
  "data": {
    "description": {
      "value": "<div class=\"spell-description\">\n  <p>\n    <strong>School</strong>&nbsp;enchantment&nbsp;(compulsion)&nbsp;[mind-affecting];\n    <strong>Level</strong>&nbsp;inquisitor 4;\n    \n    \n    \n    \n  </p>\n  <p>\n    <strong>Casting Time</strong>&nbsp;1 standard action<br>\n    <strong>Components</strong>&nbsp;V, S, DF<br>\n  </p>\n  <p>\n    <strong>Range</strong>&nbsp;close (25 ft. + 5 ft./2 levels)<br>\n    \n    <strong>Targets</strong>&nbsp;one living creature<br>\n    \n    <strong>Duration</strong>&nbsp;1 round/level (D)<br>\n    <strong>Saving Throw</strong>&nbsp;Will partial;&nbsp;<strong>Spell Resistance</strong>&nbsp;yes<br>\n  </p>\n  <h2>Description</h2>\n  <p>You compel an opponent to face you in combat, or suffer for its cowardice. Each round that the target fails to attack you in melee, it receives a cumulative -1 penalty to its Armor Class, attack rolls, and saving throws (maximum penalty -5). Each round at the end of its turn, the target may attempt a Will saving throw to prevent the penalties from increasing for that round. All penalties reset to zero when the target attacks you in melee, but increase again if it stops attacking. If the target is prevented from attacking you by physical restraint, magic, or impassable terrain, the penalties do not increase. If you move away from the target, the spell ends.</p>\n</div>\n",
      "chat": "",
      "unidentified": ""
    },
    "tags": [],
    "activation": {
      "cost": 1,
      "type": "standard"
    },
    "unchainedAction": {
      "activation": {
        "cost": 2,
        "type": "action"
      }
    },
    "duration": {
      "value": null,
      "units": ""
    },
    "target": {
      "value": "one living creature"
    },
    "range": {
      "value": null,
      "units": "close",
      "maxIncrements": 1,
      "minValue": null,
      "minUnits": ""
    },
    "uses": {
      "value": 0,
      "max": 0,
      "per": "",
      "autoDeductCharges": true,
      "autoDeductChargesCost": "1"
    },
    "measureTemplate": {
      "type": "",
      "size": "0",
      "overrideColor": false,
      "customColor": "",
      "overrideTexture": false,
      "customTexture": ""
    },
    "attackName": "",
    "actionType": "spellsave",
    "attackBonus": "",
    "critConfirmBonus": "",
    "damage": {
      "parts": [],
      "critParts": [],
      "nonCritParts": []
    },
    "attackParts": [],
    "formula": "",
    "ability": {
      "attack": "",
      "damage": "",
      "damageMult": 1,
      "critRange": 20,
      "critMult": 2
    },
    "save": {
      "dc": "0",
      "type": "will",
      "description": "Will partial"
    },
    "effectNotes": "",
    "attackNotes": "",
    "soundEffect": "",
    "links": {
      "children": []
    },
    "learnedAt": {
      "class": [
        [
          "inquisitor",
          4
        ]
      ],
      "domain": [],
      "subDomain": [],
      "elementalSchool": [],
      "bloodline": []
    },
    "level": 4,
    "clOffset": 0,
    "slOffset": 0,
    "school": "enc",
    "subschool": "compulsion",
    "types": "mind-affecting",
    "nonlethal": false,
    "conditionals": [],
    "components": {
      "value": "",
      "verbal": true,
      "somatic": true,
      "material": false,
      "focus": false,
      "divineFocus": 1
    },
    "castTime": "",
    "materials": {
      "value": "",
      "focus": "",
      "gpValue": 0
    },
    "spellbook": "primary",
    "preparation": {
      "preparedAmount": 0,
      "maxAmount": 0,
      "autoDeductCharges": true,
      "spontaneousPrepared": true,
      "mode": "prepared"
    },
    "atWill": false,
    "sr": true,
    "shortDescription": "<p>You compel an opponent to face you in combat, or suffer for its cowardice. Each round that the target fails to attack you in melee, it receives a cumulative -1 penalty to its Armor Class, attack rolls, and saving throws (maximum penalty -5). Each round at the end of its turn, the target may attempt a Will saving throw to prevent the penalties from increasing for that round. All penalties reset to zero when the target attacks you in melee, but increase again if it stops attacking. If the target is prevented from attacking you by physical restraint, magic, or impassable terrain, the penalties do not increase. If you move away from the target, the spell ends.</p>",
    "spellDuration": "1 round/level (D)",
    "spellEffect": "",
    "spellArea": "",
    "showInQuickbar": false,
    "spellPoints": {
      "cost": "1 + @sl"
    },
    "domain": false,
    "slotCost": 1
  },
  "flags": {},
  "img": "systems/pf1/icons/misc/magic-swirl.png",
  "effects": []
}