{
  "_id": "ymtxb4jujoosabrh",
  "name": "Create Treasure Map",
  "permission": {
    "default": 0
  },
  "type": "spell",
  "data": {
    "description": {
      "value": "<div class=\"spell-description\">\n  <p>\n    <strong>School</strong>&nbsp;divination;\n    <strong>Level</strong>&nbsp;bard 2, druid 3, hunter 2, medium 2, occultist 2, psychic 2, ranger 2, sorcerer/wizard 2;\n    \n    \n    \n    \n  </p>\n  <p>\n    <strong>Casting Time</strong>&nbsp;1 hour<br>\n    <strong>Components</strong>&nbsp;V, S, M (powdered metal and rare inks worth 100 gp)<br>\n  </p>\n  <p>\n    <strong>Range</strong>&nbsp;touch<br>\n    \n    <strong>Targets</strong>&nbsp;one dead creature<br>\n    \n    <strong>Duration</strong>&nbsp;instantaneous<br>\n      <strong>Saving Throw</strong>&nbsp;none;&nbsp;\n      <strong>Spell Resistance</strong>&nbsp;no<br>\n  </p>\n  <h2>Description</h2>\n  <p>You can take a piece from a dead creature's body and use it to create a map that reveals the locations of any valuables that creature knew about while still alive. You must cut this piece off yourself and the creature cannot have died more than 24 hours prior to the casting of this spell. You cannot cast this spell on a creature without a physical body, and the portion you remove must have a fairly level surface such as a piece of hide, carapace, or skin. The map you create is accurate to the best knowledge the creature had at the time of its death. It reveals the location of one source of treasure for every three caster levels you possess.</p><p>Any inaccuracies or faulty information held by the creature are represented on the map as well. Similarly, the map cannot account for any changes that occur after the creature's death.</p><p>You must choose the scale of the map when creating it, opting between nearby (e.g., one or two dungeon levels), local (e.g., a valley or community), or broad (e.g., a country or larger). The map reveals the locations of what the creature deemed most valuable within its area. Depending on the creature, the map might reveal a source of tasty food, suitable mates, or even your own treasure vault.</p>\n</div>\n",
      "chat": "",
      "unidentified": ""
    },
    "tags": [],
    "activation": {
      "cost": 1,
      "type": "hour"
    },
    "unchainedAction": {
      "activation": {
        "cost": 1,
        "type": "hour"
      }
    },
    "duration": {
      "value": null,
      "units": ""
    },
    "target": {
      "value": "one dead creature"
    },
    "range": {
      "value": null,
      "units": "touch",
      "maxIncrements": 1,
      "minValue": null,
      "minUnits": ""
    },
    "uses": {
      "value": 0,
      "max": 0,
      "per": "",
      "autoDeductCharges": true,
      "autoDeductChargesCost": "1"
    },
    "measureTemplate": {
      "type": "",
      "size": "0",
      "overrideColor": false,
      "customColor": "",
      "overrideTexture": false,
      "customTexture": ""
    },
    "attackName": "",
    "actionType": "",
    "attackBonus": "",
    "critConfirmBonus": "",
    "damage": {
      "parts": [],
      "critParts": [],
      "nonCritParts": []
    },
    "attackParts": [],
    "formula": "",
    "ability": {
      "attack": "",
      "damage": "",
      "damageMult": 1,
      "critRange": 20,
      "critMult": 2
    },
    "save": {
      "dc": "0",
      "type": "",
      "description": ""
    },
    "effectNotes": "",
    "attackNotes": "",
    "soundEffect": "",
    "links": {
      "children": []
    },
    "learnedAt": {
      "class": [
        [
          "sorcerer/wizard",
          2
        ],
        [
          "druid",
          3
        ],
        [
          "ranger",
          2
        ],
        [
          "bard",
          2
        ],
        [
          "psychic",
          2
        ],
        [
          "medium",
          2
        ],
        [
          "occultist",
          2
        ],
        [
          "hunter",
          2
        ]
      ],
      "domain": [],
      "subDomain": [],
      "elementalSchool": [],
      "bloodline": []
    },
    "level": 2,
    "clOffset": 0,
    "slOffset": 0,
    "school": "div",
    "subschool": "",
    "types": "",
    "nonlethal": false,
    "conditionals": [],
    "components": {
      "value": "",
      "verbal": true,
      "somatic": true,
      "material": true,
      "focus": false,
      "divineFocus": 0
    },
    "castTime": "",
    "materials": {
      "value": "powdered metal and rare inks worth 100 gp",
      "focus": "",
      "gpValue": 100
    },
    "spellbook": "",
    "preparation": {
      "preparedAmount": 0,
      "maxAmount": 0,
      "autoDeductCharges": false,
      "spontaneousPrepared": false,
      "mode": "prepared"
    },
    "atWill": false,
    "sr": false,
    "shortDescription": "<p>You can take a piece from a dead creature's body and use it to create a map that reveals the locations of any valuables that creature knew about while still alive. You must cut this piece off yourself and the creature cannot have died more than 24 hours prior to the casting of this spell. You cannot cast this spell on a creature without a physical body, and the portion you remove must have a fairly level surface such as a piece of hide, carapace, or skin. The map you create is accurate to the best knowledge the creature had at the time of its death. It reveals the location of one source of treasure for every three caster levels you possess.</p><p>Any inaccuracies or faulty information held by the creature are represented on the map as well. Similarly, the map cannot account for any changes that occur after the creature's death.</p><p>You must choose the scale of the map when creating it, opting between nearby (e.g., one or two dungeon levels), local (e.g., a valley or community), or broad (e.g., a country or larger). The map reveals the locations of what the creature deemed most valuable within its area. Depending on the creature, the map might reveal a source of tasty food, suitable mates, or even your own treasure vault.</p>",
    "spellDuration": "instantaneous",
    "spellEffect": "",
    "spellArea": "",
    "showInQuickbar": false,
    "spellPoints": {
      "cost": ""
    },
    "domain": false,
    "slotCost": 1
  },
  "flags": {},
  "img": "systems/pf1/icons/misc/magic-swirl.png",
  "effects": []
}