{
  "_id": "8w67l6dzzsi6oz5f",
  "name": "Create Pit",
  "permission": {
    "default": 0
  },
  "type": "spell",
  "data": {
    "description": {
      "value": "<div class=\"spell-description\">\n  <p>\n    <strong>School</strong>&nbsp;conjuration&nbsp;(creation);\n    <strong>Level</strong>&nbsp;sorcerer/wizard 2, summoner 2, unchained Summoner 2;\n    \n    <strong>Subdomain</strong>&nbsp;Caves 2;\n    \n    <strong>Bloodline</strong>&nbsp;Kobold 2;\n  </p>\n  <p>\n    <strong>Casting Time</strong>&nbsp;1 standard action<br>\n    <strong>Components</strong>&nbsp;V, S, F (miniature shovel costing 10 gp)<br>\n  </p>\n  <p>\n    <strong>Range</strong>&nbsp;medium (100 ft. + 10 ft./level)<br>\n    \n    \n    <strong>Effect</strong>&nbsp;10-ft.-by-10-ft. hole, 10 ft. deep/2 levels<br>\n    <strong>Duration</strong>&nbsp;1 round + 1 round/level<br>\n    <strong>Saving Throw</strong>&nbsp;Reflex negates;&nbsp;<strong>Spell Resistance</strong>&nbsp;no<br>\n  </p>\n  <h2>Description</h2>\n  <p>You create a 10-foot-by-10-foot extradimensional hole with a depth of 10 feet per two caster levels (maximum 30 feet).</p><p>You must create the pit on a horizontal surface of sufficient size. Since it extends into another dimension, the pit has no weight and does not otherwise displace the original underlying material. You can create the pit in the deck of a ship as easily as in a dungeon floor or the ground of a forest.</p><p>Any creature standing in the area where you first conjured the pit must make a Reflex saving throw to avoid falling into it.</p><p>In addition, the edges of the pit are sloped, and any creature ending its turn on a square adjacent to the pit must make a Reflex saving throw with a +2 bonus to avoid falling into it.</p><p>Creatures subjected to an effect intended to push them into the pit (such as bull rush) do not get a saving throw to avoid falling in if they are affected by the pushing effect.</p><p>Creatures who fall into the pit take falling damage as normal.</p><p>The pit's coarse stone walls have a Climb DC of 25. When the duration of the spell ends, creatures within the hole rise up with the bottom of the pit until they are standing on the surface over the course of a single round.</p>\n</div>\n",
      "chat": "",
      "unidentified": ""
    },
    "tags": [],
    "activation": {
      "cost": 1,
      "type": "standard"
    },
    "unchainedAction": {
      "activation": {
        "cost": 2,
        "type": "action"
      }
    },
    "duration": {
      "value": null,
      "units": ""
    },
    "target": {
      "value": ""
    },
    "range": {
      "value": null,
      "units": "medium",
      "maxIncrements": 1,
      "minValue": null,
      "minUnits": ""
    },
    "uses": {
      "value": 0,
      "max": 0,
      "per": "",
      "autoDeductCharges": true,
      "autoDeductChargesCost": "1"
    },
    "measureTemplate": {
      "type": "",
      "size": "0",
      "overrideColor": false,
      "customColor": "",
      "overrideTexture": false,
      "customTexture": ""
    },
    "attackName": "",
    "actionType": "spellsave",
    "attackBonus": "",
    "critConfirmBonus": "",
    "damage": {
      "parts": [],
      "critParts": [],
      "nonCritParts": []
    },
    "attackParts": [],
    "formula": "",
    "ability": {
      "attack": "",
      "damage": "",
      "damageMult": 1,
      "critRange": 20,
      "critMult": 2
    },
    "save": {
      "dc": "0",
      "type": "ref",
      "description": "Reflex negates"
    },
    "effectNotes": "",
    "attackNotes": "",
    "soundEffect": "",
    "links": {
      "children": []
    },
    "learnedAt": {
      "class": [
        [
          "sorcerer/wizard",
          2
        ],
        [
          "summoner",
          2
        ],
        [
          "unchained Summoner",
          2
        ]
      ],
      "domain": [],
      "subDomain": [
        [
          "Caves",
          2
        ]
      ],
      "elementalSchool": [],
      "bloodline": [
        [
          "Kobold",
          2
        ]
      ]
    },
    "level": 2,
    "clOffset": 0,
    "slOffset": 0,
    "school": "con",
    "subschool": "creation",
    "types": "",
    "nonlethal": false,
    "conditionals": [],
    "components": {
      "value": "",
      "verbal": true,
      "somatic": true,
      "material": false,
      "focus": true,
      "divineFocus": 0
    },
    "castTime": "",
    "materials": {
      "value": "",
      "focus": "miniature shovel costing 10 gp",
      "gpValue": 0
    },
    "spellbook": "primary",
    "preparation": {
      "preparedAmount": 0,
      "maxAmount": 0,
      "autoDeductCharges": true,
      "spontaneousPrepared": true,
      "mode": "prepared"
    },
    "atWill": false,
    "sr": false,
    "shortDescription": "<p>You create a 10-foot-by-10-foot extradimensional hole with a depth of 10 feet per two caster levels (maximum 30 feet).</p><p>You must create the pit on a horizontal surface of sufficient size. Since it extends into another dimension, the pit has no weight and does not otherwise displace the original underlying material. You can create the pit in the deck of a ship as easily as in a dungeon floor or the ground of a forest.</p><p>Any creature standing in the area where you first conjured the pit must make a Reflex saving throw to avoid falling into it.</p><p>In addition, the edges of the pit are sloped, and any creature ending its turn on a square adjacent to the pit must make a Reflex saving throw with a +2 bonus to avoid falling into it.</p><p>Creatures subjected to an effect intended to push them into the pit (such as bull rush) do not get a saving throw to avoid falling in if they are affected by the pushing effect.</p><p>Creatures who fall into the pit take falling damage as normal.</p><p>The pit's coarse stone walls have a Climb DC of 25. When the duration of the spell ends, creatures within the hole rise up with the bottom of the pit until they are standing on the surface over the course of a single round.</p>",
    "spellDuration": "1 round + 1 round/level",
    "spellEffect": "10-ft.-by-10-ft. hole, 10 ft. deep/2 levels",
    "spellArea": "",
    "showInQuickbar": false,
    "spellPoints": {
      "cost": "1 + @sl"
    },
    "domain": false,
    "slotCost": 1
  },
  "flags": {},
  "img": "systems/pf1/icons/misc/magic-swirl.png",
  "effects": []
}