{
  "_id": "jaxzdishpxpvxu3t",
  "name": "Dazzling Blade",
  "permission": {
    "default": 0
  },
  "type": "spell",
  "data": {
    "description": {
      "value": "<div class=\"spell-description\">\n  <p>\n    <strong>School</strong>&nbsp;illusion&nbsp;(pattern);\n    <strong>Level</strong>&nbsp;bard 1, sorcerer/wizard 1;\n    \n    \n    \n    \n  </p>\n  <p>\n    <strong>Casting Time</strong>&nbsp;1 swift action<br>\n    <strong>Components</strong>&nbsp;V, S<br>\n  </p>\n  <p>\n    <strong>Range</strong>&nbsp;touch<br>\n    \n    <strong>Targets</strong>&nbsp;one metal weapon<br>\n    \n    <strong>Duration</strong>&nbsp;1 minute/level<br>\n    <strong>Saving Throw</strong>&nbsp;Will negates (see text);&nbsp;<strong>Spell Resistance</strong>&nbsp;yes<br>\n  </p>\n  <h2>Description</h2>\n  <p><i>Dazzling blade</i> makes a weapon appear dazzlingly shiny, as if crafted from pure silver and heavily polished. In combat, the flashing movements of a <i>dazzling blade</i> become almost hypnotic. The wielder of a weapon under the effects of <i>dazzling blade</i> gains a +1 competence bonus on all Bluff checks made to feint in combat. The wielder also gains a +1 competence bonus on all CMB checks made to disarm a foe, and a +1 competence bonus to his CMD against disarm attempts made against the weapon bearing the <i>dazzling blade</i> effect. This bonus increases by +1 for every 3 caster levels, to a maximum bonus of +5 at 12th level.</p><p>The wielder of a <i>dazzling blade</i> can discharge the spell into a blinding burst of silvery light as a free action. The wielder selects an adjacent opponent as the focal point of this burst of light-that creature must make a Will save to avoid being blinded for 1 round (with a successful save, the creature is instead dazzled for 1 round).</p><p>Despite its shiny appearance, a <i>dazzling blade</i> grants no extra benefit against creatures that are vulnerable to silver.</p>\n</div>\n",
      "chat": "",
      "unidentified": ""
    },
    "tags": [],
    "activation": {
      "cost": 1,
      "type": "swift"
    },
    "unchainedAction": {
      "activation": {
        "cost": 1,
        "type": "action"
      }
    },
    "duration": {
      "value": null,
      "units": ""
    },
    "target": {
      "value": "one metal weapon"
    },
    "range": {
      "value": null,
      "units": "touch",
      "maxIncrements": 1,
      "minValue": null,
      "minUnits": ""
    },
    "uses": {
      "value": 0,
      "max": 0,
      "per": "",
      "autoDeductCharges": true,
      "autoDeductChargesCost": "1"
    },
    "measureTemplate": {
      "type": "",
      "size": "0",
      "overrideColor": false,
      "customColor": "",
      "overrideTexture": false,
      "customTexture": ""
    },
    "attackName": "",
    "actionType": "spellsave",
    "attackBonus": "",
    "critConfirmBonus": "",
    "damage": {
      "parts": [],
      "critParts": [],
      "nonCritParts": []
    },
    "attackParts": [],
    "formula": "",
    "ability": {
      "attack": "",
      "damage": "",
      "damageMult": 1,
      "critRange": 20,
      "critMult": 2
    },
    "save": {
      "dc": "0",
      "type": "will",
      "description": "Will negates (see text)"
    },
    "effectNotes": "",
    "attackNotes": "",
    "soundEffect": "",
    "links": {
      "children": []
    },
    "learnedAt": {
      "class": [
        [
          "sorcerer/wizard",
          1
        ],
        [
          "bard",
          1
        ]
      ],
      "domain": [],
      "subDomain": [],
      "elementalSchool": [],
      "bloodline": []
    },
    "level": 1,
    "clOffset": 0,
    "slOffset": 0,
    "school": "ill",
    "subschool": "pattern",
    "types": "",
    "nonlethal": false,
    "conditionals": [],
    "components": {
      "value": "",
      "verbal": true,
      "somatic": true,
      "material": false,
      "focus": false,
      "divineFocus": 0
    },
    "castTime": "",
    "materials": {
      "value": "",
      "focus": "",
      "gpValue": 0
    },
    "spellbook": "primary",
    "preparation": {
      "preparedAmount": 0,
      "maxAmount": 0,
      "autoDeductCharges": true,
      "spontaneousPrepared": true,
      "mode": "prepared"
    },
    "atWill": false,
    "sr": true,
    "shortDescription": "<p><i>Dazzling blade</i> makes a weapon appear dazzlingly shiny, as if crafted from pure silver and heavily polished. In combat, the flashing movements of a <i>dazzling blade</i> become almost hypnotic. The wielder of a weapon under the effects of <i>dazzling blade</i> gains a +1 competence bonus on all Bluff checks made to feint in combat. The wielder also gains a +1 competence bonus on all CMB checks made to disarm a foe, and a +1 competence bonus to his CMD against disarm attempts made against the weapon bearing the <i>dazzling blade</i> effect. This bonus increases by +1 for every 3 caster levels, to a maximum bonus of +5 at 12th level.</p><p>The wielder of a <i>dazzling blade</i> can discharge the spell into a blinding burst of silvery light as a free action. The wielder selects an adjacent opponent as the focal point of this burst of light-that creature must make a Will save to avoid being blinded for 1 round (with a successful save, the creature is instead dazzled for 1 round).</p><p>Despite its shiny appearance, a <i>dazzling blade</i> grants no extra benefit against creatures that are vulnerable to silver.</p>",
    "spellDuration": "1 minute/level",
    "spellEffect": "",
    "spellArea": "",
    "showInQuickbar": false,
    "spellPoints": {
      "cost": "1 + @sl"
    },
    "domain": false,
    "slotCost": 1
  },
  "flags": {},
  "img": "systems/pf1/icons/misc/magic-swirl.png",
  "effects": []
}