{
  "_id": "cm3l4h4mld9j8lar",
  "name": "Delayed Blast Fireball",
  "permission": {
    "default": 0
  },
  "type": "spell",
  "data": {
    "description": {
      "value": "<div class=\"spell-description\">\n  <p>\n    <strong>School</strong>&nbsp;evocation&nbsp;[fire];\n    <strong>Level</strong>&nbsp;sorcerer/wizard 7;\n    \n    <strong>Subdomain</strong>&nbsp;Arson 7;\n    \n    <strong>Bloodline</strong>&nbsp;Kobold 7, Orc 7;\n  </p>\n  <p>\n    <strong>Casting Time</strong>&nbsp;1 standard action<br>\n    <strong>Components</strong>&nbsp;V, S, M (a ball of bat guano and sulfur)<br>\n  </p>\n  <p>\n    <strong>Range</strong>&nbsp;long (400 ft. + 40 ft./level)<br>\n    <strong>Area</strong>&nbsp;20-ft.-radius spread<br>\n    \n    \n    <strong>Duration</strong>&nbsp;5 rounds or less; see text<br>\n    <strong>Saving Throw</strong>&nbsp;Reflex half;&nbsp;<strong>Spell Resistance</strong>&nbsp;yes<br>\n  </p>\n  <h2>Description</h2>\n  <p>This spell functions like <i>fireball</i>, except that it is more powerful and can detonate up to 5 rounds after the spell is cast. The burst of flame deals 1d6 points of fire damage per caster level (maximum 20d6). The glowing bead created by <i>delayed blast fireball</i> can detonate immediately if you desire, or you can choose to delay the burst for as many as 5 rounds. You select the amount of delay upon completing the spell, and that time cannot change once it has been set unless someone touches the bead. If you choose a delay, the glowing bead sits at its destination until it detonates. A creature can pick up and hurl the bead as a thrown weapon (range increment 10 feet). If a creature handles and moves the bead within 1 round of its detonation, there is a 25% chance that the bead detonates while being handled.</p>\n</div>\n",
      "chat": "",
      "unidentified": ""
    },
    "tags": [],
    "activation": {
      "cost": 1,
      "type": "standard"
    },
    "unchainedAction": {
      "activation": {
        "cost": 2,
        "type": "action"
      }
    },
    "duration": {
      "value": null,
      "units": ""
    },
    "target": {
      "value": ""
    },
    "range": {
      "value": null,
      "units": "long",
      "maxIncrements": 1,
      "minValue": null,
      "minUnits": ""
    },
    "uses": {
      "value": 0,
      "max": 0,
      "per": "",
      "autoDeductCharges": true,
      "autoDeductChargesCost": "1"
    },
    "measureTemplate": {
      "type": "circle",
      "size": "20",
      "overrideColor": false,
      "customColor": "",
      "overrideTexture": false,
      "customTexture": ""
    },
    "attackName": "",
    "actionType": "spellsave",
    "attackBonus": "",
    "critConfirmBonus": "",
    "damage": {
      "parts": [
        [
          "(min(20, @cl))d6",
          "Fire"
        ]
      ],
      "critParts": [],
      "nonCritParts": []
    },
    "attackParts": [],
    "formula": "",
    "ability": {
      "attack": "",
      "damage": "",
      "damageMult": 1,
      "critRange": 20,
      "critMult": 2
    },
    "save": {
      "dc": "0",
      "type": "ref",
      "description": "Reflex half"
    },
    "effectNotes": "",
    "attackNotes": "",
    "soundEffect": "",
    "links": {
      "children": []
    },
    "learnedAt": {
      "class": [
        [
          "sorcerer/wizard",
          7
        ]
      ],
      "domain": [],
      "subDomain": [
        [
          "Arson",
          7
        ]
      ],
      "elementalSchool": [],
      "bloodline": [
        [
          "Orc",
          7
        ],
        [
          "Kobold",
          7
        ]
      ]
    },
    "level": 7,
    "clOffset": 0,
    "slOffset": 0,
    "school": "evo",
    "subschool": "",
    "types": "fire",
    "nonlethal": false,
    "conditionals": [],
    "components": {
      "value": "",
      "verbal": true,
      "somatic": true,
      "material": true,
      "focus": false,
      "divineFocus": 0
    },
    "castTime": "",
    "materials": {
      "value": "a ball of bat guano and sulfur",
      "focus": "",
      "gpValue": 0
    },
    "spellbook": "primary",
    "preparation": {
      "preparedAmount": 0,
      "maxAmount": 0,
      "autoDeductCharges": true,
      "spontaneousPrepared": true,
      "mode": "prepared"
    },
    "atWill": false,
    "sr": true,
    "shortDescription": "<p>This spell functions like <i>fireball</i>, except that it is more powerful and can detonate up to 5 rounds after the spell is cast. The burst of flame deals 1d6 points of fire damage per caster level (maximum 20d6). The glowing bead created by <i>delayed blast fireball</i> can detonate immediately if you desire, or you can choose to delay the burst for as many as 5 rounds. You select the amount of delay upon completing the spell, and that time cannot change once it has been set unless someone touches the bead. If you choose a delay, the glowing bead sits at its destination until it detonates. A creature can pick up and hurl the bead as a thrown weapon (range increment 10 feet). If a creature handles and moves the bead within 1 round of its detonation, there is a 25% chance that the bead detonates while being handled.</p>",
    "spellDuration": "5 rounds or less; see text",
    "spellEffect": "",
    "spellArea": "20-ft.-radius spread",
    "showInQuickbar": false,
    "spellPoints": {
      "cost": "1 + @sl"
    },
    "domain": false,
    "slotCost": 1
  },
  "flags": {},
  "img": "systems/pf1/icons/misc/magic-swirl.png",
  "effects": []
}