{
  "_id": "ffsr22oaciurke4e",
  "name": "Desecrate",
  "permission": {
    "default": 0
  },
  "type": "spell",
  "data": {
    "description": {
      "value": "<div class=\"spell-description\">\n  <p>\n    <strong>School</strong>&nbsp;evocation&nbsp;[evil];\n    <strong>Level</strong>&nbsp;antipaladin 2, cleric/oracle 2, inquisitor 2;\n    \n    \n    \n    \n  </p>\n  <p>\n    <strong>Casting Time</strong>&nbsp;1 standard action<br>\n    <strong>Components</strong>&nbsp;V, S, M (a vial of unholy water and 25 gp worth (5 pounds) of silver dust, all of which must be sprinkled around the area), DF<br>\n  </p>\n  <p>\n    <strong>Range</strong>&nbsp;close (25 ft. + 5 ft./2 levels)<br>\n    <strong>Area</strong>&nbsp;20-ft.-radius emanation<br>\n    \n    \n    <strong>Duration</strong>&nbsp;2 hours/level<br>\n      <strong>Saving Throw</strong>&nbsp;none;&nbsp;\n      <strong>Spell Resistance</strong>&nbsp;yes<br>\n  </p>\n  <h2>Description</h2>\n  <p>This spell imbues an area with negative energy. The DC to resist negative channeled energy within this area gains a +3 profane bonus. Every undead creature entering a <i><i>desecrate</i>d</i> area gains a +1 profane bonus on all attack rolls, damage rolls, and saving throws.</p><p>An undead creature created within or summoned into such an area gains +1 hit points per HD. If the <i><i>desecrate</i>d</i> area contains an altar, shrine, or other permanent fixture dedicated to your deity or aligned higher power, the modifiers given above are doubled (+6 profane bonus to negative channeled energy DCs, +2 profane bonus and +2 hit points per HD for undead created in the area).</p><p>Furthermore, anyone who casts <i>animate dead</i> within this area may create as many as double the normal amount of undead (that is, 4 HD per caster level rather than 2 HD per caster level).</p><p>If the area contains an altar, shrine, or other permanent fixture of a deity, pantheon, or higher power other than your patron, the <i>desecrate</i> spell instead curses the area, cutting off its connection with the associated deity or power. This secondary function, if used, does not also grant the bonuses and penalties relating to undead, as given above.</p><p><i>Desecrate</i> counters and dispels <i>consecrate</i>.</p>\n</div>\n",
      "chat": "",
      "unidentified": ""
    },
    "tags": [],
    "activation": {
      "cost": 1,
      "type": "standard"
    },
    "unchainedAction": {
      "activation": {
        "cost": 2,
        "type": "action"
      }
    },
    "duration": {
      "value": null,
      "units": ""
    },
    "target": {
      "value": ""
    },
    "range": {
      "value": null,
      "units": "close",
      "maxIncrements": 1,
      "minValue": null,
      "minUnits": ""
    },
    "uses": {
      "value": 0,
      "max": 0,
      "per": "",
      "autoDeductCharges": true,
      "autoDeductChargesCost": "1"
    },
    "measureTemplate": {
      "type": "",
      "size": "0",
      "overrideColor": false,
      "customColor": "",
      "overrideTexture": false,
      "customTexture": ""
    },
    "attackName": "",
    "actionType": "",
    "attackBonus": "",
    "critConfirmBonus": "",
    "damage": {
      "parts": [],
      "critParts": [],
      "nonCritParts": []
    },
    "attackParts": [],
    "formula": "",
    "ability": {
      "attack": "",
      "damage": "",
      "damageMult": 1,
      "critRange": 20,
      "critMult": 2
    },
    "save": {
      "dc": "0",
      "type": "",
      "description": ""
    },
    "effectNotes": "",
    "attackNotes": "",
    "soundEffect": "",
    "links": {
      "children": []
    },
    "learnedAt": {
      "class": [
        [
          "cleric/oracle",
          2
        ],
        [
          "inquisitor",
          2
        ],
        [
          "antipaladin",
          2
        ]
      ],
      "domain": [],
      "subDomain": [],
      "elementalSchool": [],
      "bloodline": []
    },
    "level": 2,
    "clOffset": 0,
    "slOffset": 0,
    "school": "evo",
    "subschool": "",
    "types": "evil",
    "nonlethal": false,
    "conditionals": [],
    "components": {
      "value": "",
      "verbal": true,
      "somatic": true,
      "material": true,
      "focus": false,
      "divineFocus": 1
    },
    "castTime": "",
    "materials": {
      "value": "a vial of unholy water and 25 gp worth (5 pounds) of silver dust, all of which must be sprinkled around the area",
      "focus": "",
      "gpValue": 50
    },
    "spellbook": "",
    "preparation": {
      "preparedAmount": 0,
      "maxAmount": 0,
      "autoDeductCharges": false,
      "spontaneousPrepared": false,
      "mode": "prepared"
    },
    "atWill": false,
    "sr": true,
    "shortDescription": "<p>This spell imbues an area with negative energy. The DC to resist negative channeled energy within this area gains a +3 profane bonus. Every undead creature entering a <i><i>desecrate</i>d</i> area gains a +1 profane bonus on all attack rolls, damage rolls, and saving throws.</p><p>An undead creature created within or summoned into such an area gains +1 hit points per HD. If the <i><i>desecrate</i>d</i> area contains an altar, shrine, or other permanent fixture dedicated to your deity or aligned higher power, the modifiers given above are doubled (+6 profane bonus to negative channeled energy DCs, +2 profane bonus and +2 hit points per HD for undead created in the area).</p><p>Furthermore, anyone who casts <i>animate dead</i> within this area may create as many as double the normal amount of undead (that is, 4 HD per caster level rather than 2 HD per caster level).</p><p>If the area contains an altar, shrine, or other permanent fixture of a deity, pantheon, or higher power other than your patron, the <i>desecrate</i> spell instead curses the area, cutting off its connection with the associated deity or power. This secondary function, if used, does not also grant the bonuses and penalties relating to undead, as given above.</p><p><i>Desecrate</i> counters and dispels <i>consecrate</i>.</p>",
    "spellDuration": "2 hours/level",
    "spellEffect": "",
    "spellArea": "20-ft.-radius emanation",
    "showInQuickbar": false,
    "spellPoints": {
      "cost": ""
    },
    "domain": false,
    "slotCost": 1
  },
  "flags": {},
  "img": "systems/pf1/icons/misc/magic-swirl.png",
  "effects": []
}