{
  "_id": "f868pfvqa6ksg84w",
  "name": "Detect Mindscape",
  "permission": {
    "default": 0
  },
  "type": "spell",
  "data": {
    "description": {
      "value": "<div class=\"spell-description\">\n  <p>\n    <strong>School</strong>&nbsp;divination;\n    <strong>Level</strong>&nbsp;medium 2, mesmerist 2, psychic 2, sorcerer/wizard 3;\n    \n    \n    \n    \n  </p>\n  <p>\n    <strong>Casting Time</strong>&nbsp;1 standard action<br>\n    <strong>Components</strong>&nbsp;V, S<br>\n  </p>\n  <p>\n    <strong>Range</strong>&nbsp;60 feet<br>\n    <strong>Area</strong>&nbsp;cone-shaped emanation<br>\n    \n    \n    <strong>Duration</strong>&nbsp;concentration, up to 1 minute/level (D)<br>\n    <strong>Saving Throw</strong>&nbsp;Will negates; see text;&nbsp;<strong>Spell Resistance</strong>&nbsp;no<br>\n  </p>\n  <h2>Description</h2>\n  <p>This spell functions similarly to <i>detect thoughts</i>, allowing you to sense when one or more creatures' consciousnesses are  inside a mindscape (see page 234). The amount of information revealed depends on how long you study a particular subject.  <br><b>First Round</b>: You sense the presence or absence of a mindscape. At least one of the creatures inside the mindscape must be within the cone-shaped area for you to detect the mindscape.  <br><b>Second Round</b>: You sense the number of consciousnesses inside the mindscape. Not all of the creatures within the mindscape must be standing inside the cone-shaped area of the spell for you to count them; only one is required to get this reading. However, you can't determine the location of the creatures if you can't see the creatures themselves. You sense their presence only in an abstract way.  <br><b>Third Round</b>: You sense an image of what's taking place inside the mindscape. The creature controlling the mindscape can sense your efforts, and if it does not wish you to view the mindscape, it can prevent this viewing with a successful Will save. Otherwise, you perceive the visuals remotely, as if watching through a window. If a creature has disguised itself, you see only the creature's mental mask (not its true form).  Each round, you can turn to detect mindscapes in a new area. The spell can penetrate many barriers, but 1 foot of stone, 1 inch of common metal, a thin sheet of lead, or 3 feet of wood or dirt blocks it.  If you are within a mindscape when you cast this spell, you become aware you're in a mindscape. On the second round, you can still detect how many consciousnesses are inside, but you don't get the image of the mindscape in the third round.</p>\n</div>\n",
      "chat": "",
      "unidentified": ""
    },
    "tags": [],
    "activation": {
      "cost": 1,
      "type": "standard"
    },
    "unchainedAction": {
      "activation": {
        "cost": 2,
        "type": "action"
      }
    },
    "duration": {
      "value": null,
      "units": ""
    },
    "target": {
      "value": ""
    },
    "range": {
      "value": 60,
      "units": "ft",
      "maxIncrements": 1,
      "minValue": null,
      "minUnits": ""
    },
    "uses": {
      "value": 0,
      "max": 0,
      "per": "",
      "autoDeductCharges": true,
      "autoDeductChargesCost": "1"
    },
    "measureTemplate": {
      "type": "",
      "size": "0",
      "overrideColor": false,
      "customColor": "",
      "overrideTexture": false,
      "customTexture": ""
    },
    "attackName": "",
    "actionType": "spellsave",
    "attackBonus": "",
    "critConfirmBonus": "",
    "damage": {
      "parts": [],
      "critParts": [],
      "nonCritParts": []
    },
    "attackParts": [],
    "formula": "",
    "ability": {
      "attack": "",
      "damage": "",
      "damageMult": 1,
      "critRange": 20,
      "critMult": 2
    },
    "save": {
      "dc": "0",
      "type": "will",
      "description": "Will negates; see text"
    },
    "effectNotes": "",
    "attackNotes": "",
    "soundEffect": "",
    "links": {
      "children": []
    },
    "learnedAt": {
      "class": [
        [
          "sorcerer/wizard",
          3
        ],
        [
          "psychic",
          2
        ],
        [
          "medium",
          2
        ],
        [
          "mesmerist",
          2
        ]
      ],
      "domain": [],
      "subDomain": [],
      "elementalSchool": [],
      "bloodline": []
    },
    "level": 3,
    "clOffset": 0,
    "slOffset": 0,
    "school": "div",
    "subschool": "",
    "types": "",
    "nonlethal": false,
    "conditionals": [],
    "components": {
      "value": "",
      "verbal": true,
      "somatic": true,
      "material": false,
      "focus": false,
      "divineFocus": 0
    },
    "castTime": "",
    "materials": {
      "value": "",
      "focus": "",
      "gpValue": 0
    },
    "spellbook": "primary",
    "preparation": {
      "preparedAmount": 0,
      "maxAmount": 0,
      "autoDeductCharges": true,
      "spontaneousPrepared": true,
      "mode": "prepared"
    },
    "atWill": false,
    "sr": false,
    "shortDescription": "<p>This spell functions similarly to <i>detect thoughts</i>, allowing you to sense when one or more creatures' consciousnesses are  inside a mindscape (see page 234). The amount of information revealed depends on how long you study a particular subject.  <br><b>First Round</b>: You sense the presence or absence of a mindscape. At least one of the creatures inside the mindscape must be within the cone-shaped area for you to detect the mindscape.  <br><b>Second Round</b>: You sense the number of consciousnesses inside the mindscape. Not all of the creatures within the mindscape must be standing inside the cone-shaped area of the spell for you to count them; only one is required to get this reading. However, you can't determine the location of the creatures if you can't see the creatures themselves. You sense their presence only in an abstract way.  <br><b>Third Round</b>: You sense an image of what's taking place inside the mindscape. The creature controlling the mindscape can sense your efforts, and if it does not wish you to view the mindscape, it can prevent this viewing with a successful Will save. Otherwise, you perceive the visuals remotely, as if watching through a window. If a creature has disguised itself, you see only the creature's mental mask (not its true form).  Each round, you can turn to detect mindscapes in a new area. The spell can penetrate many barriers, but 1 foot of stone, 1 inch of common metal, a thin sheet of lead, or 3 feet of wood or dirt blocks it.  If you are within a mindscape when you cast this spell, you become aware you're in a mindscape. On the second round, you can still detect how many consciousnesses are inside, but you don't get the image of the mindscape in the third round.</p>",
    "spellDuration": "concentration, up to 1 minute/level (D)",
    "spellEffect": "",
    "spellArea": "cone-shaped emanation",
    "showInQuickbar": false,
    "spellPoints": {
      "cost": "1 + @sl"
    },
    "domain": false,
    "slotCost": 1
  },
  "flags": {},
  "img": "systems/pf1/icons/misc/magic-swirl.png",
  "effects": []
}