{
  "_id": "2p0gz8lgaowcojx1",
  "name": "Detonate",
  "permission": {
    "default": 0
  },
  "type": "spell",
  "data": {
    "description": {
      "value": "<div class=\"spell-description\">\n  <p>\n    <strong>School</strong>&nbsp;evocation&nbsp;[acid, cold, electricity, or fire];\n    <strong>Level</strong>&nbsp;alchemist 4, bloodrager 4, magus 4, sorcerer/wizard 4;\n    \n    \n    \n    \n  </p>\n  <p>\n    <strong>Casting Time</strong>&nbsp;1 standard action<br>\n    <strong>Components</strong>&nbsp;V, S, M (two vials; one containing acid and one containing an alkaline solution worth a total of 50 gp)<br>\n  </p>\n  <p>\n    <strong>Range</strong>&nbsp;30 feet<br>\n    <strong>Area</strong>&nbsp;30-ft.-radius spread centered on you<br>\n    \n    \n    <strong>Duration</strong>&nbsp;1 round, then instantaneous<br>\n      <strong>Saving Throw</strong>&nbsp;Reflex half;&nbsp;\n      <strong>Spell Resistance</strong>&nbsp;yes<br>\n  </p>\n  <h2>Description</h2>\n  <p>You flood yourself with a potent surge of elemental energy.</p><p>One round after completing the casting of the spell, the energy explodes from your body.</p><p>When this spell creates the explosion of energy, choose one of the following four energy types: acid, cold, electricity, or fire. The explosion inflicts 1d8 points of damage of that energy type per caster level (maximum 10d8) to all creatures and unattended objects within 15 feet, and half that amount to targets past 15 feet but within 30 feet. You automatically take half damage from the explosion, without a saving throw, but any other energy resistance or energy immunity effects you may have in place can prevent or lessen this overflow damage caused by the explosion.</p>\n</div>\n",
      "chat": "",
      "unidentified": ""
    },
    "tags": [],
    "activation": {
      "cost": 1,
      "type": "standard"
    },
    "unchainedAction": {
      "activation": {
        "cost": 2,
        "type": "action"
      }
    },
    "duration": {
      "value": null,
      "units": ""
    },
    "target": {
      "value": ""
    },
    "range": {
      "value": "30",
      "units": "ft",
      "maxIncrements": 1,
      "minValue": null,
      "minUnits": ""
    },
    "uses": {
      "value": 0,
      "max": 0,
      "per": "",
      "autoDeductCharges": true,
      "autoDeductChargesCost": "1"
    },
    "measureTemplate": {
      "type": "",
      "size": "0",
      "overrideColor": false,
      "customColor": "",
      "overrideTexture": false,
      "customTexture": ""
    },
    "attackName": "",
    "actionType": "spellsave",
    "attackBonus": "",
    "critConfirmBonus": "",
    "damage": {
      "parts": [],
      "critParts": [],
      "nonCritParts": []
    },
    "attackParts": [],
    "formula": "",
    "ability": {
      "attack": "",
      "damage": "",
      "damageMult": 1,
      "critRange": 20,
      "critMult": 2
    },
    "save": {
      "dc": "0",
      "type": "ref",
      "description": "Reflex half"
    },
    "effectNotes": "",
    "attackNotes": "",
    "soundEffect": "",
    "links": {
      "children": []
    },
    "learnedAt": {
      "class": [
        [
          "sorcerer/wizard",
          4
        ],
        [
          "alchemist",
          4
        ],
        [
          "magus",
          4
        ],
        [
          "bloodrager",
          4
        ]
      ],
      "domain": [],
      "subDomain": [],
      "elementalSchool": [],
      "bloodline": []
    },
    "level": 4,
    "clOffset": 0,
    "slOffset": 0,
    "school": "evo",
    "subschool": "",
    "types": "acid, cold, electricity, or fire",
    "nonlethal": false,
    "conditionals": [],
    "components": {
      "value": "",
      "verbal": true,
      "somatic": true,
      "material": true,
      "focus": false,
      "divineFocus": 0
    },
    "castTime": "",
    "materials": {
      "value": "two vials; one containing acid and one containing an alkaline solution worth a total of 50 gp",
      "focus": "",
      "gpValue": 50
    },
    "spellbook": "",
    "preparation": {
      "preparedAmount": 0,
      "maxAmount": 0,
      "autoDeductCharges": false,
      "spontaneousPrepared": false,
      "mode": "prepared"
    },
    "atWill": false,
    "sr": true,
    "shortDescription": "<p>You flood yourself with a potent surge of elemental energy.</p><p>One round after completing the casting of the spell, the energy explodes from your body.</p><p>When this spell creates the explosion of energy, choose one of the following four energy types: acid, cold, electricity, or fire. The explosion inflicts 1d8 points of damage of that energy type per caster level (maximum 10d8) to all creatures and unattended objects within 15 feet, and half that amount to targets past 15 feet but within 30 feet. You automatically take half damage from the explosion, without a saving throw, but any other energy resistance or energy immunity effects you may have in place can prevent or lessen this overflow damage caused by the explosion.</p>",
    "spellDuration": "1 round, then instantaneous",
    "spellEffect": "",
    "spellArea": "30-ft.-radius spread centered on you",
    "showInQuickbar": false,
    "spellPoints": {
      "cost": ""
    },
    "domain": false,
    "slotCost": 1
  },
  "flags": {},
  "img": "systems/pf1/icons/misc/magic-swirl.png",
  "effects": []
}