{
  "_id": "adlgxn32acdb8jdn",
  "name": "Dimensional Blade",
  "permission": {
    "default": 0
  },
  "type": "spell",
  "data": {
    "description": {
      "value": "<div class=\"spell-description\">\n  <p>\n    <strong>School</strong>&nbsp;transmutation;\n    <strong>Level</strong>&nbsp;antipaladin 4, bloodrager 4, cleric/oracle 6, inquisitor 5, magus 5, paladin 4, sorcerer/wizard 6;\n    \n    \n    \n    \n  </p>\n  <p>\n    <strong>Casting Time</strong>&nbsp;1 swift action<br>\n    <strong>Components</strong>&nbsp;V, S<br>\n  </p>\n  <p>\n    <strong>Range</strong>&nbsp;personal<br>\n    \n    <strong>Targets</strong>&nbsp;you<br>\n    \n    <strong>Duration</strong>&nbsp;1 round<br>\n    \n  </p>\n  <h2>Description</h2>\n  <p>This spell gives you the power to turn one melee weapon in your hand into a two-dimensional object with length and height but no width. A sword becomes a flat image of a sword, a mace is reduced to a flat outline, and so on. The magic of the spell allows the weapon to be wielded by you normally, creating just enough depth to grasp it.  Attacks made with the weapon are melee touch attacks that ignore all armor. Force effects, such as <i>mage armor</i> and <i>shield</i>, still apply their AC against attacks made with a <i>dimensional blade</i>. Bludgeoning weapons used to make attacks with this spell deal half damage and are treated as slashing weapons. If the weapon leaves your hand before the end of the spell, the effect ends.</p>\n</div>\n",
      "chat": "",
      "unidentified": ""
    },
    "tags": [],
    "activation": {
      "cost": 1,
      "type": "swift"
    },
    "unchainedAction": {
      "activation": {
        "cost": 1,
        "type": "action"
      }
    },
    "duration": {
      "value": null,
      "units": ""
    },
    "target": {
      "value": "you"
    },
    "range": {
      "value": null,
      "units": "personal",
      "maxIncrements": 1,
      "minValue": null,
      "minUnits": ""
    },
    "uses": {
      "value": 0,
      "max": 0,
      "per": "",
      "autoDeductCharges": true,
      "autoDeductChargesCost": "1"
    },
    "measureTemplate": {
      "type": "",
      "size": "0",
      "overrideColor": false,
      "customColor": "",
      "overrideTexture": false,
      "customTexture": ""
    },
    "attackName": "",
    "actionType": "",
    "attackBonus": "",
    "critConfirmBonus": "",
    "damage": {
      "parts": [],
      "critParts": [],
      "nonCritParts": []
    },
    "attackParts": [],
    "formula": "",
    "ability": {
      "attack": "",
      "damage": "",
      "damageMult": 1,
      "critRange": 20,
      "critMult": 2
    },
    "save": {
      "dc": "0",
      "type": "",
      "description": ""
    },
    "effectNotes": "",
    "attackNotes": "",
    "soundEffect": "",
    "links": {
      "children": []
    },
    "learnedAt": {
      "class": [
        [
          "sorcerer/wizard",
          6
        ],
        [
          "cleric/oracle",
          6
        ],
        [
          "paladin",
          4
        ],
        [
          "inquisitor",
          5
        ],
        [
          "antipaladin",
          4
        ],
        [
          "magus",
          5
        ],
        [
          "bloodrager",
          4
        ]
      ],
      "domain": [],
      "subDomain": [],
      "elementalSchool": [],
      "bloodline": []
    },
    "level": 6,
    "clOffset": 0,
    "slOffset": 0,
    "school": "trs",
    "subschool": "",
    "types": "",
    "nonlethal": false,
    "conditionals": [],
    "components": {
      "value": "",
      "verbal": true,
      "somatic": true,
      "material": false,
      "focus": false,
      "divineFocus": 0
    },
    "castTime": "",
    "materials": {
      "value": "",
      "focus": "",
      "gpValue": 0
    },
    "spellbook": "primary",
    "preparation": {
      "preparedAmount": 0,
      "maxAmount": 0,
      "autoDeductCharges": true,
      "spontaneousPrepared": true,
      "mode": "prepared"
    },
    "atWill": false,
    "sr": false,
    "shortDescription": "<p>This spell gives you the power to turn one melee weapon in your hand into a two-dimensional object with length and height but no width. A sword becomes a flat image of a sword, a mace is reduced to a flat outline, and so on. The magic of the spell allows the weapon to be wielded by you normally, creating just enough depth to grasp it.  Attacks made with the weapon are melee touch attacks that ignore all armor. Force effects, such as <i>mage armor</i> and <i>shield</i>, still apply their AC against attacks made with a <i>dimensional blade</i>. Bludgeoning weapons used to make attacks with this spell deal half damage and are treated as slashing weapons. If the weapon leaves your hand before the end of the spell, the effect ends.</p>",
    "spellDuration": "1 round",
    "spellEffect": "",
    "spellArea": "",
    "showInQuickbar": false,
    "spellPoints": {
      "cost": "1 + @sl"
    },
    "domain": false,
    "slotCost": 1
  },
  "flags": {},
  "img": "systems/pf1/icons/misc/magic-swirl.png",
  "effects": []
}