{
  "_id": "sxyiwj0z95piv96i",
  "name": "Disintegrate",
  "permission": {
    "default": 0
  },
  "type": "spell",
  "data": {
    "description": {
      "value": "<div class=\"spell-description\">\n  <p>\n    <strong>School</strong>&nbsp;transmutation;\n    <strong>Level</strong>&nbsp;magus 6, occultist 6, psychic 6, sorcerer/wizard 6, spiritualist 6;\n    <strong>Domain</strong>&nbsp;Destruction 7;\n    <strong>Subdomain</strong>&nbsp;Ash 7;\n    \n    <strong>Bloodline</strong>&nbsp;Div 6, Protean 6;\n  </p>\n  <p>\n    <strong>Casting Time</strong>&nbsp;1 standard action<br>\n    <strong>Components</strong>&nbsp;V, S, M/DF (a lodestone and a pinch of dust)<br>\n  </p>\n  <p>\n    <strong>Range</strong>&nbsp;medium (100 ft. + 10 ft./level)<br>\n    \n    \n    <strong>Effect</strong>&nbsp;ray<br>\n    <strong>Duration</strong>&nbsp;instantaneous<br>\n    <strong>Saving Throw</strong>&nbsp;Fortitude partial (object);&nbsp;<strong>Spell Resistance</strong>&nbsp;yes<br>\n  </p>\n  <h2>Description</h2>\n  <p>A thin, green ray springs from your pointing finger. You must make a successful ranged touch attack to hit. Any creature struck by the ray takes 2d6 points of damage per caster level (to a maximum of 40d6). Any creature reduced to 0 or fewer hit points by this spell is entirely disintegrated, leaving behind only a trace of fine dust. A disintegrated creature's equipment is unaffected.</p><p>When used against an object, the ray simply disintegrates as much as a 10-foot cube of nonliving matter. Thus, the spell disintegrates only part of any very large object or structure targeted.</p><p>The ray affects even objects constructed entirely of force, such as <i>forceful hand</i> or a <i>Wall of Force</i>, but not magical effects such as a <i>Globe of Invulnerability</i> or an <i>antimagic field</i>.</p><p>A creature or object that makes a successful Fortitude save is partially affected, taking only 5d6 points of damage. If this damage reduces the creature or object to 0 or fewer hit points, it is entirely disintegrated.</p><p>Only the first creature or object struck can be affected; that is, the ray affects only one target per casting.</p>\n</div>\n",
      "chat": "",
      "unidentified": ""
    },
    "tags": [],
    "activation": {
      "cost": 1,
      "type": "standard"
    },
    "unchainedAction": {
      "activation": {
        "cost": 2,
        "type": "action"
      }
    },
    "duration": {
      "value": null,
      "units": ""
    },
    "target": {
      "value": ""
    },
    "range": {
      "value": null,
      "units": "medium",
      "maxIncrements": 1,
      "minValue": null,
      "minUnits": ""
    },
    "uses": {
      "value": 0,
      "max": 0,
      "per": "",
      "autoDeductCharges": true,
      "autoDeductChargesCost": "1"
    },
    "measureTemplate": {
      "type": "",
      "size": "0",
      "overrideColor": false,
      "customColor": "",
      "overrideTexture": false,
      "customTexture": ""
    },
    "attackName": "",
    "actionType": "rsak",
    "attackBonus": "",
    "critConfirmBonus": "",
    "damage": {
      "parts": [
        [
          "(min(40, @cl * 2))d6",
          ""
        ]
      ],
      "critParts": [],
      "nonCritParts": []
    },
    "attackParts": [],
    "formula": "",
    "ability": {
      "attack": "dex",
      "damage": "",
      "damageMult": 1,
      "critRange": 20,
      "critMult": 2
    },
    "save": {
      "dc": "0",
      "type": "fort",
      "description": "Fortitude partial (object)"
    },
    "effectNotes": "[[5d6]] Damage on Successful Save",
    "attackNotes": "",
    "soundEffect": "",
    "links": {
      "children": []
    },
    "learnedAt": {
      "class": [
        [
          "sorcerer/wizard",
          6
        ],
        [
          "magus",
          6
        ],
        [
          "psychic",
          6
        ],
        [
          "occultist",
          6
        ],
        [
          "spiritualist",
          6
        ]
      ],
      "domain": [
        [
          "Destruction",
          7
        ]
      ],
      "subDomain": [
        [
          "Ash",
          7
        ]
      ],
      "elementalSchool": [],
      "bloodline": [
        [
          "Div",
          6
        ],
        [
          "Protean",
          6
        ]
      ]
    },
    "level": 6,
    "clOffset": 0,
    "slOffset": 0,
    "school": "trs",
    "subschool": "",
    "types": "",
    "nonlethal": false,
    "conditionals": [],
    "components": {
      "value": "",
      "verbal": true,
      "somatic": true,
      "material": true,
      "focus": false,
      "divineFocus": 2
    },
    "castTime": "",
    "materials": {
      "value": "a lodestone and a pinch of dust",
      "focus": "",
      "gpValue": 0
    },
    "spellbook": "primary",
    "preparation": {
      "preparedAmount": 0,
      "maxAmount": 0,
      "autoDeductCharges": true,
      "spontaneousPrepared": true,
      "mode": "prepared"
    },
    "atWill": false,
    "sr": true,
    "shortDescription": "<p>A thin, green ray springs from your pointing finger. You must make a successful ranged touch attack to hit. Any creature struck by the ray takes 2d6 points of damage per caster level (to a maximum of 40d6). Any creature reduced to 0 or fewer hit points by this spell is entirely disintegrated, leaving behind only a trace of fine dust. A disintegrated creature's equipment is unaffected.</p><p>When used against an object, the ray simply disintegrates as much as a 10-foot cube of nonliving matter. Thus, the spell disintegrates only part of any very large object or structure targeted.</p><p>The ray affects even objects constructed entirely of force, such as <i>forceful hand</i> or a <i>Wall of Force</i>, but not magical effects such as a <i>Globe of Invulnerability</i> or an <i>antimagic field</i>.</p><p>A creature or object that makes a successful Fortitude save is partially affected, taking only 5d6 points of damage. If this damage reduces the creature or object to 0 or fewer hit points, it is entirely disintegrated.</p><p>Only the first creature or object struck can be affected; that is, the ray affects only one target per casting.</p>",
    "spellDuration": "instantaneous",
    "spellEffect": "ray",
    "spellArea": "",
    "showInQuickbar": false,
    "spellPoints": {
      "cost": "1 + @sl"
    },
    "domain": false,
    "slotCost": 1
  },
  "flags": {},
  "img": "systems/pf1/icons/misc/magic-swirl.png",
  "effects": []
}