{
  "_id": "1brg9wjd0yvttrel",
  "name": "Echean's Excellent Enclosure",
  "permission": {
    "default": 0
  },
  "type": "spell",
  "data": {
    "description": {
      "value": "<div class=\"spell-description\">\n  <p>\n    <strong>School</strong>&nbsp;abjuration&nbsp;[force];\n    <strong>Level</strong>&nbsp;sorcerer/wizard 9;\n    \n    \n    \n    \n  </p>\n  <p>\n    <strong>Casting Time</strong>&nbsp;1 standard action<br>\n    <strong>Components</strong>&nbsp;V, S, M (a sphere of glass worth 100 gp and an iron nail, with which you pierce the glass on casting)<br>\n  </p>\n  <p>\n    <strong>Range</strong>&nbsp;touch<br>\n    <strong>Area</strong>&nbsp;immobile 10-ft.-radius emanation<br>\n    \n    \n    <strong>Duration</strong>&nbsp;1 round/level (D)<br>\n      <strong>Saving Throw</strong>&nbsp;none;&nbsp;\n      <strong>Spell Resistance</strong>&nbsp;no<br>\n  </p>\n  <h2>Description</h2>\n  <p>You call into being around you an invisible barrier of force within which magic cannot persist. Within the area of the spell, effects are suppressed and creatures are affected as by <i>antimagic field</i>. An immobile sphere of impenetrable force surrounds the field, equivalent in all ways to a spherical <i>Wall of Force</i>, including its immunity to <i>dispel magic</i> and vulnerability to a <i>sphere of annihilation</i> or <i>rod of cancellation</i>. The barrier has hardness 40 and 20 hit points per caster level, and can be damaged by both mundane attacks and spells cast from outside the field. If the bubble of force is destroyed, the spell's duration ends.</p><p>Spells cannot be cast within, into, or out of the enclosure, and teleportation effects that ignore a <i>Wall of Force</i> (such as <i>dimension door</i> or teleport) are thwarted by the enclosure's field of antimagic.</p><p>Echean's excellent enclosure has the same effect on summoned creatures of any type and incorporeal undead that an <i>antimagic field</i> does, causing them to wink out of existence for the duration of Echean's excellent enclosure unless their spell resistance, if any, allows them to remain where they are within the field.</p>\n</div>\n",
      "chat": "",
      "unidentified": ""
    },
    "tags": [],
    "activation": {
      "cost": 1,
      "type": "standard"
    },
    "unchainedAction": {
      "activation": {
        "cost": 2,
        "type": "action"
      }
    },
    "duration": {
      "value": null,
      "units": ""
    },
    "target": {
      "value": ""
    },
    "range": {
      "value": null,
      "units": "touch",
      "maxIncrements": 1,
      "minValue": null,
      "minUnits": ""
    },
    "uses": {
      "value": 0,
      "max": 0,
      "per": "",
      "autoDeductCharges": true,
      "autoDeductChargesCost": "1"
    },
    "measureTemplate": {
      "type": "",
      "size": "0",
      "overrideColor": false,
      "customColor": "",
      "overrideTexture": false,
      "customTexture": ""
    },
    "attackName": "",
    "actionType": "",
    "attackBonus": "",
    "critConfirmBonus": "",
    "damage": {
      "parts": [],
      "critParts": [],
      "nonCritParts": []
    },
    "attackParts": [],
    "formula": "",
    "ability": {
      "attack": "",
      "damage": "",
      "damageMult": 1,
      "critRange": 20,
      "critMult": 2
    },
    "save": {
      "dc": "0",
      "type": "",
      "description": ""
    },
    "effectNotes": "",
    "attackNotes": "",
    "soundEffect": "",
    "links": {
      "children": []
    },
    "learnedAt": {
      "class": [
        [
          "sorcerer/wizard",
          9
        ]
      ],
      "domain": [],
      "subDomain": [],
      "elementalSchool": [],
      "bloodline": []
    },
    "level": 9,
    "clOffset": 0,
    "slOffset": 0,
    "school": "abj",
    "subschool": "",
    "types": "force",
    "nonlethal": false,
    "conditionals": [],
    "components": {
      "value": "",
      "verbal": true,
      "somatic": true,
      "material": true,
      "focus": false,
      "divineFocus": 0
    },
    "castTime": "",
    "materials": {
      "value": "a sphere of glass worth 100 gp and an iron nail, with which you pierce the glass on casting",
      "focus": "",
      "gpValue": 100
    },
    "spellbook": "",
    "preparation": {
      "preparedAmount": 0,
      "maxAmount": 0,
      "autoDeductCharges": false,
      "spontaneousPrepared": false,
      "mode": "prepared"
    },
    "atWill": false,
    "sr": false,
    "shortDescription": "<p>You call into being around you an invisible barrier of force within which magic cannot persist. Within the area of the spell, effects are suppressed and creatures are affected as by <i>antimagic field</i>. An immobile sphere of impenetrable force surrounds the field, equivalent in all ways to a spherical <i>Wall of Force</i>, including its immunity to <i>dispel magic</i> and vulnerability to a <i>sphere of annihilation</i> or <i>rod of cancellation</i>. The barrier has hardness 40 and 20 hit points per caster level, and can be damaged by both mundane attacks and spells cast from outside the field. If the bubble of force is destroyed, the spell's duration ends.</p><p>Spells cannot be cast within, into, or out of the enclosure, and teleportation effects that ignore a <i>Wall of Force</i> (such as <i>dimension door</i> or teleport) are thwarted by the enclosure's field of antimagic.</p><p>Echean's excellent enclosure has the same effect on summoned creatures of any type and incorporeal undead that an <i>antimagic field</i> does, causing them to wink out of existence for the duration of Echean's excellent enclosure unless their spell resistance, if any, allows them to remain where they are within the field.</p>",
    "spellDuration": "1 round/level (D)",
    "spellEffect": "",
    "spellArea": "immobile 10-ft.-radius emanation",
    "showInQuickbar": false,
    "spellPoints": {
      "cost": ""
    },
    "domain": false,
    "slotCost": 1
  },
  "flags": {},
  "img": "systems/pf1/icons/misc/magic-swirl.png",
  "effects": []
}