{
  "_id": "ba8ur1roqmqxn0j5",
  "name": "Elemental Speech",
  "permission": {
    "default": 0
  },
  "type": "spell",
  "data": {
    "description": {
      "value": "<div class=\"spell-description\">\n  <p>\n    <strong>School</strong>&nbsp;divination&nbsp;[air, earth, fire, or water];\n    <strong>Level</strong>&nbsp;bard 3, cleric/oracle 3, druid 2, hunter 2, mesmerist 3, sorcerer/wizard 2;\n    \n    \n    \n    \n  </p>\n  <p>\n    <strong>Casting Time</strong>&nbsp;1 standard action<br>\n    <strong>Components</strong>&nbsp;V, S, M (iron filings)<br>\n  </p>\n  <p>\n    <strong>Range</strong>&nbsp;personal<br>\n    \n    <strong>Targets</strong>&nbsp;you<br>\n    \n    <strong>Duration</strong>&nbsp;1 minute/level<br>\n    \n  </p>\n  <h2>Description</h2>\n  <p>This spell enables you to converse with creatures associated with a chosen element, including but not limited to true elemental creatures. This spell gains the elemental subtype based on the version of the spell you cast. <i>Elemental speech</i> does not guarantee a friendly reaction; it merely enables communication. You may converse with all creatures of the selected type with an Intelligence score of 1 or greater, even if they do not understand one another.</p><p>When cast as an air spell, you can converse in Auran and with any creature that has the air subtype or a fly speed.</p><p>When cast as an earth spell, you can converse in Terran and with any creature that has the earth subtype or a burrow speed.</p><p>When cast as a fire spell, you can converse in Ignan and with any creature that has the fire subtype.</p><p>When cast as a water spell, you can converse in Aquan and with any creature that has the water subtype or a swim speed.</p>\n</div>\n",
      "chat": "",
      "unidentified": ""
    },
    "tags": [],
    "activation": {
      "cost": 1,
      "type": "standard"
    },
    "unchainedAction": {
      "activation": {
        "cost": 2,
        "type": "action"
      }
    },
    "duration": {
      "value": null,
      "units": ""
    },
    "target": {
      "value": "you"
    },
    "range": {
      "value": null,
      "units": "personal",
      "maxIncrements": 1,
      "minValue": null,
      "minUnits": ""
    },
    "uses": {
      "value": 0,
      "max": 0,
      "per": "",
      "autoDeductCharges": true,
      "autoDeductChargesCost": "1"
    },
    "measureTemplate": {
      "type": "",
      "size": "0",
      "overrideColor": false,
      "customColor": "",
      "overrideTexture": false,
      "customTexture": ""
    },
    "attackName": "",
    "actionType": "",
    "attackBonus": "",
    "critConfirmBonus": "",
    "damage": {
      "parts": [],
      "critParts": [],
      "nonCritParts": []
    },
    "attackParts": [],
    "formula": "",
    "ability": {
      "attack": "",
      "damage": "",
      "damageMult": 1,
      "critRange": 20,
      "critMult": 2
    },
    "save": {
      "dc": "0",
      "type": "",
      "description": ""
    },
    "effectNotes": "",
    "attackNotes": "",
    "soundEffect": "",
    "links": {
      "children": []
    },
    "learnedAt": {
      "class": [
        [
          "sorcerer/wizard",
          2
        ],
        [
          "cleric/oracle",
          3
        ],
        [
          "druid",
          2
        ],
        [
          "bard",
          3
        ],
        [
          "mesmerist",
          3
        ],
        [
          "hunter",
          2
        ]
      ],
      "domain": [],
      "subDomain": [],
      "elementalSchool": [],
      "bloodline": []
    },
    "level": 2,
    "clOffset": 0,
    "slOffset": 0,
    "school": "div",
    "subschool": "",
    "types": "air, earth, fire, or water",
    "nonlethal": false,
    "conditionals": [],
    "components": {
      "value": "",
      "verbal": true,
      "somatic": true,
      "material": true,
      "focus": false,
      "divineFocus": 0
    },
    "castTime": "",
    "materials": {
      "value": "iron filings",
      "focus": "",
      "gpValue": 0
    },
    "spellbook": "primary",
    "preparation": {
      "preparedAmount": 0,
      "maxAmount": 0,
      "autoDeductCharges": true,
      "spontaneousPrepared": true,
      "mode": "prepared"
    },
    "atWill": false,
    "sr": false,
    "shortDescription": "<p>This spell enables you to converse with creatures associated with a chosen element, including but not limited to true elemental creatures. This spell gains the elemental subtype based on the version of the spell you cast. <i>Elemental speech</i> does not guarantee a friendly reaction; it merely enables communication. You may converse with all creatures of the selected type with an Intelligence score of 1 or greater, even if they do not understand one another.</p><p>When cast as an air spell, you can converse in Auran and with any creature that has the air subtype or a fly speed.</p><p>When cast as an earth spell, you can converse in Terran and with any creature that has the earth subtype or a burrow speed.</p><p>When cast as a fire spell, you can converse in Ignan and with any creature that has the fire subtype.</p><p>When cast as a water spell, you can converse in Aquan and with any creature that has the water subtype or a swim speed.</p>",
    "spellDuration": "1 minute/level",
    "spellEffect": "",
    "spellArea": "",
    "showInQuickbar": false,
    "spellPoints": {
      "cost": "1 + @sl"
    },
    "domain": false,
    "slotCost": 1
  },
  "flags": {},
  "img": "systems/pf1/icons/misc/magic-swirl.png",
  "effects": []
}