{
  "_id": "jgx8sur7w4k93mql",
  "name": "Elemental Touch",
  "permission": {
    "default": 0
  },
  "type": "spell",
  "data": {
    "description": {
      "value": "<div class=\"spell-description\">\n  <p>\n    <strong>School</strong>&nbsp;evocation&nbsp;[acid, cold, electricity, or fire];\n    <strong>Level</strong>&nbsp;alchemist 2, bloodrager 2, magus 2, sorcerer/wizard 2;\n    \n    \n    \n    \n  </p>\n  <p>\n    <strong>Casting Time</strong>&nbsp;1 standard action<br>\n    <strong>Components</strong>&nbsp;V, S, M (a bit of the chosen element: earth, water, air, or fire)<br>\n  </p>\n  <p>\n    <strong>Range</strong>&nbsp;personal<br>\n    \n    <strong>Targets</strong>&nbsp;you<br>\n    \n    <strong>Duration</strong>&nbsp;1 round/level (D)<br>\n    \n  </p>\n  <h2>Description</h2>\n  <p>Upon completing the casting of this spell, elemental energy infuses your hands. Choose an energy type: acid, cold, electricity, or fire. You gain a melee touch attack causing 1d6 points of damage of that energy type, along with a special effect described below. You also deal energy damage and the related special effect when you attack with your hands using an unarmed strike, a single claw, or a single slam attack. This bonus damage can never apply to multiple weapons.</p><p><b>Acid:</b> Your touch attack causes 1 point of ongoing acid damage per round for 1 round per three caster levels. The target must make a Fortitude save or be sickened for the duration of the ongoing acid damage.</p><p><b>Cold:</b> The target must make a Fortitude save or be fatigued.</p><p>A creature that is already fatigued suffers no additional effect.</p><p><b>Electricity:</b> The target must make a Fortitude save or be staggered for 1 round.</p><p><b>Fire:</b> Your hands ignite and shed light as a torch. Your touch may cause targets to catch on fire (<i>Core Rulebook</i> 444).</p><p>Subsequent attacks inflict the normal damage, but the additional effects do not stack. This spell grants no special protection to anything held in or worn on your hands. When you cast this spell to deal acid, cold, electricity, or fire damage, it is a spell of that type.</p>\n</div>\n",
      "chat": "",
      "unidentified": ""
    },
    "tags": [],
    "activation": {
      "cost": 1,
      "type": "standard"
    },
    "unchainedAction": {
      "activation": {
        "cost": 2,
        "type": "action"
      }
    },
    "duration": {
      "value": null,
      "units": ""
    },
    "target": {
      "value": "you"
    },
    "range": {
      "value": null,
      "units": "personal",
      "maxIncrements": 1,
      "minValue": null,
      "minUnits": ""
    },
    "uses": {
      "value": 0,
      "max": 0,
      "per": "",
      "autoDeductCharges": true,
      "autoDeductChargesCost": "1"
    },
    "measureTemplate": {
      "type": "",
      "size": "0",
      "overrideColor": false,
      "customColor": "",
      "overrideTexture": false,
      "customTexture": ""
    },
    "attackName": "",
    "actionType": "spellsave",
    "attackBonus": "",
    "critConfirmBonus": "",
    "damage": {
      "parts": [],
      "critParts": [],
      "nonCritParts": []
    },
    "attackParts": [],
    "formula": "",
    "ability": {
      "attack": "",
      "damage": "",
      "damageMult": 1,
      "critRange": 20,
      "critMult": 2
    },
    "save": {
      "dc": "0",
      "type": "",
      "description": "see text"
    },
    "effectNotes": "",
    "attackNotes": "",
    "soundEffect": "",
    "links": {
      "children": []
    },
    "learnedAt": {
      "class": [
        [
          "sorcerer/wizard",
          2
        ],
        [
          "alchemist",
          2
        ],
        [
          "magus",
          2
        ],
        [
          "bloodrager",
          2
        ]
      ],
      "domain": [],
      "subDomain": [],
      "elementalSchool": [],
      "bloodline": []
    },
    "level": 2,
    "clOffset": 0,
    "slOffset": 0,
    "school": "evo",
    "subschool": "",
    "types": "acid, cold, electricity, or fire",
    "nonlethal": false,
    "conditionals": [],
    "components": {
      "value": "",
      "verbal": true,
      "somatic": true,
      "material": true,
      "focus": false,
      "divineFocus": 0
    },
    "castTime": "",
    "materials": {
      "value": "a bit of the chosen element: earth, water, air, or fire",
      "focus": "",
      "gpValue": 0
    },
    "spellbook": "primary",
    "preparation": {
      "preparedAmount": 0,
      "maxAmount": 0,
      "autoDeductCharges": true,
      "spontaneousPrepared": true,
      "mode": "prepared"
    },
    "atWill": false,
    "sr": false,
    "shortDescription": "<p>Upon completing the casting of this spell, elemental energy infuses your hands. Choose an energy type: acid, cold, electricity, or fire. You gain a melee touch attack causing 1d6 points of damage of that energy type, along with a special effect described below. You also deal energy damage and the related special effect when you attack with your hands using an unarmed strike, a single claw, or a single slam attack. This bonus damage can never apply to multiple weapons.</p><p><b>Acid:</b> Your touch attack causes 1 point of ongoing acid damage per round for 1 round per three caster levels. The target must make a Fortitude save or be sickened for the duration of the ongoing acid damage.</p><p><b>Cold:</b> The target must make a Fortitude save or be fatigued.</p><p>A creature that is already fatigued suffers no additional effect.</p><p><b>Electricity:</b> The target must make a Fortitude save or be staggered for 1 round.</p><p><b>Fire:</b> Your hands ignite and shed light as a torch. Your touch may cause targets to catch on fire (<i>Core Rulebook</i> 444).</p><p>Subsequent attacks inflict the normal damage, but the additional effects do not stack. This spell grants no special protection to anything held in or worn on your hands. When you cast this spell to deal acid, cold, electricity, or fire damage, it is a spell of that type.</p>",
    "spellDuration": "1 round/level (D)",
    "spellEffect": "",
    "spellArea": "",
    "showInQuickbar": false,
    "spellPoints": {
      "cost": "1 + @sl"
    },
    "domain": false,
    "slotCost": 1
  },
  "flags": {},
  "img": "systems/pf1/icons/misc/magic-swirl.png",
  "effects": []
}