{
  "_id": "a24oos1m8mjc793r",
  "name": "Enshroud Thoughts",
  "permission": {
    "default": 0
  },
  "type": "spell",
  "data": {
    "description": {
      "value": "<div class=\"spell-description\">\n  <p>\n    <strong>School</strong>&nbsp;abjuration&nbsp;[mind-affecting];\n    <strong>Level</strong>&nbsp;alchemist 2, bard 2, hunter 3, inquisitor 2, medium 2, mesmerist 2, psychic 2, ranger 3, shaman 2, witch 2;\n    \n    \n    \n    \n  </p>\n  <p>\n    <strong>Casting Time</strong>&nbsp;1 standard action<br>\n    <strong>Components</strong>&nbsp;V, S<br>\n  </p>\n  <p>\n    <strong>Range</strong>&nbsp;personal<br>\n    \n    <strong>Targets</strong>&nbsp;you<br>\n    \n    <strong>Duration</strong>&nbsp;10 minutes/level (D)<br>\n    \n  </p>\n  <h2>Description</h2>\n  <p>You become warded against the mental prying of others, including the effects of divination spells such as <i>detect thoughts</i> and <i>seek</i> thoughtsAPG, as well as enchantment spells such as <i>modify <i>memory</i></i> and <i>memory</i> lapseAPG. If another creature attempts to target you with a mind-affecting spell that  detects or alters your thoughts or memories, the caster must succeed at a caster level check against a DC equal to 11 + your caster level or the spell fails. Only spells that detect or alter your thoughts or memories are blocked by this spell; effects such as <i>clairaudience/clairvoyance</i>, <i>d etect e vil</i>, and <i>locate creature</i> continue to affect you as normal.</p>\n</div>\n",
      "chat": "",
      "unidentified": ""
    },
    "tags": [],
    "activation": {
      "cost": 1,
      "type": "standard"
    },
    "unchainedAction": {
      "activation": {
        "cost": 2,
        "type": "action"
      }
    },
    "duration": {
      "value": null,
      "units": ""
    },
    "target": {
      "value": "you"
    },
    "range": {
      "value": null,
      "units": "personal",
      "maxIncrements": 1,
      "minValue": null,
      "minUnits": ""
    },
    "uses": {
      "value": 0,
      "max": 0,
      "per": "",
      "autoDeductCharges": true,
      "autoDeductChargesCost": "1"
    },
    "measureTemplate": {
      "type": "",
      "size": "0",
      "overrideColor": false,
      "customColor": "",
      "overrideTexture": false,
      "customTexture": ""
    },
    "attackName": "",
    "actionType": "spellsave",
    "attackBonus": "",
    "critConfirmBonus": "",
    "damage": {
      "parts": [],
      "critParts": [],
      "nonCritParts": []
    },
    "attackParts": [],
    "formula": "",
    "ability": {
      "attack": "",
      "damage": "",
      "damageMult": 1,
      "critRange": 20,
      "critMult": 2
    },
    "save": {
      "dc": "0",
      "type": "will",
      "description": "Will negates (harmless)"
    },
    "effectNotes": "",
    "attackNotes": "",
    "soundEffect": "",
    "links": {
      "children": []
    },
    "learnedAt": {
      "class": [
        [
          "ranger",
          3
        ],
        [
          "bard",
          2
        ],
        [
          "alchemist",
          2
        ],
        [
          "witch",
          2
        ],
        [
          "inquisitor",
          2
        ],
        [
          "shaman",
          2
        ],
        [
          "psychic",
          2
        ],
        [
          "medium",
          2
        ],
        [
          "mesmerist",
          2
        ],
        [
          "hunter",
          3
        ]
      ],
      "domain": [],
      "subDomain": [],
      "elementalSchool": [],
      "bloodline": []
    },
    "level": 3,
    "clOffset": 0,
    "slOffset": 0,
    "school": "abj",
    "subschool": "",
    "types": "mind-affecting",
    "nonlethal": false,
    "conditionals": [],
    "components": {
      "value": "",
      "verbal": true,
      "somatic": true,
      "material": false,
      "focus": false,
      "divineFocus": 0
    },
    "castTime": "",
    "materials": {
      "value": "",
      "focus": "",
      "gpValue": 0
    },
    "spellbook": "primary",
    "preparation": {
      "preparedAmount": 0,
      "maxAmount": 0,
      "autoDeductCharges": true,
      "spontaneousPrepared": true,
      "mode": "prepared"
    },
    "atWill": false,
    "sr": true,
    "shortDescription": "<p>You become warded against the mental prying of others, including the effects of divination spells such as <i>detect thoughts</i> and <i>seek</i> thoughtsAPG, as well as enchantment spells such as <i>modify <i>memory</i></i> and <i>memory</i> lapseAPG. If another creature attempts to target you with a mind-affecting spell that  detects or alters your thoughts or memories, the caster must succeed at a caster level check against a DC equal to 11 + your caster level or the spell fails. Only spells that detect or alter your thoughts or memories are blocked by this spell; effects such as <i>clairaudience/clairvoyance</i>, <i>d etect e vil</i>, and <i>locate creature</i> continue to affect you as normal.</p>",
    "spellDuration": "10 minutes/level (D)",
    "spellEffect": "",
    "spellArea": "",
    "showInQuickbar": false,
    "spellPoints": {
      "cost": "1 + @sl"
    },
    "domain": false,
    "slotCost": 1
  },
  "flags": {},
  "img": "systems/pf1/icons/misc/magic-swirl.png",
  "effects": []
}