{
  "_id": "m25u0kpeglsma55z",
  "name": "Fey Form II",
  "permission": {
    "default": 0
  },
  "type": "spell",
  "data": {
    "description": {
      "value": "<div class=\"spell-description\">\n  <p>\n    <strong>School</strong>&nbsp;transmutation&nbsp;(polymorph);\n    <strong>Level</strong>&nbsp;alchemist 5, druid 5, hunter 5, magus 6, shaman 5, sorcerer/wizard 6, witch 6;\n    \n    \n    \n    \n  </p>\n  <p>\n    <strong>Casting Time</strong>&nbsp;1 standard action<br>\n    <strong>Components</strong>&nbsp;V, S, M (a piece of the creature whose form you plan to assume)<br>\n  </p>\n  <p>\n    <strong>Range</strong>&nbsp;personal<br>\n    \n    <strong>Targets</strong>&nbsp;you<br>\n    \n    <strong>Duration</strong>&nbsp;1 minute/level (D)<br>\n    \n  </p>\n  <h2>Description</h2>\n  <p>This spell functions as <i>fey form I</i>, except it also allows you to assume the form of a Tiny or Large creature of the fey type. Your base speed can't increase above 90 feet this way. If the form you assume has any of the following abilities, you gain those abilities: burrow speed 30 feet, climb speed 90 feet, fly speed 60 feet (good maneuverability), swim speed 60 feet, all-around vision, blindsense 30 feet, darkvision 60 feet, low-light vision, scent, see in darkness, abduct, animated hair, bleed, blood rage, boot stomp, burn, compression, constrict, crushing leap, DR 2/cold iron, grab, heavy weapons, icewalking, kneecapper, nasal spray, no shadow, oversized weapons, poison, putrid vomit, rock throwing (50 feet, 1d6 damage), sound mimicry, trackless step, trample, tree meld, undersized weapons, and woodland stride. If the creature has immunity to mind-affecting effects or poison, you gain a +4 resistance bonus on saves against those effects. If the creature has any weaknesses, you gain them.</p><p><b>Tiny Fey</b>: If you assume this form, you gain a +6 size bonus to your Dexterity score and take a -2 penalty to your Strength score.</p><p><b>Large Fey</b>: If you assume this form, you gain a +4 size bonus to your Strength and Constitution scores and take a -2 penalty to your Dexterity score.</p>\n</div>\n",
      "chat": "",
      "unidentified": ""
    },
    "tags": [],
    "activation": {
      "cost": 1,
      "type": "standard"
    },
    "unchainedAction": {
      "activation": {
        "cost": 2,
        "type": "action"
      }
    },
    "duration": {
      "value": null,
      "units": ""
    },
    "target": {
      "value": "you"
    },
    "range": {
      "value": null,
      "units": "personal",
      "maxIncrements": 1,
      "minValue": null,
      "minUnits": ""
    },
    "uses": {
      "value": 0,
      "max": 0,
      "per": "",
      "autoDeductCharges": true,
      "autoDeductChargesCost": "1"
    },
    "measureTemplate": {
      "type": "",
      "size": "0",
      "overrideColor": false,
      "customColor": "",
      "overrideTexture": false,
      "customTexture": ""
    },
    "attackName": "",
    "actionType": "",
    "attackBonus": "",
    "critConfirmBonus": "",
    "damage": {
      "parts": [],
      "critParts": [],
      "nonCritParts": []
    },
    "attackParts": [],
    "formula": "",
    "ability": {
      "attack": "",
      "damage": "",
      "damageMult": 1,
      "critRange": 20,
      "critMult": 2
    },
    "save": {
      "dc": "0",
      "type": "",
      "description": ""
    },
    "effectNotes": "",
    "attackNotes": "",
    "soundEffect": "",
    "links": {
      "children": []
    },
    "learnedAt": {
      "class": [
        [
          "sorcerer/wizard",
          6
        ],
        [
          "druid",
          5
        ],
        [
          "alchemist",
          5
        ],
        [
          "witch",
          6
        ],
        [
          "magus",
          6
        ],
        [
          "shaman",
          5
        ],
        [
          "hunter",
          5
        ]
      ],
      "domain": [],
      "subDomain": [],
      "elementalSchool": [],
      "bloodline": []
    },
    "level": 6,
    "clOffset": 0,
    "slOffset": 0,
    "school": "trs",
    "subschool": "polymorph",
    "types": "",
    "nonlethal": false,
    "conditionals": [],
    "components": {
      "value": "",
      "verbal": true,
      "somatic": true,
      "material": true,
      "focus": false,
      "divineFocus": 0
    },
    "castTime": "",
    "materials": {
      "value": "a piece of the creature whose form you plan to assume",
      "focus": "",
      "gpValue": 0
    },
    "spellbook": "primary",
    "preparation": {
      "preparedAmount": 0,
      "maxAmount": 0,
      "autoDeductCharges": true,
      "spontaneousPrepared": true,
      "mode": "prepared"
    },
    "atWill": false,
    "sr": false,
    "shortDescription": "<p>This spell functions as <i>fey form I</i>, except it also allows you to assume the form of a Tiny or Large creature of the fey type. Your base speed can't increase above 90 feet this way. If the form you assume has any of the following abilities, you gain those abilities: burrow speed 30 feet, climb speed 90 feet, fly speed 60 feet (good maneuverability), swim speed 60 feet, all-around vision, blindsense 30 feet, darkvision 60 feet, low-light vision, scent, see in darkness, abduct, animated hair, bleed, blood rage, boot stomp, burn, compression, constrict, crushing leap, DR 2/cold iron, grab, heavy weapons, icewalking, kneecapper, nasal spray, no shadow, oversized weapons, poison, putrid vomit, rock throwing (50 feet, 1d6 damage), sound mimicry, trackless step, trample, tree meld, undersized weapons, and woodland stride. If the creature has immunity to mind-affecting effects or poison, you gain a +4 resistance bonus on saves against those effects. If the creature has any weaknesses, you gain them.</p><p><b>Tiny Fey</b>: If you assume this form, you gain a +6 size bonus to your Dexterity score and take a -2 penalty to your Strength score.</p><p><b>Large Fey</b>: If you assume this form, you gain a +4 size bonus to your Strength and Constitution scores and take a -2 penalty to your Dexterity score.</p>",
    "spellDuration": "1 minute/level (D)",
    "spellEffect": "",
    "spellArea": "",
    "showInQuickbar": false,
    "spellPoints": {
      "cost": "1 + @sl"
    },
    "domain": false,
    "slotCost": 1
  },
  "flags": {},
  "img": "systems/pf1/icons/misc/magic-swirl.png",
  "effects": []
}