{
  "_id": "91pzm8db3fbusr76",
  "name": "Final Sacrifice",
  "permission": {
    "default": 0
  },
  "type": "spell",
  "data": {
    "description": {
      "value": "<div class=\"spell-description\">\n  <p>\n    <strong>School</strong>&nbsp;evocation;\n    <strong>Level</strong>&nbsp;antipaladin 3, bloodrager 2, cleric/oracle 3, shaman 3, sorcerer/wizard 3, summoner 2, unchained Summoner 2, witch 4;\n    \n    \n    \n    \n  </p>\n  <p>\n    <strong>Casting Time</strong>&nbsp;1 standard action<br>\n    <strong>Components</strong>&nbsp;V, S<br>\n  </p>\n  <p>\n    <strong>Range</strong>&nbsp;close (25 ft. + 5 ft./2 levels)<br>\n    \n    <strong>Targets</strong>&nbsp;one summoned creature<br>\n    \n    <strong>Duration</strong>&nbsp;instantaneous<br>\n    <strong>Saving Throw</strong>&nbsp;Fortitude negates, then Reflex half (see text);&nbsp;<strong>Spell Resistance</strong>&nbsp;yes<br>\n  </p>\n  <h2>Description</h2>\n  <p>You disrupt the conjuring energies within a summoned creature, causing it to violently explode. If the target fails its Fortitude save, it is immediately slain and all creatures within 20 feet of the target take 1d4 points of damage per spell level of the  summoning spell that conjured the target. This damage is fire damage unless the target creature has the cold or water subtype, in which case it's cold damage. Creatures caught in this explosion take half damage if they succeed at their Reflex saves against this spell's DC. <i>Final sacrifice</i> can detonate a summoner's eidolon, though an eidolon receives a +4 bonus on its Fortitude save unless the spell is cast by the eidolon's own summoner. If this spell targets an eidolon, creatures within 20 feet of the eidolon take an amount of damage equal to 1d4 + 1/2 the caster level of the summoner who controlled the eidolon.</p>\n</div>\n",
      "chat": "",
      "unidentified": ""
    },
    "tags": [],
    "activation": {
      "cost": 1,
      "type": "standard"
    },
    "unchainedAction": {
      "activation": {
        "cost": 2,
        "type": "action"
      }
    },
    "duration": {
      "value": null,
      "units": ""
    },
    "target": {
      "value": "one summoned creature"
    },
    "range": {
      "value": null,
      "units": "close",
      "maxIncrements": 1,
      "minValue": null,
      "minUnits": ""
    },
    "uses": {
      "value": 0,
      "max": 0,
      "per": "",
      "autoDeductCharges": true,
      "autoDeductChargesCost": "1"
    },
    "measureTemplate": {
      "type": "",
      "size": "0",
      "overrideColor": false,
      "customColor": "",
      "overrideTexture": false,
      "customTexture": ""
    },
    "attackName": "",
    "actionType": "spellsave",
    "attackBonus": "",
    "critConfirmBonus": "",
    "damage": {
      "parts": [],
      "critParts": [],
      "nonCritParts": []
    },
    "attackParts": [],
    "formula": "",
    "ability": {
      "attack": "",
      "damage": "",
      "damageMult": 1,
      "critRange": 20,
      "critMult": 2
    },
    "save": {
      "dc": "0",
      "type": "ref",
      "description": "Fortitude negates, then Reflex half (see text)"
    },
    "effectNotes": "",
    "attackNotes": "",
    "soundEffect": "",
    "links": {
      "children": []
    },
    "learnedAt": {
      "class": [
        [
          "sorcerer/wizard",
          3
        ],
        [
          "cleric/oracle",
          3
        ],
        [
          "summoner",
          2
        ],
        [
          "witch",
          4
        ],
        [
          "antipaladin",
          3
        ],
        [
          "bloodrager",
          2
        ],
        [
          "shaman",
          3
        ],
        [
          "unchained Summoner",
          2
        ]
      ],
      "domain": [],
      "subDomain": [],
      "elementalSchool": [],
      "bloodline": []
    },
    "level": 3,
    "clOffset": 0,
    "slOffset": 0,
    "school": "evo",
    "subschool": "",
    "types": "",
    "nonlethal": false,
    "conditionals": [],
    "components": {
      "value": "",
      "verbal": true,
      "somatic": true,
      "material": false,
      "focus": false,
      "divineFocus": 0
    },
    "castTime": "",
    "materials": {
      "value": "",
      "focus": "",
      "gpValue": 0
    },
    "spellbook": "primary",
    "preparation": {
      "preparedAmount": 0,
      "maxAmount": 0,
      "autoDeductCharges": true,
      "spontaneousPrepared": true,
      "mode": "prepared"
    },
    "atWill": false,
    "sr": true,
    "shortDescription": "<p>You disrupt the conjuring energies within a summoned creature, causing it to violently explode. If the target fails its Fortitude save, it is immediately slain and all creatures within 20 feet of the target take 1d4 points of damage per spell level of the  summoning spell that conjured the target. This damage is fire damage unless the target creature has the cold or water subtype, in which case it's cold damage. Creatures caught in this explosion take half damage if they succeed at their Reflex saves against this spell's DC. <i>Final sacrifice</i> can detonate a summoner's eidolon, though an eidolon receives a +4 bonus on its Fortitude save unless the spell is cast by the eidolon's own summoner. If this spell targets an eidolon, creatures within 20 feet of the eidolon take an amount of damage equal to 1d4 + 1/2 the caster level of the summoner who controlled the eidolon.</p>",
    "spellDuration": "instantaneous",
    "spellEffect": "",
    "spellArea": "",
    "showInQuickbar": false,
    "spellPoints": {
      "cost": "1 + @sl"
    },
    "domain": false,
    "slotCost": 1
  },
  "flags": {},
  "img": "systems/pf1/icons/misc/magic-swirl.png",
  "effects": []
}