{
  "_id": "tri2rd8gblf9ydwd",
  "name": "Force Sword",
  "permission": {
    "default": 0
  },
  "type": "spell",
  "data": {
    "description": {
      "value": "<div class=\"spell-description\">\n  <p>\n    <strong>School</strong>&nbsp;evocation&nbsp;[force];\n    <strong>Level</strong>&nbsp;bloodrager 2, magus 2, occultist 2, psychic 2, sorcerer/wizard 2, spiritualist 2, witch 2;\n    \n    \n    \n    \n  </p>\n  <p>\n    <strong>Casting Time</strong>&nbsp;1 standard action<br>\n    <strong>Components</strong>&nbsp;V, S<br>\n  </p>\n  <p>\n    \n    \n    \n    <strong>Effect</strong>&nbsp;one sword-shaped weapon of force<br>\n    <strong>Duration</strong>&nbsp;1 minute/level<br>\n    <strong>Saving Throw</strong>&nbsp;none;&nbsp;<strong>Spell Resistance</strong>&nbsp;yes<br>\n  </p>\n  <h2>Description</h2>\n  <p>You create a <i>+1 longsword</i> of pure force sized appropriately for you that you can wield or give to another creature like any other longsword. At 8th level, the sword functions as a <i>+2 longsword</i>. At 13th level, it functions as a <i>+3 longsword</i>. A <i>force sword</i> cannot be attacked or harmed by physical attacks, but <i>dispel magic</i>, <i>disintegrate</i>, a <i>sphere of annihilation</i>, or a <i>rod of cancellation</i> affects it.  If a creature you attack with the sword has spell resistance, you must attempt a caster level check (1d20 + your caster level) against that spell resistance the first time the <i>force sword</i> strikes it. If you fail the check, the spell is dispelled. If you succeed, the weapon has its normal full effect on that creature for the duration of the spell.</p>\n</div>\n",
      "chat": "",
      "unidentified": ""
    },
    "tags": [],
    "activation": {
      "cost": 1,
      "type": "standard"
    },
    "unchainedAction": {
      "activation": {
        "cost": 2,
        "type": "action"
      }
    },
    "duration": {
      "value": null,
      "units": ""
    },
    "target": {
      "value": ""
    },
    "range": {
      "value": 0,
      "units": "ft",
      "maxIncrements": 1,
      "minValue": null,
      "minUnits": ""
    },
    "uses": {
      "value": 0,
      "max": 0,
      "per": "",
      "autoDeductCharges": true,
      "autoDeductChargesCost": "1"
    },
    "measureTemplate": {
      "type": "",
      "size": "0",
      "overrideColor": false,
      "customColor": "",
      "overrideTexture": false,
      "customTexture": ""
    },
    "attackName": "",
    "actionType": "other",
    "attackBonus": "",
    "critConfirmBonus": "",
    "damage": {
      "parts": [],
      "critParts": [],
      "nonCritParts": []
    },
    "attackParts": [],
    "formula": "",
    "ability": {
      "attack": "",
      "damage": "",
      "damageMult": 1,
      "critRange": 20,
      "critMult": 2
    },
    "save": {
      "dc": "0",
      "type": "",
      "description": ""
    },
    "effectNotes": "",
    "attackNotes": "",
    "soundEffect": "",
    "links": {
      "children": []
    },
    "learnedAt": {
      "class": [
        [
          "sorcerer/wizard",
          2
        ],
        [
          "witch",
          2
        ],
        [
          "magus",
          2
        ],
        [
          "bloodrager",
          2
        ],
        [
          "psychic",
          2
        ],
        [
          "occultist",
          2
        ],
        [
          "spiritualist",
          2
        ]
      ],
      "domain": [],
      "subDomain": [],
      "elementalSchool": [],
      "bloodline": []
    },
    "level": 2,
    "clOffset": 0,
    "slOffset": 0,
    "school": "evo",
    "subschool": "",
    "types": "force",
    "nonlethal": false,
    "conditionals": [],
    "components": {
      "value": "",
      "verbal": true,
      "somatic": true,
      "material": false,
      "focus": false,
      "divineFocus": 0
    },
    "castTime": "",
    "materials": {
      "value": "",
      "focus": "",
      "gpValue": 0
    },
    "spellbook": "primary",
    "preparation": {
      "preparedAmount": 0,
      "maxAmount": 0,
      "autoDeductCharges": true,
      "spontaneousPrepared": true,
      "mode": "prepared"
    },
    "atWill": false,
    "sr": true,
    "shortDescription": "<p>You create a <i>+1 longsword</i> of pure force sized appropriately for you that you can wield or give to another creature like any other longsword. At 8th level, the sword functions as a <i>+2 longsword</i>. At 13th level, it functions as a <i>+3 longsword</i>. A <i>force sword</i> cannot be attacked or harmed by physical attacks, but <i>dispel magic</i>, <i>disintegrate</i>, a <i>sphere of annihilation</i>, or a <i>rod of cancellation</i> affects it.  If a creature you attack with the sword has spell resistance, you must attempt a caster level check (1d20 + your caster level) against that spell resistance the first time the <i>force sword</i> strikes it. If you fail the check, the spell is dispelled. If you succeed, the weapon has its normal full effect on that creature for the duration of the spell.</p>",
    "spellDuration": "1 minute/level",
    "spellEffect": "one sword-shaped weapon of force",
    "spellArea": "",
    "showInQuickbar": false,
    "spellPoints": {
      "cost": "1 + @sl"
    },
    "domain": false,
    "slotCost": 1
  },
  "flags": {},
  "img": "systems/pf1/icons/misc/magic-swirl.png",
  "effects": []
}