{
  "_id": "mqx3hkg8nzkk4d3u",
  "name": "Gullibility",
  "permission": {
    "default": 0
  },
  "type": "spell",
  "data": {
    "description": {
      "value": "<div class=\"spell-description\">\n  <p>\n    <strong>School</strong>&nbsp;enchantment&nbsp;(charm)&nbsp;[mind-affecting];\n    <strong>Level</strong>&nbsp;antipaladin 3, bard 3, inquisitor 3, mesmerist 3, psychic 3, sorcerer/wizard 3, witch 3;\n    \n    \n    \n    \n  </p>\n  <p>\n    <strong>Casting Time</strong>&nbsp;1 standard action<br>\n    <strong>Components</strong>&nbsp;V, S<br>\n  </p>\n  <p>\n    <strong>Range</strong>&nbsp;close (25 ft. + 5 ft./2 levels)<br>\n    \n    <strong>Targets</strong>&nbsp;one creature<br>\n    \n    <strong>Duration</strong>&nbsp;10 minutes/level (D)<br>\n    <strong>Saving Throw</strong>&nbsp;Will negates;&nbsp;<strong>Spell Resistance</strong>&nbsp;yes<br>\n  </p>\n  <h2>Description</h2>\n  <p>You befuddle the target's mind, making it more willing to believe even the most outlandish tales. The target takes a -10 penalty on Sense Motive checks for the spell's duration. In addition, creatures that attempt to lie to or deceive the target gain a +10 bonus on their Bluff checks, as if the target wanted to believe them and was drunk or impaired simultaneously. Furthermore, the believability of any lie told to a creature under the effects of <i>gullibility</i> increases by one step; an impossible lie seems far-fetched, a far-fetched lie seems unlikely, and an unlikely lie seems believable.  A creature gains no benefits from <i>glibness</i> on B luff checks to lie to or deceive a creature that is under the effects of <i>gullibility</i>; in effect, <i>gullibility</i> r enders a t arget s o w illing t o believe what others say that <i>glibness</i> cannot make their words any more believable.</p>\n</div>\n",
      "chat": "",
      "unidentified": ""
    },
    "tags": [],
    "activation": {
      "cost": 1,
      "type": "standard"
    },
    "unchainedAction": {
      "activation": {
        "cost": 2,
        "type": "action"
      }
    },
    "duration": {
      "value": null,
      "units": ""
    },
    "target": {
      "value": "one creature"
    },
    "range": {
      "value": null,
      "units": "close",
      "maxIncrements": 1,
      "minValue": null,
      "minUnits": ""
    },
    "uses": {
      "value": 0,
      "max": 0,
      "per": "",
      "autoDeductCharges": true,
      "autoDeductChargesCost": "1"
    },
    "measureTemplate": {
      "type": "",
      "size": "0",
      "overrideColor": false,
      "customColor": "",
      "overrideTexture": false,
      "customTexture": ""
    },
    "attackName": "",
    "actionType": "spellsave",
    "attackBonus": "",
    "critConfirmBonus": "",
    "damage": {
      "parts": [],
      "critParts": [],
      "nonCritParts": []
    },
    "attackParts": [],
    "formula": "",
    "ability": {
      "attack": "",
      "damage": "",
      "damageMult": 1,
      "critRange": 20,
      "critMult": 2
    },
    "save": {
      "dc": "0",
      "type": "will",
      "description": "Will negates"
    },
    "effectNotes": "",
    "attackNotes": "",
    "soundEffect": "",
    "links": {
      "children": []
    },
    "learnedAt": {
      "class": [
        [
          "sorcerer/wizard",
          3
        ],
        [
          "bard",
          3
        ],
        [
          "witch",
          3
        ],
        [
          "inquisitor",
          3
        ],
        [
          "antipaladin",
          3
        ],
        [
          "psychic",
          3
        ],
        [
          "mesmerist",
          3
        ]
      ],
      "domain": [],
      "subDomain": [],
      "elementalSchool": [],
      "bloodline": []
    },
    "level": 3,
    "clOffset": 0,
    "slOffset": 0,
    "school": "enc",
    "subschool": "charm",
    "types": "mind-affecting",
    "nonlethal": false,
    "conditionals": [],
    "components": {
      "value": "",
      "verbal": true,
      "somatic": true,
      "material": false,
      "focus": false,
      "divineFocus": 0
    },
    "castTime": "",
    "materials": {
      "value": "",
      "focus": "",
      "gpValue": 0
    },
    "spellbook": "primary",
    "preparation": {
      "preparedAmount": 0,
      "maxAmount": 0,
      "autoDeductCharges": true,
      "spontaneousPrepared": true,
      "mode": "prepared"
    },
    "atWill": false,
    "sr": true,
    "shortDescription": "<p>You befuddle the target's mind, making it more willing to believe even the most outlandish tales. The target takes a -10 penalty on Sense Motive checks for the spell's duration. In addition, creatures that attempt to lie to or deceive the target gain a +10 bonus on their Bluff checks, as if the target wanted to believe them and was drunk or impaired simultaneously. Furthermore, the believability of any lie told to a creature under the effects of <i>gullibility</i> increases by one step; an impossible lie seems far-fetched, a far-fetched lie seems unlikely, and an unlikely lie seems believable.  A creature gains no benefits from <i>glibness</i> on B luff checks to lie to or deceive a creature that is under the effects of <i>gullibility</i>; in effect, <i>gullibility</i> r enders a t arget s o w illing t o believe what others say that <i>glibness</i> cannot make their words any more believable.</p>",
    "spellDuration": "10 minutes/level (D)",
    "spellEffect": "",
    "spellArea": "",
    "showInQuickbar": false,
    "spellPoints": {
      "cost": "1 + @sl"
    },
    "domain": false,
    "slotCost": 1
  },
  "flags": {},
  "img": "systems/pf1/icons/misc/magic-swirl.png",
  "effects": []
}