{
  "_id": "nxiccns1a3dt404d",
  "name": "Heretic's Tongue",
  "permission": {
    "default": 0
  },
  "type": "spell",
  "data": {
    "description": {
      "value": "<div class=\"spell-description\">\n  <p>\n    <strong>School</strong>&nbsp;enchantment&nbsp;[mind-affecting];\n    <strong>Level</strong>&nbsp;cleric/oracle 5, inquisitor 5, mesmerist 6;\n    \n    \n    \n    \n  </p>\n  <p>\n    <strong>Casting Time</strong>&nbsp;1 standard action<br>\n    <strong>Components</strong>&nbsp;V, S<br>\n  </p>\n  <p>\n    <strong>Range</strong>&nbsp;close (25 ft. + 5 ft./2 levels)<br>\n    \n    <strong>Targets</strong>&nbsp;living creature<br>\n    \n    <strong>Duration</strong>&nbsp;1 round/level<br>\n    <strong>Saving Throw</strong>&nbsp;Will negates;&nbsp;<strong>Spell Resistance</strong>&nbsp;yes<br>\n  </p>\n  <h2>Description</h2>\n  <p>You fill your target's mind with blasphemous knowledge. If the target fails its saving throw, it cannot cast spells or use spell-like abilities for the duration of the spell. Divine spellcasters whose power derives from the worship of a single deity (most clerics, paladins, and warpriests) have the potential to suffer worse. When targeting a divine spellcaster, you can designate an alignment. If the named alignment coincides with either the spellcaster's alignment or that of her deity, the divine spellcaster loses access to all supernatural and spell-like class abilities granted by the associated class for the spell's duration-blessings, domain powers, channel energy, smite evil, etc.  Those affected by this spell can end the effect early by choosing to release the blasphemies in a litany of screamed curses and heretical decadences. The creature is effectively paralyzed for half the spell's duration, and each ally within 50 feet must succeed at a Will saving throw (equal to this spell's save DC) or be shaken until the litany ends. If the creature chooses to do this, it cannot end the litany of blasphemies early. A creature that succeeds at its saving throw to avoid being shaken by its ally's blasphemous litany is immune to the litany's effects and need not attempt additional saves on subsequent rounds.</p>\n</div>\n",
      "chat": "",
      "unidentified": ""
    },
    "tags": [],
    "activation": {
      "cost": 1,
      "type": "standard"
    },
    "unchainedAction": {
      "activation": {
        "cost": 2,
        "type": "action"
      }
    },
    "duration": {
      "value": null,
      "units": ""
    },
    "target": {
      "value": "living creature"
    },
    "range": {
      "value": null,
      "units": "close",
      "maxIncrements": 1,
      "minValue": null,
      "minUnits": ""
    },
    "uses": {
      "value": 0,
      "max": 0,
      "per": "",
      "autoDeductCharges": true,
      "autoDeductChargesCost": "1"
    },
    "measureTemplate": {
      "type": "",
      "size": "0",
      "overrideColor": false,
      "customColor": "",
      "overrideTexture": false,
      "customTexture": ""
    },
    "attackName": "",
    "actionType": "spellsave",
    "attackBonus": "",
    "critConfirmBonus": "",
    "damage": {
      "parts": [],
      "critParts": [],
      "nonCritParts": []
    },
    "attackParts": [],
    "formula": "",
    "ability": {
      "attack": "",
      "damage": "",
      "damageMult": 1,
      "critRange": 20,
      "critMult": 2
    },
    "save": {
      "dc": "0",
      "type": "will",
      "description": "Will negates"
    },
    "effectNotes": "",
    "attackNotes": "",
    "soundEffect": "",
    "links": {
      "children": []
    },
    "learnedAt": {
      "class": [
        [
          "cleric/oracle",
          5
        ],
        [
          "inquisitor",
          5
        ],
        [
          "mesmerist",
          6
        ]
      ],
      "domain": [],
      "subDomain": [],
      "elementalSchool": [],
      "bloodline": []
    },
    "level": 5,
    "clOffset": 0,
    "slOffset": 0,
    "school": "enc",
    "subschool": "",
    "types": "mind-affecting",
    "nonlethal": false,
    "conditionals": [],
    "components": {
      "value": "",
      "verbal": true,
      "somatic": true,
      "material": false,
      "focus": false,
      "divineFocus": 0
    },
    "castTime": "",
    "materials": {
      "value": "",
      "focus": "",
      "gpValue": 0
    },
    "spellbook": "primary",
    "preparation": {
      "preparedAmount": 0,
      "maxAmount": 0,
      "autoDeductCharges": true,
      "spontaneousPrepared": true,
      "mode": "prepared"
    },
    "atWill": false,
    "sr": true,
    "shortDescription": "<p>You fill your target's mind with blasphemous knowledge. If the target fails its saving throw, it cannot cast spells or use spell-like abilities for the duration of the spell. Divine spellcasters whose power derives from the worship of a single deity (most clerics, paladins, and warpriests) have the potential to suffer worse. When targeting a divine spellcaster, you can designate an alignment. If the named alignment coincides with either the spellcaster's alignment or that of her deity, the divine spellcaster loses access to all supernatural and spell-like class abilities granted by the associated class for the spell's duration-blessings, domain powers, channel energy, smite evil, etc.  Those affected by this spell can end the effect early by choosing to release the blasphemies in a litany of screamed curses and heretical decadences. The creature is effectively paralyzed for half the spell's duration, and each ally within 50 feet must succeed at a Will saving throw (equal to this spell's save DC) or be shaken until the litany ends. If the creature chooses to do this, it cannot end the litany of blasphemies early. A creature that succeeds at its saving throw to avoid being shaken by its ally's blasphemous litany is immune to the litany's effects and need not attempt additional saves on subsequent rounds.</p>",
    "spellDuration": "1 round/level",
    "spellEffect": "",
    "spellArea": "",
    "showInQuickbar": false,
    "spellPoints": {
      "cost": "1 + @sl"
    },
    "domain": false,
    "slotCost": 1
  },
  "flags": {},
  "img": "systems/pf1/icons/misc/magic-swirl.png",
  "effects": []
}