{
  "_id": "7re5tyxfpphormys",
  "name": "Holy Ice",
  "permission": {
    "default": 0
  },
  "type": "spell",
  "data": {
    "description": {
      "value": "<div class=\"spell-description\">\n  <p>\n    <strong>School</strong>&nbsp;transmutation&nbsp;[cold, good, water];\n    <strong>Level</strong>&nbsp;cleric/oracle 5;\n    \n    \n    \n    \n  </p>\n  <p>\n    <strong>Casting Time</strong>&nbsp;1 standard action<br>\n    <strong>Components</strong>&nbsp;V, S, M (a flask of holy water or 5 pounds of powdered silver worth 25 gp)<br>\n  </p>\n  <p>\n    <strong>Range</strong>&nbsp;medium (100 ft. + 10 ft./level)<br>\n    \n    \n    <strong>Effect</strong>&nbsp;Wall of Ice or flying ice javelins (see text)<br>\n    <strong>Duration</strong>&nbsp;1 minute/level, instantaneous, or until expended (see text)<br>\n      <strong>Saving Throw</strong>&nbsp;Reflex negates or none (see text);&nbsp;\n      <strong>Spell Resistance</strong>&nbsp;yes<br>\n  </p>\n  <h2>Description</h2>\n  <p>This spell creates a large mass of frozen holy water that can be used for one of two effects.</p><p><i>Holy Ice</i> Wall: This functions like <i>Wall of Ice</i> (hemisphere or plane). Any creature that takes damage from holy water takes 1 point of damage every time it touches or attacks the ice wall with melee attacks; extended contact with the wall (such as standing or walking on it) deals 1d6 points of damage. Even when the ice has been broken through, a sheet of frigid holy air remains. Any creature that steps through it (including the one who broke through the wall) takes 1d6 points of damage + 1 point per caster level (no save); half of this damage is cold damage, half is damage from holy water (creatures unharmed by holy water do not take the damage).</p><p><i>Holy Ice</i> Javelins: The spell creates a number of javelins of frozen holy water in your square equal to your caster level (maximum 15), which hurl themselves toward one or more targets that are no more than 10 feet away from each other.</p><p>You must succeed on attack rolls (one per javelin) to hit the target with the javelin, using your base attack bonus + your Wisdom modifier. The javelins deal 1d6 damage each, plus 1 point of cold damage and 1 point of damage from holy water.</p><p>The javelins are destroyed by this attack.</p>\n</div>\n",
      "chat": "",
      "unidentified": ""
    },
    "tags": [],
    "activation": {
      "cost": 1,
      "type": "standard"
    },
    "unchainedAction": {
      "activation": {
        "cost": 2,
        "type": "action"
      }
    },
    "duration": {
      "value": null,
      "units": ""
    },
    "target": {
      "value": ""
    },
    "range": {
      "value": null,
      "units": "medium",
      "maxIncrements": 1,
      "minValue": null,
      "minUnits": ""
    },
    "uses": {
      "value": 0,
      "max": 0,
      "per": "",
      "autoDeductCharges": true,
      "autoDeductChargesCost": "1"
    },
    "measureTemplate": {
      "type": "",
      "size": "0",
      "overrideColor": false,
      "customColor": "",
      "overrideTexture": false,
      "customTexture": ""
    },
    "attackName": "",
    "actionType": "spellsave",
    "attackBonus": "",
    "critConfirmBonus": "",
    "damage": {
      "parts": [],
      "critParts": [],
      "nonCritParts": []
    },
    "attackParts": [],
    "formula": "",
    "ability": {
      "attack": "",
      "damage": "",
      "damageMult": 1,
      "critRange": 20,
      "critMult": 2
    },
    "save": {
      "dc": "0",
      "type": "ref",
      "description": "Reflex negates or none (see text)"
    },
    "effectNotes": "",
    "attackNotes": "",
    "soundEffect": "",
    "links": {
      "children": []
    },
    "learnedAt": {
      "class": [
        [
          "cleric/oracle",
          5
        ]
      ],
      "domain": [],
      "subDomain": [],
      "elementalSchool": [],
      "bloodline": []
    },
    "level": 5,
    "clOffset": 0,
    "slOffset": 0,
    "school": "trs",
    "subschool": "",
    "types": "cold, good, water",
    "nonlethal": false,
    "conditionals": [],
    "components": {
      "value": "",
      "verbal": true,
      "somatic": true,
      "material": true,
      "focus": false,
      "divineFocus": 0
    },
    "castTime": "",
    "materials": {
      "value": "a flask of holy water or 5 pounds of powdered silver worth 25 gp",
      "focus": "",
      "gpValue": 25
    },
    "spellbook": "",
    "preparation": {
      "preparedAmount": 0,
      "maxAmount": 0,
      "autoDeductCharges": false,
      "spontaneousPrepared": false,
      "mode": "prepared"
    },
    "atWill": false,
    "sr": true,
    "shortDescription": "<p>This spell creates a large mass of frozen holy water that can be used for one of two effects.</p><p><i>Holy Ice</i> Wall: This functions like <i>Wall of Ice</i> (hemisphere or plane). Any creature that takes damage from holy water takes 1 point of damage every time it touches or attacks the ice wall with melee attacks; extended contact with the wall (such as standing or walking on it) deals 1d6 points of damage. Even when the ice has been broken through, a sheet of frigid holy air remains. Any creature that steps through it (including the one who broke through the wall) takes 1d6 points of damage + 1 point per caster level (no save); half of this damage is cold damage, half is damage from holy water (creatures unharmed by holy water do not take the damage).</p><p><i>Holy Ice</i> Javelins: The spell creates a number of javelins of frozen holy water in your square equal to your caster level (maximum 15), which hurl themselves toward one or more targets that are no more than 10 feet away from each other.</p><p>You must succeed on attack rolls (one per javelin) to hit the target with the javelin, using your base attack bonus + your Wisdom modifier. The javelins deal 1d6 damage each, plus 1 point of cold damage and 1 point of damage from holy water.</p><p>The javelins are destroyed by this attack.</p>",
    "spellDuration": "1 minute/level, instantaneous, or until expended (see text)",
    "spellEffect": "Wall of Ice or flying ice javelins (see text)",
    "spellArea": "",
    "showInQuickbar": false,
    "spellPoints": {
      "cost": ""
    },
    "domain": false,
    "slotCost": 1
  },
  "flags": {},
  "img": "systems/pf1/icons/misc/magic-swirl.png",
  "effects": []
}