{
  "_id": "e8zen5nzixnt7bde",
  "name": "Horrid Wilting",
  "permission": {
    "default": 0
  },
  "type": "spell",
  "data": {
    "description": {
      "value": "<div class=\"spell-description\">\n  <p>\n    <strong>School</strong>&nbsp;necromancy;\n    <strong>Level</strong>&nbsp;shaman 8, sorcerer/wizard 8, witch 8;\n    <strong>Domain</strong>&nbsp;Water 8;\n    <strong>Subdomain</strong>&nbsp;Plague 8, Radiation 4;\n    \n    <strong>Bloodline</strong>&nbsp;Daemon 8, Pestilence 8, Undead 8;\n  </p>\n  <p>\n    <strong>Casting Time</strong>&nbsp;1 standard action<br>\n    <strong>Components</strong>&nbsp;V, S, M/DF (a bit of sponge)<br>\n  </p>\n  <p>\n    <strong>Range</strong>&nbsp;long (400 ft. + 40 ft./level)<br>\n    \n    <strong>Targets</strong>&nbsp;living creatures, no two of which can be more than 60 ft. apart<br>\n    \n    <strong>Duration</strong>&nbsp;instantaneous<br>\n    <strong>Saving Throw</strong>&nbsp;Fortitude half;&nbsp;<strong>Spell Resistance</strong>&nbsp;yes<br>\n  </p>\n  <h2>Description</h2>\n  <p>This spell evaporates moisture from the body of each subject living creature, causing flesh to wither and crack and crumble to dust. This deals 1d6 points of damage per caster level (maximum 20d6). This spell is especially devastating to water elementals and plant creatures, which instead take 1d8 points of damage per caster level (maximum 20d8).</p>\n</div>\n",
      "chat": "",
      "unidentified": ""
    },
    "tags": [],
    "activation": {
      "cost": 1,
      "type": "standard"
    },
    "unchainedAction": {
      "activation": {
        "cost": 2,
        "type": "action"
      }
    },
    "duration": {
      "value": null,
      "units": ""
    },
    "target": {
      "value": "living creatures, no two of which can be more than 60 ft. apart"
    },
    "range": {
      "value": null,
      "units": "long",
      "maxIncrements": 1,
      "minValue": null,
      "minUnits": ""
    },
    "uses": {
      "value": 0,
      "max": 0,
      "per": "",
      "autoDeductCharges": true,
      "autoDeductChargesCost": "1"
    },
    "measureTemplate": {
      "type": "",
      "size": "0",
      "overrideColor": false,
      "customColor": "",
      "overrideTexture": false,
      "customTexture": ""
    },
    "attackName": "",
    "actionType": "spellsave",
    "attackBonus": "",
    "critConfirmBonus": "",
    "damage": {
      "parts": [],
      "critParts": [],
      "nonCritParts": []
    },
    "attackParts": [],
    "formula": "",
    "ability": {
      "attack": "",
      "damage": "",
      "damageMult": 1,
      "critRange": 20,
      "critMult": 2
    },
    "save": {
      "dc": "0",
      "type": "fort",
      "description": "Fortitude half"
    },
    "effectNotes": "",
    "attackNotes": "",
    "soundEffect": "",
    "links": {
      "children": []
    },
    "learnedAt": {
      "class": [
        [
          "sorcerer/wizard",
          8
        ],
        [
          "witch",
          8
        ],
        [
          "shaman",
          8
        ]
      ],
      "domain": [
        [
          "Water",
          8
        ]
      ],
      "subDomain": [
        [
          "Radiation",
          4
        ],
        [
          "Plague",
          8
        ]
      ],
      "elementalSchool": [],
      "bloodline": [
        [
          "Pestilence",
          8
        ],
        [
          "Undead",
          8
        ],
        [
          "Daemon",
          8
        ]
      ]
    },
    "level": 8,
    "clOffset": 0,
    "slOffset": 0,
    "school": "nec",
    "subschool": "",
    "types": "",
    "nonlethal": false,
    "conditionals": [],
    "components": {
      "value": "",
      "verbal": true,
      "somatic": true,
      "material": true,
      "focus": false,
      "divineFocus": 2
    },
    "castTime": "",
    "materials": {
      "value": "a bit of sponge",
      "focus": "",
      "gpValue": 0
    },
    "spellbook": "primary",
    "preparation": {
      "preparedAmount": 0,
      "maxAmount": 0,
      "autoDeductCharges": true,
      "spontaneousPrepared": true,
      "mode": "prepared"
    },
    "atWill": false,
    "sr": true,
    "shortDescription": "<p>This spell evaporates moisture from the body of each subject living creature, causing flesh to wither and crack and crumble to dust. This deals 1d6 points of damage per caster level (maximum 20d6). This spell is especially devastating to water elementals and plant creatures, which instead take 1d8 points of damage per caster level (maximum 20d8).</p>",
    "spellDuration": "instantaneous",
    "spellEffect": "",
    "spellArea": "",
    "showInQuickbar": false,
    "spellPoints": {
      "cost": "1 + @sl"
    },
    "domain": false,
    "slotCost": 1
  },
  "flags": {},
  "img": "systems/pf1/icons/misc/magic-swirl.png",
  "effects": []
}