{
  "_id": "4osvw3l6mq9unkec",
  "name": "Hungry Pit",
  "permission": {
    "default": 0
  },
  "type": "spell",
  "data": {
    "description": {
      "value": "<div class=\"spell-description\">\n  <p>\n    <strong>School</strong>&nbsp;conjuration&nbsp;(creation);\n    <strong>Level</strong>&nbsp;sorcerer/wizard 5, summoner 5, unchained Summoner 5;\n    \n    <strong>Subdomain</strong>&nbsp;Caves 6;\n    \n    \n  </p>\n  <p>\n    <strong>Casting Time</strong>&nbsp;1 standard action<br>\n    <strong>Components</strong>&nbsp;V, S, F (miniature shovel costing 10 gp)<br>\n  </p>\n  <p>\n    <strong>Range</strong>&nbsp;medium (100 ft. + 10 ft./level)<br>\n    \n    \n    <strong>Effect</strong>&nbsp;10-ft.-by-10-ft. hole, 10 ft. deep/2 levels<br>\n    <strong>Duration</strong>&nbsp;1 round + 1 round/level<br>\n    <strong>Saving Throw</strong>&nbsp;Reflex negates; Reflex half; see text;&nbsp;<strong>Spell Resistance</strong>&nbsp;no<br>\n  </p>\n  <h2>Description</h2>\n  <p>This spell functions as <i>create pit</i>, except that the pit has the ability to squeeze and crush any creature trapped within it and has a maximum depth of 100 feet. Creatures who fall into the hole take falling damage as normal. In addition, anyone within the pit, not just those on the bottom, takes 4d6 points of bludgeoning damage each round as the pit contracts and then returns to its normal size (a successful Reflex save halves this damage). The ever-shifting walls of the pit are quite difficult to scale and have a Climb DC of 35.</p>\n</div>\n",
      "chat": "",
      "unidentified": ""
    },
    "tags": [],
    "activation": {
      "cost": 1,
      "type": "standard"
    },
    "unchainedAction": {
      "activation": {
        "cost": 2,
        "type": "action"
      }
    },
    "duration": {
      "value": null,
      "units": ""
    },
    "target": {
      "value": ""
    },
    "range": {
      "value": null,
      "units": "medium",
      "maxIncrements": 1,
      "minValue": null,
      "minUnits": ""
    },
    "uses": {
      "value": 0,
      "max": 0,
      "per": "",
      "autoDeductCharges": true,
      "autoDeductChargesCost": "1"
    },
    "measureTemplate": {
      "type": "",
      "size": "0",
      "overrideColor": false,
      "customColor": "",
      "overrideTexture": false,
      "customTexture": ""
    },
    "attackName": "",
    "actionType": "spellsave",
    "attackBonus": "",
    "critConfirmBonus": "",
    "damage": {
      "parts": [],
      "critParts": [],
      "nonCritParts": []
    },
    "attackParts": [],
    "formula": "",
    "ability": {
      "attack": "",
      "damage": "",
      "damageMult": 1,
      "critRange": 20,
      "critMult": 2
    },
    "save": {
      "dc": "0",
      "type": "ref",
      "description": "Reflex negates; Reflex half; see text"
    },
    "effectNotes": "",
    "attackNotes": "",
    "soundEffect": "",
    "links": {
      "children": []
    },
    "learnedAt": {
      "class": [
        [
          "sorcerer/wizard",
          5
        ],
        [
          "summoner",
          5
        ],
        [
          "unchained Summoner",
          5
        ]
      ],
      "domain": [],
      "subDomain": [
        [
          "Caves",
          6
        ]
      ],
      "elementalSchool": [],
      "bloodline": []
    },
    "level": 5,
    "clOffset": 0,
    "slOffset": 0,
    "school": "con",
    "subschool": "creation",
    "types": "",
    "nonlethal": false,
    "conditionals": [],
    "components": {
      "value": "",
      "verbal": true,
      "somatic": true,
      "material": false,
      "focus": true,
      "divineFocus": 0
    },
    "castTime": "",
    "materials": {
      "value": "",
      "focus": "miniature shovel costing 10 gp",
      "gpValue": 0
    },
    "spellbook": "primary",
    "preparation": {
      "preparedAmount": 0,
      "maxAmount": 0,
      "autoDeductCharges": true,
      "spontaneousPrepared": true,
      "mode": "prepared"
    },
    "atWill": false,
    "sr": false,
    "shortDescription": "<p>This spell functions as <i>create pit</i>, except that the pit has the ability to squeeze and crush any creature trapped within it and has a maximum depth of 100 feet. Creatures who fall into the hole take falling damage as normal. In addition, anyone within the pit, not just those on the bottom, takes 4d6 points of bludgeoning damage each round as the pit contracts and then returns to its normal size (a successful Reflex save halves this damage). The ever-shifting walls of the pit are quite difficult to scale and have a Climb DC of 35.</p>",
    "spellDuration": "1 round + 1 round/level",
    "spellEffect": "10-ft.-by-10-ft. hole, 10 ft. deep/2 levels",
    "spellArea": "",
    "showInQuickbar": false,
    "spellPoints": {
      "cost": "1 + @sl"
    },
    "domain": false,
    "slotCost": 1
  },
  "flags": {},
  "img": "systems/pf1/icons/misc/magic-swirl.png",
  "effects": []
}