{
  "_id": "wsbkqtbvovp47kzi",
  "name": "Hunger for Flesh, Mass",
  "permission": {
    "default": 0
  },
  "type": "spell",
  "data": {
    "description": {
      "value": "<div class=\"spell-description\">\n  <p>\n    <strong>School</strong>&nbsp;necromancy&nbsp;[evil, mind-affecting];\n    <strong>Level</strong>&nbsp;cleric/oracle 7, psychic 7, shaman 7, sorcerer/wizard 7, spiritualist 6, witch 7;\n    \n    \n    \n    \n  </p>\n  <p>\n    <strong>Casting Time</strong>&nbsp;1 standard action<br>\n    <strong>Components</strong>&nbsp;V, S, M/DF (a ghoul fang)<br>\n  </p>\n  <p>\n    <strong>Range</strong>&nbsp;close (25 ft. + 5 ft./2 levels)<br>\n    \n    <strong>Targets</strong>&nbsp;one humanoid, magical beast, or monstrous humanoid/ level, no two of which can be more than 30 feet apart<br>\n    \n    <strong>Duration</strong>&nbsp;1 round/level<br>\n    <strong>Saving Throw</strong>&nbsp;Will negates;&nbsp;<strong>Spell Resistance</strong>&nbsp;yes<br>\n  </p>\n  <h2>Description</h2>\n  <p>This spell functions like <i>Hunger for Flesh</i>, except that it affects multiple targets. When forced to feed by the spell, affected creatures attack creatures not affected by this spell if there are any such appropriate creatures nearby, but otherwise they attack other affected creatures.</p>\n</div>\n",
      "chat": "",
      "unidentified": ""
    },
    "tags": [],
    "activation": {
      "cost": 1,
      "type": "standard"
    },
    "unchainedAction": {
      "activation": {
        "cost": 2,
        "type": "action"
      }
    },
    "duration": {
      "value": null,
      "units": ""
    },
    "target": {
      "value": "one humanoid, magical beast, or monstrous humanoid/ level, no two of which can be more than 30 feet apart"
    },
    "range": {
      "value": null,
      "units": "close",
      "maxIncrements": 1,
      "minValue": null,
      "minUnits": ""
    },
    "uses": {
      "value": 0,
      "max": 0,
      "per": "",
      "autoDeductCharges": true,
      "autoDeductChargesCost": "1"
    },
    "measureTemplate": {
      "type": "",
      "size": "0",
      "overrideColor": false,
      "customColor": "",
      "overrideTexture": false,
      "customTexture": ""
    },
    "attackName": "",
    "actionType": "spellsave",
    "attackBonus": "",
    "critConfirmBonus": "",
    "damage": {
      "parts": [],
      "critParts": [],
      "nonCritParts": []
    },
    "attackParts": [],
    "formula": "",
    "ability": {
      "attack": "",
      "damage": "",
      "damageMult": 1,
      "critRange": 20,
      "critMult": 2
    },
    "save": {
      "dc": "0",
      "type": "will",
      "description": "Will negates"
    },
    "effectNotes": "",
    "attackNotes": "",
    "soundEffect": "",
    "links": {
      "children": []
    },
    "learnedAt": {
      "class": [
        [
          "sorcerer/wizard",
          7
        ],
        [
          "cleric/oracle",
          7
        ],
        [
          "witch",
          7
        ],
        [
          "shaman",
          7
        ],
        [
          "psychic",
          7
        ],
        [
          "spiritualist",
          6
        ]
      ],
      "domain": [],
      "subDomain": [],
      "elementalSchool": [],
      "bloodline": []
    },
    "level": 7,
    "clOffset": 0,
    "slOffset": 0,
    "school": "nec",
    "subschool": "",
    "types": "evil, mind-affecting",
    "nonlethal": false,
    "conditionals": [],
    "components": {
      "value": "",
      "verbal": true,
      "somatic": true,
      "material": true,
      "focus": false,
      "divineFocus": 2
    },
    "castTime": "",
    "materials": {
      "value": "a ghoul fang",
      "focus": "",
      "gpValue": 0
    },
    "spellbook": "primary",
    "preparation": {
      "preparedAmount": 0,
      "maxAmount": 0,
      "autoDeductCharges": true,
      "spontaneousPrepared": true,
      "mode": "prepared"
    },
    "atWill": false,
    "sr": true,
    "shortDescription": "<p>This spell functions like <i>Hunger for Flesh</i>, except that it affects multiple targets. When forced to feed by the spell, affected creatures attack creatures not affected by this spell if there are any such appropriate creatures nearby, but otherwise they attack other affected creatures.</p>",
    "spellDuration": "1 round/level",
    "spellEffect": "",
    "spellArea": "",
    "showInQuickbar": false,
    "spellPoints": {
      "cost": "1 + @sl"
    },
    "domain": false,
    "slotCost": 1
  },
  "flags": {},
  "img": "systems/pf1/icons/misc/magic-swirl.png",
  "effects": []
}