{
  "_id": "bbrkkjmgo5kof6gn",
  "name": "Keen Edge",
  "permission": {
    "default": 0
  },
  "type": "spell",
  "data": {
    "description": {
      "value": "<div class=\"spell-description\">\n  <p>\n    <strong>School</strong>&nbsp;transmutation;\n    <strong>Level</strong>&nbsp;bloodrager 3, inquisitor 3, magus 3, occultist 3, sorcerer/wizard 3;\n    \n    <strong>Subdomain</strong>&nbsp;Murder 3;\n    \n    \n  </p>\n  <p>\n    <strong>Casting Time</strong>&nbsp;1 standard action<br>\n    <strong>Components</strong>&nbsp;V, S<br>\n  </p>\n  <p>\n    <strong>Range</strong>&nbsp;close (25 ft. + 5 ft./2 levels)<br>\n    \n    <strong>Targets</strong>&nbsp;one weapon or 50 projectiles, all of which must be together at the time of casting<br>\n    \n    <strong>Duration</strong>&nbsp;10 min./level<br>\n    <strong>Saving Throw</strong>&nbsp;Will negates (harmless, object);&nbsp;<strong>Spell Resistance</strong>&nbsp;yes<br>\n  </p>\n  <h2>Description</h2>\n  <p>This spell makes a weapon magically <i>keen</i>, improving its ability to deal telling blows. This transmutation doubles the threat range of the weapon. A threat range of 20 becomes 19-20, a threat range of 19-20 becomes 17-20, and a threat range of 18-20 becomes 15-20. The spell can be cast only on piercing or slashing weapons. If cast on arrows or crossbow bolts, the <i><i>keen</i> edge</i> on a particular projectile ends after one use, whether or not the missile strikes its intended target.</p><p>Treat shuriken as arrows, rather than as thrown weapons, for the purpose of this spell.</p><p>Multiple effects that increase a weapon's threat range (such as the <i>keen</i> special weapon property and the Improved Critical feat) don't stack. You can't cast this spell on a natural weapon, such as a claw.</p>\n</div>\n",
      "chat": "",
      "unidentified": ""
    },
    "tags": [],
    "activation": {
      "cost": 1,
      "type": "standard"
    },
    "unchainedAction": {
      "activation": {
        "cost": 2,
        "type": "action"
      }
    },
    "duration": {
      "value": null,
      "units": ""
    },
    "target": {
      "value": "one weapon or 50 projectiles, all of which must be together at the time of casting"
    },
    "range": {
      "value": null,
      "units": "close",
      "maxIncrements": 1,
      "minValue": null,
      "minUnits": ""
    },
    "uses": {
      "value": 0,
      "max": 0,
      "per": "",
      "autoDeductCharges": true,
      "autoDeductChargesCost": "1"
    },
    "measureTemplate": {
      "type": "",
      "size": "0",
      "overrideColor": false,
      "customColor": "",
      "overrideTexture": false,
      "customTexture": ""
    },
    "attackName": "",
    "actionType": "spellsave",
    "attackBonus": "",
    "critConfirmBonus": "",
    "damage": {
      "parts": [],
      "critParts": [],
      "nonCritParts": []
    },
    "attackParts": [],
    "formula": "",
    "ability": {
      "attack": "",
      "damage": "",
      "damageMult": 1,
      "critRange": 20,
      "critMult": 2
    },
    "save": {
      "dc": "0",
      "type": "will",
      "description": "Will negates (harmless, object)"
    },
    "effectNotes": "",
    "attackNotes": "",
    "soundEffect": "",
    "links": {
      "children": []
    },
    "learnedAt": {
      "class": [
        [
          "sorcerer/wizard",
          3
        ],
        [
          "inquisitor",
          3
        ],
        [
          "magus",
          3
        ],
        [
          "bloodrager",
          3
        ],
        [
          "occultist",
          3
        ]
      ],
      "domain": [],
      "subDomain": [
        [
          "Murder",
          3
        ]
      ],
      "elementalSchool": [],
      "bloodline": []
    },
    "level": 3,
    "clOffset": 0,
    "slOffset": 0,
    "school": "trs",
    "subschool": "",
    "types": "",
    "nonlethal": false,
    "conditionals": [],
    "components": {
      "value": "",
      "verbal": true,
      "somatic": true,
      "material": false,
      "focus": false,
      "divineFocus": 0
    },
    "castTime": "",
    "materials": {
      "value": "",
      "focus": "",
      "gpValue": 0
    },
    "spellbook": "primary",
    "preparation": {
      "preparedAmount": 0,
      "maxAmount": 0,
      "autoDeductCharges": true,
      "spontaneousPrepared": true,
      "mode": "prepared"
    },
    "atWill": false,
    "sr": true,
    "shortDescription": "<p>This spell makes a weapon magically <i>keen</i>, improving its ability to deal telling blows. This transmutation doubles the threat range of the weapon. A threat range of 20 becomes 19-20, a threat range of 19-20 becomes 17-20, and a threat range of 18-20 becomes 15-20. The spell can be cast only on piercing or slashing weapons. If cast on arrows or crossbow bolts, the <i><i>keen</i> edge</i> on a particular projectile ends after one use, whether or not the missile strikes its intended target.</p><p>Treat shuriken as arrows, rather than as thrown weapons, for the purpose of this spell.</p><p>Multiple effects that increase a weapon's threat range (such as the <i>keen</i> special weapon property and the Improved Critical feat) don't stack. You can't cast this spell on a natural weapon, such as a claw.</p>",
    "spellDuration": "10 min./level",
    "spellEffect": "",
    "spellArea": "",
    "showInQuickbar": false,
    "spellPoints": {
      "cost": "1 + @sl"
    },
    "domain": false,
    "slotCost": 1
  },
  "flags": {},
  "img": "systems/pf1/icons/misc/magic-swirl.png",
  "effects": []
}