{
  "_id": "wqpl7isf6ejukk7k",
  "name": "Keep Watch",
  "permission": {
    "default": 0
  },
  "type": "spell",
  "data": {
    "description": {
      "value": "<div class=\"spell-description\">\n  <p>\n    <strong>School</strong>&nbsp;enchantment;\n    <strong>Level</strong>&nbsp;hunter 1, inquisitor 1, magus 1, paladin 1, ranger 1, sorcerer/wizard 1;\n    \n    \n    \n    \n  </p>\n  <p>\n    <strong>Casting Time</strong>&nbsp;1 standard action<br>\n    <strong>Components</strong>&nbsp;V, S<br>\n  </p>\n  <p>\n    <strong>Range</strong>&nbsp;touch<br>\n    \n    <strong>Targets</strong>&nbsp;one creature touched/2 levels<br>\n    \n    <strong>Duration</strong>&nbsp;8 hours or less; see text<br>\n    <strong>Saving Throw</strong>&nbsp;Will negates (harmless);&nbsp;<strong>Spell Resistance</strong>&nbsp;yes<br>\n  </p>\n  <h2>Description</h2>\n  <p>This spell enables the subjects to stand watch or keep vigil throughout the night without any ill effects. The subjects suffer no fatigue and gain all the usual benefits of a full night's rest. The subjects gain hit points as though from resting, wizards may prepare their spells as though they had slept for 8 hours, and so on. Effects that rely on actual <i>sleep</i> or dreaming are ineffective, though the subjects are still susceptible to effects that would put them to <i>sleep</i>, such as <i>sleep</i> or <i>deep slumber</i>. Any vigorous activity, including fighting, immediately ends the effect, and the affected creatures must either have the spell cast on them again or <i>sleep</i> for the remaining hours to avoid fatigue and gain the benefits of a full night's rest.</p>\n</div>\n",
      "chat": "",
      "unidentified": ""
    },
    "tags": [],
    "activation": {
      "cost": 1,
      "type": "standard"
    },
    "unchainedAction": {
      "activation": {
        "cost": 2,
        "type": "action"
      }
    },
    "duration": {
      "value": null,
      "units": ""
    },
    "target": {
      "value": "one creature touched/2 levels"
    },
    "range": {
      "value": null,
      "units": "touch",
      "maxIncrements": 1,
      "minValue": null,
      "minUnits": ""
    },
    "uses": {
      "value": 0,
      "max": 0,
      "per": "",
      "autoDeductCharges": true,
      "autoDeductChargesCost": "1"
    },
    "measureTemplate": {
      "type": "",
      "size": "0",
      "overrideColor": false,
      "customColor": "",
      "overrideTexture": false,
      "customTexture": ""
    },
    "attackName": "",
    "actionType": "spellsave",
    "attackBonus": "",
    "critConfirmBonus": "",
    "damage": {
      "parts": [],
      "critParts": [],
      "nonCritParts": []
    },
    "attackParts": [],
    "formula": "",
    "ability": {
      "attack": "",
      "damage": "",
      "damageMult": 1,
      "critRange": 20,
      "critMult": 2
    },
    "save": {
      "dc": "0",
      "type": "will",
      "description": "Will negates (harmless)"
    },
    "effectNotes": "",
    "attackNotes": "",
    "soundEffect": "",
    "links": {
      "children": []
    },
    "learnedAt": {
      "class": [
        [
          "sorcerer/wizard",
          1
        ],
        [
          "ranger",
          1
        ],
        [
          "paladin",
          1
        ],
        [
          "inquisitor",
          1
        ],
        [
          "magus",
          1
        ],
        [
          "hunter",
          1
        ]
      ],
      "domain": [],
      "subDomain": [],
      "elementalSchool": [],
      "bloodline": []
    },
    "level": 1,
    "clOffset": 0,
    "slOffset": 0,
    "school": "enc",
    "subschool": "",
    "types": "",
    "nonlethal": false,
    "conditionals": [],
    "components": {
      "value": "",
      "verbal": true,
      "somatic": true,
      "material": false,
      "focus": false,
      "divineFocus": 0
    },
    "castTime": "",
    "materials": {
      "value": "",
      "focus": "",
      "gpValue": 0
    },
    "spellbook": "primary",
    "preparation": {
      "preparedAmount": 0,
      "maxAmount": 0,
      "autoDeductCharges": true,
      "spontaneousPrepared": true,
      "mode": "prepared"
    },
    "atWill": false,
    "sr": true,
    "shortDescription": "<p>This spell enables the subjects to stand watch or keep vigil throughout the night without any ill effects. The subjects suffer no fatigue and gain all the usual benefits of a full night's rest. The subjects gain hit points as though from resting, wizards may prepare their spells as though they had slept for 8 hours, and so on. Effects that rely on actual <i>sleep</i> or dreaming are ineffective, though the subjects are still susceptible to effects that would put them to <i>sleep</i>, such as <i>sleep</i> or <i>deep slumber</i>. Any vigorous activity, including fighting, immediately ends the effect, and the affected creatures must either have the spell cast on them again or <i>sleep</i> for the remaining hours to avoid fatigue and gain the benefits of a full night's rest.</p>",
    "spellDuration": "8 hours or less; see text",
    "spellEffect": "",
    "spellArea": "",
    "showInQuickbar": false,
    "spellPoints": {
      "cost": "1 + @sl"
    },
    "domain": false,
    "slotCost": 1
  },
  "flags": {},
  "img": "systems/pf1/icons/misc/magic-swirl.png",
  "effects": []
}