{
  "_id": "lle98qy2ejxsmlsg",
  "name": "Khain's Army",
  "permission": {
    "default": 0
  },
  "type": "spell",
  "data": {
    "description": {
      "value": "<div class=\"spell-description\">\n  <p>\n    <strong>School</strong>&nbsp;necromancy&nbsp;[evil];\n    <strong>Level</strong>&nbsp;cleric/oracle 5, sorcerer/wizard 5, witch 5;\n    \n    \n    \n    \n  </p>\n  <p>\n    <strong>Casting Time</strong>&nbsp;1 standard action<br>\n    <strong>Components</strong>&nbsp;V, S, M/DF (a handful of ghoul&#x27;s teeth)<br>\n  </p>\n  <p>\n    <strong>Range</strong>&nbsp;5 feet<br>\n    \n    \n    <strong>Effect</strong>&nbsp;1d4+1 ghouls and 1 ghast<br>\n    <strong>Duration</strong>&nbsp;1 round/level<br>\n    <strong>Saving Throw</strong>&nbsp;Fortitude half (see text);&nbsp;<strong>Spell Resistance</strong>&nbsp;no<br>\n  </p>\n  <h2>Description</h2>\n  <p>Originally created by the priest-king of Nemret Noktoria, the ghoul Kortash Khain, for use by his minions to bolster their forces in battles against their enemies, Khain's army has become a favorite of many necromancers throughout Osirion and beyond. By scattering a handful of ghoul's teeth across the ground, you cause 1d4+1 ghouls led by a single ghast to rise up from the ground around you. The ghouls and their ghast leader must appear in squares adjacent to you, but after that they follow your spoken commands unerringly.</p><p>If one of the ghouls is destroyed while the spell's duration is still in effect, it bursts into a spray of rotten flesh and necromantic energy that deals 1d6 points of negative energy damage to all adjacent targets-this energy heals undead targets as typical for negative energy damage. If the ghast is destroyed in this manner, it deals twice as much negative energy damage as a ghoul. A successful Fortitude save halves the negative energy damage dealt. When this spell's duration expires, any remaining undead created by this spell crumble apart into dust and blow away without dealing any additional negative energy damage.</p>\n</div>\n",
      "chat": "",
      "unidentified": ""
    },
    "tags": [],
    "activation": {
      "cost": 1,
      "type": "standard"
    },
    "unchainedAction": {
      "activation": {
        "cost": 2,
        "type": "action"
      }
    },
    "duration": {
      "value": null,
      "units": ""
    },
    "target": {
      "value": ""
    },
    "range": {
      "value": 5,
      "units": "ft",
      "maxIncrements": 1,
      "minValue": null,
      "minUnits": ""
    },
    "uses": {
      "value": 0,
      "max": 0,
      "per": "",
      "autoDeductCharges": true,
      "autoDeductChargesCost": "1"
    },
    "measureTemplate": {
      "type": "",
      "size": "0",
      "overrideColor": false,
      "customColor": "",
      "overrideTexture": false,
      "customTexture": ""
    },
    "attackName": "",
    "actionType": "spellsave",
    "attackBonus": "",
    "critConfirmBonus": "",
    "damage": {
      "parts": [],
      "critParts": [],
      "nonCritParts": []
    },
    "attackParts": [],
    "formula": "",
    "ability": {
      "attack": "",
      "damage": "",
      "damageMult": 1,
      "critRange": 20,
      "critMult": 2
    },
    "save": {
      "dc": "0",
      "type": "fort",
      "description": "Fortitude half (see text)"
    },
    "effectNotes": "",
    "attackNotes": "",
    "soundEffect": "",
    "links": {
      "children": []
    },
    "learnedAt": {
      "class": [
        [
          "sorcerer/wizard",
          5
        ],
        [
          "cleric/oracle",
          5
        ],
        [
          "witch",
          5
        ]
      ],
      "domain": [],
      "subDomain": [],
      "elementalSchool": [],
      "bloodline": []
    },
    "level": 5,
    "clOffset": 0,
    "slOffset": 0,
    "school": "nec",
    "subschool": "",
    "types": "evil",
    "nonlethal": false,
    "conditionals": [],
    "components": {
      "value": "",
      "verbal": true,
      "somatic": true,
      "material": true,
      "focus": false,
      "divineFocus": 2
    },
    "castTime": "",
    "materials": {
      "value": "a handful of ghoul's teeth",
      "focus": "",
      "gpValue": 0
    },
    "spellbook": "primary",
    "preparation": {
      "preparedAmount": 0,
      "maxAmount": 0,
      "autoDeductCharges": true,
      "spontaneousPrepared": true,
      "mode": "prepared"
    },
    "atWill": false,
    "sr": false,
    "shortDescription": "<p>Originally created by the priest-king of Nemret Noktoria, the ghoul Kortash Khain, for use by his minions to bolster their forces in battles against their enemies, Khain's army has become a favorite of many necromancers throughout Osirion and beyond. By scattering a handful of ghoul's teeth across the ground, you cause 1d4+1 ghouls led by a single ghast to rise up from the ground around you. The ghouls and their ghast leader must appear in squares adjacent to you, but after that they follow your spoken commands unerringly.</p><p>If one of the ghouls is destroyed while the spell's duration is still in effect, it bursts into a spray of rotten flesh and necromantic energy that deals 1d6 points of negative energy damage to all adjacent targets-this energy heals undead targets as typical for negative energy damage. If the ghast is destroyed in this manner, it deals twice as much negative energy damage as a ghoul. A successful Fortitude save halves the negative energy damage dealt. When this spell's duration expires, any remaining undead created by this spell crumble apart into dust and blow away without dealing any additional negative energy damage.</p>",
    "spellDuration": "1 round/level",
    "spellEffect": "1d4+1 ghouls and 1 ghast",
    "spellArea": "",
    "showInQuickbar": false,
    "spellPoints": {
      "cost": "1 + @sl"
    },
    "domain": false,
    "slotCost": 1
  },
  "flags": {},
  "img": "systems/pf1/icons/misc/magic-swirl.png",
  "effects": []
}