{
  "_id": "1rt2lg6tt2kms0z0",
  "name": "Languid Venom",
  "permission": {
    "default": 0
  },
  "type": "spell",
  "data": {
    "description": {
      "value": "<div class=\"spell-description\">\n  <p>\n    <strong>School</strong>&nbsp;necromancy&nbsp;[poison];\n    <strong>Level</strong>&nbsp;alchemist 2, shaman 2, sorcerer/wizard 2;\n    \n    \n    \n    \n  </p>\n  <p>\n    <strong>Casting Time</strong>&nbsp;1 standard action<br>\n    <strong>Components</strong>&nbsp;V, S, M (herbs used in antitoxins worth 25 gp)<br>\n  </p>\n  <p>\n    <strong>Range</strong>&nbsp;touch<br>\n    \n    <strong>Targets</strong>&nbsp;one dose of poison or one venomous creature<br>\n    \n    <strong>Duration</strong>&nbsp;permanent until discharged (D)<br>\n      <strong>Saving Throw</strong>&nbsp;Fortitude negates;&nbsp;\n      <strong>Spell Resistance</strong>&nbsp;yes<br>\n  </p>\n  <h2>Description</h2>\n  <p>You greatly extend the time it takes for the poison you touch to take effect, giving that poison an onset time up to 1 hour per caster level. (You touch the poison's container, so you don't risk exposing yourself to a contact poison.) The target doesn't attempt a saving throw when initially exposed to the <i>languid venom</i>, but instead saves at the end of the poison's onset time. If the poison is neutralized or otherwise cured prior to the end of its onset time, it is rendered harmless. Failing saves against multiple doses of <i>languid venom</i> have the normal cumulative effect for poisons (<i>Pathfinder RPG Core Rulebook</i> 558).  <i>Languid venom</i> is difficult to detect or identify. <i>Detect poison</i> and similar effects detect <i>languid venom</i> only with a successful caster level check against a DC equal to 11 + your caster level (rolled secretly by the GM). Even if the poison is detected, the DC of Craft (alchemy) or Wisdom checks to identify the poison is increased by 10. If a poison is affected by an additional effect that requires a caster level check to detect the poison or increases the DC to identify it-such as <i>obscure poison</i> (see page 220)-those effects don't stack. Use only the caster level check with the higher DC and increase the DC of the check to identify the poison by the higher of the two.  If cast upon a venomous creature, <i>languid venom</i> delays the onset of that creature's poison when the creature next delivers its natural poison.</p>\n</div>\n",
      "chat": "",
      "unidentified": ""
    },
    "tags": [],
    "activation": {
      "cost": 1,
      "type": "standard"
    },
    "unchainedAction": {
      "activation": {
        "cost": 2,
        "type": "action"
      }
    },
    "duration": {
      "value": null,
      "units": ""
    },
    "target": {
      "value": "one dose of poison or one venomous creature"
    },
    "range": {
      "value": null,
      "units": "touch",
      "maxIncrements": 1,
      "minValue": null,
      "minUnits": ""
    },
    "uses": {
      "value": 0,
      "max": 0,
      "per": "",
      "autoDeductCharges": true,
      "autoDeductChargesCost": "1"
    },
    "measureTemplate": {
      "type": "",
      "size": "0",
      "overrideColor": false,
      "customColor": "",
      "overrideTexture": false,
      "customTexture": ""
    },
    "attackName": "",
    "actionType": "spellsave",
    "attackBonus": "",
    "critConfirmBonus": "",
    "damage": {
      "parts": [],
      "critParts": [],
      "nonCritParts": []
    },
    "attackParts": [],
    "formula": "",
    "ability": {
      "attack": "",
      "damage": "",
      "damageMult": 1,
      "critRange": 20,
      "critMult": 2
    },
    "save": {
      "dc": "0",
      "type": "fort",
      "description": "Fortitude negates"
    },
    "effectNotes": "",
    "attackNotes": "",
    "soundEffect": "",
    "links": {
      "children": []
    },
    "learnedAt": {
      "class": [
        [
          "sorcerer/wizard",
          2
        ],
        [
          "alchemist",
          2
        ],
        [
          "shaman",
          2
        ]
      ],
      "domain": [],
      "subDomain": [],
      "elementalSchool": [],
      "bloodline": []
    },
    "level": 2,
    "clOffset": 0,
    "slOffset": 0,
    "school": "nec",
    "subschool": "",
    "types": "poison",
    "nonlethal": false,
    "conditionals": [],
    "components": {
      "value": "",
      "verbal": true,
      "somatic": true,
      "material": true,
      "focus": false,
      "divineFocus": 0
    },
    "castTime": "",
    "materials": {
      "value": "herbs used in antitoxins worth 25 gp",
      "focus": "",
      "gpValue": 25
    },
    "spellbook": "",
    "preparation": {
      "preparedAmount": 0,
      "maxAmount": 0,
      "autoDeductCharges": false,
      "spontaneousPrepared": false,
      "mode": "prepared"
    },
    "atWill": false,
    "sr": true,
    "shortDescription": "<p>You greatly extend the time it takes for the poison you touch to take effect, giving that poison an onset time up to 1 hour per caster level. (You touch the poison's container, so you don't risk exposing yourself to a contact poison.) The target doesn't attempt a saving throw when initially exposed to the <i>languid venom</i>, but instead saves at the end of the poison's onset time. If the poison is neutralized or otherwise cured prior to the end of its onset time, it is rendered harmless. Failing saves against multiple doses of <i>languid venom</i> have the normal cumulative effect for poisons (<i>Pathfinder RPG Core Rulebook</i> 558).  <i>Languid venom</i> is difficult to detect or identify. <i>Detect poison</i> and similar effects detect <i>languid venom</i> only with a successful caster level check against a DC equal to 11 + your caster level (rolled secretly by the GM). Even if the poison is detected, the DC of Craft (alchemy) or Wisdom checks to identify the poison is increased by 10. If a poison is affected by an additional effect that requires a caster level check to detect the poison or increases the DC to identify it-such as <i>obscure poison</i> (see page 220)-those effects don't stack. Use only the caster level check with the higher DC and increase the DC of the check to identify the poison by the higher of the two.  If cast upon a venomous creature, <i>languid venom</i> delays the onset of that creature's poison when the creature next delivers its natural poison.</p>",
    "spellDuration": "permanent until discharged (D)",
    "spellEffect": "",
    "spellArea": "",
    "showInQuickbar": false,
    "spellPoints": {
      "cost": ""
    },
    "domain": false,
    "slotCost": 1
  },
  "flags": {},
  "img": "systems/pf1/icons/misc/magic-swirl.png",
  "effects": []
}