{
  "_id": "k03rmjkj1xvizszn",
  "name": "Light Lance",
  "permission": {
    "default": 0
  },
  "type": "spell",
  "data": {
    "description": {
      "value": "<div class=\"spell-description\">\n  <p>\n    <strong>School</strong>&nbsp;evocation&nbsp;[good, light];\n    <strong>Level</strong>&nbsp;paladin 2;\n    \n    \n    \n    \n  </p>\n  <p>\n    <strong>Casting Time</strong>&nbsp;1 standard action<br>\n    <strong>Components</strong>&nbsp;V, S<br>\n  </p>\n  <p>\n    <strong>Range</strong>&nbsp;personal<br>\n    \n    \n    <strong>Effect</strong>&nbsp;lance of light<br>\n    <strong>Duration</strong>&nbsp;1 round + 1 round/level (D)<br>\n    \n  </p>\n  <h2>Description</h2>\n  <p>You create a glorious beam of brilliant radiance that acts as a <i>+1 holy lance</i> suitable for your size. You must have a free hand when casting the spell and, once you call the lance into being, you cannot switch it to another hand or put it down without prematurely ending the spell. As a standard action while holding a <i>light lance</i>, you can choose not to make an attack and instead hold the lance aloft as a beacon of light and truth, creating an area of bright light with a radius of 90 feet. If you choose to do this for one or more additional rounds the lance also casts a spear of brilliant light up into the sky that grows progressively more visible as it continues to climb toward the heavens. Under cover of night or other darkness, if nothing obstructs the beam, it becomes visible for an additional 2 miles during each round in which you continue to aim your lance skyward (2 miles in the second round, 4 miles in the third round, and so on).</p>\n</div>\n",
      "chat": "",
      "unidentified": ""
    },
    "tags": [],
    "activation": {
      "cost": 1,
      "type": "standard"
    },
    "unchainedAction": {
      "activation": {
        "cost": 2,
        "type": "action"
      }
    },
    "duration": {
      "value": null,
      "units": ""
    },
    "target": {
      "value": ""
    },
    "range": {
      "value": null,
      "units": "personal",
      "maxIncrements": 1,
      "minValue": null,
      "minUnits": ""
    },
    "uses": {
      "value": 0,
      "max": 0,
      "per": "",
      "autoDeductCharges": true,
      "autoDeductChargesCost": "1"
    },
    "measureTemplate": {
      "type": "",
      "size": "0",
      "overrideColor": false,
      "customColor": "",
      "overrideTexture": false,
      "customTexture": ""
    },
    "attackName": "",
    "actionType": "other",
    "attackBonus": "",
    "critConfirmBonus": "",
    "damage": {
      "parts": [],
      "critParts": [],
      "nonCritParts": []
    },
    "attackParts": [],
    "formula": "",
    "ability": {
      "attack": "",
      "damage": "",
      "damageMult": 1,
      "critRange": 20,
      "critMult": 2
    },
    "save": {
      "dc": "0",
      "type": "",
      "description": ""
    },
    "effectNotes": "",
    "attackNotes": "",
    "soundEffect": "",
    "links": {
      "children": []
    },
    "learnedAt": {
      "class": [
        [
          "paladin",
          2
        ]
      ],
      "domain": [],
      "subDomain": [],
      "elementalSchool": [],
      "bloodline": []
    },
    "level": 2,
    "clOffset": 0,
    "slOffset": 0,
    "school": "evo",
    "subschool": "",
    "types": "good, light",
    "nonlethal": false,
    "conditionals": [],
    "components": {
      "value": "",
      "verbal": true,
      "somatic": true,
      "material": false,
      "focus": false,
      "divineFocus": 0
    },
    "castTime": "",
    "materials": {
      "value": "",
      "focus": "",
      "gpValue": 0
    },
    "spellbook": "primary",
    "preparation": {
      "preparedAmount": 0,
      "maxAmount": 0,
      "autoDeductCharges": true,
      "spontaneousPrepared": true,
      "mode": "prepared"
    },
    "atWill": false,
    "sr": false,
    "shortDescription": "<p>You create a glorious beam of brilliant radiance that acts as a <i>+1 holy lance</i> suitable for your size. You must have a free hand when casting the spell and, once you call the lance into being, you cannot switch it to another hand or put it down without prematurely ending the spell. As a standard action while holding a <i>light lance</i>, you can choose not to make an attack and instead hold the lance aloft as a beacon of light and truth, creating an area of bright light with a radius of 90 feet. If you choose to do this for one or more additional rounds the lance also casts a spear of brilliant light up into the sky that grows progressively more visible as it continues to climb toward the heavens. Under cover of night or other darkness, if nothing obstructs the beam, it becomes visible for an additional 2 miles during each round in which you continue to aim your lance skyward (2 miles in the second round, 4 miles in the third round, and so on).</p>",
    "spellDuration": "1 round + 1 round/level (D)",
    "spellEffect": "lance of light",
    "spellArea": "",
    "showInQuickbar": false,
    "spellPoints": {
      "cost": "1 + @sl"
    },
    "domain": false,
    "slotCost": 1
  },
  "flags": {},
  "img": "systems/pf1/icons/misc/magic-swirl.png",
  "effects": []
}