{
  "_id": "yoy6qehptymzr2by",
  "name": "Motes of Dusk and Dawn",
  "permission": {
    "default": 0
  },
  "type": "spell",
  "data": {
    "description": {
      "value": "<div class=\"spell-description\">\n  <p>\n    <strong>School</strong>&nbsp;evocation&nbsp;[darkness, light];\n    <strong>Level</strong>&nbsp;bard 3, magus 3, medium 3, mesmerist 3, occultist 3, psychic 3, shaman 3, sorcerer/wizard 3, witch 3;\n    \n    \n    \n    \n  </p>\n  <p>\n    <strong>Casting Time</strong>&nbsp;1 standard action<br>\n    <strong>Components</strong>&nbsp;V, S<br>\n  </p>\n  <p>\n    <strong>Range</strong>&nbsp;medium (100 ft. + 10 ft./level)<br>\n    \n    \n    <strong>Effect</strong>&nbsp;Up to four motes, all within a 10-ft.-radius area<br>\n    <strong>Duration</strong>&nbsp;1 minute (D)<br>\n    <strong>Saving Throw</strong>&nbsp;none;&nbsp;<strong>Spell Resistance</strong>&nbsp;no<br>\n  </p>\n  <h2>Description</h2>\n  <p>When you cast this spell, you create up to four motes that shed light or darkness in a 20-foot-radius, increasing or decreasing the illumination level by up to two categories. You decide whether each individual mote sheds light or darkness when the spell is cast.  The <i>Motes of Dusk and Dawn</i> must stay within a 10-foot-radius area of one another but otherwise move as you desire (no concentration required): forward or back, up or down, straight or turning corners, or the like. The motes can move up to 100 feet per round. A mote winks out if the distance between you and it exceeds the spell's range.</p>\n</div>\n",
      "chat": "",
      "unidentified": ""
    },
    "tags": [],
    "activation": {
      "cost": 1,
      "type": "standard"
    },
    "unchainedAction": {
      "activation": {
        "cost": 2,
        "type": "action"
      }
    },
    "duration": {
      "value": null,
      "units": ""
    },
    "target": {
      "value": ""
    },
    "range": {
      "value": null,
      "units": "medium",
      "maxIncrements": 1,
      "minValue": null,
      "minUnits": ""
    },
    "uses": {
      "value": 0,
      "max": 0,
      "per": "",
      "autoDeductCharges": true,
      "autoDeductChargesCost": "1"
    },
    "measureTemplate": {
      "type": "",
      "size": "0",
      "overrideColor": false,
      "customColor": "",
      "overrideTexture": false,
      "customTexture": ""
    },
    "attackName": "",
    "actionType": "other",
    "attackBonus": "",
    "critConfirmBonus": "",
    "damage": {
      "parts": [],
      "critParts": [],
      "nonCritParts": []
    },
    "attackParts": [],
    "formula": "",
    "ability": {
      "attack": "",
      "damage": "",
      "damageMult": 1,
      "critRange": 20,
      "critMult": 2
    },
    "save": {
      "dc": "0",
      "type": "",
      "description": ""
    },
    "effectNotes": "",
    "attackNotes": "",
    "soundEffect": "",
    "links": {
      "children": []
    },
    "learnedAt": {
      "class": [
        [
          "sorcerer/wizard",
          3
        ],
        [
          "bard",
          3
        ],
        [
          "witch",
          3
        ],
        [
          "magus",
          3
        ],
        [
          "shaman",
          3
        ],
        [
          "psychic",
          3
        ],
        [
          "medium",
          3
        ],
        [
          "mesmerist",
          3
        ],
        [
          "occultist",
          3
        ]
      ],
      "domain": [],
      "subDomain": [],
      "elementalSchool": [],
      "bloodline": []
    },
    "level": 3,
    "clOffset": 0,
    "slOffset": 0,
    "school": "evo",
    "subschool": "",
    "types": "darkness, light",
    "nonlethal": false,
    "conditionals": [],
    "components": {
      "value": "",
      "verbal": true,
      "somatic": true,
      "material": false,
      "focus": false,
      "divineFocus": 0
    },
    "castTime": "",
    "materials": {
      "value": "",
      "focus": "",
      "gpValue": 0
    },
    "spellbook": "primary",
    "preparation": {
      "preparedAmount": 0,
      "maxAmount": 0,
      "autoDeductCharges": true,
      "spontaneousPrepared": true,
      "mode": "prepared"
    },
    "atWill": false,
    "sr": false,
    "shortDescription": "<p>When you cast this spell, you create up to four motes that shed light or darkness in a 20-foot-radius, increasing or decreasing the illumination level by up to two categories. You decide whether each individual mote sheds light or darkness when the spell is cast.  The <i>Motes of Dusk and Dawn</i> must stay within a 10-foot-radius area of one another but otherwise move as you desire (no concentration required): forward or back, up or down, straight or turning corners, or the like. The motes can move up to 100 feet per round. A mote winks out if the distance between you and it exceeds the spell's range.</p>",
    "spellDuration": "1 minute (D)",
    "spellEffect": "Up to four motes, all within a 10-ft.-radius area",
    "spellArea": "",
    "showInQuickbar": false,
    "spellPoints": {
      "cost": "1 + @sl"
    },
    "domain": false,
    "slotCost": 1
  },
  "flags": {},
  "img": "systems/pf1/icons/misc/magic-swirl.png",
  "effects": []
}