{
  "_id": "smxybmf42pooo7jl",
  "name": "Music of the Spheres",
  "permission": {
    "default": 0
  },
  "type": "spell",
  "data": {
    "description": {
      "value": "<div class=\"spell-description\">\n  <p>\n    <strong>School</strong>&nbsp;conjuration&nbsp;(healing)&nbsp;[sonic];\n    <strong>Level</strong>&nbsp;bard 5, cleric/oracle 6;\n    \n    \n    \n    \n  </p>\n  <p>\n    <strong>Casting Time</strong>&nbsp;1 standard action<br>\n    <strong>Components</strong>&nbsp;V, S, M (a stick of incense treated with special balms)<br>\n  </p>\n  <p>\n    <strong>Range</strong>&nbsp;20 feet<br>\n    <strong>Area</strong>&nbsp;20-ft.-radius spherical emanation, centered on you<br>\n    \n    \n    <strong>Duration</strong>&nbsp;concentration, up to 1 round/level<br>\n    <strong>Saving Throw</strong>&nbsp;none;&nbsp;<strong>Spell Resistance</strong>&nbsp;yes<br>\n  </p>\n  <h2>Description</h2>\n  <p>As any scholar of Desnan lore or astrologer can tell you, the music of the spheres is the harmonic constant that plays under and through all of reality. It is this constant song, this otherworldly music, that keeps the laws of reality constant and the connections between the planes of existence strong.</p><p>With this spell, one can amplify the underlying music of the spheres in the spell's area of effect to infuse yourself and all creatures within 20 feet of you, friend and foe alike. All creatures that begin their turn within the area of this spell's effect gain fast healing 5, resistance 10 to all energy types, and a +3 sacred bonus on all saving throws against poison and disease. Any creature that enters the area of effect does not gain the benefits of the music of the spheres until it begins its turn in that area. You must maintain concentration on the amplification of the music or the effects immediately end, but you can move around to prevent enemies from gaining the benefits of this spell.</p>\n</div>\n",
      "chat": "",
      "unidentified": ""
    },
    "tags": [],
    "activation": {
      "cost": 1,
      "type": "standard"
    },
    "unchainedAction": {
      "activation": {
        "cost": 2,
        "type": "action"
      }
    },
    "duration": {
      "value": null,
      "units": ""
    },
    "target": {
      "value": ""
    },
    "range": {
      "value": 20,
      "units": "ft",
      "maxIncrements": 1,
      "minValue": null,
      "minUnits": ""
    },
    "uses": {
      "value": 0,
      "max": 0,
      "per": "",
      "autoDeductCharges": true,
      "autoDeductChargesCost": "1"
    },
    "measureTemplate": {
      "type": "",
      "size": "0",
      "overrideColor": false,
      "customColor": "",
      "overrideTexture": false,
      "customTexture": ""
    },
    "attackName": "",
    "actionType": "heal",
    "attackBonus": "",
    "critConfirmBonus": "",
    "damage": {
      "parts": [],
      "critParts": [],
      "nonCritParts": []
    },
    "attackParts": [],
    "formula": "",
    "ability": {
      "attack": "",
      "damage": "",
      "damageMult": 1,
      "critRange": 20,
      "critMult": 2
    },
    "save": {
      "dc": "0",
      "type": "",
      "description": ""
    },
    "effectNotes": "",
    "attackNotes": "",
    "soundEffect": "",
    "links": {
      "children": []
    },
    "learnedAt": {
      "class": [
        [
          "cleric/oracle",
          6
        ],
        [
          "bard",
          5
        ]
      ],
      "domain": [],
      "subDomain": [],
      "elementalSchool": [],
      "bloodline": []
    },
    "level": 6,
    "clOffset": 0,
    "slOffset": 0,
    "school": "con",
    "subschool": "healing",
    "types": "sonic",
    "nonlethal": false,
    "conditionals": [],
    "components": {
      "value": "",
      "verbal": true,
      "somatic": true,
      "material": true,
      "focus": false,
      "divineFocus": 0
    },
    "castTime": "",
    "materials": {
      "value": "a stick of incense treated with special balms",
      "focus": "",
      "gpValue": 0
    },
    "spellbook": "primary",
    "preparation": {
      "preparedAmount": 0,
      "maxAmount": 0,
      "autoDeductCharges": true,
      "spontaneousPrepared": true,
      "mode": "prepared"
    },
    "atWill": false,
    "sr": true,
    "shortDescription": "<p>As any scholar of Desnan lore or astrologer can tell you, the music of the spheres is the harmonic constant that plays under and through all of reality. It is this constant song, this otherworldly music, that keeps the laws of reality constant and the connections between the planes of existence strong.</p><p>With this spell, one can amplify the underlying music of the spheres in the spell's area of effect to infuse yourself and all creatures within 20 feet of you, friend and foe alike. All creatures that begin their turn within the area of this spell's effect gain fast healing 5, resistance 10 to all energy types, and a +3 sacred bonus on all saving throws against poison and disease. Any creature that enters the area of effect does not gain the benefits of the music of the spheres until it begins its turn in that area. You must maintain concentration on the amplification of the music or the effects immediately end, but you can move around to prevent enemies from gaining the benefits of this spell.</p>",
    "spellDuration": "concentration, up to 1 round/level",
    "spellEffect": "",
    "spellArea": "20-ft.-radius spherical emanation, centered on you",
    "showInQuickbar": false,
    "spellPoints": {
      "cost": "1 + @sl"
    },
    "domain": false,
    "slotCost": 1
  },
  "flags": {},
  "img": "systems/pf1/icons/misc/magic-swirl.png",
  "effects": []
}