{
  "_id": "foidv9ka9wuxlwje",
  "name": "Page-Bound Epiphany",
  "permission": {
    "default": 0
  },
  "type": "spell",
  "data": {
    "description": {
      "value": "<div class=\"spell-description\">\n  <p>\n    <strong>School</strong>&nbsp;divination;\n    <strong>Level</strong>&nbsp;bard 2, cleric/oracle 2, magus 2, sorcerer/wizard 2;\n    \n    \n    \n    \n  </p>\n  <p>\n    <strong>Casting Time</strong>&nbsp;1 round<br>\n    <strong>Components</strong>&nbsp;V, S, F (a book with blank pages)<br>\n  </p>\n  <p>\n    <strong>Range</strong>&nbsp;personal<br>\n    \n    \n    \n    <strong>Duration</strong>&nbsp;1 round/level (see text)<br>\n    \n  </p>\n  <h2>Description</h2>\n  <p>You magically scour the world's libraries for information that might refresh your memory about a topic. Upon casting this spell, the focus book's pages fill with snippets and selections from countless books. You can spend up to 1 round per caster level (maximum 10) reading these notes. You may cease reading at any time, and when you do you can immediately attempt one Knowledge check with a +1 circumstance bonus for each round you spent studying the book (maximum +10). The writing disappears when the spell ends, and if you fail to succeed at a Knowledge check on the round you stop reading the notes, you don't gain the benefits of this spell.</p>\n</div>\n",
      "chat": "",
      "unidentified": ""
    },
    "tags": [],
    "activation": {
      "cost": 1,
      "type": "round"
    },
    "unchainedAction": {
      "activation": {
        "cost": 3,
        "type": "action"
      }
    },
    "duration": {
      "value": null,
      "units": ""
    },
    "target": {
      "value": ""
    },
    "range": {
      "value": null,
      "units": "personal",
      "maxIncrements": 1,
      "minValue": null,
      "minUnits": ""
    },
    "uses": {
      "value": 0,
      "max": 0,
      "per": "",
      "autoDeductCharges": true,
      "autoDeductChargesCost": "1"
    },
    "measureTemplate": {
      "type": "",
      "size": "0",
      "overrideColor": false,
      "customColor": "",
      "overrideTexture": false,
      "customTexture": ""
    },
    "attackName": "",
    "actionType": "",
    "attackBonus": "",
    "critConfirmBonus": "",
    "damage": {
      "parts": [],
      "critParts": [],
      "nonCritParts": []
    },
    "attackParts": [],
    "formula": "",
    "ability": {
      "attack": "",
      "damage": "",
      "damageMult": 1,
      "critRange": 20,
      "critMult": 2
    },
    "save": {
      "dc": "0",
      "type": "",
      "description": ""
    },
    "effectNotes": "",
    "attackNotes": "",
    "soundEffect": "",
    "links": {
      "children": []
    },
    "learnedAt": {
      "class": [
        [
          "sorcerer/wizard",
          2
        ],
        [
          "cleric/oracle",
          2
        ],
        [
          "bard",
          2
        ],
        [
          "magus",
          2
        ]
      ],
      "domain": [],
      "subDomain": [],
      "elementalSchool": [],
      "bloodline": []
    },
    "level": 2,
    "clOffset": 0,
    "slOffset": 0,
    "school": "div",
    "subschool": "",
    "types": "",
    "nonlethal": false,
    "conditionals": [],
    "components": {
      "value": "",
      "verbal": true,
      "somatic": true,
      "material": false,
      "focus": true,
      "divineFocus": 0
    },
    "castTime": "",
    "materials": {
      "value": "",
      "focus": "a book with blank pages",
      "gpValue": 0
    },
    "spellbook": "primary",
    "preparation": {
      "preparedAmount": 0,
      "maxAmount": 0,
      "autoDeductCharges": true,
      "spontaneousPrepared": true,
      "mode": "prepared"
    },
    "atWill": false,
    "sr": false,
    "shortDescription": "<p>You magically scour the world's libraries for information that might refresh your memory about a topic. Upon casting this spell, the focus book's pages fill with snippets and selections from countless books. You can spend up to 1 round per caster level (maximum 10) reading these notes. You may cease reading at any time, and when you do you can immediately attempt one Knowledge check with a +1 circumstance bonus for each round you spent studying the book (maximum +10). The writing disappears when the spell ends, and if you fail to succeed at a Knowledge check on the round you stop reading the notes, you don't gain the benefits of this spell.</p>",
    "spellDuration": "1 round/level (see text)",
    "spellEffect": "",
    "spellArea": "",
    "showInQuickbar": false,
    "spellPoints": {
      "cost": "1 + @sl"
    },
    "domain": false,
    "slotCost": 1
  },
  "flags": {},
  "img": "systems/pf1/icons/misc/magic-swirl.png",
  "effects": []
}