{
  "_id": "zpwd0f19q1lm04p3",
  "name": "Phantom Steed",
  "permission": {
    "default": 0
  },
  "type": "spell",
  "data": {
    "description": {
      "value": "<div class=\"spell-description\">\n  <p>\n    <strong>School</strong>&nbsp;conjuration&nbsp;(creation);\n    <strong>Level</strong>&nbsp;bard 3, bloodrager 3, magus 3, occultist 3, sorcerer/wizard 3, spiritualist 2, summoner 2, unchained Summoner 2;\n    \n    \n    \n    \n  </p>\n  <p>\n    <strong>Casting Time</strong>&nbsp;10 minutes<br>\n    <strong>Components</strong>&nbsp;V, S<br>\n  </p>\n  <p>\n    \n    \n    \n    <strong>Effect</strong>&nbsp;one quasi-real, horselike creature<br>\n    <strong>Duration</strong>&nbsp;1 hour/level (D)<br>\n    <strong>Saving Throw</strong>&nbsp;none;&nbsp;<strong>Spell Resistance</strong>&nbsp;no<br>\n  </p>\n  <h2>Description</h2>\n  <p>You conjure a Large, quasi-real, horselike creature (the exact coloration can be customized as you wish). It can be ridden only by you or by the one person for whom you specifically created the mount. A phantom steed has a black head and body, gray mane and tail, and smoke-colored, insubstantial hooves that make no sound.</p><p>It has what seems to be a saddle, bit, and bridle. It does not fight, but animals shun it and refuse to attack it.</p><p>The mount is AC 18 (-1 size, +4 natural armor, +5 Dex) and 7 hit points + 1 hit point per caster level. If it loses all its hit points, the phantom steed disappears. A phantom steed has a speed of 20 feet per two caster levels, to a maximum of 100 feet at 10th level. It can bear its rider's weight plus up to 10 pounds per caster level.</p><p>These mounts gain certain powers according to caster level. A mount's abilities include those of mounts of lower caster levels.</p><p><i>8th Level</i>: The mount can ride over sandy, muddy, or even swampy ground without difficulty or decrease in speed.</p><p><i>10th Level</i>: The mount can use <i>water walk</i> at will (as the spell, no action required to activate this ability).</p><p><i>12th Level</i>: The mount can use <i>air walk</i> at will (as the spell, no action required to activate this ability) for up to 1 round at a time, after which it falls to the ground.</p><p><i>14th Level</i>: The mount can fly at its speed with a bonus on Fly skill checks equal to your caster level.</p>\n</div>\n",
      "chat": "",
      "unidentified": ""
    },
    "tags": [],
    "activation": {
      "cost": 10,
      "type": "minute"
    },
    "unchainedAction": {
      "activation": {
        "cost": 10,
        "type": "minute"
      }
    },
    "duration": {
      "value": null,
      "units": ""
    },
    "target": {
      "value": ""
    },
    "range": {
      "value": 0,
      "units": "ft",
      "maxIncrements": 1,
      "minValue": null,
      "minUnits": ""
    },
    "uses": {
      "value": 0,
      "max": 0,
      "per": "",
      "autoDeductCharges": true,
      "autoDeductChargesCost": "1"
    },
    "measureTemplate": {
      "type": "",
      "size": "0",
      "overrideColor": false,
      "customColor": "",
      "overrideTexture": false,
      "customTexture": ""
    },
    "attackName": "",
    "actionType": "other",
    "attackBonus": "",
    "critConfirmBonus": "",
    "damage": {
      "parts": [],
      "critParts": [],
      "nonCritParts": []
    },
    "attackParts": [],
    "formula": "",
    "ability": {
      "attack": "",
      "damage": "",
      "damageMult": 1,
      "critRange": 20,
      "critMult": 2
    },
    "save": {
      "dc": "0",
      "type": "",
      "description": ""
    },
    "effectNotes": "",
    "attackNotes": "",
    "soundEffect": "",
    "links": {
      "children": []
    },
    "learnedAt": {
      "class": [
        [
          "sorcerer/wizard",
          3
        ],
        [
          "bard",
          3
        ],
        [
          "summoner",
          2
        ],
        [
          "magus",
          3
        ],
        [
          "bloodrager",
          3
        ],
        [
          "occultist",
          3
        ],
        [
          "spiritualist",
          2
        ],
        [
          "unchained Summoner",
          2
        ]
      ],
      "domain": [],
      "subDomain": [],
      "elementalSchool": [],
      "bloodline": []
    },
    "level": 3,
    "clOffset": 0,
    "slOffset": 0,
    "school": "con",
    "subschool": "creation",
    "types": "",
    "nonlethal": false,
    "conditionals": [],
    "components": {
      "value": "",
      "verbal": true,
      "somatic": true,
      "material": false,
      "focus": false,
      "divineFocus": 0
    },
    "castTime": "",
    "materials": {
      "value": "",
      "focus": "",
      "gpValue": 0
    },
    "spellbook": "primary",
    "preparation": {
      "preparedAmount": 0,
      "maxAmount": 0,
      "autoDeductCharges": true,
      "spontaneousPrepared": true,
      "mode": "prepared"
    },
    "atWill": false,
    "sr": false,
    "shortDescription": "<p>You conjure a Large, quasi-real, horselike creature (the exact coloration can be customized as you wish). It can be ridden only by you or by the one person for whom you specifically created the mount. A phantom steed has a black head and body, gray mane and tail, and smoke-colored, insubstantial hooves that make no sound.</p><p>It has what seems to be a saddle, bit, and bridle. It does not fight, but animals shun it and refuse to attack it.</p><p>The mount is AC 18 (-1 size, +4 natural armor, +5 Dex) and 7 hit points + 1 hit point per caster level. If it loses all its hit points, the phantom steed disappears. A phantom steed has a speed of 20 feet per two caster levels, to a maximum of 100 feet at 10th level. It can bear its rider's weight plus up to 10 pounds per caster level.</p><p>These mounts gain certain powers according to caster level. A mount's abilities include those of mounts of lower caster levels.</p><p><i>8th Level</i>: The mount can ride over sandy, muddy, or even swampy ground without difficulty or decrease in speed.</p><p><i>10th Level</i>: The mount can use <i>water walk</i> at will (as the spell, no action required to activate this ability).</p><p><i>12th Level</i>: The mount can use <i>air walk</i> at will (as the spell, no action required to activate this ability) for up to 1 round at a time, after which it falls to the ground.</p><p><i>14th Level</i>: The mount can fly at its speed with a bonus on Fly skill checks equal to your caster level.</p>",
    "spellDuration": "1 hour/level (D)",
    "spellEffect": "one quasi-real, horselike creature",
    "spellArea": "",
    "showInQuickbar": false,
    "spellPoints": {
      "cost": "1 + @sl"
    },
    "domain": false,
    "slotCost": 1
  },
  "flags": {},
  "img": "systems/pf1/icons/misc/magic-swirl.png",
  "effects": []
}