{
  "_id": "tvhm9lzgnjlcucsn",
  "name": "Plant Growth",
  "permission": {
    "default": 0
  },
  "type": "spell",
  "data": {
    "description": {
      "value": "<div class=\"spell-description\">\n  <p>\n    <strong>School</strong>&nbsp;transmutation;\n    <strong>Level</strong>&nbsp;druid 3, hunter 3, ranger 3;\n    <strong>Domain</strong>&nbsp;Plant 3;\n    \n    \n    \n  </p>\n  <p>\n    <strong>Casting Time</strong>&nbsp;1 standard action<br>\n    <strong>Components</strong>&nbsp;V, S, DF<br>\n  </p>\n  <p>\n    \n    <strong>Area</strong>&nbsp;see text<br>\n    <strong>Targets</strong>&nbsp;see text<br>\n    \n    <strong>Duration</strong>&nbsp;instantaneous<br>\n    <strong>Saving Throw</strong>&nbsp;none;&nbsp;<strong>Spell Resistance</strong>&nbsp;no<br>\n  </p>\n  <h2>Description</h2>\n  <p><i>Plant growth</i> has different effects depending on the version chosen.</p><p><i>Overgrowth:</i> This effect causes normal vegetation (grasses, briars, bushes, creepers, thistles, trees, vines, and so on) within long range (400 feet + 40 feet per caster level) to become thick and overgrown.</p><p>The plants entwine to form a thicket or jungle that creatures must hack or force a way through. Speed drops to 5 feet, or 10 feet for Large or larger creatures. The area must have brush and trees in it for this spell to take effect. If this spell is cast on an area that is already affected by any spell or effect that enhances plants, such as <i>entangle</i> or <i>Wall of Thorns,</i> any DC involved with these spells is increased by 4.</p><p>This bonus is granted for 1 day after the casting of <i>plant growth.</i></p><p>At your option, the area can be a 100-foot-radius circle, a 150-foot-radius semicircle, or a 200-foot-radius quarter circle.</p><p>You may designate places within the area that are not affected.</p><p><i>Enrichment:</i> This effect targets plants within a range of a halfmile, raising their potential productivity over the course of the next year to one-third above normal.</p><p><i>Plant growth</i> counters <i>diminish plants</i>.</p><p>This spell has no effect on plant creatures.</p>\n</div>\n",
      "chat": "",
      "unidentified": ""
    },
    "tags": [],
    "activation": {
      "cost": 1,
      "type": "standard"
    },
    "unchainedAction": {
      "activation": {
        "cost": 2,
        "type": "action"
      }
    },
    "duration": {
      "value": null,
      "units": ""
    },
    "target": {
      "value": "see text"
    },
    "range": {
      "value": null,
      "units": "",
      "maxIncrements": 1,
      "minValue": null,
      "minUnits": ""
    },
    "uses": {
      "value": 0,
      "max": 0,
      "per": "",
      "autoDeductCharges": true,
      "autoDeductChargesCost": "1"
    },
    "measureTemplate": {
      "type": "",
      "size": "0",
      "overrideColor": false,
      "customColor": "",
      "overrideTexture": false,
      "customTexture": ""
    },
    "attackName": "",
    "actionType": "",
    "attackBonus": "",
    "critConfirmBonus": "",
    "damage": {
      "parts": [],
      "critParts": [],
      "nonCritParts": []
    },
    "attackParts": [],
    "formula": "",
    "ability": {
      "attack": "",
      "damage": "",
      "damageMult": 1,
      "critRange": 20,
      "critMult": 2
    },
    "save": {
      "dc": "0",
      "type": "",
      "description": ""
    },
    "effectNotes": "",
    "attackNotes": "",
    "soundEffect": "",
    "links": {
      "children": []
    },
    "learnedAt": {
      "class": [
        [
          "druid",
          3
        ],
        [
          "ranger",
          3
        ],
        [
          "hunter",
          3
        ]
      ],
      "domain": [
        [
          "Plant",
          3
        ]
      ],
      "subDomain": [],
      "elementalSchool": [],
      "bloodline": []
    },
    "level": 3,
    "clOffset": 0,
    "slOffset": 0,
    "school": "trs",
    "subschool": "",
    "types": "",
    "nonlethal": false,
    "conditionals": [],
    "components": {
      "value": "",
      "verbal": true,
      "somatic": true,
      "material": false,
      "focus": false,
      "divineFocus": 1
    },
    "castTime": "",
    "materials": {
      "value": "",
      "focus": "",
      "gpValue": 0
    },
    "spellbook": "primary",
    "preparation": {
      "preparedAmount": 0,
      "maxAmount": 0,
      "autoDeductCharges": true,
      "spontaneousPrepared": true,
      "mode": "prepared"
    },
    "atWill": false,
    "sr": false,
    "shortDescription": "<p><i>Plant growth</i> has different effects depending on the version chosen.</p><p><i>Overgrowth:</i> This effect causes normal vegetation (grasses, briars, bushes, creepers, thistles, trees, vines, and so on) within long range (400 feet + 40 feet per caster level) to become thick and overgrown.</p><p>The plants entwine to form a thicket or jungle that creatures must hack or force a way through. Speed drops to 5 feet, or 10 feet for Large or larger creatures. The area must have brush and trees in it for this spell to take effect. If this spell is cast on an area that is already affected by any spell or effect that enhances plants, such as <i>entangle</i> or <i>Wall of Thorns,</i> any DC involved with these spells is increased by 4.</p><p>This bonus is granted for 1 day after the casting of <i>plant growth.</i></p><p>At your option, the area can be a 100-foot-radius circle, a 150-foot-radius semicircle, or a 200-foot-radius quarter circle.</p><p>You may designate places within the area that are not affected.</p><p><i>Enrichment:</i> This effect targets plants within a range of a halfmile, raising their potential productivity over the course of the next year to one-third above normal.</p><p><i>Plant growth</i> counters <i>diminish plants</i>.</p><p>This spell has no effect on plant creatures.</p>",
    "spellDuration": "instantaneous",
    "spellEffect": "",
    "spellArea": "see text",
    "showInQuickbar": false,
    "spellPoints": {
      "cost": "1 + @sl"
    },
    "domain": false,
    "slotCost": 1
  },
  "flags": {},
  "img": "systems/pf1/icons/misc/magic-swirl.png",
  "effects": []
}