{
  "_id": "w0yeex0ythl4xujw",
  "name": "Planar Aegis",
  "permission": {
    "default": 0
  },
  "type": "spell",
  "data": {
    "description": {
      "value": "<div class=\"spell-description\">\n  <p>\n    <strong>School</strong>&nbsp;abjuration;\n    <strong>Level</strong>&nbsp;druid 5, hunter 3, occultist 4, ranger 3, sorcerer/wizard 5, summoner 4;\n    \n    \n    \n    \n  </p>\n  <p>\n    <strong>Casting Time</strong>&nbsp;1 standard action<br>\n    <strong>Components</strong>&nbsp;V, S, M (a fistful of naturally occurring material from a plane)<br>\n  </p>\n  <p>\n    <strong>Range</strong>&nbsp;personal<br>\n    \n    <strong>Targets</strong>&nbsp;you<br>\n    \n    <strong>Duration</strong>&nbsp;1 round/level (D)<br>\n    \n  </p>\n  <h2>Description</h2>\n  <p>You draw motes of essence from material native to a plane that has elemental or energy essence traits (<i>Pathfinder RPG Planar Adventures</i> 60), weaving the essence together into a shield of force. Choose an essence trait from the list below; the material component for this spell must come from a plane that has the essence trait you chose. Each essence trait has an associated damage type (see the table below). Any creature that hits you with a non-reach melee weapon, natural weapon, or unarmed attack takes 3d6 points of damage plus 1 point per caster level you have (maximum +20) of a type corresponding to the essence trait you chose. In addition, you take only half damage from attacks or effects of the associated damage type, and if such an attack or effect allows a saving throw for half damage, you take no damage on a successful saving throw.  Essence Trait Damage Type  Air-Dominant Electricity  Earth-Dominant Acid  Fire-Dominant Fire  Positive-Dominant Positive  Negative-Dominant Negative  Water-Dominant Cold</p>\n</div>\n",
      "chat": "",
      "unidentified": ""
    },
    "tags": [],
    "activation": {
      "cost": 1,
      "type": "standard"
    },
    "unchainedAction": {
      "activation": {
        "cost": 2,
        "type": "action"
      }
    },
    "duration": {
      "value": null,
      "units": ""
    },
    "target": {
      "value": "you"
    },
    "range": {
      "value": null,
      "units": "personal",
      "maxIncrements": 1,
      "minValue": null,
      "minUnits": ""
    },
    "uses": {
      "value": 0,
      "max": 0,
      "per": "",
      "autoDeductCharges": true,
      "autoDeductChargesCost": "1"
    },
    "measureTemplate": {
      "type": "",
      "size": "0",
      "overrideColor": false,
      "customColor": "",
      "overrideTexture": false,
      "customTexture": ""
    },
    "attackName": "",
    "actionType": "",
    "attackBonus": "",
    "critConfirmBonus": "",
    "damage": {
      "parts": [],
      "critParts": [],
      "nonCritParts": []
    },
    "attackParts": [],
    "formula": "",
    "ability": {
      "attack": "",
      "damage": "",
      "damageMult": 1,
      "critRange": 20,
      "critMult": 2
    },
    "save": {
      "dc": "0",
      "type": "",
      "description": ""
    },
    "effectNotes": "",
    "attackNotes": "",
    "soundEffect": "",
    "links": {
      "children": []
    },
    "learnedAt": {
      "class": [
        [
          "sorcerer/wizard",
          5
        ],
        [
          "druid",
          5
        ],
        [
          "ranger",
          3
        ],
        [
          "summoner",
          4
        ],
        [
          "occultist",
          4
        ],
        [
          "hunter",
          3
        ]
      ],
      "domain": [],
      "subDomain": [],
      "elementalSchool": [],
      "bloodline": []
    },
    "level": 5,
    "clOffset": 0,
    "slOffset": 0,
    "school": "abj",
    "subschool": "",
    "types": "",
    "nonlethal": false,
    "conditionals": [],
    "components": {
      "value": "",
      "verbal": true,
      "somatic": true,
      "material": true,
      "focus": false,
      "divineFocus": 0
    },
    "castTime": "",
    "materials": {
      "value": "a fistful of naturally occurring material from a plane",
      "focus": "",
      "gpValue": 0
    },
    "spellbook": "primary",
    "preparation": {
      "preparedAmount": 0,
      "maxAmount": 0,
      "autoDeductCharges": true,
      "spontaneousPrepared": true,
      "mode": "prepared"
    },
    "atWill": false,
    "sr": false,
    "shortDescription": "<p>You draw motes of essence from material native to a plane that has elemental or energy essence traits (<i>Pathfinder RPG Planar Adventures</i> 60), weaving the essence together into a shield of force. Choose an essence trait from the list below; the material component for this spell must come from a plane that has the essence trait you chose. Each essence trait has an associated damage type (see the table below). Any creature that hits you with a non-reach melee weapon, natural weapon, or unarmed attack takes 3d6 points of damage plus 1 point per caster level you have (maximum +20) of a type corresponding to the essence trait you chose. In addition, you take only half damage from attacks or effects of the associated damage type, and if such an attack or effect allows a saving throw for half damage, you take no damage on a successful saving throw.  Essence Trait Damage Type  Air-Dominant Electricity  Earth-Dominant Acid  Fire-Dominant Fire  Positive-Dominant Positive  Negative-Dominant Negative  Water-Dominant Cold</p>",
    "spellDuration": "1 round/level (D)",
    "spellEffect": "",
    "spellArea": "",
    "showInQuickbar": false,
    "spellPoints": {
      "cost": "1 + @sl"
    },
    "domain": false,
    "slotCost": 1
  },
  "flags": {},
  "img": "systems/pf1/icons/misc/magic-swirl.png",
  "effects": []
}