{
  "_id": "nw7jzpmn7rh7qlp5",
  "name": "Protection from Outsiders",
  "permission": {
    "default": 0
  },
  "type": "spell",
  "data": {
    "description": {
      "value": "<div class=\"spell-description\">\n  <p>\n    <strong>School</strong>&nbsp;abjuration&nbsp;[see text];\n    <strong>Level</strong>&nbsp;cleric/oracle 2, inquisitor 2, paladin 2;\n    \n    \n    \n    \n  </p>\n  <p>\n    <strong>Casting Time</strong>&nbsp;1 standard action<br>\n    <strong>Components</strong>&nbsp;V, S, DF<br>\n  </p>\n  <p>\n    <strong>Range</strong>&nbsp;touch<br>\n    \n    <strong>Targets</strong>&nbsp;creature touched<br>\n    \n    <strong>Duration</strong>&nbsp;1 minute/level (D)<br>\n    <strong>Saving Throw</strong>&nbsp;Will negates (harmless);&nbsp;<strong>Spell Resistance</strong>&nbsp;no<br>\n  </p>\n  <h2>Description</h2>\n  <p>This spell wards a creature from attacks by outsiders with a specific racial subtype, from mental control exerted by creatures of the chosen subtype, and from summoned creatures of that subtype. Only the subtypes of specific outsider races-angel, azata, demon, oni, psychopomp, protean, and so on-can be chosen as the subtype this spell protects against. Alignment subtypes or other general subtypes (like elemental, extraplanar, or native) cannot be selected. Outsiders without an outsider racial subtype (like genies, night hags, yeth hounds, or xills) are not affected by this spell.  This spell creates a magical barrier around the subject at a distance of 1 foot. The barrier moves with the subject and has three major effects.  First, the subject gains a +4 deflection bonus to AC and a +4 resistance bonus on saves when targeted by creatures of the chosen subtype.  Second, the subject immediately receives another saving throw (if one was allowed to begin with) against any spells or effects that possess or exercise mental control over the target creature. This functions in the same fashion as <i>Protection from Evil</i>, but only when the effect stems from outsiders of the chosen subtype, and the target's saving throw is made with a +4 morale bonus (using the same DC as the original effect).  Third, the spell prevents bodily contact by summoned creatures of the chosen subtype in the same manner as detailed in <i>Protection from Evil</i>.  This spell's descriptor varies depending on the outsider race selected, gaining the alignment descriptors opposite to the alignment of the outsider race-for example, lawful and good if the race is chaotic and evil, chaotic if the selected race is lawful, or none if the selected race is neutral.</p>\n</div>\n",
      "chat": "",
      "unidentified": ""
    },
    "tags": [],
    "activation": {
      "cost": 1,
      "type": "standard"
    },
    "unchainedAction": {
      "activation": {
        "cost": 2,
        "type": "action"
      }
    },
    "duration": {
      "value": null,
      "units": ""
    },
    "target": {
      "value": "creature touched"
    },
    "range": {
      "value": null,
      "units": "touch",
      "maxIncrements": 1,
      "minValue": null,
      "minUnits": ""
    },
    "uses": {
      "value": 0,
      "max": 0,
      "per": "",
      "autoDeductCharges": true,
      "autoDeductChargesCost": "1"
    },
    "measureTemplate": {
      "type": "",
      "size": "0",
      "overrideColor": false,
      "customColor": "",
      "overrideTexture": false,
      "customTexture": ""
    },
    "attackName": "",
    "actionType": "spellsave",
    "attackBonus": "",
    "critConfirmBonus": "",
    "damage": {
      "parts": [],
      "critParts": [],
      "nonCritParts": []
    },
    "attackParts": [],
    "formula": "",
    "ability": {
      "attack": "",
      "damage": "",
      "damageMult": 1,
      "critRange": 20,
      "critMult": 2
    },
    "save": {
      "dc": "0",
      "type": "will",
      "description": "Will negates (harmless)"
    },
    "effectNotes": "",
    "attackNotes": "",
    "soundEffect": "",
    "links": {
      "children": []
    },
    "learnedAt": {
      "class": [
        [
          "cleric/oracle",
          2
        ],
        [
          "paladin",
          2
        ],
        [
          "inquisitor",
          2
        ]
      ],
      "domain": [],
      "subDomain": [],
      "elementalSchool": [],
      "bloodline": []
    },
    "level": 2,
    "clOffset": 0,
    "slOffset": 0,
    "school": "abj",
    "subschool": "",
    "types": "see text",
    "nonlethal": false,
    "conditionals": [],
    "components": {
      "value": "",
      "verbal": true,
      "somatic": true,
      "material": false,
      "focus": false,
      "divineFocus": 1
    },
    "castTime": "",
    "materials": {
      "value": "",
      "focus": "",
      "gpValue": 0
    },
    "spellbook": "primary",
    "preparation": {
      "preparedAmount": 0,
      "maxAmount": 0,
      "autoDeductCharges": true,
      "spontaneousPrepared": true,
      "mode": "prepared"
    },
    "atWill": false,
    "sr": false,
    "shortDescription": "<p>This spell wards a creature from attacks by outsiders with a specific racial subtype, from mental control exerted by creatures of the chosen subtype, and from summoned creatures of that subtype. Only the subtypes of specific outsider races-angel, azata, demon, oni, psychopomp, protean, and so on-can be chosen as the subtype this spell protects against. Alignment subtypes or other general subtypes (like elemental, extraplanar, or native) cannot be selected. Outsiders without an outsider racial subtype (like genies, night hags, yeth hounds, or xills) are not affected by this spell.  This spell creates a magical barrier around the subject at a distance of 1 foot. The barrier moves with the subject and has three major effects.  First, the subject gains a +4 deflection bonus to AC and a +4 resistance bonus on saves when targeted by creatures of the chosen subtype.  Second, the subject immediately receives another saving throw (if one was allowed to begin with) against any spells or effects that possess or exercise mental control over the target creature. This functions in the same fashion as <i>Protection from Evil</i>, but only when the effect stems from outsiders of the chosen subtype, and the target's saving throw is made with a +4 morale bonus (using the same DC as the original effect).  Third, the spell prevents bodily contact by summoned creatures of the chosen subtype in the same manner as detailed in <i>Protection from Evil</i>.  This spell's descriptor varies depending on the outsider race selected, gaining the alignment descriptors opposite to the alignment of the outsider race-for example, lawful and good if the race is chaotic and evil, chaotic if the selected race is lawful, or none if the selected race is neutral.</p>",
    "spellDuration": "1 minute/level (D)",
    "spellEffect": "",
    "spellArea": "",
    "showInQuickbar": false,
    "spellPoints": {
      "cost": "1 + @sl"
    },
    "domain": false,
    "slotCost": 1
  },
  "flags": {},
  "img": "systems/pf1/icons/misc/magic-swirl.png",
  "effects": []
}