{
  "_id": "ky8ufep3j4d91bho",
  "name": "Release the Hounds",
  "permission": {
    "default": 0
  },
  "type": "spell",
  "data": {
    "description": {
      "value": "<div class=\"spell-description\">\n  <p>\n    <strong>School</strong>&nbsp;conjuration&nbsp;(summoning);\n    <strong>Level</strong>&nbsp;bard 5, druid 5, hunter 5, shaman 5, sorcerer/wizard 5, summoner 5, unchained Summoner 5, witch 5;\n    \n    \n    \n    \n  </p>\n  <p>\n    <strong>Casting Time</strong>&nbsp;1 standard action<br>\n    <strong>Components</strong>&nbsp;V, S, M/DF (shards of a canine&#x27;s fang)<br>\n  </p>\n  <p>\n    <strong>Range</strong>&nbsp;close (25 ft. + 5 ft./2 levels)<br>\n    \n    \n    <strong>Effect</strong>&nbsp;one pack of canines<br>\n    <strong>Duration</strong>&nbsp;1 round/level (D)<br>\n    <strong>Saving Throw</strong>&nbsp;none;&nbsp;<strong>Spell Resistance</strong>&nbsp;no<br>\n  </p>\n  <h2>Description</h2>\n  <p>This spell summons a pack of canines that respond to the spellcaster's commands and act in perfect unison, causing them to function like a swarm. The pack uses the statistics for a winter wolf (<i>Pathfinder RPG Bestiary</i> 280), except it loses its breath weapon, the cold subtype, and its cold special attack and gains the swarm subtype, a swarm attack that deals 3d6 points of damage, and the distraction special attack (DC 17). Whenever the pack damages an opponent with its swarm attack, it can immediately attempt a trip combat maneuver check against that creature with its trip special attack. The pack does not gain any damage reduction or immunity to damage and can be attacked by effects that target a specific number of creatures, though such attacks deal 1/4 the normal amount of damage (25%) and effects that don't deal hit point damage are only 25% likely to work.</p>\n</div>\n",
      "chat": "",
      "unidentified": ""
    },
    "tags": [],
    "activation": {
      "cost": 1,
      "type": "standard"
    },
    "unchainedAction": {
      "activation": {
        "cost": 2,
        "type": "action"
      }
    },
    "duration": {
      "value": null,
      "units": ""
    },
    "target": {
      "value": ""
    },
    "range": {
      "value": null,
      "units": "close",
      "maxIncrements": 1,
      "minValue": null,
      "minUnits": ""
    },
    "uses": {
      "value": 0,
      "max": 0,
      "per": "",
      "autoDeductCharges": true,
      "autoDeductChargesCost": "1"
    },
    "measureTemplate": {
      "type": "",
      "size": "0",
      "overrideColor": false,
      "customColor": "",
      "overrideTexture": false,
      "customTexture": ""
    },
    "attackName": "",
    "actionType": "other",
    "attackBonus": "",
    "critConfirmBonus": "",
    "damage": {
      "parts": [],
      "critParts": [],
      "nonCritParts": []
    },
    "attackParts": [],
    "formula": "",
    "ability": {
      "attack": "",
      "damage": "",
      "damageMult": 1,
      "critRange": 20,
      "critMult": 2
    },
    "save": {
      "dc": "0",
      "type": "",
      "description": ""
    },
    "effectNotes": "",
    "attackNotes": "",
    "soundEffect": "",
    "links": {
      "children": []
    },
    "learnedAt": {
      "class": [
        [
          "sorcerer/wizard",
          5
        ],
        [
          "druid",
          5
        ],
        [
          "bard",
          5
        ],
        [
          "summoner",
          5
        ],
        [
          "witch",
          5
        ],
        [
          "shaman",
          5
        ],
        [
          "hunter",
          5
        ],
        [
          "unchained Summoner",
          5
        ]
      ],
      "domain": [],
      "subDomain": [],
      "elementalSchool": [],
      "bloodline": []
    },
    "level": 5,
    "clOffset": 0,
    "slOffset": 0,
    "school": "con",
    "subschool": "summoning",
    "types": "",
    "nonlethal": false,
    "conditionals": [],
    "components": {
      "value": "",
      "verbal": true,
      "somatic": true,
      "material": true,
      "focus": false,
      "divineFocus": 2
    },
    "castTime": "",
    "materials": {
      "value": "shards of a canine's fang",
      "focus": "",
      "gpValue": 0
    },
    "spellbook": "primary",
    "preparation": {
      "preparedAmount": 0,
      "maxAmount": 0,
      "autoDeductCharges": true,
      "spontaneousPrepared": true,
      "mode": "prepared"
    },
    "atWill": false,
    "sr": false,
    "shortDescription": "<p>This spell summons a pack of canines that respond to the spellcaster's commands and act in perfect unison, causing them to function like a swarm. The pack uses the statistics for a winter wolf (<i>Pathfinder RPG Bestiary</i> 280), except it loses its breath weapon, the cold subtype, and its cold special attack and gains the swarm subtype, a swarm attack that deals 3d6 points of damage, and the distraction special attack (DC 17). Whenever the pack damages an opponent with its swarm attack, it can immediately attempt a trip combat maneuver check against that creature with its trip special attack. The pack does not gain any damage reduction or immunity to damage and can be attacked by effects that target a specific number of creatures, though such attacks deal 1/4 the normal amount of damage (25%) and effects that don't deal hit point damage are only 25% likely to work.</p>",
    "spellDuration": "1 round/level (D)",
    "spellEffect": "one pack of canines",
    "spellArea": "",
    "showInQuickbar": false,
    "spellPoints": {
      "cost": "1 + @sl"
    },
    "domain": false,
    "slotCost": 1
  },
  "flags": {},
  "img": "systems/pf1/icons/misc/magic-swirl.png",
  "effects": []
}