{
  "_id": "lglavvjzclqdhv5o",
  "name": "Resounding Clang",
  "permission": {
    "default": 0
  },
  "type": "spell",
  "data": {
    "description": {
      "value": "<div class=\"spell-description\">\n  <p>\n    <strong>School</strong>&nbsp;transmutation;\n    <strong>Level</strong>&nbsp;bard 2;\n    \n    \n    \n    \n  </p>\n  <p>\n    <strong>Casting Time</strong>&nbsp;1 standard action<br>\n    <strong>Components</strong>&nbsp;S, F (bell, chimes, gong, or cymbals)<br>\n  </p>\n  <p>\n    <strong>Range</strong>&nbsp;30 feet<br>\n    <strong>Area</strong>&nbsp;30-ft.-radius burst, centered on you<br>\n    \n    \n    <strong>Duration</strong>&nbsp;1 round/level<br>\n    <strong>Saving Throw</strong>&nbsp;Reflex negates;&nbsp;<strong>Spell Resistance</strong>&nbsp;yes<br>\n  </p>\n  <h2>Description</h2>\n  <p>You create a loud, resonating clangor that causes metallic objects to vibrate wildly. Affected creatures wielding metal weapons take a -1 penalty on attack rolls, while creatures using metallic tools take a -1 penalty on associated skill checks.</p><p>Creatures wearing metal armor increase the armor check penalty of their armor by 1. These penalties increase by 1 at 8th caster level and every 4 caster levels thereafter (to a maximum of -4 at 16th level).</p><p>To be affected by the spell, an item must be composed primarily of metal. Nonmetallic objects with metal components (such as studded leather armor or padded armor with armor spikes) are not affected. Creatures made of metal take the penalties described above on attack rolls, damage rolls, skill checks, and Reflex saves.</p>\n</div>\n",
      "chat": "",
      "unidentified": ""
    },
    "tags": [],
    "activation": {
      "cost": 1,
      "type": "standard"
    },
    "unchainedAction": {
      "activation": {
        "cost": 2,
        "type": "action"
      }
    },
    "duration": {
      "value": null,
      "units": ""
    },
    "target": {
      "value": ""
    },
    "range": {
      "value": 30,
      "units": "ft",
      "maxIncrements": 1,
      "minValue": null,
      "minUnits": ""
    },
    "uses": {
      "value": 0,
      "max": 0,
      "per": "",
      "autoDeductCharges": true,
      "autoDeductChargesCost": "1"
    },
    "measureTemplate": {
      "type": "",
      "size": "0",
      "overrideColor": false,
      "customColor": "",
      "overrideTexture": false,
      "customTexture": ""
    },
    "attackName": "",
    "actionType": "spellsave",
    "attackBonus": "",
    "critConfirmBonus": "",
    "damage": {
      "parts": [],
      "critParts": [],
      "nonCritParts": []
    },
    "attackParts": [],
    "formula": "",
    "ability": {
      "attack": "",
      "damage": "",
      "damageMult": 1,
      "critRange": 20,
      "critMult": 2
    },
    "save": {
      "dc": "0",
      "type": "ref",
      "description": "Reflex negates"
    },
    "effectNotes": "",
    "attackNotes": "",
    "soundEffect": "",
    "links": {
      "children": []
    },
    "learnedAt": {
      "class": [
        [
          "bard",
          2
        ]
      ],
      "domain": [],
      "subDomain": [],
      "elementalSchool": [],
      "bloodline": []
    },
    "level": 2,
    "clOffset": 0,
    "slOffset": 0,
    "school": "trs",
    "subschool": "",
    "types": "",
    "nonlethal": false,
    "conditionals": [],
    "components": {
      "value": "",
      "verbal": false,
      "somatic": true,
      "material": false,
      "focus": true,
      "divineFocus": 0
    },
    "castTime": "",
    "materials": {
      "value": "",
      "focus": "bell, chimes, gong, or cymbals",
      "gpValue": 0
    },
    "spellbook": "primary",
    "preparation": {
      "preparedAmount": 0,
      "maxAmount": 0,
      "autoDeductCharges": true,
      "spontaneousPrepared": true,
      "mode": "prepared"
    },
    "atWill": false,
    "sr": true,
    "shortDescription": "<p>You create a loud, resonating clangor that causes metallic objects to vibrate wildly. Affected creatures wielding metal weapons take a -1 penalty on attack rolls, while creatures using metallic tools take a -1 penalty on associated skill checks.</p><p>Creatures wearing metal armor increase the armor check penalty of their armor by 1. These penalties increase by 1 at 8th caster level and every 4 caster levels thereafter (to a maximum of -4 at 16th level).</p><p>To be affected by the spell, an item must be composed primarily of metal. Nonmetallic objects with metal components (such as studded leather armor or padded armor with armor spikes) are not affected. Creatures made of metal take the penalties described above on attack rolls, damage rolls, skill checks, and Reflex saves.</p>",
    "spellDuration": "1 round/level",
    "spellEffect": "",
    "spellArea": "30-ft.-radius burst, centered on you",
    "showInQuickbar": false,
    "spellPoints": {
      "cost": "1 + @sl"
    },
    "domain": false,
    "slotCost": 1
  },
  "flags": {},
  "img": "systems/pf1/icons/misc/magic-swirl.png",
  "effects": []
}