{
  "_id": "groxtnp5g2yrbmjc",
  "name": "Resplendent Mansion",
  "permission": {
    "default": 0
  },
  "type": "spell",
  "data": {
    "description": {
      "value": "<div class=\"spell-description\">\n  <p>\n    <strong>School</strong>&nbsp;conjuration&nbsp;(creation);\n    <strong>Level</strong>&nbsp;psychic 9, sorcerer/wizard 9;\n    \n    \n    \n    \n  </p>\n  <p>\n    <strong>Casting Time</strong>&nbsp;1 minute<br>\n    <strong>Components</strong>&nbsp;V, S, F (a miniature cornerstone carved from precious gemstones worth 500 gp)<br>\n  </p>\n  <p>\n    <strong>Range</strong>&nbsp;long (400 ft. + 40 ft./level)<br>\n    \n    \n    <strong>Effect</strong>&nbsp;opulent mansion, up to 300 feet on a side and one story tall/4 levels<br>\n    <strong>Duration</strong>&nbsp;1 day/level (D)<br>\n    <strong>Saving Throw</strong>&nbsp;none;&nbsp;<strong>Spell Resistance</strong>&nbsp;no<br>\n  </p>\n  <h2>Description</h2>\n  <p>This spell creates a towering mansion. While casting the spell, you hold an image of the mansion and its desired appearance in your mind. The mansion can contain as many or as few rooms as you desire, and is decorated to match your image. You can imagine a purpose for each room of the mansion, and the proper accouterments appear within. Any furniture or other mundane fixtures function normally for anyone inside the mansion, but cease to exist if taken beyond its walls. No fixture created with this spell can create magical effects, but magical devices brought into the mansion function normally.  A <i>resplendent mansion</i> contains the same types of foodstuffs and servants as a mage's magnificent mansion.  Each of the mansion's exterior doorways and windows are protected by <i>alarm</i> spells. You choose whether each <i>alarm</i> is audible or mental as you cast the spell, and each <i>alarm</i> has a different sound (for an audible <i>alarm</i>) or sensation (for a mental one), allowing you to instantly determine which portal has been used.  The mansion must be created on a plot of land free of other structures. It adapts to the natural terrain, adopting all structural requirements for being built on, for example, a mountainside. The mansion adjusts around small features such as ponds or spires of rock, but can't be created on water or other nonsolid surfaces. If created on snow, sand dunes, or other soft surfaces with a solid surface underneath, the foundation reaches the solid ground. If created on a solid but unstable surface, such as a swamp or an area plagued by tremors, there's a 10% chance each day that the mansion begins to sink or collapse.  The mansion doesn't harm creatures within the area when it appears, and can't be created among a crowd or in a densely populated area. Any creature inadvertently caught inside the mansion when the spell is cast ends up unharmed inside the complete mansion.</p>\n</div>\n",
      "chat": "",
      "unidentified": ""
    },
    "tags": [],
    "activation": {
      "cost": 1,
      "type": "minute"
    },
    "unchainedAction": {
      "activation": {
        "cost": 1,
        "type": "minute"
      }
    },
    "duration": {
      "value": null,
      "units": ""
    },
    "target": {
      "value": ""
    },
    "range": {
      "value": null,
      "units": "long",
      "maxIncrements": 1,
      "minValue": null,
      "minUnits": ""
    },
    "uses": {
      "value": 0,
      "max": 0,
      "per": "",
      "autoDeductCharges": true,
      "autoDeductChargesCost": "1"
    },
    "measureTemplate": {
      "type": "",
      "size": "0",
      "overrideColor": false,
      "customColor": "",
      "overrideTexture": false,
      "customTexture": ""
    },
    "attackName": "",
    "actionType": "other",
    "attackBonus": "",
    "critConfirmBonus": "",
    "damage": {
      "parts": [],
      "critParts": [],
      "nonCritParts": []
    },
    "attackParts": [],
    "formula": "",
    "ability": {
      "attack": "",
      "damage": "",
      "damageMult": 1,
      "critRange": 20,
      "critMult": 2
    },
    "save": {
      "dc": "0",
      "type": "",
      "description": ""
    },
    "effectNotes": "",
    "attackNotes": "",
    "soundEffect": "",
    "links": {
      "children": []
    },
    "learnedAt": {
      "class": [
        [
          "sorcerer/wizard",
          9
        ],
        [
          "psychic",
          9
        ]
      ],
      "domain": [],
      "subDomain": [],
      "elementalSchool": [],
      "bloodline": []
    },
    "level": 9,
    "clOffset": 0,
    "slOffset": 0,
    "school": "con",
    "subschool": "creation",
    "types": "",
    "nonlethal": false,
    "conditionals": [],
    "components": {
      "value": "",
      "verbal": true,
      "somatic": true,
      "material": false,
      "focus": true,
      "divineFocus": 0
    },
    "castTime": "",
    "materials": {
      "value": "",
      "focus": "a miniature cornerstone carved from precious gemstones worth 500 gp",
      "gpValue": 0
    },
    "spellbook": "primary",
    "preparation": {
      "preparedAmount": 0,
      "maxAmount": 0,
      "autoDeductCharges": true,
      "spontaneousPrepared": true,
      "mode": "prepared"
    },
    "atWill": false,
    "sr": false,
    "shortDescription": "<p>This spell creates a towering mansion. While casting the spell, you hold an image of the mansion and its desired appearance in your mind. The mansion can contain as many or as few rooms as you desire, and is decorated to match your image. You can imagine a purpose for each room of the mansion, and the proper accouterments appear within. Any furniture or other mundane fixtures function normally for anyone inside the mansion, but cease to exist if taken beyond its walls. No fixture created with this spell can create magical effects, but magical devices brought into the mansion function normally.  A <i>resplendent mansion</i> contains the same types of foodstuffs and servants as a mage's magnificent mansion.  Each of the mansion's exterior doorways and windows are protected by <i>alarm</i> spells. You choose whether each <i>alarm</i> is audible or mental as you cast the spell, and each <i>alarm</i> has a different sound (for an audible <i>alarm</i>) or sensation (for a mental one), allowing you to instantly determine which portal has been used.  The mansion must be created on a plot of land free of other structures. It adapts to the natural terrain, adopting all structural requirements for being built on, for example, a mountainside. The mansion adjusts around small features such as ponds or spires of rock, but can't be created on water or other nonsolid surfaces. If created on snow, sand dunes, or other soft surfaces with a solid surface underneath, the foundation reaches the solid ground. If created on a solid but unstable surface, such as a swamp or an area plagued by tremors, there's a 10% chance each day that the mansion begins to sink or collapse.  The mansion doesn't harm creatures within the area when it appears, and can't be created among a crowd or in a densely populated area. Any creature inadvertently caught inside the mansion when the spell is cast ends up unharmed inside the complete mansion.</p>",
    "spellDuration": "1 day/level (D)",
    "spellEffect": "opulent mansion, up to 300 feet on a side and one story tall/4 levels",
    "spellArea": "",
    "showInQuickbar": false,
    "spellPoints": {
      "cost": "1 + @sl"
    },
    "domain": false,
    "slotCost": 1
  },
  "flags": {},
  "img": "systems/pf1/icons/misc/magic-swirl.png",
  "effects": []
}