{
  "_id": "zaw5yh1c7ftk45tf",
  "name": "Rest Eternal",
  "permission": {
    "default": 0
  },
  "type": "spell",
  "data": {
    "description": {
      "value": "<div class=\"spell-description\">\n  <p>\n    <strong>School</strong>&nbsp;necromancy&nbsp;[curse];\n    <strong>Level</strong>&nbsp;cleric/oracle 4, druid 5, hunter 5, shaman 5, witch 5;\n    \n    <strong>Subdomain</strong>&nbsp;Ancestors 4;\n    \n    \n  </p>\n  <p>\n    <strong>Casting Time</strong>&nbsp;1 round<br>\n    <strong>Components</strong>&nbsp;V, S, M/DF (ashes and a vial of holy or unholy water)<br>\n  </p>\n  <p>\n    <strong>Range</strong>&nbsp;touch<br>\n    \n    <strong>Targets</strong>&nbsp;one dead creature touched<br>\n    \n    <strong>Duration</strong>&nbsp;permanent<br>\n    <strong>Saving Throw</strong>&nbsp;none;&nbsp;<strong>Spell Resistance</strong>&nbsp;no<br>\n  </p>\n  <h2>Description</h2>\n  <p>You place a curse upon a dead creature that bars its spirit from returning. Anyone casting a spell that would communicate with the dead creature, return it to life, or turn it into an undead creature must succeed on a caster level check with a DC of 11 plus your caster level. <i>Rest eternal</i> cannot be dispelled, but it can be negated with <i>remove curse</i> or <i>break enchantment</i>.</p>\n</div>\n",
      "chat": "",
      "unidentified": ""
    },
    "tags": [],
    "activation": {
      "cost": 1,
      "type": "round"
    },
    "unchainedAction": {
      "activation": {
        "cost": 3,
        "type": "action"
      }
    },
    "duration": {
      "value": null,
      "units": ""
    },
    "target": {
      "value": "one dead creature touched"
    },
    "range": {
      "value": null,
      "units": "touch",
      "maxIncrements": 1,
      "minValue": null,
      "minUnits": ""
    },
    "uses": {
      "value": 0,
      "max": 0,
      "per": "",
      "autoDeductCharges": true,
      "autoDeductChargesCost": "1"
    },
    "measureTemplate": {
      "type": "",
      "size": "0",
      "overrideColor": false,
      "customColor": "",
      "overrideTexture": false,
      "customTexture": ""
    },
    "attackName": "",
    "actionType": "",
    "attackBonus": "",
    "critConfirmBonus": "",
    "damage": {
      "parts": [],
      "critParts": [],
      "nonCritParts": []
    },
    "attackParts": [],
    "formula": "",
    "ability": {
      "attack": "",
      "damage": "",
      "damageMult": 1,
      "critRange": 20,
      "critMult": 2
    },
    "save": {
      "dc": "0",
      "type": "",
      "description": ""
    },
    "effectNotes": "",
    "attackNotes": "",
    "soundEffect": "",
    "links": {
      "children": []
    },
    "learnedAt": {
      "class": [
        [
          "cleric/oracle",
          4
        ],
        [
          "druid",
          5
        ],
        [
          "witch",
          5
        ],
        [
          "shaman",
          5
        ],
        [
          "hunter",
          5
        ]
      ],
      "domain": [],
      "subDomain": [
        [
          "Ancestors",
          4
        ]
      ],
      "elementalSchool": [],
      "bloodline": []
    },
    "level": 4,
    "clOffset": 0,
    "slOffset": 0,
    "school": "nec",
    "subschool": "",
    "types": "curse",
    "nonlethal": false,
    "conditionals": [],
    "components": {
      "value": "",
      "verbal": true,
      "somatic": true,
      "material": true,
      "focus": false,
      "divineFocus": 2
    },
    "castTime": "",
    "materials": {
      "value": "ashes and a vial of holy or unholy water",
      "focus": "",
      "gpValue": 0
    },
    "spellbook": "primary",
    "preparation": {
      "preparedAmount": 0,
      "maxAmount": 0,
      "autoDeductCharges": true,
      "spontaneousPrepared": true,
      "mode": "prepared"
    },
    "atWill": false,
    "sr": false,
    "shortDescription": "<p>You place a curse upon a dead creature that bars its spirit from returning. Anyone casting a spell that would communicate with the dead creature, return it to life, or turn it into an undead creature must succeed on a caster level check with a DC of 11 plus your caster level. <i>Rest eternal</i> cannot be dispelled, but it can be negated with <i>remove curse</i> or <i>break enchantment</i>.</p>",
    "spellDuration": "permanent",
    "spellEffect": "",
    "spellArea": "",
    "showInQuickbar": false,
    "spellPoints": {
      "cost": "1 + @sl"
    },
    "domain": false,
    "slotCost": 1
  },
  "flags": {},
  "img": "systems/pf1/icons/misc/magic-swirl.png",
  "effects": []
}