{
  "_id": "7d2ro0rt9o57aakm",
  "name": "Rotting Alliance",
  "permission": {
    "default": 0
  },
  "type": "spell",
  "data": {
    "description": {
      "value": "<div class=\"spell-description\">\n  <p>\n    <strong>School</strong>&nbsp;necromancy&nbsp;[curse, disease];\n    <strong>Level</strong>&nbsp;cleric/oracle 8, druid 8, inquisitor 6, occultist 6, witch 8;\n    \n    \n    \n    \n  </p>\n  <p>\n    <strong>Casting Time</strong>&nbsp;1 standard action<br>\n    <strong>Components</strong>&nbsp;V, S<br>\n  </p>\n  <p>\n    <strong>Range</strong>&nbsp;close (25 ft. + 5 ft./2 levels)<br>\n    \n    <strong>Targets</strong>&nbsp;one living creature/level, no two of which can be more than 60 feet apart<br>\n    \n    <strong>Duration</strong>&nbsp;permanent<br>\n    <strong>Saving Throw</strong>&nbsp;Fortitude negates;&nbsp;<strong>Spell Resistance</strong>&nbsp;yes<br>\n  </p>\n  <h2>Description</h2>\n  <p>You curse two or more creatures to sicken and waste away while in each others' company. Each target that fails a Fortitude save becomes cursed with a wasting sickness. The disease has no onset period, and those who contracted it must attempt a second Fortitude save immediately. A target that fails this second saving throw takes 1d6 points of Constitution damage and 1d6 points of Charisma damage. Every day thereafter, each target that was within 100 feet of another target during the previous 24 hours takes 1d6 points of Constitution damage and 1d6 points of Charisma damage (reroll to determine the specific amount of damage each day). A successful Fortitude save negates the damage for that day only.  A target cannot be healed of damage from this disease (naturally or by magic) while the target is within 100 feet of another target. If healed of such damage while away from other targets, a target might take damage again the day they reconvene. This disease is a curse, and can never be cured by successful saving throws. The spell can be ended on a single target only with a successful casting of <i>remove curse</i> followed by a successful casting of <i>remove disease</i> while the target is within 100 feet of at least one other target. When the curse remains on only one target, it ends automatically.</p>\n</div>\n",
      "chat": "",
      "unidentified": ""
    },
    "tags": [],
    "activation": {
      "cost": 1,
      "type": "standard"
    },
    "unchainedAction": {
      "activation": {
        "cost": 2,
        "type": "action"
      }
    },
    "duration": {
      "value": null,
      "units": ""
    },
    "target": {
      "value": "one living creature/level, no two of which can be more than 60 feet apart"
    },
    "range": {
      "value": null,
      "units": "close",
      "maxIncrements": 1,
      "minValue": null,
      "minUnits": ""
    },
    "uses": {
      "value": 0,
      "max": 0,
      "per": "",
      "autoDeductCharges": true,
      "autoDeductChargesCost": "1"
    },
    "measureTemplate": {
      "type": "",
      "size": "0",
      "overrideColor": false,
      "customColor": "",
      "overrideTexture": false,
      "customTexture": ""
    },
    "attackName": "",
    "actionType": "spellsave",
    "attackBonus": "",
    "critConfirmBonus": "",
    "damage": {
      "parts": [],
      "critParts": [],
      "nonCritParts": []
    },
    "attackParts": [],
    "formula": "",
    "ability": {
      "attack": "",
      "damage": "",
      "damageMult": 1,
      "critRange": 20,
      "critMult": 2
    },
    "save": {
      "dc": "0",
      "type": "fort",
      "description": "Fortitude negates"
    },
    "effectNotes": "",
    "attackNotes": "",
    "soundEffect": "",
    "links": {
      "children": []
    },
    "learnedAt": {
      "class": [
        [
          "cleric/oracle",
          8
        ],
        [
          "druid",
          8
        ],
        [
          "witch",
          8
        ],
        [
          "inquisitor",
          6
        ],
        [
          "occultist",
          6
        ]
      ],
      "domain": [],
      "subDomain": [],
      "elementalSchool": [],
      "bloodline": []
    },
    "level": 8,
    "clOffset": 0,
    "slOffset": 0,
    "school": "nec",
    "subschool": "",
    "types": "curse, disease",
    "nonlethal": false,
    "conditionals": [],
    "components": {
      "value": "",
      "verbal": true,
      "somatic": true,
      "material": false,
      "focus": false,
      "divineFocus": 0
    },
    "castTime": "",
    "materials": {
      "value": "",
      "focus": "",
      "gpValue": 0
    },
    "spellbook": "primary",
    "preparation": {
      "preparedAmount": 0,
      "maxAmount": 0,
      "autoDeductCharges": true,
      "spontaneousPrepared": true,
      "mode": "prepared"
    },
    "atWill": false,
    "sr": true,
    "shortDescription": "<p>You curse two or more creatures to sicken and waste away while in each others' company. Each target that fails a Fortitude save becomes cursed with a wasting sickness. The disease has no onset period, and those who contracted it must attempt a second Fortitude save immediately. A target that fails this second saving throw takes 1d6 points of Constitution damage and 1d6 points of Charisma damage. Every day thereafter, each target that was within 100 feet of another target during the previous 24 hours takes 1d6 points of Constitution damage and 1d6 points of Charisma damage (reroll to determine the specific amount of damage each day). A successful Fortitude save negates the damage for that day only.  A target cannot be healed of damage from this disease (naturally or by magic) while the target is within 100 feet of another target. If healed of such damage while away from other targets, a target might take damage again the day they reconvene. This disease is a curse, and can never be cured by successful saving throws. The spell can be ended on a single target only with a successful casting of <i>remove curse</i> followed by a successful casting of <i>remove disease</i> while the target is within 100 feet of at least one other target. When the curse remains on only one target, it ends automatically.</p>",
    "spellDuration": "permanent",
    "spellEffect": "",
    "spellArea": "",
    "showInQuickbar": false,
    "spellPoints": {
      "cost": "1 + @sl"
    },
    "domain": false,
    "slotCost": 1
  },
  "flags": {},
  "img": "systems/pf1/icons/misc/magic-swirl.png",
  "effects": []
}