{
  "_id": "w0qned8wruhxzo8t",
  "name": "Salvage",
  "permission": {
    "default": 0
  },
  "type": "spell",
  "data": {
    "description": {
      "value": "<div class=\"spell-description\">\n  <p>\n    <strong>School</strong>&nbsp;transmutation;\n    <strong>Level</strong>&nbsp;cleric/oracle 9, sorcerer/wizard 9;\n    \n    \n    \n    \n  </p>\n  <p>\n    <strong>Casting Time</strong>&nbsp;1 standard action<br>\n    <strong>Components</strong>&nbsp;V, S<br>\n  </p>\n  <p>\n    <strong>Range</strong>&nbsp;long (400 ft. + 40 ft./level)<br>\n    \n    <strong>Targets</strong>&nbsp;one shipwreck<br>\n    \n    <strong>Duration</strong>&nbsp;see text<br>\n    <strong>Saving Throw</strong>&nbsp;Fortitude negates (object);&nbsp;<strong>Spell Resistance</strong>&nbsp;yes<br>\n  </p>\n  <h2>Description</h2>\n  <p>An invisible force pulls together the remains of a shipwreck.</p><p>Bits of hull, tattered sails, broken masts, and smashed figureheads knit themselves back together. Rotten wood turns solid once more, and sails re-weave themselves as the rigging snakes across the masts.</p><p>It takes a variable amount of time for the ship to rebuild itself, depending on its size.</p><p> <table><tr><th>Size</th><th>Duration</th></tr><tr><td>Raft</td><td>1 minute</td></tr><tr><td>Rowboat</td><td>1 minute</td></tr><tr><td>Keelboat</td><td>10 minutes</td></tr><tr><td>Longship</td><td>1 hour</td></tr><tr><td>Sailing ship</td><td>2 hours</td></tr><tr><td>Warship</td><td>3 hours</td></tr><tr><td>Galleon</td><td>4 hours</td></tr></table>  At the end of the duration, an air bubble forms around the repaired ship. If submerged, the ship shoots to the surface, erupting with a great splash before settling on the water.</p><p>Though the spell requires time to repair the ship, its effects are instantaneous. A <i><i>salvage</i>d</i> ship cannot be dispelled to return it to a shipwreck. However, before the spell's duration ends and while the ship is still being repaired, <i>salvage</i> can be dispelled to interrupt the repair process. The ship remains in the condition it was in when the spell was interrupted until a new <i>salvage</i> spell is cast (but continues to age normally and suffers the effects of its environments). A new <i>salvage</i> spell's duration is modified by any repairs already begun.</p>\n</div>\n",
      "chat": "",
      "unidentified": ""
    },
    "tags": [],
    "activation": {
      "cost": 1,
      "type": "standard"
    },
    "unchainedAction": {
      "activation": {
        "cost": 2,
        "type": "action"
      }
    },
    "duration": {
      "value": null,
      "units": ""
    },
    "target": {
      "value": "one shipwreck"
    },
    "range": {
      "value": null,
      "units": "long",
      "maxIncrements": 1,
      "minValue": null,
      "minUnits": ""
    },
    "uses": {
      "value": 0,
      "max": 0,
      "per": "",
      "autoDeductCharges": true,
      "autoDeductChargesCost": "1"
    },
    "measureTemplate": {
      "type": "",
      "size": "0",
      "overrideColor": false,
      "customColor": "",
      "overrideTexture": false,
      "customTexture": ""
    },
    "attackName": "",
    "actionType": "spellsave",
    "attackBonus": "",
    "critConfirmBonus": "",
    "damage": {
      "parts": [],
      "critParts": [],
      "nonCritParts": []
    },
    "attackParts": [],
    "formula": "",
    "ability": {
      "attack": "",
      "damage": "",
      "damageMult": 1,
      "critRange": 20,
      "critMult": 2
    },
    "save": {
      "dc": "0",
      "type": "fort",
      "description": "Fortitude negates (object)"
    },
    "effectNotes": "",
    "attackNotes": "",
    "soundEffect": "",
    "links": {
      "children": []
    },
    "learnedAt": {
      "class": [
        [
          "sorcerer/wizard",
          9
        ],
        [
          "cleric/oracle",
          9
        ]
      ],
      "domain": [],
      "subDomain": [],
      "elementalSchool": [],
      "bloodline": []
    },
    "level": 9,
    "clOffset": 0,
    "slOffset": 0,
    "school": "trs",
    "subschool": "",
    "types": "",
    "nonlethal": false,
    "conditionals": [],
    "components": {
      "value": "",
      "verbal": true,
      "somatic": true,
      "material": false,
      "focus": false,
      "divineFocus": 0
    },
    "castTime": "",
    "materials": {
      "value": "",
      "focus": "",
      "gpValue": 0
    },
    "spellbook": "primary",
    "preparation": {
      "preparedAmount": 0,
      "maxAmount": 0,
      "autoDeductCharges": true,
      "spontaneousPrepared": true,
      "mode": "prepared"
    },
    "atWill": false,
    "sr": true,
    "shortDescription": "<p>An invisible force pulls together the remains of a shipwreck.</p><p>Bits of hull, tattered sails, broken masts, and smashed figureheads knit themselves back together. Rotten wood turns solid once more, and sails re-weave themselves as the rigging snakes across the masts.</p><p>It takes a variable amount of time for the ship to rebuild itself, depending on its size.</p><p> <table><tr><th>Size</th><th>Duration</th></tr><tr><td>Raft</td><td>1 minute</td></tr><tr><td>Rowboat</td><td>1 minute</td></tr><tr><td>Keelboat</td><td>10 minutes</td></tr><tr><td>Longship</td><td>1 hour</td></tr><tr><td>Sailing ship</td><td>2 hours</td></tr><tr><td>Warship</td><td>3 hours</td></tr><tr><td>Galleon</td><td>4 hours</td></tr></table>  At the end of the duration, an air bubble forms around the repaired ship. If submerged, the ship shoots to the surface, erupting with a great splash before settling on the water.</p><p>Though the spell requires time to repair the ship, its effects are instantaneous. A <i><i>salvage</i>d</i> ship cannot be dispelled to return it to a shipwreck. However, before the spell's duration ends and while the ship is still being repaired, <i>salvage</i> can be dispelled to interrupt the repair process. The ship remains in the condition it was in when the spell was interrupted until a new <i>salvage</i> spell is cast (but continues to age normally and suffers the effects of its environments). A new <i>salvage</i> spell's duration is modified by any repairs already begun.</p>",
    "spellDuration": "see text",
    "spellEffect": "",
    "spellArea": "",
    "showInQuickbar": false,
    "spellPoints": {
      "cost": "1 + @sl"
    },
    "domain": false,
    "slotCost": 1
  },
  "flags": {},
  "img": "systems/pf1/icons/misc/magic-swirl.png",
  "effects": []
}