{
  "_id": "nsnub8y72ri0hw7i",
  "name": "Savage Maw",
  "permission": {
    "default": 0
  },
  "type": "spell",
  "data": {
    "description": {
      "value": "<div class=\"spell-description\">\n  <p>\n    <strong>School</strong>&nbsp;transmutation;\n    <strong>Level</strong>&nbsp;antipaladin 1, cleric/oracle 2, druid 2, hunter 1, inquisitor 2, magus 2, psychic 2, ranger 1;\n    \n    \n    \n    \n  </p>\n  <p>\n    <strong>Casting Time</strong>&nbsp;1 standard action<br>\n    <strong>Components</strong>&nbsp;V, S<br>\n  </p>\n  <p>\n    <strong>Range</strong>&nbsp;personal<br>\n    \n    <strong>Targets</strong>&nbsp;you<br>\n    \n    <strong>Duration</strong>&nbsp;1 minute/level (D), special (see below)<br>\n    \n  </p>\n  <h2>Description</h2>\n  <p>Your teeth extend and sharpen, transforming your mouth into a maw of razor-sharp fangs. You gain a bite attack that deals 1d4 points of damage plus your Strength modifier. If you confirm a critical hit with this attack, it also deals 1 point of bleed damage. If you already have a bite attack, your bite deals 2 points of bleed damage on a critical hit. You are considered proficient with this attack. If used as part of a full-attack action, the bite is considered a secondary attack, is made at your full base attack bonus -5, and adds half your Strength modifier to its damage.  You can end this spell before its normal duration by making a bestial roar as a swift action. When you do, you can make an Intimidate check to demoralize all foes within a 30-foot radius that can hear the roar.</p>\n</div>\n",
      "chat": "",
      "unidentified": ""
    },
    "tags": [],
    "activation": {
      "cost": 1,
      "type": "standard"
    },
    "unchainedAction": {
      "activation": {
        "cost": 2,
        "type": "action"
      }
    },
    "duration": {
      "value": null,
      "units": ""
    },
    "target": {
      "value": "you"
    },
    "range": {
      "value": null,
      "units": "personal",
      "maxIncrements": 1,
      "minValue": null,
      "minUnits": ""
    },
    "uses": {
      "value": 0,
      "max": 0,
      "per": "",
      "autoDeductCharges": true,
      "autoDeductChargesCost": "1"
    },
    "measureTemplate": {
      "type": "",
      "size": "0",
      "overrideColor": false,
      "customColor": "",
      "overrideTexture": false,
      "customTexture": ""
    },
    "attackName": "",
    "actionType": "",
    "attackBonus": "",
    "critConfirmBonus": "",
    "damage": {
      "parts": [],
      "critParts": [],
      "nonCritParts": []
    },
    "attackParts": [],
    "formula": "",
    "ability": {
      "attack": "",
      "damage": "",
      "damageMult": 1,
      "critRange": 20,
      "critMult": 2
    },
    "save": {
      "dc": "0",
      "type": "",
      "description": ""
    },
    "effectNotes": "",
    "attackNotes": "",
    "soundEffect": "",
    "links": {
      "children": []
    },
    "learnedAt": {
      "class": [
        [
          "cleric/oracle",
          2
        ],
        [
          "druid",
          2
        ],
        [
          "ranger",
          1
        ],
        [
          "inquisitor",
          2
        ],
        [
          "antipaladin",
          1
        ],
        [
          "magus",
          2
        ],
        [
          "psychic",
          2
        ],
        [
          "hunter",
          1
        ]
      ],
      "domain": [],
      "subDomain": [],
      "elementalSchool": [],
      "bloodline": []
    },
    "level": 2,
    "clOffset": 0,
    "slOffset": 0,
    "school": "trs",
    "subschool": "",
    "types": "",
    "nonlethal": false,
    "conditionals": [],
    "components": {
      "value": "",
      "verbal": true,
      "somatic": true,
      "material": false,
      "focus": false,
      "divineFocus": 0
    },
    "castTime": "",
    "materials": {
      "value": "",
      "focus": "",
      "gpValue": 0
    },
    "spellbook": "primary",
    "preparation": {
      "preparedAmount": 0,
      "maxAmount": 0,
      "autoDeductCharges": true,
      "spontaneousPrepared": true,
      "mode": "prepared"
    },
    "atWill": false,
    "sr": false,
    "shortDescription": "<p>Your teeth extend and sharpen, transforming your mouth into a maw of razor-sharp fangs. You gain a bite attack that deals 1d4 points of damage plus your Strength modifier. If you confirm a critical hit with this attack, it also deals 1 point of bleed damage. If you already have a bite attack, your bite deals 2 points of bleed damage on a critical hit. You are considered proficient with this attack. If used as part of a full-attack action, the bite is considered a secondary attack, is made at your full base attack bonus -5, and adds half your Strength modifier to its damage.  You can end this spell before its normal duration by making a bestial roar as a swift action. When you do, you can make an Intimidate check to demoralize all foes within a 30-foot radius that can hear the roar.</p>",
    "spellDuration": "1 minute/level (D), special (see below)",
    "spellEffect": "",
    "spellArea": "",
    "showInQuickbar": false,
    "spellPoints": {
      "cost": "1 + @sl"
    },
    "domain": false,
    "slotCost": 1
  },
  "flags": {},
  "img": "systems/pf1/icons/misc/magic-swirl.png",
  "effects": []
}