{
  "_id": "967ur7a9xepd704y",
  "name": "Shadow Evocation, Greater",
  "permission": {
    "default": 0
  },
  "type": "spell",
  "data": {
    "description": {
      "value": "<div class=\"spell-description\">\n  <p>\n    <strong>School</strong>&nbsp;illusion&nbsp;(shadow)&nbsp;[shadow];\n    <strong>Level</strong>&nbsp;sorcerer/wizard 8;\n    <strong>Domain</strong>&nbsp;Darkness 8;\n    \n    \n    <strong>Bloodline</strong>&nbsp;Shadow 8;\n  </p>\n  <p>\n    <strong>Casting Time</strong>&nbsp;1 standard action<br>\n    <strong>Components</strong>&nbsp;V, S<br>\n  </p>\n  <p>\n    \n    \n    \n    <strong>Effect</strong>&nbsp;see text<br>\n    <strong>Duration</strong>&nbsp;see text<br>\n    <strong>Saving Throw</strong>&nbsp;Will disbelief (if interacted with);&nbsp;<strong>Spell Resistance</strong>&nbsp;yes<br>\n  </p>\n  <h2>Description</h2>\n  <p>This spell functions like <i>sh<i>a</i>dow evoc<i>a</i>tion,</i> except th<i>a</i>t it en<i>a</i>bles you to cre<i>a</i>te p<i>a</i>rti<i>a</i>lly re<i>a</i>l, illusory versions of sorcerer or wiz<i>a</i>rd evoc<i>a</i>tion spells of 7th level or lower. If recognized <i>a</i>s <i>a</i> gre<i>a</i>ter <i>sh<i>a</i>dow evoc<i>a</i>tion,</i> <i>a</i> d<i>a</i>m<i>a</i>ging spell de<i>a</i>ls only three-fifths (60%) d<i>a</i>m<i>a</i>ge.</p>\n</div>\n",
      "chat": "",
      "unidentified": ""
    },
    "tags": [],
    "activation": {
      "cost": 1,
      "type": "standard"
    },
    "unchainedAction": {
      "activation": {
        "cost": 2,
        "type": "action"
      }
    },
    "duration": {
      "value": null,
      "units": ""
    },
    "target": {
      "value": ""
    },
    "range": {
      "value": null,
      "units": "",
      "maxIncrements": 1,
      "minValue": null,
      "minUnits": ""
    },
    "uses": {
      "value": 0,
      "max": 0,
      "per": "",
      "autoDeductCharges": true,
      "autoDeductChargesCost": "1"
    },
    "measureTemplate": {
      "type": "",
      "size": "0",
      "overrideColor": false,
      "customColor": "",
      "overrideTexture": false,
      "customTexture": ""
    },
    "attackName": "",
    "actionType": "spellsave",
    "attackBonus": "",
    "critConfirmBonus": "",
    "damage": {
      "parts": [],
      "critParts": [],
      "nonCritParts": []
    },
    "attackParts": [],
    "formula": "",
    "ability": {
      "attack": "",
      "damage": "",
      "damageMult": 1,
      "critRange": 20,
      "critMult": 2
    },
    "save": {
      "dc": "0",
      "type": "will",
      "description": "Will disbelief (if interacted with)"
    },
    "effectNotes": "",
    "attackNotes": "",
    "soundEffect": "",
    "links": {
      "children": []
    },
    "learnedAt": {
      "class": [
        [
          "sorcerer/wizard",
          8
        ]
      ],
      "domain": [
        [
          "Darkness",
          8
        ]
      ],
      "subDomain": [],
      "elementalSchool": [],
      "bloodline": [
        [
          "Shadow",
          8
        ]
      ]
    },
    "level": 8,
    "clOffset": 0,
    "slOffset": 0,
    "school": "ill",
    "subschool": "shadow",
    "types": "shadow",
    "nonlethal": false,
    "conditionals": [],
    "components": {
      "value": "",
      "verbal": true,
      "somatic": true,
      "material": false,
      "focus": false,
      "divineFocus": 0
    },
    "castTime": "",
    "materials": {
      "value": "",
      "focus": "",
      "gpValue": 0
    },
    "spellbook": "primary",
    "preparation": {
      "preparedAmount": 0,
      "maxAmount": 0,
      "autoDeductCharges": true,
      "spontaneousPrepared": true,
      "mode": "prepared"
    },
    "atWill": false,
    "sr": true,
    "shortDescription": "<p>This spell functions like <i>sh<i>a</i>dow evoc<i>a</i>tion,</i> except th<i>a</i>t it en<i>a</i>bles you to cre<i>a</i>te p<i>a</i>rti<i>a</i>lly re<i>a</i>l, illusory versions of sorcerer or wiz<i>a</i>rd evoc<i>a</i>tion spells of 7th level or lower. If recognized <i>a</i>s <i>a</i> gre<i>a</i>ter <i>sh<i>a</i>dow evoc<i>a</i>tion,</i> <i>a</i> d<i>a</i>m<i>a</i>ging spell de<i>a</i>ls only three-fifths (60%) d<i>a</i>m<i>a</i>ge.</p>",
    "spellDuration": "see text",
    "spellEffect": "see text",
    "spellArea": "",
    "showInQuickbar": false,
    "spellPoints": {
      "cost": "1 + @sl"
    },
    "domain": false,
    "slotCost": 1
  },
  "flags": {},
  "img": "systems/pf1/icons/misc/magic-swirl.png",
  "effects": []
}