{
  "_id": "0bazqafq091n96y3",
  "name": "Slave to Sin",
  "permission": {
    "default": 0
  },
  "type": "spell",
  "data": {
    "description": {
      "value": "<div class=\"spell-description\">\n  <p>\n    <strong>School</strong>&nbsp;enchantment&nbsp;(compulsion)&nbsp;[emotion, mind-affecting];\n    <strong>Level</strong>&nbsp;bard 2, cleric/oracle 3, inquisitor 3, mesmerist 2, paladin 2, sorcerer/wizard 3, witch 3;\n    \n    \n    \n    \n  </p>\n  <p>\n    <strong>Casting Time</strong>&nbsp;1 standard action<br>\n    <strong>Components</strong>&nbsp;V, S, M/DF (a scrap of paper inscribed with the Sihedron rune)<br>\n  </p>\n  <p>\n    <strong>Range</strong>&nbsp;close (25 ft. + 5 ft./2 levels)<br>\n    \n    <strong>Targets</strong>&nbsp;one living creature<br>\n    \n    <strong>Duration</strong>&nbsp;1 round/level<br>\n    <strong>Saving Throw</strong>&nbsp;Will negates (see below);&nbsp;<strong>Spell Resistance</strong>&nbsp;yes<br>\n  </p>\n  <h2>Description</h2>\n  <p>This spell allows you to reach into an evil creature's mind to expose and exploit its susceptibility to whichever of the seven so-called \"deadly sins\" it is most susceptible to. The targeted creature must succeed at a Will save or it is overwhelmed with an inability to repress urges to indulge in whatever sin most closely mirrors its personality, and a glowing rune appears upon the creature's body (usually the brow), identifying the sin. (The GM adjudicates which rune manifests on the creature's body, as appropriate.) Each round, at the start of its turn, the target must attempt a new Will saving throw against the spell's DC to resist the sin's enslavement. If the target succeeds at this saving throw, it is sickened for that round by the distractions of its sin. If it fails, it is sickened and staggered as it spends part of its action wallowing in its targeted sin (a wrathful victim might waste time spouting threats and profanity, while a slothful victim might merely be slow and hesitant, and a lustful victim could well spend precious moments ogling or fawning over something of beauty).</p>\n</div>\n",
      "chat": "",
      "unidentified": ""
    },
    "tags": [],
    "activation": {
      "cost": 1,
      "type": "standard"
    },
    "unchainedAction": {
      "activation": {
        "cost": 2,
        "type": "action"
      }
    },
    "duration": {
      "value": null,
      "units": ""
    },
    "target": {
      "value": "one living creature"
    },
    "range": {
      "value": null,
      "units": "close",
      "maxIncrements": 1,
      "minValue": null,
      "minUnits": ""
    },
    "uses": {
      "value": 0,
      "max": 0,
      "per": "",
      "autoDeductCharges": true,
      "autoDeductChargesCost": "1"
    },
    "measureTemplate": {
      "type": "",
      "size": "0",
      "overrideColor": false,
      "customColor": "",
      "overrideTexture": false,
      "customTexture": ""
    },
    "attackName": "",
    "actionType": "spellsave",
    "attackBonus": "",
    "critConfirmBonus": "",
    "damage": {
      "parts": [],
      "critParts": [],
      "nonCritParts": []
    },
    "attackParts": [],
    "formula": "",
    "ability": {
      "attack": "",
      "damage": "",
      "damageMult": 1,
      "critRange": 20,
      "critMult": 2
    },
    "save": {
      "dc": "0",
      "type": "will",
      "description": "Will negates (see below)"
    },
    "effectNotes": "",
    "attackNotes": "",
    "soundEffect": "",
    "links": {
      "children": []
    },
    "learnedAt": {
      "class": [
        [
          "sorcerer/wizard",
          3
        ],
        [
          "cleric/oracle",
          3
        ],
        [
          "bard",
          2
        ],
        [
          "paladin",
          2
        ],
        [
          "witch",
          3
        ],
        [
          "inquisitor",
          3
        ],
        [
          "mesmerist",
          2
        ]
      ],
      "domain": [],
      "subDomain": [],
      "elementalSchool": [],
      "bloodline": []
    },
    "level": 3,
    "clOffset": 0,
    "slOffset": 0,
    "school": "enc",
    "subschool": "compulsion",
    "types": "emotion, mind-affecting",
    "nonlethal": false,
    "conditionals": [],
    "components": {
      "value": "",
      "verbal": true,
      "somatic": true,
      "material": true,
      "focus": false,
      "divineFocus": 2
    },
    "castTime": "",
    "materials": {
      "value": "a scrap of paper inscribed with the Sihedron rune",
      "focus": "",
      "gpValue": 0
    },
    "spellbook": "primary",
    "preparation": {
      "preparedAmount": 0,
      "maxAmount": 0,
      "autoDeductCharges": true,
      "spontaneousPrepared": true,
      "mode": "prepared"
    },
    "atWill": false,
    "sr": true,
    "shortDescription": "<p>This spell allows you to reach into an evil creature's mind to expose and exploit its susceptibility to whichever of the seven so-called \"deadly sins\" it is most susceptible to. The targeted creature must succeed at a Will save or it is overwhelmed with an inability to repress urges to indulge in whatever sin most closely mirrors its personality, and a glowing rune appears upon the creature's body (usually the brow), identifying the sin. (The GM adjudicates which rune manifests on the creature's body, as appropriate.) Each round, at the start of its turn, the target must attempt a new Will saving throw against the spell's DC to resist the sin's enslavement. If the target succeeds at this saving throw, it is sickened for that round by the distractions of its sin. If it fails, it is sickened and staggered as it spends part of its action wallowing in its targeted sin (a wrathful victim might waste time spouting threats and profanity, while a slothful victim might merely be slow and hesitant, and a lustful victim could well spend precious moments ogling or fawning over something of beauty).</p>",
    "spellDuration": "1 round/level",
    "spellEffect": "",
    "spellArea": "",
    "showInQuickbar": false,
    "spellPoints": {
      "cost": "1 + @sl"
    },
    "domain": false,
    "slotCost": 1
  },
  "flags": {},
  "img": "systems/pf1/icons/misc/magic-swirl.png",
  "effects": []
}