{
  "_id": "dlo03ajt55yofj4q",
  "name": "Soul Bind",
  "permission": {
    "default": 0
  },
  "type": "spell",
  "data": {
    "description": {
      "value": "<div class=\"spell-description\">\n  <p>\n    <strong>School</strong>&nbsp;necromancy;\n    <strong>Level</strong>&nbsp;cleric/oracle 9, psychic 9, shaman 9, sorcerer/wizard 9, witch 9;\n    \n    \n    \n    <strong>Bloodline</strong>&nbsp;Daemon 9;\n  </p>\n  <p>\n    <strong>Casting Time</strong>&nbsp;1 standard action<br>\n    <strong>Components</strong>&nbsp;V, S, F (see text)<br>\n  </p>\n  <p>\n    <strong>Range</strong>&nbsp;close (25 ft. + 5 ft./2 levels)<br>\n    \n    <strong>Targets</strong>&nbsp;corpse<br>\n    \n    <strong>Duration</strong>&nbsp;permanent<br>\n    <strong>Saving Throw</strong>&nbsp;Will negates;&nbsp;<strong>Spell Resistance</strong>&nbsp;no<br>\n  </p>\n  <h2>Description</h2>\n  <p>You draw the soul from a newly dead body and imprison it in a black sapphire gem. The subject must have been dead no more than 1 round per caster level. The soul, once trapped in the gem, cannot be returned through <i>clone, raise dead, reincarnation, resurrection, true resurrection,</i> or even a <i>miracle</i> or a <i>wish.</i> Only by destroying the gem or dispelling the spell on the gem can one free the soul (which is then still dead).</p><p>The focus for this spell is a black sapphire of at least 1,000 gp value for every HD possessed by the creature whose soul is to be bound. If the gem is not valuable enough, it shatters when the binding is attempted. (While creatures have no concept of level or HD as such, the value of the gem needed to trap an individual can be researched.)</p>\n</div>\n",
      "chat": "",
      "unidentified": ""
    },
    "tags": [],
    "activation": {
      "cost": 1,
      "type": "standard"
    },
    "unchainedAction": {
      "activation": {
        "cost": 2,
        "type": "action"
      }
    },
    "duration": {
      "value": null,
      "units": ""
    },
    "target": {
      "value": "corpse"
    },
    "range": {
      "value": null,
      "units": "close",
      "maxIncrements": 1,
      "minValue": null,
      "minUnits": ""
    },
    "uses": {
      "value": 0,
      "max": 0,
      "per": "",
      "autoDeductCharges": true,
      "autoDeductChargesCost": "1"
    },
    "measureTemplate": {
      "type": "",
      "size": "0",
      "overrideColor": false,
      "customColor": "",
      "overrideTexture": false,
      "customTexture": ""
    },
    "attackName": "",
    "actionType": "spellsave",
    "attackBonus": "",
    "critConfirmBonus": "",
    "damage": {
      "parts": [],
      "critParts": [],
      "nonCritParts": []
    },
    "attackParts": [],
    "formula": "",
    "ability": {
      "attack": "",
      "damage": "",
      "damageMult": 1,
      "critRange": 20,
      "critMult": 2
    },
    "save": {
      "dc": "0",
      "type": "will",
      "description": "Will negates"
    },
    "effectNotes": "",
    "attackNotes": "",
    "soundEffect": "",
    "links": {
      "children": []
    },
    "learnedAt": {
      "class": [
        [
          "sorcerer/wizard",
          9
        ],
        [
          "cleric/oracle",
          9
        ],
        [
          "witch",
          9
        ],
        [
          "shaman",
          9
        ],
        [
          "psychic",
          9
        ]
      ],
      "domain": [],
      "subDomain": [],
      "elementalSchool": [],
      "bloodline": [
        [
          "Daemon",
          9
        ]
      ]
    },
    "level": 9,
    "clOffset": 0,
    "slOffset": 0,
    "school": "nec",
    "subschool": "",
    "types": "",
    "nonlethal": false,
    "conditionals": [],
    "components": {
      "value": "",
      "verbal": true,
      "somatic": true,
      "material": false,
      "focus": true,
      "divineFocus": 0
    },
    "castTime": "",
    "materials": {
      "value": "",
      "focus": "see text",
      "gpValue": 0
    },
    "spellbook": "primary",
    "preparation": {
      "preparedAmount": 0,
      "maxAmount": 0,
      "autoDeductCharges": true,
      "spontaneousPrepared": true,
      "mode": "prepared"
    },
    "atWill": false,
    "sr": false,
    "shortDescription": "<p>You draw the soul from a newly dead body and imprison it in a black sapphire gem. The subject must have been dead no more than 1 round per caster level. The soul, once trapped in the gem, cannot be returned through <i>clone, raise dead, reincarnation, resurrection, true resurrection,</i> or even a <i>miracle</i> or a <i>wish.</i> Only by destroying the gem or dispelling the spell on the gem can one free the soul (which is then still dead).</p><p>The focus for this spell is a black sapphire of at least 1,000 gp value for every HD possessed by the creature whose soul is to be bound. If the gem is not valuable enough, it shatters when the binding is attempted. (While creatures have no concept of level or HD as such, the value of the gem needed to trap an individual can be researched.)</p>",
    "spellDuration": "permanent",
    "spellEffect": "",
    "spellArea": "",
    "showInQuickbar": false,
    "spellPoints": {
      "cost": "1 + @sl"
    },
    "domain": false,
    "slotCost": 1
  },
  "flags": {},
  "img": "systems/pf1/icons/misc/magic-swirl.png",
  "effects": []
}