{
  "_id": "6rndjc976yelg14e",
  "name": "Speak with Plane",
  "permission": {
    "default": 0
  },
  "type": "spell",
  "data": {
    "description": {
      "value": "<div class=\"spell-description\">\n  <p>\n    <strong>School</strong>&nbsp;divination;\n    <strong>Level</strong>&nbsp;cleric/oracle 4, medium 3, shaman 4, sorcerer/wizard 4, summoner 3, witch 4;\n    \n    \n    \n    \n  </p>\n  <p>\n    <strong>Casting Time</strong>&nbsp;1 standard action<br>\n    <strong>Components</strong>&nbsp;V, S, F/DF (a small glass bead)<br>\n  </p>\n  <p>\n    <strong>Range</strong>&nbsp;close (25 ft. + 5 ft./2 levels)<br>\n    \n    <strong>Targets</strong>&nbsp;one plane with a sentient structure<br>\n    \n    <strong>Duration</strong>&nbsp;1 minute/level<br>\n    <strong>Saving Throw</strong>&nbsp;Will negates (see text);&nbsp;<strong>Spell Resistance</strong>&nbsp;yes<br>\n  </p>\n  <h2>Description</h2>\n  <p>You tap into the awareness and consciousness of a plane with a sentient structure (<i>Planar Adventures</i> 60), allowing it to answer questions. A tangible manifestation of the plane (such as the ground) must be within the spell's range upon casting.  You can ask the sentient plane one question per 2 caster levels. If the plane's alignment is at least one step away from yours, the plane can attempt a Will save to resist the spell. A plane typically has a +20 bonus on Will saves, and a demiplane typically has a +15 bonus on Will saves. A plane's traits can further affect these bonuses: a mildly aligned plane receives a +2 bonus, and a strongly aligned plane or a plane with the wild magic trait receives a +4 bonus on its save.  If a plane has been subject to this spell within the past week, a new casting of this spell targeting the same plane fails. If <i>Speak with Plane</i> targets a plane that does not have a sentient structure, the spell fails.</p>\n</div>\n",
      "chat": "",
      "unidentified": ""
    },
    "tags": [],
    "activation": {
      "cost": 1,
      "type": "standard"
    },
    "unchainedAction": {
      "activation": {
        "cost": 2,
        "type": "action"
      }
    },
    "duration": {
      "value": null,
      "units": ""
    },
    "target": {
      "value": "one plane with a sentient structure"
    },
    "range": {
      "value": null,
      "units": "close",
      "maxIncrements": 1,
      "minValue": null,
      "minUnits": ""
    },
    "uses": {
      "value": 0,
      "max": 0,
      "per": "",
      "autoDeductCharges": true,
      "autoDeductChargesCost": "1"
    },
    "measureTemplate": {
      "type": "",
      "size": "0",
      "overrideColor": false,
      "customColor": "",
      "overrideTexture": false,
      "customTexture": ""
    },
    "attackName": "",
    "actionType": "spellsave",
    "attackBonus": "",
    "critConfirmBonus": "",
    "damage": {
      "parts": [],
      "critParts": [],
      "nonCritParts": []
    },
    "attackParts": [],
    "formula": "",
    "ability": {
      "attack": "",
      "damage": "",
      "damageMult": 1,
      "critRange": 20,
      "critMult": 2
    },
    "save": {
      "dc": "0",
      "type": "will",
      "description": "Will negates (see text)"
    },
    "effectNotes": "",
    "attackNotes": "",
    "soundEffect": "",
    "links": {
      "children": []
    },
    "learnedAt": {
      "class": [
        [
          "sorcerer/wizard",
          4
        ],
        [
          "cleric/oracle",
          4
        ],
        [
          "summoner",
          3
        ],
        [
          "witch",
          4
        ],
        [
          "shaman",
          4
        ],
        [
          "medium",
          3
        ]
      ],
      "domain": [],
      "subDomain": [],
      "elementalSchool": [],
      "bloodline": []
    },
    "level": 4,
    "clOffset": 0,
    "slOffset": 0,
    "school": "div",
    "subschool": "",
    "types": "",
    "nonlethal": false,
    "conditionals": [],
    "components": {
      "value": "",
      "verbal": true,
      "somatic": true,
      "material": false,
      "focus": true,
      "divineFocus": 3
    },
    "castTime": "",
    "materials": {
      "value": "",
      "focus": "a small glass bead",
      "gpValue": 0
    },
    "spellbook": "primary",
    "preparation": {
      "preparedAmount": 0,
      "maxAmount": 0,
      "autoDeductCharges": true,
      "spontaneousPrepared": true,
      "mode": "prepared"
    },
    "atWill": false,
    "sr": true,
    "shortDescription": "<p>You tap into the awareness and consciousness of a plane with a sentient structure (<i>Planar Adventures</i> 60), allowing it to answer questions. A tangible manifestation of the plane (such as the ground) must be within the spell's range upon casting.  You can ask the sentient plane one question per 2 caster levels. If the plane's alignment is at least one step away from yours, the plane can attempt a Will save to resist the spell. A plane typically has a +20 bonus on Will saves, and a demiplane typically has a +15 bonus on Will saves. A plane's traits can further affect these bonuses: a mildly aligned plane receives a +2 bonus, and a strongly aligned plane or a plane with the wild magic trait receives a +4 bonus on its save.  If a plane has been subject to this spell within the past week, a new casting of this spell targeting the same plane fails. If <i>Speak with Plane</i> targets a plane that does not have a sentient structure, the spell fails.</p>",
    "spellDuration": "1 minute/level",
    "spellEffect": "",
    "spellArea": "",
    "showInQuickbar": false,
    "spellPoints": {
      "cost": "1 + @sl"
    },
    "domain": false,
    "slotCost": 1
  },
  "flags": {},
  "img": "systems/pf1/icons/misc/magic-swirl.png",
  "effects": []
}