{
  "_id": "4pryfl3cihbio5ph",
  "name": "Spellscar",
  "permission": {
    "default": 0
  },
  "type": "spell",
  "data": {
    "description": {
      "value": "<div class=\"spell-description\">\n  <p>\n    <strong>School</strong>&nbsp;abjuration;\n    <strong>Level</strong>&nbsp;cleric/oracle 8, sorcerer/wizard 8;\n    \n    \n    \n    \n  </p>\n  <p>\n    <strong>Casting Time</strong>&nbsp;1 standard action<br>\n    <strong>Components</strong>&nbsp;V, S, M (a pinch of sand from the Spellscar Desert)<br>\n  </p>\n  <p>\n    <strong>Range</strong>&nbsp;medium (100 ft. + 10 ft./level)<br>\n    <strong>Area</strong>&nbsp;two 10-ft. cubes per level (S)<br>\n    \n    \n    <strong>Duration</strong>&nbsp;10 minutes/level (D)<br>\n    <strong>Saving Throw</strong>&nbsp;none;&nbsp;<strong>Spell Resistance</strong>&nbsp;no<br>\n  </p>\n  <h2>Description</h2>\n  <p>This potent spell invokes the same sort of magical devastation that created the Mana Wastes so long ago- albeit on a much more localized (and thankfully temporary) scale. Within the area you choose to affect with <i>spellscar</i>, the terrain takes on a strange pale hue, as if colors were muted. Periodically, ripples of vibrant color wriggle through the terrain. Within this area, any spell, spell-like ability, or magic item activation automatically triggers a primal magic event-a spellcaster can avoid triggering such an event by making a concentration check (DC 15 + twice the spell's level), but non-spellcasters who activate magic items have no such option.</p><p>You gain a +4 insight bonus on concentration checks made to avoid triggering primal magic events while within a <i>spellscar</i> you have created, and if you do trigger a primal magic event, you may roll d% twice and pick which of the two results you wish to have occur.</p>\n</div>\n",
      "chat": "",
      "unidentified": ""
    },
    "tags": [],
    "activation": {
      "cost": 1,
      "type": "standard"
    },
    "unchainedAction": {
      "activation": {
        "cost": 2,
        "type": "action"
      }
    },
    "duration": {
      "value": null,
      "units": ""
    },
    "target": {
      "value": ""
    },
    "range": {
      "value": null,
      "units": "medium",
      "maxIncrements": 1,
      "minValue": null,
      "minUnits": ""
    },
    "uses": {
      "value": 0,
      "max": 0,
      "per": "",
      "autoDeductCharges": true,
      "autoDeductChargesCost": "1"
    },
    "measureTemplate": {
      "type": "",
      "size": "0",
      "overrideColor": false,
      "customColor": "",
      "overrideTexture": false,
      "customTexture": ""
    },
    "attackName": "",
    "actionType": "",
    "attackBonus": "",
    "critConfirmBonus": "",
    "damage": {
      "parts": [],
      "critParts": [],
      "nonCritParts": []
    },
    "attackParts": [],
    "formula": "",
    "ability": {
      "attack": "",
      "damage": "",
      "damageMult": 1,
      "critRange": 20,
      "critMult": 2
    },
    "save": {
      "dc": "0",
      "type": "",
      "description": ""
    },
    "effectNotes": "",
    "attackNotes": "",
    "soundEffect": "",
    "links": {
      "children": []
    },
    "learnedAt": {
      "class": [
        [
          "sorcerer/wizard",
          8
        ],
        [
          "cleric/oracle",
          8
        ]
      ],
      "domain": [],
      "subDomain": [],
      "elementalSchool": [],
      "bloodline": []
    },
    "level": 8,
    "clOffset": 0,
    "slOffset": 0,
    "school": "abj",
    "subschool": "",
    "types": "",
    "nonlethal": false,
    "conditionals": [],
    "components": {
      "value": "",
      "verbal": true,
      "somatic": true,
      "material": true,
      "focus": false,
      "divineFocus": 0
    },
    "castTime": "",
    "materials": {
      "value": "a pinch of sand from the Spellscar Desert",
      "focus": "",
      "gpValue": 0
    },
    "spellbook": "primary",
    "preparation": {
      "preparedAmount": 0,
      "maxAmount": 0,
      "autoDeductCharges": true,
      "spontaneousPrepared": true,
      "mode": "prepared"
    },
    "atWill": false,
    "sr": false,
    "shortDescription": "<p>This potent spell invokes the same sort of magical devastation that created the Mana Wastes so long ago- albeit on a much more localized (and thankfully temporary) scale. Within the area you choose to affect with <i>spellscar</i>, the terrain takes on a strange pale hue, as if colors were muted. Periodically, ripples of vibrant color wriggle through the terrain. Within this area, any spell, spell-like ability, or magic item activation automatically triggers a primal magic event-a spellcaster can avoid triggering such an event by making a concentration check (DC 15 + twice the spell's level), but non-spellcasters who activate magic items have no such option.</p><p>You gain a +4 insight bonus on concentration checks made to avoid triggering primal magic events while within a <i>spellscar</i> you have created, and if you do trigger a primal magic event, you may roll d% twice and pick which of the two results you wish to have occur.</p>",
    "spellDuration": "10 minutes/level (D)",
    "spellEffect": "",
    "spellArea": "two 10-ft. cubes per level (S)",
    "showInQuickbar": false,
    "spellPoints": {
      "cost": "1 + @sl"
    },
    "domain": false,
    "slotCost": 1
  },
  "flags": {},
  "img": "systems/pf1/icons/misc/magic-swirl.png",
  "effects": []
}