{
  "_id": "5g3k1ocjvt4omciq",
  "name": "Spite",
  "permission": {
    "default": 0
  },
  "type": "spell",
  "data": {
    "description": {
      "value": "<div class=\"spell-description\">\n  <p>\n    <strong>School</strong>&nbsp;abjuration;\n    <strong>Level</strong>&nbsp;mesmerist 3, witch 4;\n    \n    \n    \n    \n  </p>\n  <p>\n    <strong>Casting Time</strong>&nbsp;1 round<br>\n    <strong>Components</strong>&nbsp;V, S, M (rare inks worth 250 gp)<br>\n  </p>\n  <p>\n    <strong>Range</strong>&nbsp;personal<br>\n    \n    <strong>Targets</strong>&nbsp;you<br>\n    \n    <strong>Duration</strong>&nbsp;1 hour/level (D) or until discharged<br>\n  </p>\n  <h2>Description</h2>\n  <p>Choose a single touch range spell of 4th level or lower with a casting time of 1 standard action or less. As part of the action of casting <i>spite</i>, you cast the associated spell and bind it into a defensive ward in the form of a tattoo, birthmark, or wart somewhere upon your body. The next time you are hit by a melee attack or a combat maneuver is used successfully against you, the stored spell is triggered against your foe. You do not need to succeed on a touch attack to affect the target, but in all other respects the spell is treated as though you had cast it normally. If the attacking creature is not a valid target for the spell, the stored spell is lost with no effect.</p><p>You can have only one <i>spite</i> spell in effect at a time; if you cast this spell a second time, the previous spell effect ends.</p>\n</div>\n",
      "chat": "",
      "unidentified": ""
    },
    "tags": [],
    "activation": {
      "cost": 1,
      "type": "round"
    },
    "unchainedAction": {
      "activation": {
        "cost": 3,
        "type": "action"
      }
    },
    "duration": {
      "value": null,
      "units": ""
    },
    "target": {
      "value": "you"
    },
    "range": {
      "value": null,
      "units": "personal",
      "maxIncrements": 1,
      "minValue": null,
      "minUnits": ""
    },
    "uses": {
      "value": 0,
      "max": 0,
      "per": "",
      "autoDeductCharges": true,
      "autoDeductChargesCost": "1"
    },
    "measureTemplate": {
      "type": "",
      "size": "0",
      "overrideColor": false,
      "customColor": "",
      "overrideTexture": false,
      "customTexture": ""
    },
    "attackName": "",
    "actionType": "",
    "attackBonus": "",
    "critConfirmBonus": "",
    "damage": {
      "parts": [],
      "critParts": [],
      "nonCritParts": []
    },
    "attackParts": [],
    "formula": "",
    "ability": {
      "attack": "",
      "damage": "",
      "damageMult": 1,
      "critRange": 20,
      "critMult": 2
    },
    "save": {
      "dc": "0",
      "type": "",
      "description": ""
    },
    "effectNotes": "",
    "attackNotes": "",
    "soundEffect": "",
    "links": {
      "children": []
    },
    "learnedAt": {
      "class": [
        [
          "witch",
          4
        ],
        [
          "mesmerist",
          3
        ]
      ],
      "domain": [],
      "subDomain": [],
      "elementalSchool": [],
      "bloodline": []
    },
    "level": 4,
    "clOffset": 0,
    "slOffset": 0,
    "school": "abj",
    "subschool": "",
    "types": "",
    "nonlethal": false,
    "conditionals": [],
    "components": {
      "value": "",
      "verbal": true,
      "somatic": true,
      "material": true,
      "focus": false,
      "divineFocus": 0
    },
    "castTime": "",
    "materials": {
      "value": "rare inks worth 250 gp",
      "focus": "",
      "gpValue": 250
    },
    "spellbook": "",
    "preparation": {
      "preparedAmount": 0,
      "maxAmount": 0,
      "autoDeductCharges": false,
      "spontaneousPrepared": false,
      "mode": "prepared"
    },
    "atWill": false,
    "sr": false,
    "shortDescription": "<p>Choose a single touch range spell of 4th level or lower with a casting time of 1 standard action or less. As part of the action of casting <i>spite</i>, you cast the associated spell and bind it into a defensive ward in the form of a tattoo, birthmark, or wart somewhere upon your body. The next time you are hit by a melee attack or a combat maneuver is used successfully against you, the stored spell is triggered against your foe. You do not need to succeed on a touch attack to affect the target, but in all other respects the spell is treated as though you had cast it normally. If the attacking creature is not a valid target for the spell, the stored spell is lost with no effect.</p><p>You can have only one <i>spite</i> spell in effect at a time; if you cast this spell a second time, the previous spell effect ends.</p>",
    "spellDuration": "1 hour/level (D) or until discharged",
    "spellEffect": "",
    "spellArea": "",
    "showInQuickbar": false,
    "spellPoints": {
      "cost": ""
    },
    "domain": false,
    "slotCost": 1
  },
  "flags": {},
  "img": "systems/pf1/icons/misc/magic-swirl.png",
  "effects": []
}