{
  "_id": "pyy5dujaf2n4qyjg",
  "name": "Strangling Hair",
  "permission": {
    "default": 0
  },
  "type": "spell",
  "data": {
    "description": {
      "value": "<div class=\"spell-description\">\n  <p>\n    <strong>School</strong>&nbsp;transmutation;\n    <strong>Level</strong>&nbsp;psychic 3, sorcerer/wizard 3, witch 3;\n    \n    \n    \n    \n  </p>\n  <p>\n    <strong>Casting Time</strong>&nbsp;1 standard action<br>\n    <strong>Components</strong>&nbsp;V, S<br>\n  </p>\n  <p>\n    <strong>Range</strong>&nbsp;close (25 ft. + 5 ft./2 levels)<br>\n    \n    <strong>Targets</strong>&nbsp;one creature<br>\n    \n    <strong>Duration</strong>&nbsp;concentration, up to 1 round/level<br>\n    <strong>Saving Throw</strong>&nbsp;none;&nbsp;<strong>Spell Resistance</strong>&nbsp;yes<br>\n  </p>\n  <h2>Description</h2>\n  <p>Your hair animates and extends to grapple and constrict an opponent. Make a grapple check against the target using your caster level as the base attack bonus plus a bonus equal to your Intelligence bonus (if a witch or wizard) or Charisma bonus (if a sorcerer). This grapple check does not provoke attacks of opportunity. If your hair succeeds in grappling a foe, that creature takes 1d6 points of damage or your unarmed strike damage, whichever is greater, and gains the grappled condition. Your hair receives a +5 bonus on grapple checks made against opponents it is already grappling, but cannot move foes or pin foes. Each round that your hair succeeds on a grapple check, it deals an additional 1d6 points of damage. The CMD of your hair, for the purposes of escaping the grapple, is equal to 10 + its CMB.  Once you choose a target, your hair continues to attack that target independently of your own actions. You may designate a new target as a move action, which causes your hair to release its current target (if any) and attack the new target that round. Your hair cannot be targeted as a separate creature, but it can be dispelled.</p>\n</div>\n",
      "chat": "",
      "unidentified": ""
    },
    "tags": [],
    "activation": {
      "cost": 1,
      "type": "standard"
    },
    "unchainedAction": {
      "activation": {
        "cost": 2,
        "type": "action"
      }
    },
    "duration": {
      "value": null,
      "units": ""
    },
    "target": {
      "value": "one creature"
    },
    "range": {
      "value": null,
      "units": "close",
      "maxIncrements": 1,
      "minValue": null,
      "minUnits": ""
    },
    "uses": {
      "value": 0,
      "max": 0,
      "per": "",
      "autoDeductCharges": true,
      "autoDeductChargesCost": "1"
    },
    "measureTemplate": {
      "type": "",
      "size": "0",
      "overrideColor": false,
      "customColor": "",
      "overrideTexture": false,
      "customTexture": ""
    },
    "attackName": "",
    "actionType": "",
    "attackBonus": "",
    "critConfirmBonus": "",
    "damage": {
      "parts": [],
      "critParts": [],
      "nonCritParts": []
    },
    "attackParts": [],
    "formula": "",
    "ability": {
      "attack": "",
      "damage": "",
      "damageMult": 1,
      "critRange": 20,
      "critMult": 2
    },
    "save": {
      "dc": "0",
      "type": "",
      "description": ""
    },
    "effectNotes": "",
    "attackNotes": "",
    "soundEffect": "",
    "links": {
      "children": []
    },
    "learnedAt": {
      "class": [
        [
          "sorcerer/wizard",
          3
        ],
        [
          "witch",
          3
        ],
        [
          "psychic",
          3
        ]
      ],
      "domain": [],
      "subDomain": [],
      "elementalSchool": [],
      "bloodline": []
    },
    "level": 3,
    "clOffset": 0,
    "slOffset": 0,
    "school": "trs",
    "subschool": "",
    "types": "",
    "nonlethal": false,
    "conditionals": [],
    "components": {
      "value": "",
      "verbal": true,
      "somatic": true,
      "material": false,
      "focus": false,
      "divineFocus": 0
    },
    "castTime": "",
    "materials": {
      "value": "",
      "focus": "",
      "gpValue": 0
    },
    "spellbook": "primary",
    "preparation": {
      "preparedAmount": 0,
      "maxAmount": 0,
      "autoDeductCharges": true,
      "spontaneousPrepared": true,
      "mode": "prepared"
    },
    "atWill": false,
    "sr": true,
    "shortDescription": "<p>Your hair animates and extends to grapple and constrict an opponent. Make a grapple check against the target using your caster level as the base attack bonus plus a bonus equal to your Intelligence bonus (if a witch or wizard) or Charisma bonus (if a sorcerer). This grapple check does not provoke attacks of opportunity. If your hair succeeds in grappling a foe, that creature takes 1d6 points of damage or your unarmed strike damage, whichever is greater, and gains the grappled condition. Your hair receives a +5 bonus on grapple checks made against opponents it is already grappling, but cannot move foes or pin foes. Each round that your hair succeeds on a grapple check, it deals an additional 1d6 points of damage. The CMD of your hair, for the purposes of escaping the grapple, is equal to 10 + its CMB.  Once you choose a target, your hair continues to attack that target independently of your own actions. You may designate a new target as a move action, which causes your hair to release its current target (if any) and attack the new target that round. Your hair cannot be targeted as a separate creature, but it can be dispelled.</p>",
    "spellDuration": "concentration, up to 1 round/level",
    "spellEffect": "",
    "spellArea": "",
    "showInQuickbar": false,
    "spellPoints": {
      "cost": "1 + @sl"
    },
    "domain": false,
    "slotCost": 1
  },
  "flags": {},
  "img": "systems/pf1/icons/misc/magic-swirl.png",
  "effects": []
}