{
  "_id": "22crdpotg36vglq6",
  "name": "Submerge Ship",
  "permission": {
    "default": 0
  },
  "type": "spell",
  "data": {
    "description": {
      "value": "<div class=\"spell-description\">\n  <p>\n    <strong>School</strong>&nbsp;transmutation;\n    <strong>Level</strong>&nbsp;cleric/oracle 7, sorcerer/wizard 7;\n    \n    \n    \n    \n  </p>\n  <p>\n    <strong>Casting Time</strong>&nbsp;1 minute<br>\n    <strong>Components</strong>&nbsp;V, S, M/DF (a glass marble or piece of soap)<br>\n  </p>\n  <p>\n    <strong>Range</strong>&nbsp;touch<br>\n    \n    <strong>Targets</strong>&nbsp;1 sailing vessel<br>\n    \n    <strong>Duration</strong>&nbsp;10 minutes/level<br>\n    <strong>Saving Throw</strong>&nbsp;Will negates (harmless);&nbsp;<strong>Spell Resistance</strong>&nbsp;no<br>\n  </p>\n  <h2>Description</h2>\n  <p>When this spell is cast upon a vessel, the ship is surrounded by a protective bubble of constantly replenishing, breathable air and sinks beneath the waves. For the duration of the spell, the ship can travel beneath the water as easily as it did above. While under the effects of this spell, the ship has magical propulsion that gives it a maximum speed of 120 feet and an acceleration of 30 feet (see the Skull & Shackles Player's Guide for details). The ship's pilot uses the normal sailing skill to control the ship while under this spell's effects, and can command it to dive and ascend as part of the vessel's normal movement. Despite the magical propulsion, the ship still requires its crew to perform its normal functions.  The spell protects the ship and all aboard from the dangers of drowning and pressure, but not from damage from outside obstacles or creatures. The bubble cannot be used offensively and prevents an affected ship from rising into a space that won't accommodate it (like a sea cave too small to contain it or under another vessel). Creatures can enter or leave the bubble at will, but those outside the sphere cannot be forced inside against their will, the sphere proving substantial enough that such creatures may choose whether to enter or to slip away along its sides. At the end of the spell's duration the bubble pops, causing a ship still underwater at that time to gain the sinking condition. This spell has no effect if cast upon a ship in water that cannot cover the vessel entirely.  Although largely beneficial, this spell can be cast on a ship whose pilot does not want to submerge her vessel. The ship itself uses its Will saving throw to resist this effect.</p>\n</div>\n",
      "chat": "",
      "unidentified": ""
    },
    "tags": [],
    "activation": {
      "cost": 1,
      "type": "minute"
    },
    "unchainedAction": {
      "activation": {
        "cost": 1,
        "type": "minute"
      }
    },
    "duration": {
      "value": null,
      "units": ""
    },
    "target": {
      "value": "1 sailing vessel"
    },
    "range": {
      "value": null,
      "units": "touch",
      "maxIncrements": 1,
      "minValue": null,
      "minUnits": ""
    },
    "uses": {
      "value": 0,
      "max": 0,
      "per": "",
      "autoDeductCharges": true,
      "autoDeductChargesCost": "1"
    },
    "measureTemplate": {
      "type": "",
      "size": "0",
      "overrideColor": false,
      "customColor": "",
      "overrideTexture": false,
      "customTexture": ""
    },
    "attackName": "",
    "actionType": "spellsave",
    "attackBonus": "",
    "critConfirmBonus": "",
    "damage": {
      "parts": [],
      "critParts": [],
      "nonCritParts": []
    },
    "attackParts": [],
    "formula": "",
    "ability": {
      "attack": "",
      "damage": "",
      "damageMult": 1,
      "critRange": 20,
      "critMult": 2
    },
    "save": {
      "dc": "0",
      "type": "will",
      "description": "Will negates (harmless)"
    },
    "effectNotes": "",
    "attackNotes": "",
    "soundEffect": "",
    "links": {
      "children": []
    },
    "learnedAt": {
      "class": [
        [
          "sorcerer/wizard",
          7
        ],
        [
          "cleric/oracle",
          7
        ]
      ],
      "domain": [],
      "subDomain": [],
      "elementalSchool": [],
      "bloodline": []
    },
    "level": 7,
    "clOffset": 0,
    "slOffset": 0,
    "school": "trs",
    "subschool": "",
    "types": "",
    "nonlethal": false,
    "conditionals": [],
    "components": {
      "value": "",
      "verbal": true,
      "somatic": true,
      "material": true,
      "focus": false,
      "divineFocus": 2
    },
    "castTime": "",
    "materials": {
      "value": "a glass marble or piece of soap",
      "focus": "",
      "gpValue": 0
    },
    "spellbook": "primary",
    "preparation": {
      "preparedAmount": 0,
      "maxAmount": 0,
      "autoDeductCharges": true,
      "spontaneousPrepared": true,
      "mode": "prepared"
    },
    "atWill": false,
    "sr": false,
    "shortDescription": "<p>When this spell is cast upon a vessel, the ship is surrounded by a protective bubble of constantly replenishing, breathable air and sinks beneath the waves. For the duration of the spell, the ship can travel beneath the water as easily as it did above. While under the effects of this spell, the ship has magical propulsion that gives it a maximum speed of 120 feet and an acceleration of 30 feet (see the Skull & Shackles Player's Guide for details). The ship's pilot uses the normal sailing skill to control the ship while under this spell's effects, and can command it to dive and ascend as part of the vessel's normal movement. Despite the magical propulsion, the ship still requires its crew to perform its normal functions.  The spell protects the ship and all aboard from the dangers of drowning and pressure, but not from damage from outside obstacles or creatures. The bubble cannot be used offensively and prevents an affected ship from rising into a space that won't accommodate it (like a sea cave too small to contain it or under another vessel). Creatures can enter or leave the bubble at will, but those outside the sphere cannot be forced inside against their will, the sphere proving substantial enough that such creatures may choose whether to enter or to slip away along its sides. At the end of the spell's duration the bubble pops, causing a ship still underwater at that time to gain the sinking condition. This spell has no effect if cast upon a ship in water that cannot cover the vessel entirely.  Although largely beneficial, this spell can be cast on a ship whose pilot does not want to submerge her vessel. The ship itself uses its Will saving throw to resist this effect.</p>",
    "spellDuration": "10 minutes/level",
    "spellEffect": "",
    "spellArea": "",
    "showInQuickbar": false,
    "spellPoints": {
      "cost": "1 + @sl"
    },
    "domain": false,
    "slotCost": 1
  },
  "flags": {},
  "img": "systems/pf1/icons/misc/magic-swirl.png",
  "effects": []
}