{
  "_id": "w2yf0ksu14e91uae",
  "name": "Threefold Aspect",
  "permission": {
    "default": 0
  },
  "type": "spell",
  "data": {
    "description": {
      "value": "<div class=\"spell-description\">\n  <p>\n    <strong>School</strong>&nbsp;transmutation;\n    <strong>Level</strong>&nbsp;druid 5, hunter 5, witch 4;\n    \n    \n    \n    <strong>Bloodline</strong>&nbsp;Imperious 4;\n  </p>\n  <p>\n    <strong>Casting Time</strong>&nbsp;1 standard action<br>\n    <strong>Components</strong>&nbsp;S, F (silver crescent worth 5 gp)<br>\n  </p>\n  <p>\n    <strong>Range</strong>&nbsp;personal<br>\n    \n    <strong>Targets</strong>&nbsp;you<br>\n    \n    <strong>Duration</strong>&nbsp;24 hours (D)<br>\n    \n  </p>\n  <h2>Description</h2>\n  <p><i>Threefold aspect</i> allows you to shift your appearance between your natural age and three idealized age categories: young adult (youth/maiden), adulthood (father/mother), or elderly (elder/crone). In each case, your appearance is your own at the appropriate age, rather than that of a new individual.</p><p>You may change between these three aspects or your actual age as a standard action. As the young adult, you gain a +2 enhancement bonus to Dexterity and Constitution, but suffer a -2 penalty to Wisdom. In the adult aspect, you gain a +2 enhancement bonus to Wisdom and Intelligence, but take a -2 penalty to Dexterity. As the elderly aspect, you gain a +4 enhancement bonus to Wisdom and Intelligence, but take a -2 penalty to Strength and Dexterity. As enhancement bonuses, these stack with any bonuses or penalties you may have from your actual age (which are untyped bonuses)-the bonuses granted by this spell represent your idealized form in this threefold aspect rather than simply duplicating your ability scores at any one particular age.</p><p><i>True seeing</i> reveals your natural appearance overlaid with that your aspect, recognizing both as part of your true self.</p><p>Individuals who study you closely and have interacted with you at another apparent age recognize a resemblance (as though family) with a successful DC 20 Perception check.</p><p><i>Threefold aspect</i> does not alter your clothing or equipment, and does not heal any deformity or injury unrelated to age.</p>\n</div>\n",
      "chat": "",
      "unidentified": ""
    },
    "tags": [],
    "activation": {
      "cost": 1,
      "type": "standard"
    },
    "unchainedAction": {
      "activation": {
        "cost": 2,
        "type": "action"
      }
    },
    "duration": {
      "value": null,
      "units": ""
    },
    "target": {
      "value": "you"
    },
    "range": {
      "value": null,
      "units": "personal",
      "maxIncrements": 1,
      "minValue": null,
      "minUnits": ""
    },
    "uses": {
      "value": 0,
      "max": 0,
      "per": "",
      "autoDeductCharges": true,
      "autoDeductChargesCost": "1"
    },
    "measureTemplate": {
      "type": "",
      "size": "0",
      "overrideColor": false,
      "customColor": "",
      "overrideTexture": false,
      "customTexture": ""
    },
    "attackName": "",
    "actionType": "",
    "attackBonus": "",
    "critConfirmBonus": "",
    "damage": {
      "parts": [],
      "critParts": [],
      "nonCritParts": []
    },
    "attackParts": [],
    "formula": "",
    "ability": {
      "attack": "",
      "damage": "",
      "damageMult": 1,
      "critRange": 20,
      "critMult": 2
    },
    "save": {
      "dc": "0",
      "type": "",
      "description": ""
    },
    "effectNotes": "",
    "attackNotes": "",
    "soundEffect": "",
    "links": {
      "children": []
    },
    "learnedAt": {
      "class": [
        [
          "druid",
          5
        ],
        [
          "witch",
          4
        ],
        [
          "hunter",
          5
        ]
      ],
      "domain": [],
      "subDomain": [],
      "elementalSchool": [],
      "bloodline": [
        [
          "Imperious",
          4
        ]
      ]
    },
    "level": 5,
    "clOffset": 0,
    "slOffset": 0,
    "school": "trs",
    "subschool": "",
    "types": "",
    "nonlethal": false,
    "conditionals": [],
    "components": {
      "value": "",
      "verbal": false,
      "somatic": true,
      "material": false,
      "focus": true,
      "divineFocus": 0
    },
    "castTime": "",
    "materials": {
      "value": "",
      "focus": "silver crescent worth 5 gp",
      "gpValue": 0
    },
    "spellbook": "primary",
    "preparation": {
      "preparedAmount": 0,
      "maxAmount": 0,
      "autoDeductCharges": true,
      "spontaneousPrepared": true,
      "mode": "prepared"
    },
    "atWill": false,
    "sr": false,
    "shortDescription": "<p><i>Threefold aspect</i> allows you to shift your appearance between your natural age and three idealized age categories: young adult (youth/maiden), adulthood (father/mother), or elderly (elder/crone). In each case, your appearance is your own at the appropriate age, rather than that of a new individual.</p><p>You may change between these three aspects or your actual age as a standard action. As the young adult, you gain a +2 enhancement bonus to Dexterity and Constitution, but suffer a -2 penalty to Wisdom. In the adult aspect, you gain a +2 enhancement bonus to Wisdom and Intelligence, but take a -2 penalty to Dexterity. As the elderly aspect, you gain a +4 enhancement bonus to Wisdom and Intelligence, but take a -2 penalty to Strength and Dexterity. As enhancement bonuses, these stack with any bonuses or penalties you may have from your actual age (which are untyped bonuses)-the bonuses granted by this spell represent your idealized form in this threefold aspect rather than simply duplicating your ability scores at any one particular age.</p><p><i>True seeing</i> reveals your natural appearance overlaid with that your aspect, recognizing both as part of your true self.</p><p>Individuals who study you closely and have interacted with you at another apparent age recognize a resemblance (as though family) with a successful DC 20 Perception check.</p><p><i>Threefold aspect</i> does not alter your clothing or equipment, and does not heal any deformity or injury unrelated to age.</p>",
    "spellDuration": "24 hours (D)",
    "spellEffect": "",
    "spellArea": "",
    "showInQuickbar": false,
    "spellPoints": {
      "cost": "1 + @sl"
    },
    "domain": false,
    "slotCost": 1
  },
  "flags": {},
  "img": "systems/pf1/icons/misc/magic-swirl.png",
  "effects": []
}