{
  "_id": "auqa5b0x0een6jcm",
  "name": "Trace Teleport",
  "permission": {
    "default": 0
  },
  "type": "spell",
  "data": {
    "description": {
      "value": "<div class=\"spell-description\">\n  <p>\n    <strong>School</strong>&nbsp;divination;\n    <strong>Level</strong>&nbsp;psychic 4, sorcerer/wizard 5;\n    \n    \n    \n    \n  </p>\n  <p>\n    <strong>Casting Time</strong>&nbsp;1 standard action<br>\n    <strong>Components</strong>&nbsp;V, S, F (a magnifying lens)<br>\n  </p>\n  <p>\n    <strong>Range</strong>&nbsp;40 feet<br>\n    <strong>Area</strong>&nbsp;40-ft.-radius emanation centered on you<br>\n    \n    \n    <strong>Duration</strong>&nbsp;1 minute/level<br>\n    <strong>Saving Throw</strong>&nbsp;none;&nbsp;<strong>Spell Resistance</strong>&nbsp;no<br>\n  </p>\n  <h2>Description</h2>\n  <p>You immediately become aware of any <i>teleport</i>ation effects that begin or end within the spell's area. The spell's area radiates from you and moves as you move. You know the exact origin point of any <i>teleport</i>ation effect that originates within the spell's area, and the exact end point of any <i>teleport</i>ation effect that terminates within the spell's area. Further, you can detect the lingering traces of any <i>teleport</i>ation effect that occurred up to 1 hour previously, in the same fashion. You intuitively know, to the nearest minute, when the <i>teleport</i>ation effect occurred.  Whenever you detect the origin point or termination point of any <i>teleport</i>ation effect with this spell, you can study that origin point or termination point for 1 round. If you do, you can attempt a caster level check (DC = 11 + the <i>teleport</i>ation effect's caster level), taking a -5 penalty if the effect occurred more than 1 minute ago. If you succeed, you gain a glimpse of the <i>teleport</i>ation effect's termination point (if you detected an origin point) or origin point (if you detected a termination point). This glimpse lasts long enough for you to get a brief look at the area, but not long enough to scrutinize it in detail. It doesn't come with any geographic knowledge of the location, so it is not sufficient for <i>teleport</i> or similar magic. You can't retry the caster level check, even if you cast trace <i>teleport</i> again.</p>\n</div>\n",
      "chat": "",
      "unidentified": ""
    },
    "tags": [],
    "activation": {
      "cost": 1,
      "type": "standard"
    },
    "unchainedAction": {
      "activation": {
        "cost": 2,
        "type": "action"
      }
    },
    "duration": {
      "value": null,
      "units": ""
    },
    "target": {
      "value": ""
    },
    "range": {
      "value": 40,
      "units": "ft",
      "maxIncrements": 1,
      "minValue": null,
      "minUnits": ""
    },
    "uses": {
      "value": 0,
      "max": 0,
      "per": "",
      "autoDeductCharges": true,
      "autoDeductChargesCost": "1"
    },
    "measureTemplate": {
      "type": "",
      "size": "0",
      "overrideColor": false,
      "customColor": "",
      "overrideTexture": false,
      "customTexture": ""
    },
    "attackName": "",
    "actionType": "",
    "attackBonus": "",
    "critConfirmBonus": "",
    "damage": {
      "parts": [],
      "critParts": [],
      "nonCritParts": []
    },
    "attackParts": [],
    "formula": "",
    "ability": {
      "attack": "",
      "damage": "",
      "damageMult": 1,
      "critRange": 20,
      "critMult": 2
    },
    "save": {
      "dc": "0",
      "type": "",
      "description": ""
    },
    "effectNotes": "",
    "attackNotes": "",
    "soundEffect": "",
    "links": {
      "children": []
    },
    "learnedAt": {
      "class": [
        [
          "sorcerer/wizard",
          5
        ],
        [
          "psychic",
          4
        ]
      ],
      "domain": [],
      "subDomain": [],
      "elementalSchool": [],
      "bloodline": []
    },
    "level": 5,
    "clOffset": 0,
    "slOffset": 0,
    "school": "div",
    "subschool": "",
    "types": "",
    "nonlethal": false,
    "conditionals": [],
    "components": {
      "value": "",
      "verbal": true,
      "somatic": true,
      "material": false,
      "focus": true,
      "divineFocus": 0
    },
    "castTime": "",
    "materials": {
      "value": "",
      "focus": "a magnifying lens",
      "gpValue": 0
    },
    "spellbook": "primary",
    "preparation": {
      "preparedAmount": 0,
      "maxAmount": 0,
      "autoDeductCharges": true,
      "spontaneousPrepared": true,
      "mode": "prepared"
    },
    "atWill": false,
    "sr": false,
    "shortDescription": "<p>You immediately become aware of any <i>teleport</i>ation effects that begin or end within the spell's area. The spell's area radiates from you and moves as you move. You know the exact origin point of any <i>teleport</i>ation effect that originates within the spell's area, and the exact end point of any <i>teleport</i>ation effect that terminates within the spell's area. Further, you can detect the lingering traces of any <i>teleport</i>ation effect that occurred up to 1 hour previously, in the same fashion. You intuitively know, to the nearest minute, when the <i>teleport</i>ation effect occurred.  Whenever you detect the origin point or termination point of any <i>teleport</i>ation effect with this spell, you can study that origin point or termination point for 1 round. If you do, you can attempt a caster level check (DC = 11 + the <i>teleport</i>ation effect's caster level), taking a -5 penalty if the effect occurred more than 1 minute ago. If you succeed, you gain a glimpse of the <i>teleport</i>ation effect's termination point (if you detected an origin point) or origin point (if you detected a termination point). This glimpse lasts long enough for you to get a brief look at the area, but not long enough to scrutinize it in detail. It doesn't come with any geographic knowledge of the location, so it is not sufficient for <i>teleport</i> or similar magic. You can't retry the caster level check, even if you cast trace <i>teleport</i> again.</p>",
    "spellDuration": "1 minute/level",
    "spellEffect": "",
    "spellArea": "40-ft.-radius emanation centered on you",
    "showInQuickbar": false,
    "spellPoints": {
      "cost": "1 + @sl"
    },
    "domain": false,
    "slotCost": 1
  },
  "flags": {},
  "img": "systems/pf1/icons/misc/magic-swirl.png",
  "effects": []
}