{
  "_id": "juddwhbp6yea3p9s",
  "name": "Unseen Engineers",
  "permission": {
    "default": 0
  },
  "type": "spell",
  "data": {
    "description": {
      "value": "<div class=\"spell-description\">\n  <p>\n    <strong>School</strong>&nbsp;conjuration&nbsp;(creation);\n    <strong>Level</strong>&nbsp;sorcerer/wizard 3, summoner 2, unchained Summoner 2, witch 3;\n    \n    \n    \n    \n  </p>\n  <p>\n    <strong>Casting Time</strong>&nbsp;1 standard action<br>\n    <strong>Components</strong>&nbsp;V, S, M (materials required to construct the trap)<br>\n  </p>\n  <p>\n    <strong>Range</strong>&nbsp;long (400 ft. + 40 ft./level)<br>\n    \n    \n    <strong>Effect</strong>&nbsp;a team of tiny, invisible engineers<br>\n    <strong>Duration</strong>&nbsp;1 minute/level<br>\n    <strong>Saving Throw</strong>&nbsp;none;&nbsp;<strong>Spell Resistance</strong>&nbsp;no<br>\n  </p>\n  <h2>Description</h2>\n  <p>You conjure an invisible team of tiny engineers to construct a trap at alarming speed. Originating at your location, the team must remain within range of you or the spell ends. The engineers construct a mechanical trap of your choice. Construction takes a number of rounds equal to the trap's challenge rating. The engineers must have the materials available. At the end of the construction time, use your Craft (traps) skill with a +5 bonus to determine the success of their work. If the engineers succeed, the trap is complete and the spell ends. If they fail, the materials are deposited at that location and the spell ends. If the spell's duration ends before the trap is complete, the engineers automatically fail.  The engineers move at your base speed and can carry only materials required in the construction of the desired trap. They can't attack in any way or be killed, and dissipate if they take 12 points of damage from area attacks (they get no saves against attacks).</p>\n</div>\n",
      "chat": "",
      "unidentified": ""
    },
    "tags": [],
    "activation": {
      "cost": 1,
      "type": "standard"
    },
    "unchainedAction": {
      "activation": {
        "cost": 2,
        "type": "action"
      }
    },
    "duration": {
      "value": null,
      "units": ""
    },
    "target": {
      "value": ""
    },
    "range": {
      "value": null,
      "units": "long",
      "maxIncrements": 1,
      "minValue": null,
      "minUnits": ""
    },
    "uses": {
      "value": 0,
      "max": 0,
      "per": "",
      "autoDeductCharges": true,
      "autoDeductChargesCost": "1"
    },
    "measureTemplate": {
      "type": "",
      "size": "0",
      "overrideColor": false,
      "customColor": "",
      "overrideTexture": false,
      "customTexture": ""
    },
    "attackName": "",
    "actionType": "other",
    "attackBonus": "",
    "critConfirmBonus": "",
    "damage": {
      "parts": [],
      "critParts": [],
      "nonCritParts": []
    },
    "attackParts": [],
    "formula": "",
    "ability": {
      "attack": "",
      "damage": "",
      "damageMult": 1,
      "critRange": 20,
      "critMult": 2
    },
    "save": {
      "dc": "0",
      "type": "",
      "description": ""
    },
    "effectNotes": "",
    "attackNotes": "",
    "soundEffect": "",
    "links": {
      "children": []
    },
    "learnedAt": {
      "class": [
        [
          "sorcerer/wizard",
          3
        ],
        [
          "summoner",
          2
        ],
        [
          "witch",
          3
        ],
        [
          "unchained Summoner",
          2
        ]
      ],
      "domain": [],
      "subDomain": [],
      "elementalSchool": [],
      "bloodline": []
    },
    "level": 3,
    "clOffset": 0,
    "slOffset": 0,
    "school": "con",
    "subschool": "creation",
    "types": "",
    "nonlethal": false,
    "conditionals": [],
    "components": {
      "value": "",
      "verbal": true,
      "somatic": true,
      "material": true,
      "focus": false,
      "divineFocus": 0
    },
    "castTime": "",
    "materials": {
      "value": "materials required to construct the trap",
      "focus": "",
      "gpValue": 0
    },
    "spellbook": "primary",
    "preparation": {
      "preparedAmount": 0,
      "maxAmount": 0,
      "autoDeductCharges": true,
      "spontaneousPrepared": true,
      "mode": "prepared"
    },
    "atWill": false,
    "sr": false,
    "shortDescription": "<p>You conjure an invisible team of tiny engineers to construct a trap at alarming speed. Originating at your location, the team must remain within range of you or the spell ends. The engineers construct a mechanical trap of your choice. Construction takes a number of rounds equal to the trap's challenge rating. The engineers must have the materials available. At the end of the construction time, use your Craft (traps) skill with a +5 bonus to determine the success of their work. If the engineers succeed, the trap is complete and the spell ends. If they fail, the materials are deposited at that location and the spell ends. If the spell's duration ends before the trap is complete, the engineers automatically fail.  The engineers move at your base speed and can carry only materials required in the construction of the desired trap. They can't attack in any way or be killed, and dissipate if they take 12 points of damage from area attacks (they get no saves against attacks).</p>",
    "spellDuration": "1 minute/level",
    "spellEffect": "a team of tiny, invisible engineers",
    "spellArea": "",
    "showInQuickbar": false,
    "spellPoints": {
      "cost": "1 + @sl"
    },
    "domain": false,
    "slotCost": 1
  },
  "flags": {},
  "img": "systems/pf1/icons/misc/magic-swirl.png",
  "effects": []
}