{
  "_id": "vs37bb6askl1wf5i",
  "name": "Venomous Promise",
  "permission": {
    "default": 0
  },
  "type": "spell",
  "data": {
    "description": {
      "value": "<div class=\"spell-description\">\n  <p>\n    <strong>School</strong>&nbsp;transmutation&nbsp;[language-dependent, poison];\n    <strong>Level</strong>&nbsp;antipaladin 3, bard 3, mesmerist 3, shaman 3, witch 3;\n    \n    \n    \n    \n  </p>\n  <p>\n    <strong>Casting Time</strong>&nbsp;1 standard action<br>\n    <strong>Components</strong>&nbsp;S, M (a vial of poison)<br>\n  </p>\n  <p>\n    <strong>Range</strong>&nbsp;touch<br>\n    \n    <strong>Targets</strong>&nbsp;one creature<br>\n    \n    <strong>Duration</strong>&nbsp;permanent or until triggered<br>\n    <strong>Saving Throw</strong>&nbsp;yes;&nbsp;<strong>Spell Resistance</strong>&nbsp;yes<br>\n  </p>\n  <h2>Description</h2>\n  <p>You guard your words and person with poisonous power. You can impart a short amount of information-up to 25 words-as you cast this spell, entwining your words with the poison provided as a material component. If your target reveals the information you impart (verbally, in writing, with gestures, or by having its mind read with spells like <i>detect</i> thoughts), the target is immediately exposed to the poison (and is allowed any saving throw the poison allows).  Your target instinctively knows that revealing this information will endanger it, but doesn't automatically understand why or how. <i>Neutralize poison</i> removes the effect of this spell; the spellcaster must succeed at a caster level check against the spell's save DC rather than the poison's.</p>\n</div>\n",
      "chat": "",
      "unidentified": ""
    },
    "tags": [],
    "activation": {
      "cost": 1,
      "type": "standard"
    },
    "unchainedAction": {
      "activation": {
        "cost": 2,
        "type": "action"
      }
    },
    "duration": {
      "value": null,
      "units": ""
    },
    "target": {
      "value": "one creature"
    },
    "range": {
      "value": null,
      "units": "touch",
      "maxIncrements": 1,
      "minValue": null,
      "minUnits": ""
    },
    "uses": {
      "value": 0,
      "max": 0,
      "per": "",
      "autoDeductCharges": true,
      "autoDeductChargesCost": "1"
    },
    "measureTemplate": {
      "type": "",
      "size": "0",
      "overrideColor": false,
      "customColor": "",
      "overrideTexture": false,
      "customTexture": ""
    },
    "attackName": "",
    "actionType": "spellsave",
    "attackBonus": "",
    "critConfirmBonus": "",
    "damage": {
      "parts": [],
      "critParts": [],
      "nonCritParts": []
    },
    "attackParts": [],
    "formula": "",
    "ability": {
      "attack": "",
      "damage": "",
      "damageMult": 1,
      "critRange": 20,
      "critMult": 2
    },
    "save": {
      "dc": "0",
      "type": "",
      "description": "yes"
    },
    "effectNotes": "",
    "attackNotes": "",
    "soundEffect": "",
    "links": {
      "children": []
    },
    "learnedAt": {
      "class": [
        [
          "bard",
          3
        ],
        [
          "witch",
          3
        ],
        [
          "antipaladin",
          3
        ],
        [
          "shaman",
          3
        ],
        [
          "mesmerist",
          3
        ]
      ],
      "domain": [],
      "subDomain": [],
      "elementalSchool": [],
      "bloodline": []
    },
    "level": 3,
    "clOffset": 0,
    "slOffset": 0,
    "school": "trs",
    "subschool": "",
    "types": "language-dependent, poison",
    "nonlethal": false,
    "conditionals": [],
    "components": {
      "value": "",
      "verbal": false,
      "somatic": true,
      "material": true,
      "focus": false,
      "divineFocus": 0
    },
    "castTime": "",
    "materials": {
      "value": "a vial of poison",
      "focus": "",
      "gpValue": 0
    },
    "spellbook": "primary",
    "preparation": {
      "preparedAmount": 0,
      "maxAmount": 0,
      "autoDeductCharges": true,
      "spontaneousPrepared": true,
      "mode": "prepared"
    },
    "atWill": false,
    "sr": true,
    "shortDescription": "<p>You guard your words and person with poisonous power. You can impart a short amount of information-up to 25 words-as you cast this spell, entwining your words with the poison provided as a material component. If your target reveals the information you impart (verbally, in writing, with gestures, or by having its mind read with spells like <i>detect</i> thoughts), the target is immediately exposed to the poison (and is allowed any saving throw the poison allows).  Your target instinctively knows that revealing this information will endanger it, but doesn't automatically understand why or how. <i>Neutralize poison</i> removes the effect of this spell; the spellcaster must succeed at a caster level check against the spell's save DC rather than the poison's.</p>",
    "spellDuration": "permanent or until triggered",
    "spellEffect": "",
    "spellArea": "",
    "showInQuickbar": false,
    "spellPoints": {
      "cost": "1 + @sl"
    },
    "domain": false,
    "slotCost": 1
  },
  "flags": {},
  "img": "systems/pf1/icons/misc/magic-swirl.png",
  "effects": []
}