{
  "_id": "yj486fgng9h6p833",
  "name": "Vex Giant",
  "permission": {
    "default": 0
  },
  "type": "spell",
  "data": {
    "description": {
      "value": "<div class=\"spell-description\">\n  <p>\n    <strong>School</strong>&nbsp;transmutation;\n    <strong>Level</strong>&nbsp;hunter 3, ranger 3;\n    \n    \n    \n    \n  </p>\n  <p>\n    <strong>Casting Time</strong>&nbsp;1 standard action<br>\n    <strong>Components</strong>&nbsp;V, S, M (a fragment from a Large or larger weapon)<br>\n  </p>\n  <p>\n    <strong>Range</strong>&nbsp;personal<br>\n    \n    <strong>Targets</strong>&nbsp;you<br>\n    \n    <strong>Duration</strong>&nbsp;1 round/level<br>\n    \n  </p>\n  <h2>Description</h2>\n  <p>The giants and their kin have long plagued the peoples of Varisia, particularly the Shoanti of the Storval Plateau. Among the various tactics and methods the Shoanti have developed to fight against their enemies, this spell is one of the most widespread today.</p><p>When you cast <i>vex giant</i>, your senses and reflexes become particularly honed against a single target within 60 feet, provided the target is at least one size category larger than you. You may select your focused foe as a free action when you cast this spell-switching your focus to a different foe within 60 feet is a move action. If a foe moves beyond 60 feet from you, you lose your focus on that foe, although you may regain it by moving within 60 feet and spending a move action. Although the name of the spell is <i>vex giant</i>, it works equally well on any foe that's at least one size category larger than you.</p><p>Against a foe you are focused on, you do not provoke attacks of opportunity by moving through their threatened area. Additionally, the first successful melee attack you make against the foe in a round deals an additional 1d6 points of damage. Finally, you gain a +4 insight bonus on all combat maneuver checks made against your focused foe.</p>\n</div>\n",
      "chat": "",
      "unidentified": ""
    },
    "tags": [],
    "activation": {
      "cost": 1,
      "type": "standard"
    },
    "unchainedAction": {
      "activation": {
        "cost": 2,
        "type": "action"
      }
    },
    "duration": {
      "value": null,
      "units": ""
    },
    "target": {
      "value": "you"
    },
    "range": {
      "value": null,
      "units": "personal",
      "maxIncrements": 1,
      "minValue": null,
      "minUnits": ""
    },
    "uses": {
      "value": 0,
      "max": 0,
      "per": "",
      "autoDeductCharges": true,
      "autoDeductChargesCost": "1"
    },
    "measureTemplate": {
      "type": "",
      "size": "0",
      "overrideColor": false,
      "customColor": "",
      "overrideTexture": false,
      "customTexture": ""
    },
    "attackName": "",
    "actionType": "",
    "attackBonus": "",
    "critConfirmBonus": "",
    "damage": {
      "parts": [],
      "critParts": [],
      "nonCritParts": []
    },
    "attackParts": [],
    "formula": "",
    "ability": {
      "attack": "",
      "damage": "",
      "damageMult": 1,
      "critRange": 20,
      "critMult": 2
    },
    "save": {
      "dc": "0",
      "type": "",
      "description": ""
    },
    "effectNotes": "",
    "attackNotes": "",
    "soundEffect": "",
    "links": {
      "children": []
    },
    "learnedAt": {
      "class": [
        [
          "ranger",
          3
        ],
        [
          "hunter",
          3
        ]
      ],
      "domain": [],
      "subDomain": [],
      "elementalSchool": [],
      "bloodline": []
    },
    "level": 3,
    "clOffset": 0,
    "slOffset": 0,
    "school": "trs",
    "subschool": "",
    "types": "",
    "nonlethal": false,
    "conditionals": [],
    "components": {
      "value": "",
      "verbal": true,
      "somatic": true,
      "material": true,
      "focus": false,
      "divineFocus": 0
    },
    "castTime": "",
    "materials": {
      "value": "a fragment from a Large or larger weapon",
      "focus": "",
      "gpValue": 0
    },
    "spellbook": "primary",
    "preparation": {
      "preparedAmount": 0,
      "maxAmount": 0,
      "autoDeductCharges": true,
      "spontaneousPrepared": true,
      "mode": "prepared"
    },
    "atWill": false,
    "sr": false,
    "shortDescription": "<p>The giants and their kin have long plagued the peoples of Varisia, particularly the Shoanti of the Storval Plateau. Among the various tactics and methods the Shoanti have developed to fight against their enemies, this spell is one of the most widespread today.</p><p>When you cast <i>vex giant</i>, your senses and reflexes become particularly honed against a single target within 60 feet, provided the target is at least one size category larger than you. You may select your focused foe as a free action when you cast this spell-switching your focus to a different foe within 60 feet is a move action. If a foe moves beyond 60 feet from you, you lose your focus on that foe, although you may regain it by moving within 60 feet and spending a move action. Although the name of the spell is <i>vex giant</i>, it works equally well on any foe that's at least one size category larger than you.</p><p>Against a foe you are focused on, you do not provoke attacks of opportunity by moving through their threatened area. Additionally, the first successful melee attack you make against the foe in a round deals an additional 1d6 points of damage. Finally, you gain a +4 insight bonus on all combat maneuver checks made against your focused foe.</p>",
    "spellDuration": "1 round/level",
    "spellEffect": "",
    "spellArea": "",
    "showInQuickbar": false,
    "spellPoints": {
      "cost": "1 + @sl"
    },
    "domain": false,
    "slotCost": 1
  },
  "flags": {},
  "img": "systems/pf1/icons/misc/magic-swirl.png",
  "effects": []
}