{
  "_id": "ev9q7axlr6molalk",
  "name": "Visualization of the Body",
  "permission": {
    "default": 0
  },
  "type": "spell",
  "data": {
    "description": {
      "value": "<div class=\"spell-description\">\n  <p>\n    <strong>School</strong>&nbsp;transmutation&nbsp;[meditative];\n    <strong>Level</strong>&nbsp;cleric/oracle 2, druid 2, hunter 2, magus 2, ranger 2, shaman 2;\n    \n    \n    \n    \n  </p>\n  <p>\n    <strong>Casting Time</strong>&nbsp;1 hour<br>\n    <strong>Components</strong>&nbsp;V, M (soothing incense worth 200 gp)<br>\n  </p>\n  <p>\n    <strong>Range</strong>&nbsp;personal<br>\n    \n    <strong>Targets</strong>&nbsp;you<br>\n    \n    <strong>Duration</strong>&nbsp;24 hours or until discharged<br>\n  </p>\n  <h2>Description</h2>\n  <p>You focus your mind on one aspect of your body, aligning the energies within your body to enhance that element. Choose a single physical ability score (Constitution, Dexterity, or Strength). If you choose Strength or Dexterity, you gain a +5 bonus on skill checks associated with that ability score. If you choose Constitution, your maximum and current hit points increase by an amount equal to your Hit Dice.  At any time during the spell's duration, you can expend the spell's remaining duration as an immediate action in order to gain a one-time physical enhancement associated with the  ability score you chose to visualize, as detailed below. After you do so, the spell ends.  <br><b>Constitution</b>: You immediately regain a number of hit points equal to 1d8 + your total character level.  <br><b>Dexterity</b>: You gain a +4 dodge bonus to your Armor Class for 3 rounds.  <br><b>Strength</b>: You gain a +6 bonus on all Strength checks to break objects and on checks to escape or establish grapples for 1 minute.</p>\n</div>\n",
      "chat": "",
      "unidentified": ""
    },
    "tags": [],
    "activation": {
      "cost": 1,
      "type": "hour"
    },
    "unchainedAction": {
      "activation": {
        "cost": 1,
        "type": "hour"
      }
    },
    "duration": {
      "value": null,
      "units": ""
    },
    "target": {
      "value": "you"
    },
    "range": {
      "value": null,
      "units": "personal",
      "maxIncrements": 1,
      "minValue": null,
      "minUnits": ""
    },
    "uses": {
      "value": 0,
      "max": 0,
      "per": "",
      "autoDeductCharges": true,
      "autoDeductChargesCost": "1"
    },
    "measureTemplate": {
      "type": "",
      "size": "0",
      "overrideColor": false,
      "customColor": "",
      "overrideTexture": false,
      "customTexture": ""
    },
    "attackName": "",
    "actionType": "",
    "attackBonus": "",
    "critConfirmBonus": "",
    "damage": {
      "parts": [],
      "critParts": [],
      "nonCritParts": []
    },
    "attackParts": [],
    "formula": "",
    "ability": {
      "attack": "",
      "damage": "",
      "damageMult": 1,
      "critRange": 20,
      "critMult": 2
    },
    "save": {
      "dc": "0",
      "type": "",
      "description": ""
    },
    "effectNotes": "",
    "attackNotes": "",
    "soundEffect": "",
    "links": {
      "children": []
    },
    "learnedAt": {
      "class": [
        [
          "cleric/oracle",
          2
        ],
        [
          "druid",
          2
        ],
        [
          "ranger",
          2
        ],
        [
          "magus",
          2
        ],
        [
          "shaman",
          2
        ],
        [
          "hunter",
          2
        ]
      ],
      "domain": [],
      "subDomain": [],
      "elementalSchool": [],
      "bloodline": []
    },
    "level": 2,
    "clOffset": 0,
    "slOffset": 0,
    "school": "trs",
    "subschool": "",
    "types": "meditative",
    "nonlethal": false,
    "conditionals": [],
    "components": {
      "value": "",
      "verbal": true,
      "somatic": false,
      "material": true,
      "focus": false,
      "divineFocus": 0
    },
    "castTime": "",
    "materials": {
      "value": "soothing incense worth 200 gp",
      "focus": "",
      "gpValue": 200
    },
    "spellbook": "",
    "preparation": {
      "preparedAmount": 0,
      "maxAmount": 0,
      "autoDeductCharges": false,
      "spontaneousPrepared": false,
      "mode": "prepared"
    },
    "atWill": false,
    "sr": false,
    "shortDescription": "<p>You focus your mind on one aspect of your body, aligning the energies within your body to enhance that element. Choose a single physical ability score (Constitution, Dexterity, or Strength). If you choose Strength or Dexterity, you gain a +5 bonus on skill checks associated with that ability score. If you choose Constitution, your maximum and current hit points increase by an amount equal to your Hit Dice.  At any time during the spell's duration, you can expend the spell's remaining duration as an immediate action in order to gain a one-time physical enhancement associated with the  ability score you chose to visualize, as detailed below. After you do so, the spell ends.  <br><b>Constitution</b>: You immediately regain a number of hit points equal to 1d8 + your total character level.  <br><b>Dexterity</b>: You gain a +4 dodge bonus to your Armor Class for 3 rounds.  <br><b>Strength</b>: You gain a +6 bonus on all Strength checks to break objects and on checks to escape or establish grapples for 1 minute.</p>",
    "spellDuration": "24 hours or until discharged",
    "spellEffect": "",
    "spellArea": "",
    "showInQuickbar": false,
    "spellPoints": {
      "cost": ""
    },
    "domain": false,
    "slotCost": 1
  },
  "flags": {},
  "img": "systems/pf1/icons/misc/magic-swirl.png",
  "effects": []
}