{
  "_id": "ni93l43asrq29ytd",
  "name": "Wandering Star Motes",
  "permission": {
    "default": 0
  },
  "type": "spell",
  "data": {
    "description": {
      "value": "<div class=\"spell-description\">\n  <p>\n    <strong>School</strong>&nbsp;illusion&nbsp;(pattern)&nbsp;[light, mind-affecting];\n    <strong>Level</strong>&nbsp;bard 4, occultist 4, psychic 4, shaman 4, sorcerer/wizard 4, witch 4;\n    \n    \n    \n    \n  </p>\n  <p>\n    <strong>Casting Time</strong>&nbsp;1 standard action<br>\n    <strong>Components</strong>&nbsp;V, S, M (a sprinkle of flash powder)<br>\n  </p>\n  <p>\n    <strong>Range</strong>&nbsp;close (25 ft. + 5 ft./2 levels)<br>\n    \n    <strong>Targets</strong>&nbsp;one living creature and special; see text<br>\n    \n    <strong>Duration</strong>&nbsp;1 round/level<br>\n    <strong>Saving Throw</strong>&nbsp;Will negates; see text;&nbsp;<strong>Spell Resistance</strong>&nbsp;yes<br>\n  </p>\n  <h2>Description</h2>\n  <p>You create sparkling motes of bright light that shoot toward the target and swirl around it in a complex pattern. The pattern clearly outlines the target and radiates light as if it were a sunrod, negating any concealment for the target. The target must make a successful Will save. If the target fails its save, it is dazed for 1 round and must make another save on its next turn or be dazed again for 1 round. The target must continue making Will saves each round. If a target makes its Will save, the <i>wandering star motes</i> jump to the nearest enemy within 30 feet, who must now make Will saves every round or be dazed. Any time a target makes its Will save, the <i>wandering star motes</i> jump to the next nearest enemy within 30 feet.</p><p>A given creature can only be affected by the <i>wandering star motes</i> once; once a target has successfully saved against the spell, it cannot be affected again. If there are no new targets within 30 feet of a target that has successfully made its save, the spell immediately ends. The spell only affects enemy creatures; your allies are not affected.</p>\n</div>\n",
      "chat": "",
      "unidentified": ""
    },
    "tags": [],
    "activation": {
      "cost": 1,
      "type": "standard"
    },
    "unchainedAction": {
      "activation": {
        "cost": 2,
        "type": "action"
      }
    },
    "duration": {
      "value": null,
      "units": ""
    },
    "target": {
      "value": "one living creature and special; see text"
    },
    "range": {
      "value": null,
      "units": "close",
      "maxIncrements": 1,
      "minValue": null,
      "minUnits": ""
    },
    "uses": {
      "value": 0,
      "max": 0,
      "per": "",
      "autoDeductCharges": true,
      "autoDeductChargesCost": "1"
    },
    "measureTemplate": {
      "type": "",
      "size": "0",
      "overrideColor": false,
      "customColor": "",
      "overrideTexture": false,
      "customTexture": ""
    },
    "attackName": "",
    "actionType": "spellsave",
    "attackBonus": "",
    "critConfirmBonus": "",
    "damage": {
      "parts": [],
      "critParts": [],
      "nonCritParts": []
    },
    "attackParts": [],
    "formula": "",
    "ability": {
      "attack": "",
      "damage": "",
      "damageMult": 1,
      "critRange": 20,
      "critMult": 2
    },
    "save": {
      "dc": "0",
      "type": "will",
      "description": "Will negates; see text"
    },
    "effectNotes": "",
    "attackNotes": "",
    "soundEffect": "",
    "links": {
      "children": []
    },
    "learnedAt": {
      "class": [
        [
          "sorcerer/wizard",
          4
        ],
        [
          "bard",
          4
        ],
        [
          "witch",
          4
        ],
        [
          "shaman",
          4
        ],
        [
          "psychic",
          4
        ],
        [
          "occultist",
          4
        ]
      ],
      "domain": [],
      "subDomain": [],
      "elementalSchool": [],
      "bloodline": []
    },
    "level": 4,
    "clOffset": 0,
    "slOffset": 0,
    "school": "ill",
    "subschool": "pattern",
    "types": "light, mind-affecting",
    "nonlethal": false,
    "conditionals": [],
    "components": {
      "value": "",
      "verbal": true,
      "somatic": true,
      "material": true,
      "focus": false,
      "divineFocus": 0
    },
    "castTime": "",
    "materials": {
      "value": "a sprinkle of flash powder",
      "focus": "",
      "gpValue": 0
    },
    "spellbook": "primary",
    "preparation": {
      "preparedAmount": 0,
      "maxAmount": 0,
      "autoDeductCharges": true,
      "spontaneousPrepared": true,
      "mode": "prepared"
    },
    "atWill": false,
    "sr": true,
    "shortDescription": "<p>You create sparkling motes of bright light that shoot toward the target and swirl around it in a complex pattern. The pattern clearly outlines the target and radiates light as if it were a sunrod, negating any concealment for the target. The target must make a successful Will save. If the target fails its save, it is dazed for 1 round and must make another save on its next turn or be dazed again for 1 round. The target must continue making Will saves each round. If a target makes its Will save, the <i>wandering star motes</i> jump to the nearest enemy within 30 feet, who must now make Will saves every round or be dazed. Any time a target makes its Will save, the <i>wandering star motes</i> jump to the next nearest enemy within 30 feet.</p><p>A given creature can only be affected by the <i>wandering star motes</i> once; once a target has successfully saved against the spell, it cannot be affected again. If there are no new targets within 30 feet of a target that has successfully made its save, the spell immediately ends. The spell only affects enemy creatures; your allies are not affected.</p>",
    "spellDuration": "1 round/level",
    "spellEffect": "",
    "spellArea": "",
    "showInQuickbar": false,
    "spellPoints": {
      "cost": "1 + @sl"
    },
    "domain": false,
    "slotCost": 1
  },
  "flags": {},
  "img": "systems/pf1/icons/misc/magic-swirl.png",
  "effects": []
}