{
  "_id": "3zi4ie97hxr1d3ng",
  "name": "Word of Chaos",
  "permission": {
    "default": 0
  },
  "type": "spell",
  "data": {
    "description": {
      "value": "<div class=\"spell-description\">\n  <p>\n    <strong>School</strong>&nbsp;evocation&nbsp;[chaotic, sonic];\n    <strong>Level</strong>&nbsp;cleric/oracle 7, inquisitor 6;\n    <strong>Domain</strong>&nbsp;Chaos 7;\n    \n    \n    \n  </p>\n  <p>\n    <strong>Casting Time</strong>&nbsp;1 standard action<br>\n    <strong>Components</strong>&nbsp;V<br>\n  </p>\n  <p>\n    <strong>Range</strong>&nbsp;40 feet<br>\n    <strong>Area</strong>&nbsp;nonchaotic creatures in a 40-ft.-radius spread centered on you<br>\n    \n    \n    <strong>Duration</strong>&nbsp;instantaneous<br>\n    <strong>Saving Throw</strong>&nbsp;none or Will negates; see text;&nbsp;<strong>Spell Resistance</strong>&nbsp;yes<br>\n  </p>\n  <h2>Description</h2>\n  <p>Any nonchaotic creature within the area of a <i>Word of Chaos</i> spell suffers the following ill effects, depending on their <table><tr><th>HD</th><th>Effect</th></tr><tr><td>Equal to caster level</td><td>Deafened</td></tr><tr><td>Up to caster level -1</td><td>Stunned, deafened</td></tr><tr><td>Up to caster level -5</td><td>Confused, stunned, deafened</td></tr><tr><td>Up to caster level -10</td><td>Killed, confused, stunned, deafened</td></tr></table></td></tr></table>   The effects are cumulative and concurrent. A successful Will save reduces or eliminates these effects. Creatures affected by multiple effects make only one save and apply the result to all the effects.</p><p><i><b>Deafened</b></i>: The creature is deafened for 1d4 rounds. Save negates.</p><p><i>Stunned</i>: The creature is stunned for 1 round. Save negates.</p><p><i>Confused</i>: The creature is confused for 1d10 minutes. This is a mind-affecting enchantment effect. Save reduces the confused effect to 1 round.</p><p><i>Killed</i>: Living creatures die. Undead creatures are destroyed. Save negates. If the save is successful, the creature instead takes 3d6 points of damage + 1 point per caster level (maximum +25).</p><p>Furthermore, if you are on your home plane when you cast this spell, nonchaotic extraplanar creatures within the area are instantly banished back to their home planes. Creatures so banished cannot return for at least 24 hours. This effect takes place regardless of whether the creatures hear the <i>Word of Chaos</i> or not. The banishment effect allows a Will save (at a -4 penalty) to negate.</p><p>Creatures whose HD exceed your caster level are unaffected by <i>Word of Chaos</i>.</p>\n</div>\n",
      "chat": "",
      "unidentified": ""
    },
    "tags": [],
    "activation": {
      "cost": 1,
      "type": "standard"
    },
    "unchainedAction": {
      "activation": {
        "cost": 2,
        "type": "action"
      }
    },
    "duration": {
      "value": null,
      "units": ""
    },
    "target": {
      "value": ""
    },
    "range": {
      "value": 40,
      "units": "ft",
      "maxIncrements": 1,
      "minValue": null,
      "minUnits": ""
    },
    "uses": {
      "value": 0,
      "max": 0,
      "per": "",
      "autoDeductCharges": true,
      "autoDeductChargesCost": "1"
    },
    "measureTemplate": {
      "type": "",
      "size": "0",
      "overrideColor": false,
      "customColor": "",
      "overrideTexture": false,
      "customTexture": ""
    },
    "attackName": "",
    "actionType": "spellsave",
    "attackBonus": "",
    "critConfirmBonus": "",
    "damage": {
      "parts": [],
      "critParts": [],
      "nonCritParts": []
    },
    "attackParts": [],
    "formula": "",
    "ability": {
      "attack": "",
      "damage": "",
      "damageMult": 1,
      "critRange": 20,
      "critMult": 2
    },
    "save": {
      "dc": "0",
      "type": "will",
      "description": "none or Will negates; see text"
    },
    "effectNotes": "",
    "attackNotes": "",
    "soundEffect": "",
    "links": {
      "children": []
    },
    "learnedAt": {
      "class": [
        [
          "cleric/oracle",
          7
        ],
        [
          "inquisitor",
          6
        ]
      ],
      "domain": [
        [
          "Chaos",
          7
        ]
      ],
      "subDomain": [],
      "elementalSchool": [],
      "bloodline": []
    },
    "level": 7,
    "clOffset": 0,
    "slOffset": 0,
    "school": "evo",
    "subschool": "",
    "types": "chaotic, sonic",
    "nonlethal": false,
    "conditionals": [],
    "components": {
      "value": "",
      "verbal": true,
      "somatic": false,
      "material": false,
      "focus": false,
      "divineFocus": 0
    },
    "castTime": "",
    "materials": {
      "value": "",
      "focus": "",
      "gpValue": 0
    },
    "spellbook": "primary",
    "preparation": {
      "preparedAmount": 0,
      "maxAmount": 0,
      "autoDeductCharges": true,
      "spontaneousPrepared": true,
      "mode": "prepared"
    },
    "atWill": false,
    "sr": true,
    "shortDescription": "<p>Any nonchaotic creature within the area of a <i>Word of Chaos</i> spell suffers the following ill effects, depending on their <table><tr><th>HD</th><th>Effect</th></tr><tr><td>Equal to caster level</td><td>Deafened</td></tr><tr><td>Up to caster level -1</td><td>Stunned, deafened</td></tr><tr><td>Up to caster level -5</td><td>Confused, stunned, deafened</td></tr><tr><td>Up to caster level -10</td><td>Killed, confused, stunned, deafened</td></tr></table></td></tr></table>   The effects are cumulative and concurrent. A successful Will save reduces or eliminates these effects. Creatures affected by multiple effects make only one save and apply the result to all the effects.</p><p><i><b>Deafened</b></i>: The creature is deafened for 1d4 rounds. Save negates.</p><p><i>Stunned</i>: The creature is stunned for 1 round. Save negates.</p><p><i>Confused</i>: The creature is confused for 1d10 minutes. This is a mind-affecting enchantment effect. Save reduces the confused effect to 1 round.</p><p><i>Killed</i>: Living creatures die. Undead creatures are destroyed. Save negates. If the save is successful, the creature instead takes 3d6 points of damage + 1 point per caster level (maximum +25).</p><p>Furthermore, if you are on your home plane when you cast this spell, nonchaotic extraplanar creatures within the area are instantly banished back to their home planes. Creatures so banished cannot return for at least 24 hours. This effect takes place regardless of whether the creatures hear the <i>Word of Chaos</i> or not. The banishment effect allows a Will save (at a -4 penalty) to negate.</p><p>Creatures whose HD exceed your caster level are unaffected by <i>Word of Chaos</i>.</p>",
    "spellDuration": "instantaneous",
    "spellEffect": "",
    "spellArea": "nonchaotic creatures in a 40-ft.-radius spread centered on you",
    "showInQuickbar": false,
    "spellPoints": {
      "cost": "1 + @sl"
    },
    "domain": false,
    "slotCost": 1
  },
  "flags": {},
  "img": "systems/pf1/icons/misc/magic-swirl.png",
  "effects": []
}