{
  "_id": "GK6rAenFfgJNNJCX",
  "name": "Arcanist",
  "permission": {
    "default": 0
  },
  "type": "class",
  "data": {
    "description": {
      "value": "<p>Some spellcasters seek the secrets of magic, pursuing the power to make the impossible possible. Others are born with magic in their blood, commanding unbelievable forces as effortlessly as they breathe. Yet still others seek to meld the science of arcane scholars with the natural might of innate casters. These arcanists seek to discover the mysterious laws of magic and through will and expertise bend those forces to their whims. Arcanists are the shapers and tinkers of the arcane world, and no magic can resist their control.</p>\n<p><strong>Role</strong>: Arcanists are scholars of all things magical. They constantly seek out new forms of magic to discover how they work, and in many cases, to collect the energy of such magic for their own uses. Many arcanists are seen as reckless, more concerned with the potency of magic than the ramifications of unleashing such power.</p>\n<p><strong>Alignment</strong>: Any.</p>\n<p><strong>Hit Die</strong>: d6.</p>\n<p><strong>Parent Classes</strong>:&nbsp;<a href=\"https://www.d20pfsrd.com/classes/core-classes/sorcerer\">Sorcerer</a>&nbsp;and&nbsp;<a href=\"https://www.d20pfsrd.com/classes/core-classes/wizard\">wizard</a>.</p>\n<p><strong>Starting Wealth</strong>: 2d6 × 10 gp (average 70 gp.) In addition, each character begins play with an outfit worth 10 gp or less.</p>\n<h2><span id=\"Class_Skills\">Class Skills</span></h2>\n<p>The arcanist’s class skills are&nbsp;<a href=\"https://www.d20pfsrd.com/skills/appraise\">Appraise</a>&nbsp;(<a href=\"https://www.d20pfsrd.com/basics-ability-scores/ability-scores#TOC-Intelligence-Int-\">Int</a>),&nbsp;<a href=\"https://www.d20pfsrd.com/skills/craft\">Craft</a>&nbsp;(<a href=\"https://www.d20pfsrd.com/basics-ability-scores/ability-scores#TOC-Intelligence-Int-\">Int</a>),&nbsp;<a href=\"https://www.d20pfsrd.com/skills/fly\">Fly</a>&nbsp;(<a href=\"https://www.d20pfsrd.com/basics-ability-scores/ability-scores#TOC-Dexterity-Dex-\">Dex</a>),&nbsp;<a href=\"https://www.d20pfsrd.com/skills/knowledge\">Knowledge</a>&nbsp;(all) (<a href=\"https://www.d20pfsrd.com/basics-ability-scores/ability-scores#TOC-Intelligence-Int-\">Int</a>),&nbsp;<a href=\"https://www.d20pfsrd.com/skills/linguistics\">Linguistics</a>&nbsp;(<a href=\"https://www.d20pfsrd.com/basics-ability-scores/ability-scores#TOC-Intelligence-Int-\">Int</a>),&nbsp;<a href=\"https://www.d20pfsrd.com/skills/profession\">Profession</a>&nbsp;(<a href=\"https://www.d20pfsrd.com/basics-ability-scores/ability-scores#TOC-Wisdom-Wis-\">Wis</a>),&nbsp;<a href=\"https://www.d20pfsrd.com/skills/spellcraft\">Spellcraft</a>&nbsp;(<a href=\"https://www.d20pfsrd.com/basics-ability-scores/ability-scores#TOC-Intelligence-Int-\">Int</a>), and&nbsp;<a href=\"https://www.d20pfsrd.com/skills/use-magic-device\">Use Magic Device</a>&nbsp;(<a href=\"https://www.d20pfsrd.com/basics-ability-scores/ability-scores#TOC-Charisma-Cha-\">Cha</a>).</p>\n<p><strong>Skill Ranks per Level</strong>: 2 +&nbsp;<a href=\"https://www.d20pfsrd.com/basics-ability-scores/ability-scores#TOC-Intelligence-Int-\">Int</a> modifier.</p>",
      "chat": "",
      "unidentified": ""
    },
    "tags": [],
    "changes": [],
    "changeFlags": {
      "loseDexToAC": false,
      "noStr": false,
      "noDex": false,
      "oneInt": false,
      "oneWis": false,
      "oneCha": false,
      "noEncumbrance": false,
      "mediumArmorFullSpeed": false,
      "heavyArmorFullSpeed": false
    },
    "links": {
      "children": [],
      "classAssociations": [
        {
          "id": "pf1.class-abilities.CtDtLshBC8pc64JV",
          "dataType": "compendium",
          "name": "Arcane Reservoir",
          "img": "systems/pf1/icons/spells/runes-orange-3.jpg",
          "hiddenLinks": {},
          "level": 1,
          "_index": 0
        },
        {
          "id": "pf1.class-abilities.A1QrvmpPlh7SuixM",
          "dataType": "compendium",
          "name": "Arcanist Exploits",
          "img": "systems/pf1/icons/spells/fire-arrows-1.jpg",
          "hiddenLinks": {},
          "level": 1,
          "_index": 1
        },
        {
          "id": "pf1.class-abilities.jkigrVeg3TUKg0Gy",
          "dataType": "compendium",
          "name": "Consume Spells",
          "img": "systems/pf1/icons/spells/wind-grasp-air-3.jpg",
          "hiddenLinks": {},
          "level": 1,
          "_index": 2
        },
        {
          "id": "pf1.class-abilities.US5ZPnvMTejXFcBZ",
          "dataType": "compendium",
          "name": "Greater Exploits",
          "img": "systems/pf1/icons/spells/fire-arrows-3.jpg",
          "hiddenLinks": {},
          "level": 11,
          "_index": 3
        },
        {
          "id": "pf1.class-abilities.KUwXUOcHG054iBHQ",
          "dataType": "compendium",
          "name": "Magical Supremacy",
          "img": "systems/pf1/icons/spells/runes-royal-3.jpg",
          "hiddenLinks": {},
          "level": 20,
          "_index": 4
        }
      ]
    },
    "tag": "arcanist",
    "useCustomTag": true,
    "armorProf": {
      "value": [],
      "custom": ""
    },
    "weaponProf": {
      "value": [
        "sim"
      ],
      "custom": ""
    },
    "classType": "base",
    "levels": {
      "value": 0,
      "_deprecated": true
    },
    "level": 1,
    "hd": 6,
    "hp": 6,
    "bab": "low",
    "skillsPerLevel": 2,
    "savingThrows": {
      "fort": {
        "value": "low"
      },
      "ref": {
        "value": "low"
      },
      "will": {
        "value": "high"
      }
    },
    "fc": {
      "hp": {
        "value": 0
      },
      "skill": {
        "value": 0
      },
      "alt": {
        "value": 0
      }
    },
    "classSkills": {
      "apr": true,
      "acr": false,
      "art": false,
      "blf": false,
      "clm": false,
      "crf": true,
      "dip": false,
      "dev": false,
      "dis": false,
      "esc": false,
      "fly": true,
      "han": false,
      "hea": false,
      "int": false,
      "kar": true,
      "kdu": true,
      "ken": true,
      "kge": true,
      "khi": true,
      "klo": true,
      "kna": true,
      "kno": true,
      "kpl": true,
      "kre": true,
      "lin": true,
      "lor": false,
      "per": false,
      "prf": false,
      "pro": true,
      "rid": false,
      "sen": false,
      "slt": false,
      "spl": true,
      "ste": false,
      "sur": false,
      "swm": false,
      "umd": true
    },
    "extraDescription": {
      "value": "<h2>Weapon and Armory Proficiency</h2>\n<p>Arcanists are proficient with all simple weapons. They are not proficient with any type of armor or shield. Armor interferes with an arcanist’s gestures, which can cause her spells with somatic components to fail (see Arcane Spells and Armor).</p>\n<h2>Spell Casting</h2>\n<p>An arcanist casts arcane spells drawn from the&nbsp;<a href=\"https://www.d20pfsrd.com/magic/spell-lists-and-domains/spell-lists-sorcerer-and-wizard\" rel=\"nofollow\">sorcerer/wizard spell list.</a>&nbsp;An arcanist must prepare her spells ahead of time, but unlike a&nbsp;<a href=\"https://www.d20pfsrd.com/classes/core-classes/wizard\">wizard</a>, her spells are not expended when they’re cast. Instead, she can cast any spell that she has prepared consuming a spell slot of the appropriate level, assuming she hasn’t yet used up her spell slots per day for that level.</p>\n<p>To learn, prepare, or cast a spell, the arcanist must have an&nbsp;<a href=\"https://www.d20pfsrd.com/basics-ability-scores/ability-scores#TOC-Intelligence-Int-\">Intelligence</a>&nbsp;score equal to at least 10 + the spell’s level. The saving throw DC against an arcanist’s spell is 10 + the spell’s level + the arcanist’s&nbsp;<a href=\"https://www.d20pfsrd.com/basics-ability-scores/ability-scores#TOC-Intelligence-Int-\">Intelligence</a>&nbsp;modifier.</p>\n<p>An arcanist can only cast a certain number of spells of each spell level per day. Her base daily spell allotment is given on&nbsp;Table: Arcanist&nbsp;under “Spells per Day.” In addition, she receives bonus spells per day if she has a high&nbsp;<a href=\"https://www.d20pfsrd.com/basics-ability-scores/ability-scores#TOC-Intelligence-Int-\">Intelligence</a>&nbsp;score.</p>\n<p>An arcanist may know any number of spells, but the number she can prepare each day is limited. At 1st level, she can prepare four 0-level spells and two 1st-level spells each day. At each new arcanist level, the number of spells she can prepare each day increases, adding new spell levels as indicated on&nbsp;Table: Arcanist Spells Prepared. Unlike the number of spells she can cast per day, the number of spells an arcanist can prepare each day is not affected by her&nbsp;<a href=\"https://www.d20pfsrd.com/basics-ability-scores/ability-scores#TOC-Intelligence-Int-\">Intelligence</a>&nbsp;score. Feats and other effects that modify the number of spells known by a spellcaster instead affect the number of spells an arcanist can prepare.</p>\n<p>An arcanist must choose and prepare her spells ahead of time by getting 8 hours of sleep and spending 1 hour studying her spellbook. While studying, the arcanist decides what spells to prepare and refreshes her available spell slots for the day.</p>\n<p>Like a&nbsp;<a href=\"https://www.d20pfsrd.com/classes/core-classes/sorcerer\">sorcerer</a>, an arcanist can choose to apply any&nbsp;<a href=\"https://www.d20pfsrd.com/feats/metamagic-feats\">metamagic feats</a>&nbsp;she knows to a prepared spell as she casts it, with the same increase in&nbsp;<a href=\"https://www.d20pfsrd.com/magic#TOC-Casting-Time\">casting time</a>&nbsp;(see Spontaneous Casting and&nbsp;<a href=\"https://www.d20pfsrd.com/feats/metamagic-feats\">Metamagic Feats</a>). However, she may also prepare a spell with any&nbsp;<a href=\"https://www.d20pfsrd.com/feats/metamagic-feats\">metamagic feats</a>&nbsp;she knows and cast it without increasing&nbsp;<a href=\"https://www.d20pfsrd.com/magic#TOC-Casting-Time\">casting time</a>&nbsp;like a&nbsp;<a href=\"https://www.d20pfsrd.com/classes/core-classes/wizard\">wizard</a>. She cannot combine these options—a spell prepared with&nbsp;<a href=\"https://www.d20pfsrd.com/feats/metamagic-feats\">metamagic feats</a>&nbsp;cannot be further modified with another&nbsp;<a href=\"https://www.d20pfsrd.com/feats/metamagic-feats\">metamagic feat</a>&nbsp;at the time of casting (unless she has the metamixing arcanist exploit, detailed below).</p>\n<table style=\"box-sizing: border-box; border-spacing: 0px; background-color: #ffffff; margin: 10px; table-layout: fixed; border-color: #888888; min-width: 200px; color: #333333; font-family: Varela, sans-serif;\" border=\"1\" cellpadding=\"5\"><caption style=\"box-sizing: border-box; padding-top: 8px; padding-bottom: 8px; color: black; text-align: left; font-weight: bold;\">Table: Arcanist Spells Prepared</caption>\n<thead style=\"box-sizing: border-box; background-color: #cfe2f3;\">\n<tr style=\"box-sizing: border-box;\">\n<th class=\"text\" style=\"box-sizing: border-box; padding: 2px; text-align: left; border: 1px solid #888888;\" rowspan=\"2\">Level</th>\n<th class=\"text\" style=\"box-sizing: border-box; padding: 2px; text-align: left; border: 1px solid #888888;\" colspan=\"10\">Spells Prepared</th>\n</tr>\n<tr style=\"box-sizing: border-box; background-color: #f3f3f3;\">\n<th class=\"number\" style=\"box-sizing: border-box; padding: 2px; text-align: left; background-color: #cfe2f3; border: 1px solid #888888;\">0th</th>\n<th class=\"number\" style=\"box-sizing: border-box; padding: 2px; text-align: left; background-color: #cfe2f3; border: 1px solid #888888;\">1st</th>\n<th class=\"number\" style=\"box-sizing: border-box; padding: 2px; text-align: left; background-color: #cfe2f3; border: 1px solid #888888;\">2nd</th>\n<th class=\"number\" style=\"box-sizing: border-box; padding: 2px; text-align: left; background-color: #cfe2f3; border: 1px solid #888888;\">3rd</th>\n<th class=\"number\" style=\"box-sizing: border-box; padding: 2px; text-align: left; background-color: #cfe2f3; border: 1px solid #888888;\">4th</th>\n<th class=\"number\" style=\"box-sizing: border-box; padding: 2px; text-align: left; background-color: #cfe2f3; border: 1px solid #888888;\">5th</th>\n<th class=\"number\" style=\"box-sizing: border-box; padding: 2px; text-align: left; background-color: #cfe2f3; border: 1px solid #888888;\">6th</th>\n<th class=\"number\" style=\"box-sizing: border-box; padding: 2px; text-align: left; background-color: #cfe2f3; border: 1px solid #888888;\">7th</th>\n<th class=\"number\" style=\"box-sizing: border-box; padding: 2px; text-align: left; background-color: #cfe2f3; border: 1px solid #888888;\">8th</th>\n<th class=\"number\" style=\"box-sizing: border-box; padding: 2px; text-align: left; background-color: #cfe2f3; border: 1px solid #888888;\">9th</th>\n</tr>\n</thead>\n<tbody style=\"box-sizing: border-box;\">\n<tr style=\"box-sizing: border-box;\">\n<td class=\"number\" style=\"box-sizing: border-box; padding: 2px; vertical-align: top; text-align: center; border: 1px solid #888888;\">1st</td>\n<td class=\"number\" style=\"box-sizing: border-box; padding: 2px; vertical-align: top; text-align: center; border: 1px solid #888888;\">4</td>\n<td class=\"number\" style=\"box-sizing: border-box; padding: 2px; vertical-align: top; text-align: center; border: 1px solid #888888;\">2</td>\n<td class=\"marker\" style=\"box-sizing: border-box; padding: 2px; vertical-align: top; text-align: center; border: 1px solid #888888;\">—</td>\n<td class=\"marker\" style=\"box-sizing: border-box; padding: 2px; vertical-align: top; text-align: center; border: 1px solid #888888;\">—</td>\n<td class=\"marker\" style=\"box-sizing: border-box; padding: 2px; vertical-align: top; text-align: center; border: 1px solid #888888;\">—</td>\n<td class=\"marker\" style=\"box-sizing: border-box; padding: 2px; vertical-align: top; text-align: center; border: 1px solid #888888;\">—</td>\n<td class=\"marker\" style=\"box-sizing: border-box; padding: 2px; vertical-align: top; text-align: center; border: 1px solid #888888;\">—</td>\n<td class=\"marker\" style=\"box-sizing: border-box; padding: 2px; vertical-align: top; text-align: center; border: 1px solid #888888;\">—</td>\n<td class=\"marker\" style=\"box-sizing: border-box; padding: 2px; vertical-align: top; text-align: center; border: 1px solid #888888;\">—</td>\n<td class=\"marker\" style=\"box-sizing: border-box; padding: 2px; vertical-align: top; text-align: center; border: 1px solid #888888;\">—</td>\n</tr>\n<tr style=\"box-sizing: border-box; background-color: #f3f3f3;\">\n<td class=\"number\" style=\"box-sizing: border-box; padding: 2px; vertical-align: top; text-align: center; border: 1px solid #888888;\">2nd</td>\n<td class=\"number\" style=\"box-sizing: border-box; padding: 2px; vertical-align: top; text-align: center; border: 1px solid #888888;\">5</td>\n<td class=\"number\" style=\"box-sizing: border-box; padding: 2px; vertical-align: top; text-align: center; border: 1px solid #888888;\">2</td>\n<td class=\"marker\" style=\"box-sizing: border-box; padding: 2px; vertical-align: top; text-align: center; border: 1px solid #888888;\">—</td>\n<td class=\"marker\" style=\"box-sizing: border-box; padding: 2px; vertical-align: top; text-align: center; border: 1px solid #888888;\">—</td>\n<td class=\"marker\" style=\"box-sizing: border-box; padding: 2px; vertical-align: top; text-align: center; border: 1px solid #888888;\">—</td>\n<td class=\"marker\" style=\"box-sizing: border-box; padding: 2px; vertical-align: top; text-align: center; border: 1px solid #888888;\">—</td>\n<td class=\"marker\" style=\"box-sizing: border-box; padding: 2px; vertical-align: top; text-align: center; border: 1px solid #888888;\">—</td>\n<td class=\"marker\" style=\"box-sizing: border-box; padding: 2px; vertical-align: top; text-align: center; border: 1px solid #888888;\">—</td>\n<td class=\"marker\" style=\"box-sizing: border-box; padding: 2px; vertical-align: top; text-align: center; border: 1px solid #888888;\">—</td>\n<td class=\"marker\" style=\"box-sizing: border-box; padding: 2px; vertical-align: top; text-align: center; border: 1px solid #888888;\">—</td>\n</tr>\n<tr style=\"box-sizing: border-box;\">\n<td class=\"number\" style=\"box-sizing: border-box; padding: 2px; vertical-align: top; text-align: center; border: 1px solid #888888;\">3rd</td>\n<td class=\"number\" style=\"box-sizing: border-box; padding: 2px; vertical-align: top; text-align: center; border: 1px solid #888888;\">5</td>\n<td class=\"number\" style=\"box-sizing: border-box; padding: 2px; vertical-align: top; text-align: center; border: 1px solid #888888;\">3</td>\n<td class=\"marker\" style=\"box-sizing: border-box; padding: 2px; vertical-align: top; text-align: center; border: 1px solid #888888;\">—</td>\n<td class=\"marker\" style=\"box-sizing: border-box; padding: 2px; vertical-align: top; text-align: center; border: 1px solid #888888;\">—</td>\n<td class=\"marker\" style=\"box-sizing: border-box; padding: 2px; vertical-align: top; text-align: center; border: 1px solid #888888;\">—</td>\n<td class=\"marker\" style=\"box-sizing: border-box; padding: 2px; vertical-align: top; text-align: center; border: 1px solid #888888;\">—</td>\n<td class=\"marker\" style=\"box-sizing: border-box; padding: 2px; vertical-align: top; text-align: center; border: 1px solid #888888;\">—</td>\n<td class=\"marker\" style=\"box-sizing: border-box; padding: 2px; vertical-align: top; text-align: center; border: 1px solid #888888;\">—</td>\n<td class=\"marker\" style=\"box-sizing: border-box; padding: 2px; vertical-align: top; text-align: center; border: 1px solid #888888;\">—</td>\n<td class=\"marker\" style=\"box-sizing: border-box; padding: 2px; vertical-align: top; text-align: center; border: 1px solid #888888;\">—</td>\n</tr>\n<tr style=\"box-sizing: border-box; background-color: #f3f3f3;\">\n<td class=\"number\" style=\"box-sizing: border-box; padding: 2px; vertical-align: top; text-align: center; border: 1px solid #888888;\">4th</td>\n<td class=\"number\" style=\"box-sizing: border-box; padding: 2px; vertical-align: top; text-align: center; border: 1px solid #888888;\">6</td>\n<td class=\"number\" style=\"box-sizing: border-box; padding: 2px; vertical-align: top; text-align: center; border: 1px solid #888888;\">3</td>\n<td class=\"number\" style=\"box-sizing: border-box; padding: 2px; vertical-align: top; text-align: center; border: 1px solid #888888;\">1</td>\n<td class=\"marker\" style=\"box-sizing: border-box; padding: 2px; vertical-align: top; text-align: center; border: 1px solid #888888;\">—</td>\n<td class=\"marker\" style=\"box-sizing: border-box; padding: 2px; vertical-align: top; text-align: center; border: 1px solid #888888;\">—</td>\n<td class=\"marker\" style=\"box-sizing: border-box; padding: 2px; vertical-align: top; text-align: center; border: 1px solid #888888;\">—</td>\n<td class=\"marker\" style=\"box-sizing: border-box; padding: 2px; vertical-align: top; text-align: center; border: 1px solid #888888;\">—</td>\n<td class=\"marker\" style=\"box-sizing: border-box; padding: 2px; vertical-align: top; text-align: center; border: 1px solid #888888;\">—</td>\n<td class=\"marker\" style=\"box-sizing: border-box; padding: 2px; vertical-align: top; text-align: center; border: 1px solid #888888;\">—</td>\n<td class=\"marker\" style=\"box-sizing: border-box; padding: 2px; vertical-align: top; text-align: center; border: 1px solid #888888;\">—</td>\n</tr>\n<tr style=\"box-sizing: border-box;\">\n<td class=\"number\" style=\"box-sizing: border-box; padding: 2px; vertical-align: top; text-align: center; border: 1px solid #888888;\">5th</td>\n<td class=\"number\" style=\"box-sizing: border-box; padding: 2px; vertical-align: top; text-align: center; border: 1px solid #888888;\">6</td>\n<td class=\"number\" style=\"box-sizing: border-box; padding: 2px; vertical-align: top; text-align: center; border: 1px solid #888888;\">4</td>\n<td class=\"number\" style=\"box-sizing: border-box; padding: 2px; vertical-align: top; text-align: center; border: 1px solid #888888;\">2</td>\n<td class=\"marker\" style=\"box-sizing: border-box; padding: 2px; vertical-align: top; text-align: center; border: 1px solid #888888;\">—</td>\n<td class=\"marker\" style=\"box-sizing: border-box; padding: 2px; vertical-align: top; text-align: center; border: 1px solid #888888;\">—</td>\n<td class=\"marker\" style=\"box-sizing: border-box; padding: 2px; vertical-align: top; text-align: center; border: 1px solid #888888;\">—</td>\n<td class=\"marker\" style=\"box-sizing: border-box; padding: 2px; vertical-align: top; text-align: center; border: 1px solid #888888;\">—</td>\n<td class=\"marker\" style=\"box-sizing: border-box; padding: 2px; vertical-align: top; text-align: center; border: 1px solid #888888;\">—</td>\n<td class=\"marker\" style=\"box-sizing: border-box; padding: 2px; vertical-align: top; text-align: center; border: 1px solid #888888;\">—</td>\n<td class=\"marker\" style=\"box-sizing: border-box; padding: 2px; vertical-align: top; text-align: center; border: 1px solid #888888;\">—</td>\n</tr>\n<tr style=\"box-sizing: border-box; background-color: #f3f3f3;\">\n<td class=\"number\" style=\"box-sizing: border-box; padding: 2px; vertical-align: top; text-align: center; border: 1px solid #888888;\">6th</td>\n<td class=\"number\" style=\"box-sizing: border-box; padding: 2px; vertical-align: top; text-align: center; border: 1px solid #888888;\">7</td>\n<td class=\"number\" style=\"box-sizing: border-box; padding: 2px; vertical-align: top; text-align: center; border: 1px solid #888888;\">4</td>\n<td class=\"number\" style=\"box-sizing: border-box; padding: 2px; vertical-align: top; text-align: center; border: 1px solid #888888;\">2</td>\n<td class=\"number\" style=\"box-sizing: border-box; padding: 2px; vertical-align: top; text-align: center; border: 1px solid #888888;\">1</td>\n<td class=\"marker\" style=\"box-sizing: border-box; padding: 2px; vertical-align: top; text-align: center; border: 1px solid #888888;\">—</td>\n<td class=\"marker\" style=\"box-sizing: border-box; padding: 2px; vertical-align: top; text-align: center; border: 1px solid #888888;\">—</td>\n<td class=\"marker\" style=\"box-sizing: border-box; padding: 2px; vertical-align: top; text-align: center; border: 1px solid #888888;\">—</td>\n<td class=\"marker\" style=\"box-sizing: border-box; padding: 2px; vertical-align: top; text-align: center; border: 1px solid #888888;\">—</td>\n<td class=\"marker\" style=\"box-sizing: border-box; padding: 2px; vertical-align: top; text-align: center; border: 1px solid #888888;\">—</td>\n<td class=\"marker\" style=\"box-sizing: border-box; padding: 2px; vertical-align: top; text-align: center; border: 1px solid #888888;\">—</td>\n</tr>\n<tr style=\"box-sizing: border-box;\">\n<td class=\"number\" style=\"box-sizing: border-box; padding: 2px; vertical-align: top; text-align: center; border: 1px solid #888888;\">7th</td>\n<td class=\"number\" style=\"box-sizing: border-box; padding: 2px; vertical-align: top; text-align: center; border: 1px solid #888888;\">7</td>\n<td class=\"number\" style=\"box-sizing: border-box; padding: 2px; vertical-align: top; text-align: center; border: 1px solid #888888;\">5</td>\n<td class=\"number\" style=\"box-sizing: border-box; padding: 2px; vertical-align: top; text-align: center; border: 1px solid #888888;\">3</td>\n<td class=\"number\" style=\"box-sizing: border-box; padding: 2px; vertical-align: top; text-align: center; border: 1px solid #888888;\">2</td>\n<td class=\"marker\" style=\"box-sizing: border-box; padding: 2px; vertical-align: top; text-align: center; border: 1px solid #888888;\">—</td>\n<td class=\"marker\" style=\"box-sizing: border-box; padding: 2px; vertical-align: top; text-align: center; border: 1px solid #888888;\">—</td>\n<td class=\"marker\" style=\"box-sizing: border-box; padding: 2px; vertical-align: top; text-align: center; border: 1px solid #888888;\">—</td>\n<td class=\"marker\" style=\"box-sizing: border-box; padding: 2px; vertical-align: top; text-align: center; border: 1px solid #888888;\">—</td>\n<td class=\"marker\" style=\"box-sizing: border-box; padding: 2px; vertical-align: top; text-align: center; border: 1px solid #888888;\">—</td>\n<td class=\"marker\" style=\"box-sizing: border-box; padding: 2px; vertical-align: top; text-align: center; border: 1px solid #888888;\">—</td>\n</tr>\n<tr style=\"box-sizing: border-box; background-color: #f3f3f3;\">\n<td class=\"number\" style=\"box-sizing: border-box; padding: 2px; vertical-align: top; text-align: center; border: 1px solid #888888;\">8th</td>\n<td class=\"number\" style=\"box-sizing: border-box; padding: 2px; vertical-align: top; text-align: center; border: 1px solid #888888;\">8</td>\n<td class=\"number\" style=\"box-sizing: border-box; padding: 2px; vertical-align: top; text-align: center; border: 1px solid #888888;\">5</td>\n<td class=\"number\" style=\"box-sizing: border-box; padding: 2px; vertical-align: top; text-align: center; border: 1px solid #888888;\">3</td>\n<td class=\"number\" style=\"box-sizing: border-box; padding: 2px; vertical-align: top; text-align: center; border: 1px solid #888888;\">2</td>\n<td class=\"number\" style=\"box-sizing: border-box; padding: 2px; vertical-align: top; text-align: center; border: 1px solid #888888;\">1</td>\n<td class=\"marker\" style=\"box-sizing: border-box; padding: 2px; vertical-align: top; text-align: center; border: 1px solid #888888;\">—</td>\n<td class=\"marker\" style=\"box-sizing: border-box; padding: 2px; vertical-align: top; text-align: center; border: 1px solid #888888;\">—</td>\n<td class=\"marker\" style=\"box-sizing: border-box; padding: 2px; vertical-align: top; text-align: center; border: 1px solid #888888;\">—</td>\n<td class=\"marker\" style=\"box-sizing: border-box; padding: 2px; vertical-align: top; text-align: center; border: 1px solid #888888;\">—</td>\n<td class=\"marker\" style=\"box-sizing: border-box; padding: 2px; vertical-align: top; text-align: center; border: 1px solid #888888;\">—</td>\n</tr>\n<tr style=\"box-sizing: border-box;\">\n<td class=\"number\" style=\"box-sizing: border-box; padding: 2px; vertical-align: top; text-align: center; border: 1px solid #888888;\">9th</td>\n<td class=\"number\" style=\"box-sizing: border-box; padding: 2px; vertical-align: top; text-align: center; border: 1px solid #888888;\">8</td>\n<td class=\"number\" style=\"box-sizing: border-box; padding: 2px; vertical-align: top; text-align: center; border: 1px solid #888888;\">5</td>\n<td class=\"number\" style=\"box-sizing: border-box; padding: 2px; vertical-align: top; text-align: center; border: 1px solid #888888;\">4</td>\n<td class=\"number\" style=\"box-sizing: border-box; padding: 2px; vertical-align: top; text-align: center; border: 1px solid #888888;\">3</td>\n<td class=\"number\" style=\"box-sizing: border-box; padding: 2px; vertical-align: top; text-align: center; border: 1px solid #888888;\">2</td>\n<td class=\"marker\" style=\"box-sizing: border-box; padding: 2px; vertical-align: top; text-align: center; border: 1px solid #888888;\">—</td>\n<td class=\"marker\" style=\"box-sizing: border-box; padding: 2px; vertical-align: top; text-align: center; border: 1px solid #888888;\">—</td>\n<td class=\"marker\" style=\"box-sizing: border-box; padding: 2px; vertical-align: top; text-align: center; border: 1px solid #888888;\">—</td>\n<td class=\"marker\" style=\"box-sizing: border-box; padding: 2px; vertical-align: top; text-align: center; border: 1px solid #888888;\">—</td>\n<td class=\"marker\" style=\"box-sizing: border-box; padding: 2px; vertical-align: top; text-align: center; border: 1px solid #888888;\">—</td>\n</tr>\n<tr style=\"box-sizing: border-box; background-color: #f3f3f3;\">\n<td class=\"number\" style=\"box-sizing: border-box; padding: 2px; vertical-align: top; text-align: center; border: 1px solid #888888;\">10th</td>\n<td class=\"number\" style=\"box-sizing: border-box; padding: 2px; vertical-align: top; text-align: center; border: 1px solid #888888;\">9</td>\n<td class=\"number\" style=\"box-sizing: border-box; padding: 2px; vertical-align: top; text-align: center; border: 1px solid #888888;\">5</td>\n<td class=\"number\" style=\"box-sizing: border-box; padding: 2px; vertical-align: top; text-align: center; border: 1px solid #888888;\">4</td>\n<td class=\"number\" style=\"box-sizing: border-box; padding: 2px; vertical-align: top; text-align: center; border: 1px solid #888888;\">3</td>\n<td class=\"number\" style=\"box-sizing: border-box; padding: 2px; vertical-align: top; text-align: center; border: 1px solid #888888;\">2</td>\n<td class=\"number\" style=\"box-sizing: border-box; padding: 2px; vertical-align: top; text-align: center; border: 1px solid #888888;\">1</td>\n<td class=\"marker\" style=\"box-sizing: border-box; padding: 2px; vertical-align: top; text-align: center; border: 1px solid #888888;\">—</td>\n<td class=\"marker\" style=\"box-sizing: border-box; padding: 2px; vertical-align: top; text-align: center; border: 1px solid #888888;\">—</td>\n<td class=\"marker\" style=\"box-sizing: border-box; padding: 2px; vertical-align: top; text-align: center; border: 1px solid #888888;\">—</td>\n<td class=\"marker\" style=\"box-sizing: border-box; padding: 2px; vertical-align: top; text-align: center; border: 1px solid #888888;\">—</td>\n</tr>\n<tr style=\"box-sizing: border-box;\">\n<td class=\"number\" style=\"box-sizing: border-box; padding: 2px; vertical-align: top; text-align: center; border: 1px solid #888888;\">11th</td>\n<td class=\"number\" style=\"box-sizing: border-box; padding: 2px; vertical-align: top; text-align: center; border: 1px solid #888888;\">9</td>\n<td class=\"number\" style=\"box-sizing: border-box; padding: 2px; vertical-align: top; text-align: center; border: 1px solid #888888;\">5</td>\n<td class=\"number\" style=\"box-sizing: border-box; padding: 2px; vertical-align: top; text-align: center; border: 1px solid #888888;\">5</td>\n<td class=\"number\" style=\"box-sizing: border-box; padding: 2px; vertical-align: top; text-align: center; border: 1px solid #888888;\">4</td>\n<td class=\"number\" style=\"box-sizing: border-box; padding: 2px; vertical-align: top; text-align: center; border: 1px solid #888888;\">3</td>\n<td class=\"number\" style=\"box-sizing: border-box; padding: 2px; vertical-align: top; text-align: center; border: 1px solid #888888;\">2</td>\n<td class=\"marker\" style=\"box-sizing: border-box; padding: 2px; vertical-align: top; text-align: center; border: 1px solid #888888;\">—</td>\n<td class=\"marker\" style=\"box-sizing: border-box; padding: 2px; vertical-align: top; text-align: center; border: 1px solid #888888;\">—</td>\n<td class=\"marker\" style=\"box-sizing: border-box; padding: 2px; vertical-align: top; text-align: center; border: 1px solid #888888;\">—</td>\n<td class=\"marker\" style=\"box-sizing: border-box; padding: 2px; vertical-align: top; text-align: center; border: 1px solid #888888;\">—</td>\n</tr>\n<tr style=\"box-sizing: border-box; background-color: #f3f3f3;\">\n<td class=\"number\" style=\"box-sizing: border-box; padding: 2px; vertical-align: top; text-align: center; border: 1px solid #888888;\">12th</td>\n<td class=\"number\" style=\"box-sizing: border-box; padding: 2px; vertical-align: top; text-align: center; border: 1px solid #888888;\">9</td>\n<td class=\"number\" style=\"box-sizing: border-box; padding: 2px; vertical-align: top; text-align: center; border: 1px solid #888888;\">5</td>\n<td class=\"number\" style=\"box-sizing: border-box; padding: 2px; vertical-align: top; text-align: center; border: 1px solid #888888;\">5</td>\n<td class=\"number\" style=\"box-sizing: border-box; padding: 2px; vertical-align: top; text-align: center; border: 1px solid #888888;\">4</td>\n<td class=\"number\" style=\"box-sizing: border-box; padding: 2px; vertical-align: top; text-align: center; border: 1px solid #888888;\">3</td>\n<td class=\"number\" style=\"box-sizing: border-box; padding: 2px; vertical-align: top; text-align: center; border: 1px solid #888888;\">2</td>\n<td class=\"number\" style=\"box-sizing: border-box; padding: 2px; vertical-align: top; text-align: center; border: 1px solid #888888;\">1</td>\n<td class=\"marker\" style=\"box-sizing: border-box; padding: 2px; vertical-align: top; text-align: center; border: 1px solid #888888;\">—</td>\n<td class=\"marker\" style=\"box-sizing: border-box; padding: 2px; vertical-align: top; text-align: center; border: 1px solid #888888;\">—</td>\n<td class=\"marker\" style=\"box-sizing: border-box; padding: 2px; vertical-align: top; text-align: center; border: 1px solid #888888;\">—</td>\n</tr>\n<tr style=\"box-sizing: border-box;\">\n<td class=\"number\" style=\"box-sizing: border-box; padding: 2px; vertical-align: top; text-align: center; border: 1px solid #888888;\">13th</td>\n<td class=\"number\" style=\"box-sizing: border-box; padding: 2px; vertical-align: top; text-align: center; border: 1px solid #888888;\">9</td>\n<td class=\"number\" style=\"box-sizing: border-box; padding: 2px; vertical-align: top; text-align: center; border: 1px solid #888888;\">5</td>\n<td class=\"number\" style=\"box-sizing: border-box; padding: 2px; vertical-align: top; text-align: center; border: 1px solid #888888;\">5</td>\n<td class=\"number\" style=\"box-sizing: border-box; padding: 2px; vertical-align: top; text-align: center; border: 1px solid #888888;\">4</td>\n<td class=\"number\" style=\"box-sizing: border-box; padding: 2px; vertical-align: top; text-align: center; border: 1px solid #888888;\">4</td>\n<td class=\"number\" style=\"box-sizing: border-box; padding: 2px; vertical-align: top; text-align: center; border: 1px solid #888888;\">3</td>\n<td class=\"number\" style=\"box-sizing: border-box; padding: 2px; vertical-align: top; text-align: center; border: 1px solid #888888;\">2</td>\n<td class=\"marker\" style=\"box-sizing: border-box; padding: 2px; vertical-align: top; text-align: center; border: 1px solid #888888;\">—</td>\n<td class=\"marker\" style=\"box-sizing: border-box; padding: 2px; vertical-align: top; text-align: center; border: 1px solid #888888;\">—</td>\n<td class=\"marker\" style=\"box-sizing: border-box; padding: 2px; vertical-align: top; text-align: center; border: 1px solid #888888;\">—</td>\n</tr>\n<tr style=\"box-sizing: border-box; background-color: #f3f3f3;\">\n<td class=\"number\" style=\"box-sizing: border-box; padding: 2px; vertical-align: top; text-align: center; border: 1px solid #888888;\">14th</td>\n<td class=\"number\" style=\"box-sizing: border-box; padding: 2px; vertical-align: top; text-align: center; border: 1px solid #888888;\">9</td>\n<td class=\"number\" style=\"box-sizing: border-box; padding: 2px; vertical-align: top; text-align: center; border: 1px solid #888888;\">5</td>\n<td class=\"number\" style=\"box-sizing: border-box; padding: 2px; vertical-align: top; text-align: center; border: 1px solid #888888;\">5</td>\n<td class=\"number\" style=\"box-sizing: border-box; padding: 2px; vertical-align: top; text-align: center; border: 1px solid #888888;\">4</td>\n<td class=\"number\" style=\"box-sizing: border-box; padding: 2px; vertical-align: top; text-align: center; border: 1px solid #888888;\">4</td>\n<td class=\"number\" style=\"box-sizing: border-box; padding: 2px; vertical-align: top; text-align: center; border: 1px solid #888888;\">3</td>\n<td class=\"number\" style=\"box-sizing: border-box; padding: 2px; vertical-align: top; text-align: center; border: 1px solid #888888;\">2</td>\n<td class=\"number\" style=\"box-sizing: border-box; padding: 2px; vertical-align: top; text-align: center; border: 1px solid #888888;\">1</td>\n<td class=\"marker\" style=\"box-sizing: border-box; padding: 2px; vertical-align: top; text-align: center; border: 1px solid #888888;\">—</td>\n<td class=\"marker\" style=\"box-sizing: border-box; padding: 2px; vertical-align: top; text-align: center; border: 1px solid #888888;\">—</td>\n</tr>\n<tr style=\"box-sizing: border-box;\">\n<td class=\"number\" style=\"box-sizing: border-box; padding: 2px; vertical-align: top; text-align: center; border: 1px solid #888888;\">15th</td>\n<td class=\"number\" style=\"box-sizing: border-box; padding: 2px; vertical-align: top; text-align: center; border: 1px solid #888888;\">9</td>\n<td class=\"number\" style=\"box-sizing: border-box; padding: 2px; vertical-align: top; text-align: center; border: 1px solid #888888;\">5</td>\n<td class=\"number\" style=\"box-sizing: border-box; padding: 2px; vertical-align: top; text-align: center; border: 1px solid #888888;\">5</td>\n<td class=\"number\" style=\"box-sizing: border-box; padding: 2px; vertical-align: top; text-align: center; border: 1px solid #888888;\">4</td>\n<td class=\"number\" style=\"box-sizing: border-box; padding: 2px; vertical-align: top; text-align: center; border: 1px solid #888888;\">4</td>\n<td class=\"number\" style=\"box-sizing: border-box; padding: 2px; vertical-align: top; text-align: center; border: 1px solid #888888;\">4</td>\n<td class=\"number\" style=\"box-sizing: border-box; padding: 2px; vertical-align: top; text-align: center; border: 1px solid #888888;\">3</td>\n<td class=\"number\" style=\"box-sizing: border-box; padding: 2px; vertical-align: top; text-align: center; border: 1px solid #888888;\">2</td>\n<td class=\"marker\" style=\"box-sizing: border-box; padding: 2px; vertical-align: top; text-align: center; border: 1px solid #888888;\">—</td>\n<td class=\"marker\" style=\"box-sizing: border-box; padding: 2px; vertical-align: top; text-align: center; border: 1px solid #888888;\">—</td>\n</tr>\n<tr style=\"box-sizing: border-box; background-color: #f3f3f3;\">\n<td class=\"number\" style=\"box-sizing: border-box; padding: 2px; vertical-align: top; text-align: center; border: 1px solid #888888;\">16th</td>\n<td class=\"number\" style=\"box-sizing: border-box; padding: 2px; vertical-align: top; text-align: center; border: 1px solid #888888;\">9</td>\n<td class=\"number\" style=\"box-sizing: border-box; padding: 2px; vertical-align: top; text-align: center; border: 1px solid #888888;\">5</td>\n<td class=\"number\" style=\"box-sizing: border-box; padding: 2px; vertical-align: top; text-align: center; border: 1px solid #888888;\">5</td>\n<td class=\"number\" style=\"box-sizing: border-box; padding: 2px; vertical-align: top; text-align: center; border: 1px solid #888888;\">4</td>\n<td class=\"number\" style=\"box-sizing: border-box; padding: 2px; vertical-align: top; text-align: center; border: 1px solid #888888;\">4</td>\n<td class=\"number\" style=\"box-sizing: border-box; padding: 2px; vertical-align: top; text-align: center; border: 1px solid #888888;\">4</td>\n<td class=\"number\" style=\"box-sizing: border-box; padding: 2px; vertical-align: top; text-align: center; border: 1px solid #888888;\">3</td>\n<td class=\"number\" style=\"box-sizing: border-box; padding: 2px; vertical-align: top; text-align: center; border: 1px solid #888888;\">2</td>\n<td class=\"number\" style=\"box-sizing: border-box; padding: 2px; vertical-align: top; text-align: center; border: 1px solid #888888;\">1</td>\n<td class=\"marker\" style=\"box-sizing: border-box; padding: 2px; vertical-align: top; text-align: center; border: 1px solid #888888;\">—</td>\n</tr>\n<tr style=\"box-sizing: border-box;\">\n<td class=\"number\" style=\"box-sizing: border-box; padding: 2px; vertical-align: top; text-align: center; border: 1px solid #888888;\">17th</td>\n<td class=\"number\" style=\"box-sizing: border-box; padding: 2px; vertical-align: top; text-align: center; border: 1px solid #888888;\">9</td>\n<td class=\"number\" style=\"box-sizing: border-box; padding: 2px; vertical-align: top; text-align: center; border: 1px solid #888888;\">5</td>\n<td class=\"number\" style=\"box-sizing: border-box; padding: 2px; vertical-align: top; text-align: center; border: 1px solid #888888;\">5</td>\n<td class=\"number\" style=\"box-sizing: border-box; padding: 2px; vertical-align: top; text-align: center; border: 1px solid #888888;\">4</td>\n<td class=\"number\" style=\"box-sizing: border-box; padding: 2px; vertical-align: top; text-align: center; border: 1px solid #888888;\">4</td>\n<td class=\"number\" style=\"box-sizing: border-box; padding: 2px; vertical-align: top; text-align: center; border: 1px solid #888888;\">4</td>\n<td class=\"number\" style=\"box-sizing: border-box; padding: 2px; vertical-align: top; text-align: center; border: 1px solid #888888;\">3</td>\n<td class=\"number\" style=\"box-sizing: border-box; padding: 2px; vertical-align: top; text-align: center; border: 1px solid #888888;\">3</td>\n<td class=\"number\" style=\"box-sizing: border-box; padding: 2px; vertical-align: top; text-align: center; border: 1px solid #888888;\">2</td>\n<td class=\"marker\" style=\"box-sizing: border-box; padding: 2px; vertical-align: top; text-align: center; border: 1px solid #888888;\">—</td>\n</tr>\n<tr style=\"box-sizing: border-box; background-color: #f3f3f3;\">\n<td class=\"number\" style=\"box-sizing: border-box; padding: 2px; vertical-align: top; text-align: center; border: 1px solid #888888;\">18th</td>\n<td class=\"number\" style=\"box-sizing: border-box; padding: 2px; vertical-align: top; text-align: center; border: 1px solid #888888;\">9</td>\n<td class=\"number\" style=\"box-sizing: border-box; padding: 2px; vertical-align: top; text-align: center; border: 1px solid #888888;\">5</td>\n<td class=\"number\" style=\"box-sizing: border-box; padding: 2px; vertical-align: top; text-align: center; border: 1px solid #888888;\">5</td>\n<td class=\"number\" style=\"box-sizing: border-box; padding: 2px; vertical-align: top; text-align: center; border: 1px solid #888888;\">4</td>\n<td class=\"number\" style=\"box-sizing: border-box; padding: 2px; vertical-align: top; text-align: center; border: 1px solid #888888;\">4</td>\n<td class=\"number\" style=\"box-sizing: border-box; padding: 2px; vertical-align: top; text-align: center; border: 1px solid #888888;\">4</td>\n<td class=\"number\" style=\"box-sizing: border-box; padding: 2px; vertical-align: top; text-align: center; border: 1px solid #888888;\">3</td>\n<td class=\"number\" style=\"box-sizing: border-box; padding: 2px; vertical-align: top; text-align: center; border: 1px solid #888888;\">3</td>\n<td class=\"number\" style=\"box-sizing: border-box; padding: 2px; vertical-align: top; text-align: center; border: 1px solid #888888;\">2</td>\n<td class=\"number\" style=\"box-sizing: border-box; padding: 2px; vertical-align: top; text-align: center; border: 1px solid #888888;\">1</td>\n</tr>\n<tr style=\"box-sizing: border-box;\">\n<td class=\"number\" style=\"box-sizing: border-box; padding: 2px; vertical-align: top; text-align: center; border: 1px solid #888888;\">19th</td>\n<td class=\"number\" style=\"box-sizing: border-box; padding: 2px; vertical-align: top; text-align: center; border: 1px solid #888888;\">9</td>\n<td class=\"number\" style=\"box-sizing: border-box; padding: 2px; vertical-align: top; text-align: center; border: 1px solid #888888;\">5</td>\n<td class=\"number\" style=\"box-sizing: border-box; padding: 2px; vertical-align: top; text-align: center; border: 1px solid #888888;\">5</td>\n<td class=\"number\" style=\"box-sizing: border-box; padding: 2px; vertical-align: top; text-align: center; border: 1px solid #888888;\">4</td>\n<td class=\"number\" style=\"box-sizing: border-box; padding: 2px; vertical-align: top; text-align: center; border: 1px solid #888888;\">4</td>\n<td class=\"number\" style=\"box-sizing: border-box; padding: 2px; vertical-align: top; text-align: center; border: 1px solid #888888;\">4</td>\n<td class=\"number\" style=\"box-sizing: border-box; padding: 2px; vertical-align: top; text-align: center; border: 1px solid #888888;\">3</td>\n<td class=\"number\" style=\"box-sizing: border-box; padding: 2px; vertical-align: top; text-align: center; border: 1px solid #888888;\">3</td>\n<td class=\"number\" style=\"box-sizing: border-box; padding: 2px; vertical-align: top; text-align: center; border: 1px solid #888888;\">3</td>\n<td class=\"number\" style=\"box-sizing: border-box; padding: 2px; vertical-align: top; text-align: center; border: 1px solid #888888;\">2</td>\n</tr>\n<tr style=\"box-sizing: border-box; background-color: #f3f3f3;\">\n<td class=\"number\" style=\"box-sizing: border-box; padding: 2px; vertical-align: top; text-align: center; border: 1px solid #888888;\">20th</td>\n<td class=\"number\" style=\"box-sizing: border-box; padding: 2px; vertical-align: top; text-align: center; border: 1px solid #888888;\">9</td>\n<td class=\"number\" style=\"box-sizing: border-box; padding: 2px; vertical-align: top; text-align: center; border: 1px solid #888888;\">5</td>\n<td class=\"number\" style=\"box-sizing: border-box; padding: 2px; vertical-align: top; text-align: center; border: 1px solid #888888;\">5</td>\n<td class=\"number\" style=\"box-sizing: border-box; padding: 2px; vertical-align: top; text-align: center; border: 1px solid #888888;\">4</td>\n<td class=\"number\" style=\"box-sizing: border-box; padding: 2px; vertical-align: top; text-align: center; border: 1px solid #888888;\">4</td>\n<td class=\"number\" style=\"box-sizing: border-box; padding: 2px; vertical-align: top; text-align: center; border: 1px solid #888888;\">4</td>\n<td class=\"number\" style=\"box-sizing: border-box; padding: 2px; vertical-align: top; text-align: center; border: 1px solid #888888;\">3</td>\n<td class=\"number\" style=\"box-sizing: border-box; padding: 2px; vertical-align: top; text-align: center; border: 1px solid #888888;\">3</td>\n<td class=\"number\" style=\"box-sizing: border-box; padding: 2px; vertical-align: top; text-align: center; border: 1px solid #888888;\">3</td>\n<td class=\"number\" style=\"box-sizing: border-box; padding: 2px; vertical-align: top; text-align: center; border: 1px solid #888888;\">3</td>\n</tr>\n</tbody>\n</table>\n<h2>Spellbooks</h2>\n<p>An arcanist must study her spellbook each day to prepare her spells. She can’t prepare any spell not recorded in her spellbook, except for&nbsp;<a href=\"https://www.d20pfsrd.com/magic/all-spells/r/read-magic\">read magic</a>&nbsp;(which all arcanists can prepare from memory).</p>\n<p>An arcanist begins play with a spellbook containing all 0-level&nbsp;<a href=\"https://www.d20pfsrd.com/classes/core-classes/wizard\">wizard</a>/<a href=\"https://www.d20pfsrd.com/classes/core-classes/sorcerer\">sorcerer</a>&nbsp;spells plus three 1st-level spells of her choice. The arcanist also selects a number of additional 1st-level spells equal to her&nbsp;<a href=\"https://www.d20pfsrd.com/basics-ability-scores/ability-scores#TOC-Intelligence-Int-\">Intelligence</a>&nbsp;modifier to add to the spellbook. At each new arcanist level, she gains two new spells of any spell level or levels that she can cast (based on her new arcanist level) for her spellbook. At any time, an arcanist can also add spells found in&nbsp;<a href=\"https://www.d20pfsrd.com/classes/core-classes/wizard\">wizards</a>‘&nbsp;or other arcanists’&nbsp;spellbooks to her own.</p>\n<h2>Cantrips</h2>\n<p>Arcanists can prepare a number of cantrips, or 0-level spells, each day as noted on&nbsp;Table: Arcanist Spells Prepared. These spells are cast like any other spell, but they do not consume spell slots. As with her other spells, these spells are not expended when cast.</p>\n<h2>Arcane Reservoir (Su)</h2>\n<p>An arcanist has an innate pool of magical energy that she can draw upon to fuel her arcanist exploits and enhance her spells. The arcanist’s arcane reservoir can hold a maximum amount of magical energy equal to 3 + the arcanist’s level. Each day, when preparing spells, the arcanist’s arcane reservoir fills with raw magical energy, gaining a number of points equal to 3 + 1/2 her arcanist level. Any points she had from the previous day are lost. She can also regain these points through the consume spells class feature and some arcanist exploits. The arcane reservoir can never hold more points than the maximum amount noted above; points gained in excess of this total are lost.</p>\n<p>Points from the arcanist reservoir are used to fuel many of the arcanist’s powers. In addition, the arcanist can expend 1 point from her arcane reservoir as a&nbsp;<a href=\"https://www.d20pfsrd.com/gamemastering/combat#TOC-Free-Actions\">free action</a>&nbsp;whenever she casts an arcanist spell. If she does, she can choose to increase the&nbsp;<a href=\"https://www.d20pfsrd.com/magic#TOC-Caster-Level\">caster level</a>&nbsp;by 1 or increase the spell’s DC by 1. She can expend no more than 1 point from her reservoir on a given spell in this way.</p>\n<h2>Arcane Exploits</h2>\n<p>By bending and sometimes even breaking the rules of magic, the arcanist learns to exploit gaps and exceptions in the laws of magic. Some of these exploits allow her to break down various forms of magic, adding their essence to her arcane reservoir. At 1st level and every 2 levels thereafter, the arcanist learns a new arcane exploit selected from the following list. An arcanist exploit cannot be selected more than once. Once an arcanist exploit has been selected, it cannot be changed. Most arcanist exploits require the arcanist to expend points from her arcane reservoir to function. Unless otherwise noted, the saving throw DC for an arcanist exploit is equal to 10 + 1/2 the arcanist’s level + the arcanist’s&nbsp;<a href=\"https://www.d20pfsrd.com/basics-ability-scores/ability-scores#TOC-Charisma-Cha-\">Charisma</a>&nbsp;modifier.</p>\n<p>For a complete list of&nbsp;<a href=\"https://www.d20pfsrd.com/classes/hybrid-classes/arcanist/arcane-exploits\">Arcanist Exploits, see here</a></p>\n<h2>Consume Spells (Su)</h2>\n<p>At 1st level, an arcanist can expend an available arcanist spell slot as a&nbsp;<a href=\"https://www.d20pfsrd.com/gamemastering/combat#TOC-Move-Actions\">move action</a>, making it unavailable for the rest of the day, just as if she had used it to cast a spell.&nbsp;She can use this ability a number of times per day equal to her&nbsp;<a href=\"https://www.d20pfsrd.com/basics-ability-scores/ability-scores#TOC-Charisma-Cha-\">Charisma</a>&nbsp;modifier (minimum 1).&nbsp;Doing this adds a number of points to her arcane reservoir equal to the level of the spell slot consumed. She cannot consume cantrips (0 level spells) in this way. Points gained in excess of the reservoir’s maximum are lost.</p>\n<h2>Greater Exploits</h2>\n<p>At 11th level and every 2 levels thereafter, an arcanist can choose one of the following greater exploits in place of an arcanist exploit.</p>\n<p>For a complete list of&nbsp;<a href=\"https://www.d20pfsrd.com/classes/hybrid-classes/arcanist/arcanist-greater-exploits/\">Greater Exploits, see here</a></p>\n<h2>Magical Supremacy (Su)</h2>\n<p>At 20th level, the arcanist learns how to convert her arcane reservoir into spells and back again. She can cast any spell she has prepared by expending a number of points from her arcane reservoir equal to 1 + the level of the spell to be cast instead of expending a spell slot. When she casts a spell in this fashion, she treats her&nbsp;<a href=\"https://www.d20pfsrd.com/magic#TOC-Caster-Level\">caster level</a>&nbsp;as 2 higher than normal, and the DCs of any saving throws associated with the spell increase by 2. She cannot further expend points from her arcane reservoir to enhance a spell cast in this way.</p>",
      "chat": "",
      "unidentified": ""
    },
    "damage": {
      "parts": [],
      "critParts": [],
      "nonCritParts": []
    },
    "preparation": {
      "maxAmount": 0
    },
    "weaponData": {
      "critRange": 20,
      "critMult": 2
    },
    "uses": {
      "value": 0,
      "max": 0
    }
  },
  "flags": {},
  "img": "systems/pf1/icons/spells/runes-blue-2.jpg",
  "effects": []
}