{
  "_id": "WLqBCT5DqmGAx8Wd",
  "name": "Fighter",
  "permission": {
    "default": 0
  },
  "type": "class",
  "data": {
    "description": {
      "value": "<p><strong>Role</strong>: Fighters excel at combat—defeating their enemies, controlling the flow of battle, and surviving such sorties themselves. While their specific weapons and methods grant them a wide variety of tactics, few can match fighters for sheer battle prowess.</p>\n<p><strong>Alignment</strong>: Any.</p>\n<p><strong>Hit Die</strong>: d10.</p>\n<p><strong>Starting Wealth</strong>: 5d6 x 10 gp (average 175 gp.) In addition, each character begins play with an outfit worth 10 gp or less.</p>\n<h2><span id=\"Class_Skills\">Class Skills</span></h2>\n<p>The fighter’s class skills are <a href=\"https://www.d20pfsrd.com/skills/climb\">Climb</a>&nbsp;(<a href=\"https://www.d20pfsrd.com/basics-ability-scores/ability-scores#TOC-Strength-Str-\">Str</a>), <a href=\"https://www.d20pfsrd.com/skills/craft\">Craft</a>&nbsp;(<a href=\"https://www.d20pfsrd.com/basics-ability-scores/ability-scores#TOC-Intelligence-Int-\">Int</a>), <a href=\"https://www.d20pfsrd.com/skills/handle-animal\">Handle Animal</a>&nbsp;(<a href=\"https://www.d20pfsrd.com/basics-ability-scores/ability-scores#TOC-Charisma-Cha-\">Cha</a>), <a href=\"https://www.d20pfsrd.com/skills/intimidate\">Intimidate</a>&nbsp;(<a href=\"https://www.d20pfsrd.com/basics-ability-scores/ability-scores#TOC-Charisma-Cha-\">Cha</a>), <a href=\"https://www.d20pfsrd.com/skills/knowledge\">Knowledge</a>&nbsp;(dungeoneering) (<a href=\"https://www.d20pfsrd.com/basics-ability-scores/ability-scores#TOC-Intelligence-Int-\">Int</a>), <a href=\"https://www.d20pfsrd.com/skills/knowledge\">Knowledge</a>&nbsp;(engineering) (<a href=\"https://www.d20pfsrd.com/basics-ability-scores/ability-scores#TOC-Intelligence-Int-\">Int</a>), <a href=\"https://www.d20pfsrd.com/skills/profession\">Profession</a>&nbsp;(<a href=\"https://www.d20pfsrd.com/basics-ability-scores/ability-scores#TOC-Wisdom-Wis-\">Wis</a>), <a href=\"https://www.d20pfsrd.com/skills/ride\">Ride</a>&nbsp;(<a href=\"https://www.d20pfsrd.com/basics-ability-scores/ability-scores#TOC-Dexterity-Dex-\">Dex</a>), <a href=\"https://www.d20pfsrd.com/skills/survival\">Survival</a>&nbsp;(<a href=\"https://www.d20pfsrd.com/basics-ability-scores/ability-scores#TOC-Wisdom-Wis-\">Wis</a>), and <a href=\"https://www.d20pfsrd.com/skills/swim\">Swim</a>&nbsp;(<a href=\"https://www.d20pfsrd.com/basics-ability-scores/ability-scores#TOC-Strength-Str-\">Str</a>).</p>\n<p><strong>Skill Ranks Per Level</strong>: 2 +&nbsp;<a href=\"https://www.d20pfsrd.com/basics-ability-scores/ability-scores#TOC-Intelligence-Int-\">Int</a>&nbsp;modifier.</p>",
      "chat": "",
      "unidentified": ""
    },
    "tags": [],
    "changes": [],
    "changeFlags": {
      "loseDexToAC": false,
      "noStr": false,
      "noDex": false,
      "oneInt": false,
      "oneWis": false,
      "oneCha": false,
      "noEncumbrance": false,
      "mediumArmorFullSpeed": false,
      "heavyArmorFullSpeed": false
    },
    "links": {
      "children": [],
      "classAssociations": [
        {
          "id": "pf1.class-abilities.CV8BsY3ciUb9TA1Y",
          "dataType": "compendium",
          "name": "Bonus Feats (FGT)",
          "img": "systems/pf1/icons/skills/affliction_18.jpg",
          "hiddenLinks": {},
          "level": 1,
          "_index": 0
        },
        {
          "id": "pf1.class-abilities.h0Brxw6khcjlEf1T",
          "dataType": "compendium",
          "name": "Bravery",
          "img": "systems/pf1/icons/skills/affliction_24.jpg",
          "hiddenLinks": {},
          "level": 2,
          "_index": 1
        },
        {
          "id": "pf1.class-abilities.5JFfSqLMCpbRmERa",
          "dataType": "compendium",
          "name": "Armor Training",
          "img": "systems/pf1/icons/items/armor/field-plate.png",
          "hiddenLinks": {},
          "level": 3,
          "_index": 2
        },
        {
          "id": "pf1.class-abilities.RzEzudurxQFirFoF",
          "dataType": "compendium",
          "name": "Weapon Training",
          "img": "systems/pf1/icons/items/weapons/dagger-swordbreaker.PNG",
          "hiddenLinks": {},
          "level": 5,
          "_index": 3
        },
        {
          "id": "pf1.class-abilities.McXAM1BoPHZLO1n4",
          "dataType": "compendium",
          "name": "Weapon Mastery",
          "img": "systems/pf1/icons/items/weapons/sabre-sawtooth.png",
          "hiddenLinks": {},
          "level": 20,
          "_index": 4
        }
      ]
    },
    "tag": "fighter",
    "useCustomTag": true,
    "armorProf": {
      "value": [
        "lgt",
        "med",
        "hvy",
        "shl",
        "twr"
      ],
      "custom": ""
    },
    "weaponProf": {
      "value": [
        "sim",
        "mar"
      ],
      "custom": ""
    },
    "classType": "base",
    "levels": {
      "value": 0,
      "_deprecated": true
    },
    "level": 1,
    "hd": 10,
    "hp": 10,
    "bab": "high",
    "skillsPerLevel": 2,
    "savingThrows": {
      "fort": {
        "value": "high"
      },
      "ref": {
        "value": "low"
      },
      "will": {
        "value": "low"
      }
    },
    "fc": {
      "hp": {
        "value": 0
      },
      "skill": {
        "value": 0
      },
      "alt": {
        "value": 0
      }
    },
    "classSkills": {
      "acr": false,
      "apr": false,
      "art": false,
      "blf": false,
      "clm": true,
      "crf": true,
      "dip": false,
      "dev": false,
      "dis": false,
      "esc": false,
      "fly": false,
      "han": true,
      "hea": false,
      "int": true,
      "kar": false,
      "kdu": true,
      "ken": true,
      "kge": false,
      "khi": false,
      "klo": false,
      "kna": false,
      "kno": false,
      "kpl": false,
      "kre": false,
      "lin": false,
      "lor": false,
      "per": false,
      "prf": false,
      "pro": true,
      "rid": true,
      "sen": false,
      "slt": false,
      "spl": false,
      "ste": false,
      "sur": true,
      "swm": true,
      "umd": false
    },
    "extraDescription": {
      "value": "<h1>Class Features</h1>\n<h2>Weapon and Armor Proficiency</h2>\n<p>A fighter is proficient with all simple and martial weapons and with all armor (heavy, light, and medium) and shields (including tower shields).</p>\n<p>&nbsp;</p>\n<h2>Bonus Feats</h2>\n<p>At 1st level, and at every even level thereafter, a fighter gains a bonus feat in addition to those gained from normal advancement (meaning that the fighter gains a feat at every level). These bonus feats must be selected from those listed as&nbsp;<a href=\"https://www.d20pfsrd.com/feats/combat-feats\">Combat Feats</a>, sometimes also called “fighter bonus feats.”</p>\n<p>Upon reaching 4th level, and every four levels thereafter (8th, 12th, and so on), a fighter can choose to learn a new bonus feat in place of a bonus feat he has already learned. In effect, the fighter loses the bonus feat in exchange for the new one. The old feat cannot be one that was used as a prerequisite for another feat, prestige class, or other ability. A fighter can only change one feat at any given level and must choose whether or not to swap the feat at the time he gains a new bonus feat for the level.</p>\n<p>&nbsp;</p>\n<h2>Bravery (Ex)</h2>\n<p>Starting at 2nd level, a fighter gains a +1 bonus on&nbsp;<a href=\"https://www.d20pfsrd.com/gamemastering/combat#TOC-Will\">Will</a>&nbsp;saves against fear. This bonus increases by +1 for every four levels beyond 2nd.</p>\n<p>&nbsp;</p>\n<h2>Armor Training (Ex)</h2>\n<p>Starting at 3rd level, a fighter learns to be more maneuverable while wearing armor. Whenever he is wearing&nbsp;<a href=\"https://www.d20pfsrd.com/basics-ability-scores/glossary#TOC-Armor-Bonus\">armor</a>, he reduces the armor check penalty by 1 (to a minimum of 0) and increases the maximum Dexterity bonus allowed by his armor by 1. Every four levels thereafter (7th, 11th, and 15th), these bonuses increase by +1 each time, to a maximum –4 reduction of the armor check penalty and a +4 increase of the maximum&nbsp;<a href=\"https://www.d20pfsrd.com/basics-ability-scores/ability-scores#TOC-Dexterity-Dex-\">Dexterity</a>&nbsp;bonus allowed.</p>\n<p>In addition, a fighter can also move at his normal speed while wearing medium armor. At 7th level, a fighter can move at his normal speed while wearing heavy armor.</p>\n<p><strong>Advanced Armor Training</strong>: Beginning at 7th level, instead of increasing the benefits provided by armor training (reducing his armor’s check penalty by 1 and increasing its maximum&nbsp;<a href=\"https://www.d20pfsrd.com/basics-ability-scores/ability-scores#TOC-Dexterity-Dex-\">Dexterity</a>&nbsp;bonus by 1), a fighter can choose an advanced armor training option (see&nbsp;<a href=\"https://www.d20pfsrd.com/classes/core-classes/Fighter/#Advanced-Armor-Training\">Advanced Armor Training</a>&nbsp;below) . If the fighter does so, he still gains the ability to move at his normal speed while wearing medium armor at 3rd level, and while wearing heavy armor at 7th level.</p>\n<p>&nbsp;</p>\n<h2>Weapon Training (Ex)</h2>\n<p>Starting at 5th level, a fighter can select one group of weapons, as noted below. Whenever he attacks with a weapon from this group, he gains a +1 bonus on attack and damage rolls.</p>\n<p>Every four levels thereafter (9th*, 13th, and 17th), a fighter becomes further trained in another group of weapons. He gains a +1 bonus on attack and damage rolls when using a weapon from this group. In addition, the bonuses granted by previous weapon groups increase by +1 each. For example, when a fighter reaches 9th level, he receives a +1 bonus on attack and damage rolls with one weapon group and a +2 bonus on attack and damage rolls with the weapon group selected at 5th level. Bonuses granted from overlapping groups do not stack. Take the highest bonus granted for a weapon if it resides in two or more groups.</p>\n<p>A fighter also adds this bonus to any combat maneuver checks made with weapons from his group. This bonus also applies to the fighter’s Combat Maneuver Defense when defending against disarm and sunder attempts made against weapons from this group.</p>\n<p><strong>Advanced Weapon Training</strong>: Beginning at 9th level, instead of selecting an additional fighter weapon group, a fighter can choose an advanced weapon training option (see&nbsp;<a href=\"https://www.d20pfsrd.com/classes/core-classes/Fighter/#Advanced-Weapon-Training\">Advanced Weapon Training</a>&nbsp;below) for one fighter weapon group that he previously selected with the weapon training class feature.&nbsp;Source:&nbsp;<a href=\"http://www.amazon.com/gp/product/1601257961/ref=as_li_qf_sp_asin_il_tl?ie=UTF8&amp;camp=1789&amp;creative=9325&amp;creativeASIN=1601257961&amp;linkCode=as2&amp;tag=httpwwwd20pfs-20&amp;linkId=UYF3PIQRYLZFHLPE\" target=\"_blank\" rel=\"noopener noreferrer\">Pathfinder Player Companion: Weapon Master’s Handbook</a></p>\n<p>Weapon groups are defined as follows (GMs may add other weapons to these groups, or add entirely new groups):</p>\n<p><a name=\"weapon-groups\"></a></p>\n<div>\n<p><strong>Axes</strong>: axe-gauntlet, dwarven heavy,&nbsp;axe-gauntlet, dwarven light,&nbsp;<a href=\"https://www.d20pfsrd.com/equipment/weapons/weapon-descriptions/bardiche\">bardiche</a>,&nbsp;<a href=\"https://www.d20pfsrd.com/equipment/weapons/weapon-descriptions/axe-battle\">battleaxe</a>, boarding axe, butchering axe, collapsible kumade,&nbsp;<a href=\"https://www.d20pfsrd.com/equipment/weapons/weapon-descriptions/waraxe-dwarven\">dwarven waraxe</a>, gandasa,&nbsp;<a href=\"https://www.d20pfsrd.com/equipment/weapons/weapon-descriptions/axe-great\">greataxe</a>,&nbsp;<a href=\"https://www.d20pfsrd.com/equipment/weapons/weapon-descriptions/handaxe\">handaxe</a>,&nbsp;<a href=\"https://www.d20pfsrd.com/equipment/weapons/weapon-descriptions/pick-heavy\">heavy pick</a>,&nbsp;<a href=\"https://www.d20pfsrd.com/equipment/weapons/weapon-descriptions/axe-hooked\">hooked axe</a>,&nbsp;<a href=\"https://www.d20pfsrd.com/equipment/weapons/weapon-descriptions/axe-knuckle\">knuckle axe</a>, kumade,&nbsp;kumade, collapsible,&nbsp;<a href=\"https://www.d20pfsrd.com/equipment/weapons/weapon-descriptions/pick-light\">light pick</a>,&nbsp;<a href=\"https://www.d20pfsrd.com/equipment/weapons/weapon-descriptions/mattock\">mattock</a>,&nbsp;<a href=\"https://www.d20pfsrd.com/equipment/weapons/weapon-descriptions/axe-orc-double\">orc double axe</a>,&nbsp;<a href=\"https://www.d20pfsrd.com/equipment/weapons/weapon-descriptions/pata\">pata</a>,&nbsp;<a href=\"https://www.d20pfsrd.com/equipment/weapons/weapon-descriptions/axe-throwing\">throwing axe</a>, and tongi.</p>\n<p><strong>Blades, Heavy</strong>: ankus,&nbsp;<a href=\"https://www.d20pfsrd.com/equipment/weapons/weapon-descriptions/sword-bastard\">bastard sword</a>,&nbsp;<a href=\"https://www.d20pfsrd.com/equipment/weapons/weapon-descriptions/chakram-crystal\">chakram</a>,&nbsp;cutlass,&nbsp;double,&nbsp;<a href=\"https://www.d20pfsrd.com/equipment/weapons/weapon-descriptions/double-chicken-saber\">double chicken saber</a>,&nbsp;<a href=\"https://www.d20pfsrd.com/equipment/weapons/weapon-descriptions/double-walking-stick-katana\">double walking stick katana</a>,&nbsp;<a href=\"https://www.d20pfsrd.com/equipment/weapons/weapon-descriptions/sword-dueling\">dueling sword</a>,&nbsp;<a href=\"https://www.d20pfsrd.com/equipment/weapons/weapon-descriptions/curve-blade-elven\">elven curve blade</a>, estoc,&nbsp;<a href=\"https://www.d20pfsrd.com/equipment/weapons/weapon-descriptions/falcata\">falcata</a>,&nbsp;<a href=\"https://www.d20pfsrd.com/equipment/weapons/weapon-descriptions/falchion\">falchion</a>,&nbsp;<a href=\"https://www.d20pfsrd.com/equipment/weapons/weapon-descriptions/flambard\">flambard</a>,&nbsp;<a href=\"https://www.d20pfsrd.com/equipment/weapons/weapon-descriptions/greatsword\">greatsword</a>,&nbsp;<a href=\"https://www.d20pfsrd.com/equipment/weapons/weapon-descriptions/terbutje-great\">great terbutje</a>,&nbsp;greatsword,&nbsp;<a href=\"https://www.d20pfsrd.com/equipment/weapons/weapon-descriptions/katana\">katana</a>,&nbsp;<a href=\"https://www.d20pfsrd.com/equipment/weapons/weapon-descriptions/khopesh\">khopesh</a>,&nbsp;<a href=\"https://www.d20pfsrd.com/equipment/weapons/weapon-descriptions/klar\">klar</a>,&nbsp;<a href=\"https://www.d20pfsrd.com/equipment/weapons/weapon-descriptions/longsword\">longsword</a>,&nbsp;<a href=\"https://www.d20pfsrd.com/equipment/weapons/weapon-descriptions/broadsword-nine-ring\">nine-ring broadsword</a>,&nbsp;<a href=\"https://www.d20pfsrd.com/equipment/weapons/weapon-descriptions/nodachi\">nodachi</a>,&nbsp;rhoka sword,&nbsp;sawtooth sabre,&nbsp;<a href=\"https://www.d20pfsrd.com/equipment/weapons/weapon-descriptions/scimitar\">scimitar</a>,&nbsp;<a href=\"https://www.d20pfsrd.com/equipment/weapons/weapon-descriptions/scythe\">scythe</a>,&nbsp;<a href=\"https://www.d20pfsrd.com/equipment/weapons/weapon-descriptions/sword-seven-branched\">seven-branched sword</a>,&nbsp;<a href=\"https://www.d20pfsrd.com/equipment/weapons/weapon-descriptions/shotel\">shotel</a>, sickle-sword,&nbsp;<a href=\"https://www.d20pfsrd.com/equipment/weapons/weapon-descriptions/split-blade-sword-heavy-blades-group/\">split-blade sword</a>, switchscythe,&nbsp;<a href=\"https://www.d20pfsrd.com/equipment/weapons/weapon-descriptions/sword-temple\">temple sword</a>,&nbsp;<a href=\"https://www.d20pfsrd.com/equipment/weapons/weapon-descriptions/terbutje\">terbutje</a>, and&nbsp;<a href=\"https://www.d20pfsrd.com/equipment/weapons/weapon-descriptions/sword-two-bladed\">two-bladed sword</a>.</p>\n<p><strong>Blades, Light</strong>:&nbsp;<a href=\"https://www.d20pfsrd.com/equipment/weapons/weapon-descriptions/bayonet\">bayonet</a>,&nbsp;<a href=\"https://www.d20pfsrd.com/equipment/weapons/weapon-descriptions/broken-back-seax-light-blades-group/\">broken-back seax</a>,&nbsp;<a href=\"https://www.d20pfsrd.com/equipment/weapons/weapon-descriptions/knife-butterfly\">butterfly knife</a>,&nbsp;<a href=\"https://www.d20pfsrd.com/equipment/weapons/weapon-descriptions/butterfly-sword\">butterfly sword</a>,&nbsp;<a href=\"https://www.d20pfsrd.com/equipment/weapons/weapon-descriptions/chakram-crystal\">chakram</a>,&nbsp;<a href=\"https://www.d20pfsrd.com/equipment/weapons/weapon-descriptions/dagger\">dagger</a>, deer horn knife, dogslicer, drow razor, dueling dagger,&nbsp;<a href=\"https://www.d20pfsrd.com/equipment/weapons/weapon-descriptions/gladius\">gladius</a>,&nbsp;<a href=\"https://www.d20pfsrd.com/equipment/weapons/weapon-descriptions/hunga-munga\">hunga munga</a>,&nbsp;<a href=\"https://www.d20pfsrd.com/equipment/weapons/weapon-descriptions/kama\">kama</a>,&nbsp;<a href=\"https://www.d20pfsrd.com/equipment/weapons/weapon-descriptions/katar-tri-bladed\">katar</a>,&nbsp;<a href=\"https://www.d20pfsrd.com/equipment/weapons/weapon-descriptions/kerambit\">kerambit</a>,&nbsp;<a href=\"https://www.d20pfsrd.com/equipment/weapons/weapon-descriptions/kukri\">kukri</a>, machete,&nbsp;<a href=\"https://www.d20pfsrd.com/equipment/weapons/weapon-descriptions/madu\">madu</a>, manople,&nbsp;<a href=\"https://www.d20pfsrd.com/equipment/weapons/weapon-descriptions/pata\">pata</a>,&nbsp;<a href=\"https://www.d20pfsrd.com/equipment/weapons/weapon-descriptions/quadrens\">quadrens</a>,&nbsp;<a href=\"https://www.d20pfsrd.com/equipment/weapons/weapon-descriptions/rapier\">rapier</a>, sanpkhang,&nbsp;<a href=\"https://www.d20pfsrd.com/equipment/weapons/weapon-descriptions/sabre-sawtooth\">sawtooth sabre</a>,&nbsp;<a href=\"https://www.d20pfsrd.com/equipment/weapons/weapon-descriptions/scizore\">scizore</a>,&nbsp;<a href=\"https://www.d20pfsrd.com/equipment/weapons/weapon-descriptions/shortsword\">shortsword</a>,&nbsp;<a href=\"https://www.d20pfsrd.com/equipment/weapons/weapon-descriptions/sica\">sica</a>,&nbsp;<a href=\"https://www.d20pfsrd.com/equipment/weapons/weapon-descriptions/sickle\">sickle</a>, spiral rapier,&nbsp;<a href=\"https://www.d20pfsrd.com/equipment/weapons/weapon-descriptions/starknife\">starknife</a>,&nbsp;<a href=\"https://www.d20pfsrd.com/equipment/weapons/weapon-descriptions/dagger-swordbreaker\">swordbreaker dagger</a>,&nbsp;<a href=\"https://www.d20pfsrd.com/equipment/weapons/weapon-descriptions/swordcane\">sword cane</a>,&nbsp;<a href=\"https://www.d20pfsrd.com/equipment/weapons/weapon-descriptions/wakizashi\">wakizashi</a>, and&nbsp;<a href=\"https://www.d20pfsrd.com/equipment/weapons/weapon-descriptions/war-razor\">war razor</a>.</p>\n<p><strong>Bows</strong>:&nbsp;<a href=\"https://www.d20pfsrd.com/equipment/weapons/weapon-descriptions/longbow-composite\">composite longbow</a>,&nbsp;<a href=\"https://www.d20pfsrd.com/equipment/weapons/weapon-descriptions/shortbow-composite\">composite shortbow</a>,&nbsp;<a href=\"https://www.d20pfsrd.com/equipment/weapons/weapon-descriptions/longbow\">longbow</a>, orc hornbow, and&nbsp;<a href=\"https://www.d20pfsrd.com/equipment/weapons/weapon-descriptions/shortbow\">shortbow</a>.</p>\n<p><strong>Close</strong>:&nbsp;axe-gauntlet, dwarven heavy,&nbsp;axe-gauntlet, dwarven light,&nbsp;<a href=\"https://www.d20pfsrd.com/equipment/weapons/weapon-descriptions/bayonet\">bayonet</a>,&nbsp;<a href=\"https://www.d20pfsrd.com/equipment/weapons/weapon-descriptions/brass-knuckles\">brass knuckles</a>,&nbsp;<a href=\"https://www.d20pfsrd.com/equipment/weapons/weapon-descriptions/cestus\">cestus</a>,&nbsp;<a href=\"https://www.d20pfsrd.com/equipment/weapons/weapon-descriptions/dan-bong\">dan bong</a>, dwarven war-shield,&nbsp;<a href=\"https://www.d20pfsrd.com/equipment/weapons/weapon-descriptions/emei-piercer\">emei piercer</a>,&nbsp;<a href=\"https://www.d20pfsrd.com/equipment/weapons/weapon-descriptions/fighting-fan\">fighting fan</a>,&nbsp;<a href=\"https://www.d20pfsrd.com/equipment/weapons/weapon-descriptions/gauntlet\">gauntlet</a>,&nbsp;<a href=\"https://www.d20pfsrd.com/equipment/armor/shield-heavy-wooden-or-steel\">heavy shield</a>,&nbsp;<a href=\"https://www.d20pfsrd.com/equipment/weapons/weapon-descriptions/iron-brush\">iron brush</a>,&nbsp;<a href=\"https://www.d20pfsrd.com/equipment/weapons/weapon-descriptions/katar-tri-bladed\">katar</a>,&nbsp;<a href=\"https://www.d20pfsrd.com/equipment/weapons/weapon-descriptions/klar\">klar</a>,&nbsp;<a href=\"https://www.d20pfsrd.com/equipment/armor/shield-light-wooden-or-steel\">light shield</a>,&nbsp;<a href=\"https://www.d20pfsrd.com/equipment/weapons/weapon-descriptions/madu\">madu</a>,&nbsp;<a href=\"https://www.d20pfsrd.com/equipment/weapons/weapon-descriptions/mere-club\">mere club</a>,&nbsp;<a href=\"https://www.d20pfsrd.com/equipment/weapons/weapon-descriptions/dagger-punching\">punching dagger</a>,&nbsp;<a href=\"https://www.d20pfsrd.com/equipment/weapons/weapon-descriptions/rope-gauntlet\">rope gauntlet</a>,&nbsp;<a href=\"https://www.d20pfsrd.com/equipment/weapons/weapon-descriptions/sap\">sap</a>,&nbsp;<a href=\"https://www.d20pfsrd.com/equipment/weapons/weapon-descriptions/scizore\">scizore</a>,&nbsp;<a href=\"https://www.d20pfsrd.com/equipment/weapons/weapon-descriptions/spiked-armor\">spiked armor</a>,&nbsp;<a href=\"https://www.d20pfsrd.com/equipment/weapons/weapon-descriptions/gauntlet\">spiked gauntlet</a>,&nbsp;<a href=\"https://www.d20pfsrd.com/equipment/weapons/weapon-descriptions/spiked-shield-heavy-or-light\">spiked shield</a>,&nbsp;<a href=\"https://www.d20pfsrd.com/equipment/weapons/weapon-descriptions/tekko-kagi\">tekko-kagi</a>,&nbsp;<a href=\"https://www.d20pfsrd.com/equipment/weapons/weapon-descriptions/tonfa\">tonfa</a>, tri-bladed katar,&nbsp;<a href=\"https://www.d20pfsrd.com/equipment/weapons/weapon-descriptions/strike-unarmed\">unarmed strike</a>,&nbsp;<a href=\"https://www.d20pfsrd.com/equipment/weapons/weapon-descriptions/stake-wooden\">wooden stake</a>, waveblade, and&nbsp;<a href=\"https://www.d20pfsrd.com/equipment/weapons/weapon-descriptions/dart-wushu\">wushu dart</a>.</p>\n<p><strong>Crossbows</strong>:&nbsp;<a href=\"https://www.d20pfsrd.com/equipment/weapons/weapon-descriptions/crossbow-double\">double crossbow</a>,&nbsp;<a href=\"https://www.d20pfsrd.com/equipment/weapons/weapon-descriptions/crossbow-hand\">hand crossbow</a>,&nbsp;<a href=\"https://www.d20pfsrd.com/equipment/weapons/weapon-descriptions/crossbow-heavy\">heavy crossbow</a>,&nbsp;<a href=\"https://www.d20pfsrd.com/equipment/weapons/weapon-descriptions/crossbow-launching\">launching crossbow</a>,&nbsp;<a href=\"https://www.d20pfsrd.com/equipment/weapons/weapon-descriptions/crossbow-repeating\">light repeating crossbow</a>, heavy repeating crossbow, pelletbow, dwarven heavy,&nbsp;pelletbow, dwarven light,&nbsp;and&nbsp;<a href=\"https://www.d20pfsrd.com/equipment/weapons/weapon-descriptions/tube-arrow-shooter\">tube arrow shooter</a>, underwater heavy crossbow,&nbsp;underwater light crossbow</p>\n<p><strong>Double</strong>:&nbsp;<a href=\"https://www.d20pfsrd.com/equipment/weapons/weapon-descriptions/staff-bo\">bo staff</a>, boarding gaff, chain-hammer,&nbsp;<a href=\"https://www.d20pfsrd.com/equipment/weapons/weapon-descriptions/chain-spear\">chain spear</a>,&nbsp;<a href=\"https://www.d20pfsrd.com/equipment/weapons/weapon-descriptions/flail-dire\">dire flail</a>,&nbsp;<a href=\"https://www.d20pfsrd.com/equipment/weapons/weapon-descriptions/double-walking-stick-katana\">double walking stick katana</a>, double-chained kama,&nbsp;<a href=\"https://www.d20pfsrd.com/equipment/weapons/weapon-descriptions/urgrosh-dwarven\">dwarven urgrosh</a>, gnome battle ladder,&nbsp;<a href=\"https://www.d20pfsrd.com/equipment/weapons/weapon-descriptions/hammer-gnome-hooked\">gnome hooked hammer</a>,&nbsp;<a href=\"https://www.d20pfsrd.com/equipment/weapons/weapon-descriptions/kusarigama\">kusarigama</a>,&nbsp;<a href=\"https://www.d20pfsrd.com/equipment/weapons/weapon-descriptions/monk-s-spade\">monk’s spade</a>,&nbsp;<a href=\"https://www.d20pfsrd.com/equipment/weapons/weapon-descriptions/axe-orc-double\">orc double axe</a>,&nbsp;<a href=\"https://www.d20pfsrd.com/equipment/weapons/weapon-descriptions/quarterstaff\">quarterstaff</a>,&nbsp;<a href=\"https://www.d20pfsrd.com/equipment/weapons/weapon-descriptions/taiaha\">taiaha</a>,&nbsp;<a href=\"https://www.d20pfsrd.com/equipment/weapons/weapon-descriptions/sword-two-bladed\">two-bladed sword</a>, and weighted spear.</p>\n<p><strong>Firearms</strong>: all one-handed, two-handed, and siege firearms.</p>\n<p><strong>Flails</strong>:&nbsp;<a href=\"https://www.d20pfsrd.com/equipment/weapons/weapon-descriptions/battle-poi\">battle poi</a>,&nbsp;<a href=\"https://www.d20pfsrd.com/equipment/weapons/weapon-descriptions/scarf-bladed\">bladed scarf</a>, cat-o’-nine-tails,&nbsp;<a href=\"https://www.d20pfsrd.com/equipment/weapons/weapon-descriptions/chain-spear\">chain spear</a>,&nbsp;<a href=\"https://www.d20pfsrd.com/equipment/weapons/weapon-descriptions/flail-dire\">dire flail</a>,&nbsp;<a href=\"https://www.d20pfsrd.com/equipment/weapons/weapon-descriptions/kama-double-chained\">double chained kama</a>, dwarven dorn-dergar,&nbsp;<a href=\"https://www.d20pfsrd.com/equipment/weapons/weapon-descriptions/flail\">flail</a>,&nbsp;<a href=\"https://www.d20pfsrd.com/equipment/weapons/weapon-descriptions/spear-chain-flying-talon\">flying talon</a>, gnome pincher, halfling rope-shot,&nbsp;<a href=\"https://www.d20pfsrd.com/equipment/weapons/weapon-descriptions/flail-heavy\">heavy flail</a>,&nbsp;<a href=\"https://www.d20pfsrd.com/equipment/weapons/weapon-descriptions/kusarigama\">kusarigama</a>,&nbsp;<a href=\"https://www.d20pfsrd.com/equipment/weapons/weapon-descriptions/kyoketsu-shoge\">kyoketsu shoge</a>,&nbsp;<a href=\"https://www.d20pfsrd.com/equipment/weapons/weapon-descriptions/meteor-hammer\">meteor hammer</a>,&nbsp;<a href=\"https://www.d20pfsrd.com/equipment/weapons/weapon-descriptions/morningstar\">morningstar</a>,&nbsp;<a href=\"https://www.d20pfsrd.com/equipment/weapons/weapon-descriptions/whip-nine-section\">nine-section whip</a>,&nbsp;<a href=\"https://www.d20pfsrd.com/equipment/weapons/weapon-descriptions/nunchaku\">nunchaku</a>,&nbsp;<a href=\"https://www.d20pfsrd.com/equipment/weapons/weapon-descriptions/sansetsukon-three-section-staff\">sansetsukon</a>,&nbsp;<a href=\"https://www.d20pfsrd.com/bestiary/monster-listings/vermin/scorpion\">scorpion</a>&nbsp;<a href=\"https://www.d20pfsrd.com/equipment/weapons/weapon-descriptions/whip\">whip</a>,&nbsp;<a href=\"https://www.d20pfsrd.com/equipment/weapons/weapon-descriptions/chain-spiked\">spiked chain</a>,&nbsp;<a href=\"https://www.d20pfsrd.com/equipment/weapons/weapon-descriptions/urumi\">urumi</a>, and&nbsp;<a href=\"https://www.d20pfsrd.com/equipment/weapons/weapon-descriptions/whip\">whip</a>.</p>\n<p><strong>Hammers</strong>:&nbsp;<a href=\"https://www.d20pfsrd.com/equipment/weapons/weapon-descriptions/aklys\">aklys</a>,&nbsp;<a href=\"https://www.d20pfsrd.com/equipment/weapons/weapon-descriptions/battle-aspergillum\">battle aspergillum</a>, chain-hammer,&nbsp;<a href=\"https://www.d20pfsrd.com/equipment/weapons/weapon-descriptions/club\">club</a>, earth breaker, gnome piston maul,&nbsp;<a href=\"https://www.d20pfsrd.com/equipment/weapons/weapon-descriptions/club-great\">greatclub</a>,&nbsp;<a href=\"https://www.d20pfsrd.com/equipment/weapons/weapon-descriptions/mace-heavy\">heavy mace</a>, lantern staff,&nbsp;<a href=\"https://www.d20pfsrd.com/equipment/weapons/weapon-descriptions/hammer-light\">light hammer</a>,&nbsp;<a href=\"https://www.d20pfsrd.com/equipment/weapons/weapon-descriptions/mace-light\">light mace</a>,&nbsp;<a href=\"https://www.d20pfsrd.com/equipment/weapons/weapon-descriptions/mere-club\">mere club</a>, planson,&nbsp;ram hammer, dwarven,&nbsp;sphinx hammer, dwarven,&nbsp;<a href=\"https://www.d20pfsrd.com/equipment/weapons/weapon-descriptions/taiaha\">taiaha</a>,&nbsp;<a href=\"https://www.d20pfsrd.com/equipment/weapons/weapon-descriptions/tetsubo\">tetsubo</a>,&nbsp;<a href=\"https://www.d20pfsrd.com/equipment/weapons/weapon-descriptions/wahaika\">wahaika</a>, and&nbsp;<a href=\"https://www.d20pfsrd.com/equipment/weapons/weapon-descriptions/warhammer\">warhammer</a>.</p>\n<p><strong>Monk</strong>:&nbsp;<a href=\"https://www.d20pfsrd.com/equipment/weapons/weapon-descriptions/staff-bo\">bo staff</a>,&nbsp;<a href=\"https://www.d20pfsrd.com/equipment/weapons/weapon-descriptions/brass-knuckles\">brass knuckles</a>,&nbsp;<a href=\"https://www.d20pfsrd.com/equipment/weapons/weapon-descriptions/butterfly-sword\">butterfly sword</a>,&nbsp;<a href=\"https://www.d20pfsrd.com/equipment/weapons/weapon-descriptions/cestus\">cestus</a>,&nbsp;<a href=\"https://www.d20pfsrd.com/equipment/weapons/weapon-descriptions/dan-bong\">dan bong</a>, deer horn knife,&nbsp;<a href=\"https://www.d20pfsrd.com/equipment/weapons/weapon-descriptions/kama-double-chained\">double chained kama</a>,&nbsp;<a href=\"https://www.d20pfsrd.com/equipment/weapons/weapon-descriptions/double-chicken-saber\">double chicken saber</a>,&nbsp;<a href=\"https://www.d20pfsrd.com/equipment/weapons/weapon-descriptions/emei-piercer\">emei piercer</a>,&nbsp;<a href=\"https://www.d20pfsrd.com/equipment/weapons/weapon-descriptions/fighting-fan\">fighting fan</a>,&nbsp;<a href=\"https://www.d20pfsrd.com/equipment/weapons/weapon-descriptions/hanbo\">hanbo</a>,&nbsp;<a href=\"https://www.d20pfsrd.com/equipment/weapons/weapon-descriptions/jutte\">jutte</a>,&nbsp;<a href=\"https://www.d20pfsrd.com/equipment/weapons/weapon-descriptions/kama\">kama</a>,&nbsp;<a href=\"https://www.d20pfsrd.com/equipment/weapons/weapon-descriptions/kusarigama\">kusarigama</a>,&nbsp;<a href=\"https://www.d20pfsrd.com/equipment/weapons/weapon-descriptions/kyoketsu-shoge\">kyoketsu shoge</a>, lungshuan tamo,&nbsp;<a href=\"https://www.d20pfsrd.com/equipment/weapons/weapon-descriptions/monk-s-spade\">monk’s spade</a>,&nbsp;<a href=\"https://www.d20pfsrd.com/equipment/weapons/weapon-descriptions/broadsword-nine-ring\">nine-ring broadsword</a>,&nbsp;<a href=\"https://www.d20pfsrd.com/equipment/weapons/weapon-descriptions/whip-nine-section\">nine-section whip</a>,&nbsp;<a href=\"https://www.d20pfsrd.com/equipment/weapons/weapon-descriptions/nunchaku\">nunchaku</a>,&nbsp;<a href=\"https://www.d20pfsrd.com/equipment/weapons/weapon-descriptions/quarterstaff\">quarterstaff</a>,&nbsp;<a href=\"https://www.d20pfsrd.com/equipment/weapons/weapon-descriptions/rope-dart\">rope dart</a>,&nbsp;<a href=\"https://www.d20pfsrd.com/equipment/weapons/weapon-descriptions/sai\">sai</a>, sanpkhang,&nbsp;<a href=\"https://www.d20pfsrd.com/equipment/weapons/weapon-descriptions/sansetsukon-three-section-staff\">sansetsukon</a>,&nbsp;<a href=\"https://www.d20pfsrd.com/equipment/weapons/weapon-descriptions/sword-seven-branched\">seven-branched sword</a>,&nbsp;<a href=\"https://www.d20pfsrd.com/equipment/weapons/weapon-descriptions/shang-gou\">shang gou</a>,&nbsp;<a href=\"https://www.d20pfsrd.com/equipment/weapons/weapon-descriptions/ammunition/ammunition-thrown-shuriken\">shuriken</a>,&nbsp;<a href=\"https://www.d20pfsrd.com/equipment/weapons/weapon-descriptions/siangham\">siangham</a>,&nbsp;<a href=\"https://www.d20pfsrd.com/equipment/weapons/weapon-descriptions/sword-temple\">temple sword</a>,&nbsp;<a href=\"https://www.d20pfsrd.com/equipment/weapons/weapon-descriptions/tiger-fork\">tiger fork</a>,&nbsp;<a href=\"https://www.d20pfsrd.com/equipment/weapons/weapon-descriptions/tonfa\">tonfa</a>,&nbsp;<a href=\"https://www.d20pfsrd.com/equipment/weapons/weapon-descriptions/traveling-kettle-monk-group/\">traveling kettle</a>,&nbsp;<a href=\"https://www.d20pfsrd.com/equipment/weapons/weapon-descriptions/sword-tri-point-double-edged\">tri-point double-edged sword</a>,&nbsp;<a href=\"https://www.d20pfsrd.com/equipment/weapons/weapon-descriptions/strike-unarmed\">unarmed strike</a>,&nbsp;<a href=\"https://www.d20pfsrd.com/equipment/weapons/weapon-descriptions/urumi\">urumi</a>, and&nbsp;<a href=\"https://www.d20pfsrd.com/equipment/weapons/weapon-descriptions/dart-wushu\">wushu dart</a>.</p>\n<p><strong>Natural</strong>:&nbsp;<a href=\"https://www.d20pfsrd.com/equipment/weapons/weapon-descriptions/strike-unarmed\">unarmed strike</a>&nbsp;and all&nbsp;<a href=\"https://www.d20pfsrd.com/bestiary/rules-for-monsters/universal-monster-rules#TOC-Natural-Attacks\">natural weapons</a>, such as bite, claw, gore, tail, and wing.</p>\n<p><strong>Polearms</strong>:&nbsp;<a href=\"https://www.d20pfsrd.com/equipment/weapons/weapon-descriptions/bardiche\">bardiche</a>,&nbsp;<a href=\"https://www.d20pfsrd.com/equipment/weapons/weapon-descriptions/bec-de-corbin\">bec de corbin</a>,&nbsp;<a href=\"https://www.d20pfsrd.com/equipment/weapons/weapon-descriptions/bill\">bill</a>, boarding gaff, crook,&nbsp;<a href=\"https://www.d20pfsrd.com/equipment/weapons/weapon-descriptions/fauchard\">fauchard</a>, giant-sticker, dwarven,&nbsp;<a href=\"https://www.d20pfsrd.com/equipment/weapons/weapon-descriptions/glaive\">glaive</a>,&nbsp;<a href=\"https://www.d20pfsrd.com/equipment/weapons/weapon-descriptions/glaive-guisarme\">glaive-guisarme</a>, gnome ripsaw glaive,&nbsp;<a href=\"https://www.d20pfsrd.com/equipment/weapons/weapon-descriptions/guisarme\">guisarme</a>,&nbsp;<a href=\"https://www.d20pfsrd.com/equipment/weapons/weapon-descriptions/halberd\">halberd</a>,&nbsp;<a href=\"https://www.d20pfsrd.com/equipment/weapons/weapon-descriptions/lance-hooked\">hooked lance</a>,&nbsp;horsechopper,&nbsp;<a href=\"https://www.d20pfsrd.com/equipment/weapons/weapon-descriptions/hammer-lucerne\">lucerne hammer</a>,&nbsp;<a href=\"https://www.d20pfsrd.com/equipment/weapons/weapon-descriptions/mancatcher\">mancatcher</a>,&nbsp;<a href=\"https://www.d20pfsrd.com/equipment/weapons/weapon-descriptions/monk-s-spade\">monk’s spade</a>,&nbsp;<a href=\"https://www.d20pfsrd.com/equipment/weapons/weapon-descriptions/naginata\">naginata</a>,&nbsp;<a href=\"https://www.d20pfsrd.com/equipment/weapons/weapon-descriptions/nodachi\">nodachi</a>,&nbsp;ogre hook,&nbsp;<a href=\"https://www.d20pfsrd.com/equipment/weapons/weapon-descriptions/ranseur\">ranseur</a>,&nbsp;<a href=\"https://www.d20pfsrd.com/equipment/weapons/weapon-descriptions/rhomphaia\">rhomphaia</a>,&nbsp;<a href=\"https://www.d20pfsrd.com/equipment/weapons/weapon-descriptions/tepoztopilli\">tepoztopilli</a>, and&nbsp;<a href=\"https://www.d20pfsrd.com/equipment/weapons/weapon-descriptions/tiger-fork\">tiger fork</a>.</p>\n<p><strong>Siege engines</strong>: Ballista, bombard, catapult, corvus, firedrake, firewyrm, gallery, ram, siege tower, springal, trebuchet, and all other siege engines.</p>\n<p><strong>Spears</strong>:&nbsp;<a href=\"https://www.d20pfsrd.com/equipment/weapons/weapon-descriptions/amentum\">amentum</a>,&nbsp;<a href=\"https://www.d20pfsrd.com/equipment/weapons/weapon-descriptions/spear-boar\">boar spear</a>,&nbsp;<a href=\"https://www.d20pfsrd.com/equipment/weapons/weapon-descriptions/chain-spear\">chain spear</a>,&nbsp;<a href=\"https://www.d20pfsrd.com/equipment/weapons/weapon-descriptions/double-spear-spears-group/\">double spear</a>, elven branched spear,&nbsp;<a href=\"https://www.d20pfsrd.com/equipment/weapons/weapon-descriptions/harpoon\">harpoon</a>,&nbsp;<a href=\"https://www.d20pfsrd.com/equipment/weapons/weapon-descriptions/javelin\">javelin</a>,&nbsp;<a href=\"https://www.d20pfsrd.com/equipment/weapons/weapon-descriptions/lance\">lance</a>,&nbsp;<a href=\"https://www.d20pfsrd.com/equipment/weapons/weapon-descriptions/longspear\">longspear</a>, orc skull ram,&nbsp;<a href=\"https://www.d20pfsrd.com/equipment/weapons/weapon-descriptions/pilum\">pilum</a>, planson,&nbsp;<a href=\"https://www.d20pfsrd.com/equipment/weapons/weapon-descriptions/shortspear\">shortspear</a>,&nbsp;<a href=\"https://www.d20pfsrd.com/equipment/weapons/weapon-descriptions/sibat\">sibat</a>,&nbsp;<a href=\"https://www.d20pfsrd.com/equipment/weapons/weapon-descriptions/spear\">spear</a>, stormshaft javelin,&nbsp;<a href=\"https://www.d20pfsrd.com/equipment/weapons/weapon-descriptions/tiger-fork\">tiger fork</a>,&nbsp;<a href=\"https://www.d20pfsrd.com/equipment/weapons/weapon-descriptions/trident\">trident</a>, and weighted spear.</p>\n<p><strong>Thrown</strong>:&nbsp;<a href=\"https://www.d20pfsrd.com/equipment/weapons/weapon-descriptions/aklys\">aklys</a>,&nbsp;<a href=\"https://www.d20pfsrd.com/equipment/weapons/weapon-descriptions/amentum\">amentum</a>,&nbsp;<a href=\"https://www.d20pfsrd.com/equipment/weapons/weapon-descriptions/atlatl\">atlatl</a>,&nbsp;<a href=\"https://www.d20pfsrd.com/equipment/weapons/weapon-descriptions/blowgun\">blowgun</a>,&nbsp;<a href=\"https://www.d20pfsrd.com/equipment/weapons/weapon-descriptions/bolas\">bolas</a>,&nbsp;<a href=\"https://www.d20pfsrd.com/equipment/weapons/weapon-descriptions/boomerang\">boomerang</a>,&nbsp;<a href=\"https://www.d20pfsrd.com/equipment/weapons/weapon-descriptions/brutal-bolas\">brutal bolas</a>, chain-hammer,&nbsp;<a href=\"https://www.d20pfsrd.com/equipment/weapons/weapon-descriptions/chakram-crystal\">chakram</a>,&nbsp;<a href=\"https://www.d20pfsrd.com/equipment/weapons/weapon-descriptions/club\">club</a>,&nbsp;<a href=\"https://www.d20pfsrd.com/equipment/weapons/weapon-descriptions/dagger\">dagger</a>,&nbsp;<a href=\"https://www.d20pfsrd.com/equipment/weapons/weapon-descriptions/ammunition/ammunition-thrown-darts\">dart</a>, deer horn knife, dueling dagger,&nbsp;<a href=\"https://www.d20pfsrd.com/equipment/weapons/weapon-descriptions/flask-thrower\">flask thrower</a>,&nbsp;<a href=\"https://www.d20pfsrd.com/equipment/weapons/weapon-descriptions/sling-staff-halfling\">halfling sling staff</a>,&nbsp;<a href=\"https://www.d20pfsrd.com/equipment/weapons/weapon-descriptions/harpoon\">harpoon</a>,&nbsp;<a href=\"https://www.d20pfsrd.com/equipment/weapons/weapon-descriptions/hunga-munga\">hunga munga</a>,&nbsp;<a href=\"https://www.d20pfsrd.com/equipment/weapons/weapon-descriptions/javelin\">javelin</a>,&nbsp;<a href=\"https://www.d20pfsrd.com/equipment/weapons/weapon-descriptions/kestros\">kestros</a>,&nbsp;<a href=\"https://www.d20pfsrd.com/equipment/weapons/weapon-descriptions/lasso\">lasso</a>, light hammer,&nbsp;<a href=\"https://www.d20pfsrd.com/equipment/weapons/weapon-descriptions/net\">net</a>,&nbsp;<a href=\"https://www.d20pfsrd.com/equipment/weapons/weapon-descriptions/pilum\">pilum</a>,&nbsp;<a href=\"https://www.d20pfsrd.com/equipment/weapons/weapon-descriptions/poisoned-sand-tube\">poisoned sand tube</a>,&nbsp;ram hammer, dwarven,&nbsp;<a href=\"https://www.d20pfsrd.com/equipment/weapons/weapon-descriptions/rope-dart\">rope dart</a>,&nbsp;<a href=\"https://www.d20pfsrd.com/equipment/weapons/weapon-descriptions/shortspear\">shortspear</a>,&nbsp;<a href=\"https://www.d20pfsrd.com/equipment/weapons/weapon-descriptions/ammunition/ammunition-thrown-shuriken\">shuriken</a>,&nbsp;<a href=\"https://www.d20pfsrd.com/equipment/weapons/weapon-descriptions/sibat\">sibat</a>,&nbsp;<a href=\"https://www.d20pfsrd.com/equipment/weapons/weapon-descriptions/sling\">sling</a>,&nbsp;<a href=\"https://www.d20pfsrd.com/equipment/weapons/weapon-descriptions/sling-glove\">sling glove</a>,&nbsp;snag net,&nbsp;<a href=\"https://www.d20pfsrd.com/equipment/weapons/weapon-descriptions/spear\">spear</a>,&nbsp;sphinx hammer, dwarven,&nbsp;<a href=\"https://www.d20pfsrd.com/equipment/weapons/weapon-descriptions/starknife\">starknife</a>, stormshaft javelin,&nbsp;<a href=\"https://www.d20pfsrd.com/equipment/weapons/weapon-descriptions/axe-throwing\">throwing axe</a>, throwing shield,&nbsp;<a href=\"https://www.d20pfsrd.com/equipment/weapons/weapon-descriptions/trident\">trident</a>, and&nbsp;<a href=\"https://www.d20pfsrd.com/equipment/weapons/weapon-descriptions/dart-wushu\">wushu dart</a>.</p>\n<p><strong>Tribal</strong>:&nbsp;<a href=\"https://www.d20pfsrd.com/equipment/weapons/weapon-descriptions/club\">Club</a>,&nbsp;<a href=\"https://www.d20pfsrd.com/equipment/weapons/weapon-descriptions/dagger\">dagger</a>,&nbsp;<a href=\"https://www.d20pfsrd.com/equipment/weapons/weapon-descriptions/club-great\">greatclub</a>,&nbsp;<a href=\"https://www.d20pfsrd.com/equipment/weapons/weapon-descriptions/handaxe\">handaxe</a>,&nbsp;<a href=\"https://www.d20pfsrd.com/equipment/weapons/weapon-descriptions/handaxe\">heavy shield</a>,&nbsp;<a href=\"https://www.d20pfsrd.com/equipment/armor/shield-light-wooden-or-steel\">light shield</a>,&nbsp;<a href=\"https://www.d20pfsrd.com/equipment/weapons/weapon-descriptions/shortspear\">shortspear</a>,&nbsp;<a href=\"https://www.d20pfsrd.com/equipment/weapons/weapon-descriptions/spear\">spear</a>,&nbsp;<a href=\"https://www.d20pfsrd.com/equipment/weapons/weapon-descriptions/axe-throwing\">throwing axe</a>, and&nbsp;<a href=\"https://www.d20pfsrd.com/equipment/weapons/weapon-descriptions/strike-unarmed\">unarmed strike</a>.</p>\n<p>&nbsp;</p>\n<h2>Armor Mastery (Ex)</h2>\n<p>At 19th level, a fighter gains&nbsp;<a href=\"https://www.d20pfsrd.com/gamemastering/special-abilities#TOC-Damage-Reduction\">damage reduction</a>&nbsp;5/— whenever he is wearing armor or using a shield.</p>\n<p>&nbsp;</p>\n<h2>Weapon Mastery (Ex)</h2>\n<p>At 20th level, a fighter chooses one weapon, such as the longsword, greataxe, or longbow. Any attacks made with that weapon automatically confirm all critical threats and have their damage multiplier increased by 1 (×2 becomes ×3, for example). In addition, he cannot be disarmed while wielding a weapon of this type.</p>\n<p>&nbsp;</p>\n<h2>Advanced Armor Training</h2>\n<p>Highly skilled and tenacious fighters can gain advanced armor training, learning techniques and applications of the armor training class feature that give them special benefits in exchange for reducing their ability to mitigate their armor’s armor check penalty and improve its maximum&nbsp;<a href=\"https://www.d20pfsrd.com/basics-ability-scores/ability-scores#TOC-Dexterity-Dex-\">Dexterity</a>&nbsp;bonus.</p>\n<p>Advanced armor training options function only when the fighter is wearing appropriate armor or using a shield, unless otherwise noted. A fighter with an archetype that replaces armor training cannot select advanced armor training options.</p>\n<div>\n<p><strong>Adaptable Training (Ex)</strong>: The fighter can use his&nbsp;<a href=\"https://www.d20pfsrd.com/gamemastering/combat#TOC-Attack-Bonus\">base attack bonus</a>&nbsp;in place of his ranks in one skill of his choice from the following list:&nbsp;<a href=\"https://www.d20pfsrd.com/skills/acrobatics\">Acrobatics</a>,&nbsp;<a href=\"https://www.d20pfsrd.com/skills/climb\">Climb</a>,&nbsp;<a href=\"https://www.d20pfsrd.com/skills/disguise\">Disguise</a>,&nbsp;<a href=\"https://www.d20pfsrd.com/skills/escape-artist\">Escape Artist</a>,&nbsp;<a href=\"https://www.d20pfsrd.com/skills/intimidate\">Intimidate</a>,&nbsp;<a href=\"https://www.d20pfsrd.com/skills/knowledge\">Knowledge</a>&nbsp;(engineering),&nbsp;<a href=\"https://www.d20pfsrd.com/skills/profession\">Profession</a>&nbsp;(soldier),&nbsp;<a href=\"https://www.d20pfsrd.com/skills/ride\">Ride</a>, or&nbsp;<a href=\"https://www.d20pfsrd.com/skills/swim\">Swim</a>. The fighter need not be wearing armor or using a shield to use this option. When using adaptable training, the fighter substitutes his total&nbsp;<a href=\"https://www.d20pfsrd.com/gamemastering/combat#TOC-Attack-Bonus\">base attack bonus</a>&nbsp;(including his&nbsp;<a href=\"https://www.d20pfsrd.com/gamemastering/combat#TOC-Attack-Bonus\">base attack bonus</a>&nbsp;gained through levels in other classes) for his ranks in this skill, but adds the skill’s usual ability score modifier and any other bonuses or penalties that would modify that skill. Once a skill has been selected, it cannot be changed and the fighter can immediately retrain all of his ranks in the selected skill at no additional cost in money or time. In addition, the fighter adds all skills chosen with this option to his list of class skills. A fighter can choose this option up to four times.</p>\n<p><strong>Armor Specialization (Ex)</strong>: The fighter selects one specific type of armor with which he is proficient, such as chain shirts or scale mail. While wearing the selected type of&nbsp;<a href=\"https://www.d20pfsrd.com/basics-ability-scores/glossary#TOC-Armor-Bonus\">armor</a>, the fighter adds one-quarter of his fighter level to the armor’s&nbsp;<a href=\"https://www.d20pfsrd.com/basics-ability-scores/glossary#TOC-Armor-Bonus\">armor bonus</a>, up to a maximum bonus of +3 for light&nbsp;<a href=\"https://www.d20pfsrd.com/basics-ability-scores/glossary#TOC-Armor-Bonus\">armor</a>, +4 for medium&nbsp;<a href=\"https://www.d20pfsrd.com/basics-ability-scores/glossary#TOC-Armor-Bonus\">armor</a>, or +5 for heavy armor. This increase to the&nbsp;<a href=\"https://www.d20pfsrd.com/basics-ability-scores/glossary#TOC-Armor-Bonus\">armor bonus</a>&nbsp;doesn’t increase the benefit that the fighter gains from feats, class abilities, or other effects that are determined by his armor’s base&nbsp;<a href=\"https://www.d20pfsrd.com/basics-ability-scores/glossary#TOC-Armor-Bonus\">armor bonus</a>, including other advanced armor training options. A fighter can choose this option multiple times. Each time he chooses it, he applies its benefit to a different type of armor.</p>\n<p><strong>Armored Confidence (Ex)</strong>: While wearing&nbsp;<a href=\"https://www.d20pfsrd.com/basics-ability-scores/glossary#TOC-Armor-Bonus\">armor</a>, the fighter gains a bonus on&nbsp;<a href=\"https://www.d20pfsrd.com/skills/intimidate\">Intimidate</a>&nbsp;checks based upon the type of armor he is wearing: +1 for light&nbsp;<a href=\"https://www.d20pfsrd.com/basics-ability-scores/glossary#TOC-Armor-Bonus\">armor</a>, +2 for medium&nbsp;<a href=\"https://www.d20pfsrd.com/basics-ability-scores/glossary#TOC-Armor-Bonus\">armor</a>, or +3 for heavy armor. This bonus increases by 1 at 7th level and every 4 fighter levels thereafter, to a maximum of +4 at 19th level. In addition, the fighter adds half his armored confidence bonus to the DC of&nbsp;<a href=\"https://www.d20pfsrd.com/skills/intimidate\">Intimidate</a>&nbsp;checks to demoralize him.</p>\n<p><strong>Armored Juggernaut (Ex)</strong>: When wearing heavy&nbsp;<a href=\"https://www.d20pfsrd.com/basics-ability-scores/glossary#TOC-Armor-Bonus\">armor</a>, the fighter gains&nbsp;<a href=\"https://www.d20pfsrd.com/bestiary/rules-for-monsters/universal-monster-rules#TOC-Damage-Reduction-Ex-or-Su-\">DR</a>&nbsp;1/—. At 7th level, the fighter gains&nbsp;<a href=\"https://www.d20pfsrd.com/bestiary/rules-for-monsters/universal-monster-rules#TOC-Damage-Reduction-Ex-or-Su-\">DR</a>&nbsp;1/— when wearing medium&nbsp;<a href=\"https://www.d20pfsrd.com/basics-ability-scores/glossary#TOC-Armor-Bonus\">armor</a>, and&nbsp;<a href=\"https://www.d20pfsrd.com/bestiary/rules-for-monsters/universal-monster-rules#TOC-Damage-Reduction-Ex-or-Su-\">DR</a>&nbsp;2/— when wearing heavy armor. At 11th level, the fighter gains&nbsp;<a href=\"https://www.d20pfsrd.com/bestiary/rules-for-monsters/universal-monster-rules#TOC-Damage-Reduction-Ex-or-Su-\">DR</a>&nbsp;1/— when wearing light&nbsp;<a href=\"https://www.d20pfsrd.com/basics-ability-scores/glossary#TOC-Armor-Bonus\">armor</a>,&nbsp;<a href=\"https://www.d20pfsrd.com/bestiary/rules-for-monsters/universal-monster-rules#TOC-Damage-Reduction-Ex-or-Su-\">DR</a>&nbsp;2/— when wearing medium&nbsp;<a href=\"https://www.d20pfsrd.com/basics-ability-scores/glossary#TOC-Armor-Bonus\">armor</a>, and&nbsp;<a href=\"https://www.d20pfsrd.com/bestiary/rules-for-monsters/universal-monster-rules#TOC-Damage-Reduction-Ex-or-Su-\">DR</a>&nbsp;3/— when wearing heavy armor. If the fighter is 19th level and has the armor mastery class feature, these&nbsp;<a href=\"https://www.d20pfsrd.com/bestiary/rules-for-monsters/universal-monster-rules#TOC-Damage-Reduction-Ex-or-Su-\">DR</a>&nbsp;values increase by 5. The&nbsp;<a href=\"https://www.d20pfsrd.com/bestiary/rules-for-monsters/universal-monster-rules#TOC-Damage-Reduction-Ex-or-Su-\">DR</a>&nbsp;from this ability stacks with that provided by&nbsp;<a href=\"https://www.d20pfsrd.com/equipment/special-materials#TOC-Adamantine\">adamantine</a>&nbsp;<a href=\"https://www.d20pfsrd.com/basics-ability-scores/glossary#TOC-Armor-Bonus\">armor</a>, but not with other forms of&nbsp;<a href=\"https://www.d20pfsrd.com/gamemastering/special-abilities#TOC-Damage-Reduction\">damage reduction</a>. This&nbsp;<a href=\"https://www.d20pfsrd.com/gamemastering/special-abilities#TOC-Damage-Reduction\">damage reduction</a>&nbsp;does not apply if the fighter is&nbsp;<a href=\"https://www.d20pfsrd.com/gamemastering/conditions#TOC-Helpless\">helpless</a>,&nbsp;<a href=\"https://www.d20pfsrd.com/gamemastering/conditions#TOC-Stunned\">stunned</a>, or&nbsp;<a href=\"https://www.d20pfsrd.com/gamemastering/conditions#TOC-Unconscious\">unconscious</a>.</p>\n<p>Armored Master: The fighter gains an&nbsp;<a href=\"https://www.d20pfsrd.com/feats/armor-mastery-feats/\">armor mastery</a>&nbsp;feat or a&nbsp;<a href=\"https://www.d20pfsrd.com/feats/shield-mastery-feats/\">shield mastery</a>&nbsp;feat as a bonus feat. He must meet all of the feat’s prerequisites.</p>\n<p><strong>Armored Sacrifice (Ex)</strong>: When damage would cause the fighter or an adjacent ally to be knocked&nbsp;<a href=\"https://www.d20pfsrd.com/gamemastering/conditions#TOC-Unconscious\">unconscious</a>&nbsp;or killed, the fighter can instead direct the damage to a suit of armor that he is wearing or a shield he is using as an&nbsp;<a href=\"https://www.d20pfsrd.com/gamemastering/combat#TOC-Immediate-Actions\">immediate action</a>. The original target takes no damage, but the armor or shield is treated as if it had only half its normal&nbsp;<a href=\"https://www.d20pfsrd.com/equipment/damaging-objects#TOC-Hardness\">hardness</a>. The fighter can use this option once per day, plus one additional time each day at 11th level and every 8 fighter levels thereafter, to a maximum of three times per day at 19th level.</p>\n<p><strong>Armored Sprint (Ex)</strong>: The fighter gains&nbsp;<a href=\"https://www.d20pfsrd.com/feats/general-feats/run\">Run</a>&nbsp;as a bonus feat. If the fighter is proficient with heavy&nbsp;<a href=\"https://www.d20pfsrd.com/basics-ability-scores/glossary#TOC-Armor-Bonus\">armor</a>, he treats heavy armor as if it were one category lighter for the purpose of determining how fast he can move while running in armor.</p>\n<p><strong>Critical Deflection (Ex)</strong>: While wearing armor or using a shield, the fighter gains a +2 bonus to his AC against&nbsp;<a href=\"https://www.d20pfsrd.com/gamemastering/combat#TOC-Attack-Roll\">attack rolls</a>&nbsp;made to confirm a&nbsp;<a href=\"https://www.d20pfsrd.com/gamemastering/combat#TOC-Critical-Hits\">critical hit</a>. This bonus increases by 1 at 7th level and every 4 fighter levels thereafter, to a maximum of +6 at 19th level.</p>\n<p><strong>Master Armorer (Ex)</strong>: The fighter can use his&nbsp;<a href=\"https://www.d20pfsrd.com/gamemastering/combat#TOC-Attack-Bonus\">base attack bonus</a>&nbsp;in place of his ranks in the&nbsp;<a href=\"https://www.d20pfsrd.com/skills/craft\">Craft</a>&nbsp;(armor) skill. The fighter need not be wearing armor or using a shield to use this option. The fighter substitutes his total&nbsp;<a href=\"https://www.d20pfsrd.com/gamemastering/combat#TOC-Attack-Bonus\">base attack bonus</a>&nbsp;(including his&nbsp;<a href=\"https://www.d20pfsrd.com/gamemastering/combat#TOC-Attack-Bonus\">base attack bonus</a>&nbsp;gained through levels in other classes) for his ranks in this skill, but adds the skill’s usual ability score modifier and any other bonuses or penalties that would modify that skill. Additionally the fighter is treated as having the&nbsp;<a href=\"https://www.d20pfsrd.com/feats/item-creation-feats/craft-magic-arms-and-armor-item-creation\">Craft Magic Arms and Armor</a>&nbsp;and&nbsp;<a href=\"https://www.d20pfsrd.com/feats/general-feats/master-craftsman\">Master Craftsman</a>&nbsp;feats, but only for the purpose of making magic armor. The fighter does not need to meet these feats’ prerequisites.</p>\n<p><strong>Quick Donning (Ex)</strong>: The fighter can don armor in a hurry without reducing its effectiveness, and remove it quickly when it becomes a hindrance. When the fighter dons or removes his armor or dons it hastily, the amount of time needed to do so is reduced, as noted on the table below. Other characters can still help the fighter don his armor as normal</p>\n<div>\n<table style=\"height: 68px;\" border=\"1\" cellpadding=\"5\">\n<thead>\n<tr style=\"background-color: #c2e0f4;\">\n<th style=\"height: 17px; width: 135px;\">Armor Type</th>\n<th style=\"height: 17px; width: 93px;\">Don</th>\n<th style=\"height: 17px; width: 112px;\">Don Hastily</th>\n<th style=\"height: 17px; width: 116px;\">Remove</th>\n</tr>\n</thead>\n<tbody>\n<tr style=\"height: 17px;\">\n<td style=\"height: 17px; width: 135px;\">Light armor</td>\n<td style=\"height: 17px; width: 93px;\">5 rounds</td>\n<td style=\"height: 17px; width: 112px;\">1 round</td>\n<td style=\"height: 17px; width: 116px;\">5 rounds</td>\n</tr>\n<tr style=\"height: 17px;\">\n<td style=\"height: 17px; width: 135px;\">Medium armor</td>\n<td style=\"height: 17px; width: 93px;\">1 minute</td>\n<td style=\"height: 17px; width: 112px;\">5 rounds</td>\n<td style=\"height: 17px; width: 116px;\">1 minute</td>\n</tr>\n<tr style=\"height: 17px;\">\n<td style=\"height: 17px; width: 135px;\">Heavy armor</td>\n<td style=\"height: 17px; width: 93px;\">2 minutes</td>\n<td style=\"height: 17px; width: 112px;\">1 minute</td>\n<td style=\"height: 17px; width: 116px;\">1d4 minutes</td>\n</tr>\n</tbody>\n</table>\n</div>\n<p>Additionally, when wearing hastily donned&nbsp;<a href=\"https://www.d20pfsrd.com/basics-ability-scores/glossary#TOC-Armor-Bonus\">armor</a>, the fighter can attempt a&nbsp;<a href=\"https://www.d20pfsrd.com/basics-ability-scores/ability-scores#TOC-Strength-Str-\">Strength</a>&nbsp;or&nbsp;<a href=\"https://www.d20pfsrd.com/basics-ability-scores/ability-scores#TOC-Dexterity-Dex-\">Dexterity</a>&nbsp;check as a&nbsp;<a href=\"https://www.d20pfsrd.com/gamemastering/combat#TOC-Full-Round-Actions\">full-round action</a>&nbsp;to remove the penalties associated with wearing hastily donned armor (DC = 10 + his armor’s unmodified&nbsp;<a href=\"https://www.d20pfsrd.com/basics-ability-scores/glossary#TOC-Armor-Bonus\">armor bonus</a>). If he succeeds at the check, he is treated as having properly donned his armor rather than having hastily donned it. The fighter can also remove his armor in the same amount of time that it takes him to don his armor hastily. He can even remove sections of armor to escape grapples and similar grasping hindrances. Whenever the fighter attempts a&nbsp;<a href=\"https://www.d20pfsrd.com/gamemastering/combat#TOC-Combat-Maneuvers\">combat maneuver</a>&nbsp;check, an&nbsp;<a href=\"https://www.d20pfsrd.com/skills/escape-artist\">Escape Artist</a>&nbsp;check, or a&nbsp;<a href=\"https://www.d20pfsrd.com/basics-ability-scores/ability-scores#TOC-Strength-Str-\">Strength</a>&nbsp;check to escape from an effect that reduces or restricts his ability to move or act, he can reduce the&nbsp;<a href=\"https://www.d20pfsrd.com/basics-ability-scores/glossary#TOC-Armor-Bonus\">armor bonus</a>&nbsp;of any armor that he is wearing by up to half his armor’s base&nbsp;<a href=\"https://www.d20pfsrd.com/basics-ability-scores/glossary#TOC-Armor-Bonus\">armor bonus</a>. If he does so, he gains a bonus on his check equal to the amount by which he reduced his armor’s&nbsp;<a href=\"https://www.d20pfsrd.com/basics-ability-scores/glossary#TOC-Armor-Bonus\">armor bonus</a>. Multiple uses of this ability cannot reduce the armor’s&nbsp;<a href=\"https://www.d20pfsrd.com/basics-ability-scores/glossary#TOC-Armor-Bonus\">armor bonus</a>&nbsp;below half its base&nbsp;<a href=\"https://www.d20pfsrd.com/basics-ability-scores/glossary#TOC-Armor-Bonus\">armor bonus</a>, and the reduction to the armor’s&nbsp;<a href=\"https://www.d20pfsrd.com/basics-ability-scores/glossary#TOC-Armor-Bonus\">armor bonus</a>&nbsp;lasts until the fighter recovers and dons the removed pieces of armor.</p>\n<p><strong>Steel Headbutt (Ex)</strong>: While wearing medium or heavy&nbsp;<a href=\"https://www.d20pfsrd.com/basics-ability-scores/glossary#TOC-Armor-Bonus\">armor</a>, a fighter can deliver a headbutt with his helm as part of a full attack action. This headbutt is in addition to his normal attacks, and is made using the fighter’s&nbsp;<a href=\"https://www.d20pfsrd.com/gamemastering/combat#TOC-Attack-Bonus\">base attack bonus</a>&nbsp;– 5. A helmet headbutt deals 1d3 points of damage if the fighter is wearing medium&nbsp;<a href=\"https://www.d20pfsrd.com/basics-ability-scores/glossary#TOC-Armor-Bonus\">armor</a>, or 1d4 points of damage if he is wearing heavy armor (1d2 and 1d3, respectively, for Small creatures), plus an amount of damage equal to 1/2 the fighter’s&nbsp;<a href=\"https://www.d20pfsrd.com/basics-ability-scores/ability-scores#TOC-Strength-Str-\">Strength</a>&nbsp;modifier. Treat this attack as a weapon attack made using the same special material (if any) as the armor. The armor’s&nbsp;<a href=\"https://www.d20pfsrd.com/basics-ability-scores/glossary#TOC-Enhancement-Bonus\">enhancement bonus</a>&nbsp;does not modify the headbutt attack, but the helm can be enchanted as a separate weapon.</p>\n<p><strong>Unmoving (Ex)</strong>: Select one&nbsp;<a href=\"https://www.d20pfsrd.com/gamemastering/combat#TOC-Combat-Maneuvers\">combat maneuver</a>&nbsp;(except&nbsp;<a href=\"https://www.d20pfsrd.com/gamemastering/combat#TOC-Sunder\">sunder</a>). Whether using his armor as leverage against a&nbsp;<a href=\"https://www.d20pfsrd.com/gamemastering/combat#TOC-Grapple\">grappling</a>&nbsp;foe or using its weight to help him stop a&nbsp;<a href=\"https://www.d20pfsrd.com/gamemastering/combat#TOC-Bull-Rush\">bull rush</a>, a fighter can use his armor to protect him from the chosen&nbsp;<a href=\"https://www.d20pfsrd.com/gamemastering/combat#TOC-Combat-Maneuvers\">combat maneuver</a>. While wearing armor or wielding a shield, the fighter gains a bonus to his&nbsp;<a href=\"https://www.d20pfsrd.com/gamemastering/combat#TOC-Combat-Maneuver-Defense\">CMD</a>&nbsp;against the chosen&nbsp;<a href=\"https://www.d20pfsrd.com/gamemastering/combat#TOC-Combat-Maneuvers\">combat maneuver</a>. The bonus is +1 if he’s wearing light&nbsp;<a href=\"https://www.d20pfsrd.com/basics-ability-scores/glossary#TOC-Armor-Bonus\">armor</a>, +2 if he’s wearing medium&nbsp;<a href=\"https://www.d20pfsrd.com/basics-ability-scores/glossary#TOC-Armor-Bonus\">armor</a>, and +3 if he’s wearing heavy armor. This bonus increases by 1 at 7th level and every 4 fighter levels thereafter, to a maximum at 19th level of +5 for light&nbsp;<a href=\"https://www.d20pfsrd.com/basics-ability-scores/glossary#TOC-Armor-Bonus\">armor</a>, +6 for medium&nbsp;<a href=\"https://www.d20pfsrd.com/basics-ability-scores/glossary#TOC-Armor-Bonus\">armor</a>, and +7 for heavy armor.&nbsp;<a href=\"https://www.d20pfsrd.com/equipment/special-materials#TOC-Mithral\">Mithral</a>&nbsp;armor provides a bonus 1 lower than normal for armor of its type</p>\n<p>&nbsp;</p>\n<h2>Advanced Weapon Training</h2>\n<p>Highly skilled and experienced fighters can gain advanced weapon training, learning techniques and applications of the weapon training class feature that give them special benefits in exchange for specializing in a smaller number of fighter weapon groups.</p>\n<p>Beginning at 9th level, instead of selecting an additional fighter weapon group, a fighter can choose an advanced weapon training option for one fighter weapon group that he previously selected with the weapon training class feature.</p>\n<p>The fighter’s weapon training bonus still increases for weapons from all fighter weapon groups he previously selected with weapon training. A fighter also adds this bonus to any combat maneuver checks made with weapons from this group. This bonus also applies to the fighter’s Combat Maneuver Defense when defending against disarm and sunder attempts made against weapons from this group.</p>\n<p>Some advance weapon training options can be selected only if the fighter meets the option’s prerequisites.</p>\n<p>Advanced weapon training options function only when the fighter is wielding a weapon from the associated group, unless otherwise noted, and use his weapon training bonus for the associated weapon group. Any bonuses on&nbsp;<a href=\"https://www.d20pfsrd.com/gamemastering/combat#TOC-Attack-Roll\">attack rolls</a>&nbsp;and damage rolls granted by advanced weapon training apply only on&nbsp;<a href=\"https://www.d20pfsrd.com/gamemastering/combat#TOC-Attack-Roll\">attack rolls</a>&nbsp;and damage rolls from weapons in the associated group. A fighter with an archetype that replaces weapon training cannot select advanced weapon training options.</p>\n<div>\n<p><strong>Abundant Tactics (Ex)</strong>&nbsp;The fighter adds his weapon training bonus to the number of times per day he can use a&nbsp;<a href=\"https://www.d20pfsrd.com/feats/combat-feats\">combat feat</a>&nbsp;he has that allows a limited number of daily uses, such as the&nbsp;<a href=\"https://www.d20pfsrd.com/feats/combat-feats/stunning-fist-combat\">Stunning Fist</a>&nbsp;feat.</p>\n<p><strong>Armed Bravery (Ex)</strong>&nbsp;The fighter applies his bonus from&nbsp;<a href=\"https://www.d20pfsrd.com/classes/core-classes/Fighter/#TOC-Bravery-Ex-\">bravery</a>&nbsp;to&nbsp;<a href=\"https://www.d20pfsrd.com/gamemastering/combat#TOC-Will\">Will</a>&nbsp;saving throws. In addition, the DC of&nbsp;<a href=\"https://www.d20pfsrd.com/skills/intimidate\">Intimidate</a>&nbsp;checks to demoralize him increases by an amount equal to twice his bonus from&nbsp;<a href=\"https://www.d20pfsrd.com/classes/core-classes/Fighter/#TOC-Bravery-Ex-\">bravery</a>. The fighter must have the&nbsp;<a href=\"https://www.d20pfsrd.com/classes/core-classes/Fighter/#TOC-Bravery-Ex-\">bravery</a>&nbsp;class feature in order to select this option.</p>\n<p><strong>Combat Competence (Ex)</strong>&nbsp;For any weapon in the associated weapon group with which the fighter is not proficient, the penalty on&nbsp;<a href=\"https://www.d20pfsrd.com/gamemastering/combat#TOC-Attack-Roll\">attack rolls</a>&nbsp;taken as a result of not being proficient is reduced by an amount equal to the fighter’s weapon training bonus with that weapon group. Once the penalty is reduced to 0, the fighter becomes proficient with such weapons.</p>\n<p><strong>Combat Maneuver Defense (Ex)</strong>&nbsp;When the fighter is wielding weapons from the associated weapon group, his weapon training bonus applies to his&nbsp;<a href=\"https://www.d20pfsrd.com/gamemastering/combat#TOC-Combat-Maneuver-Defense\">CMD</a>&nbsp;against all&nbsp;<a href=\"https://www.d20pfsrd.com/gamemastering/combat#TOC-Combat-Maneuvers\">combat maneuvers</a>&nbsp;attempted against him, instead of just against&nbsp;<a href=\"https://www.d20pfsrd.com/gamemastering/combat#TOC-Disarm\">disarm</a>&nbsp;and&nbsp;<a href=\"https://www.d20pfsrd.com/gamemastering/combat#TOC-Sunder\">sunder</a>&nbsp;<a href=\"https://www.d20pfsrd.com/gamemastering/combat#TOC-Combat-Maneuvers\">combat maneuvers</a>.</p>\n<p><strong>Dazzling Intimidation (Ex)</strong>&nbsp;The fighter applies his weapon training bonus to&nbsp;<a href=\"https://www.d20pfsrd.com/skills/intimidate\">Intimidate</a>&nbsp;checks and can attempt an&nbsp;<a href=\"https://www.d20pfsrd.com/skills/intimidate\">Intimidate</a>&nbsp;check to demoralize an opponent as a&nbsp;<a href=\"https://www.d20pfsrd.com/gamemastering/combat#TOC-Move-Actions\">move action</a>&nbsp;instead of a&nbsp;<a href=\"https://www.d20pfsrd.com/gamemastering/combat#TOC-Standard-Actions\">standard action</a>. If he has the&nbsp;<a href=\"https://www.d20pfsrd.com/feats/combat-feats/dazzling-display-combat\">Dazzling Display</a>&nbsp;feat, he can use it as a&nbsp;<a href=\"https://www.d20pfsrd.com/gamemastering/combat#TOC-Standard-Actions\">standard action</a>&nbsp;instead of a&nbsp;<a href=\"https://www.d20pfsrd.com/gamemastering/combat#TOC-Full-Round-Actions\">full-round action</a>.</p>\n<p><strong>Defensive Weapon Training (Ex)</strong>&nbsp;The fighter gains a +1&nbsp;<a href=\"https://www.d20pfsrd.com/basics-ability-scores/glossary#TOC-Shield-Bonus\">shield bonus</a>&nbsp;to his&nbsp;<a href=\"https://www.d20pfsrd.com/gamemastering/combat#TOC-Armor-Class\">Armor Class</a>. The fighter adds half his weapon’s&nbsp;<a href=\"https://www.d20pfsrd.com/basics-ability-scores/glossary#TOC-Enhancement-Bonus\">enhancement bonus</a>&nbsp;(if any) to this&nbsp;<a href=\"https://www.d20pfsrd.com/basics-ability-scores/glossary#TOC-Shield-Bonus\">shield bonus</a>. When his weapon training bonus for weapons from the associated fighter weapon group reaches +4, this&nbsp;<a href=\"https://www.d20pfsrd.com/basics-ability-scores/glossary#TOC-Shield-Bonus\">shield bonus</a>&nbsp;increases to +2. This&nbsp;<a href=\"https://www.d20pfsrd.com/basics-ability-scores/glossary#TOC-Shield-Bonus\">shield bonus</a>&nbsp;is lost if the fighter is immobilized or&nbsp;<a href=\"https://www.d20pfsrd.com/gamemastering/conditions#TOC-Helpless\">helpless</a>.</p>\n<p><strong>Effortless Dual-Wielding (Ex)</strong>&nbsp;The fighter treats all one-handed weapons that belong to the associated weapon group as though they were light weapons when determining his penalties on&nbsp;<a href=\"https://www.d20pfsrd.com/gamemastering/combat#TOC-Attack-Roll\">attack rolls</a>&nbsp;for fighting with two weapons.&nbsp;Source:&nbsp;<a href=\"http://amzn.to/2hydHHs\" target=\"_blank\" rel=\"nofollow noopener noreferrer\">Pathfinder Player Companion: Blood of the Beast</a></p>\n<p><strong>Fighter’s Finesse (Ex)</strong>&nbsp;The fighter gains the benefits of the&nbsp;<a href=\"https://www.d20pfsrd.com/feats/combat-feats/weapon-finesse-combat\">Weapon Finesse</a>&nbsp;feat with all melee weapons that belong to the associated fighter weapon group (even if they cannot normally be used with&nbsp;<a href=\"https://www.d20pfsrd.com/feats/combat-feats/weapon-finesse-combat\">Weapon Finesse</a>). The fighter must have the&nbsp;<a href=\"https://www.d20pfsrd.com/feats/combat-feats/weapon-finesse-combat\">Weapon Finesse</a>&nbsp;feat before choosing this option.</p>\n<p><strong>Fighter’s Reflexes (Ex)</strong>&nbsp;The fighter applies his weapon training bonus to&nbsp;<a href=\"https://www.d20pfsrd.com/gamemastering/combat#TOC-Reflex\">Reflex</a>&nbsp;saving throws. He loses this bonus when he is&nbsp;<a href=\"https://www.d20pfsrd.com/gamemastering/conditions#TOC-Flat-Footed\">flat-footed</a>&nbsp;or denied his&nbsp;<a href=\"https://www.d20pfsrd.com/basics-ability-scores/ability-scores#TOC-Dexterity-Dex-\">Dexterity</a>&nbsp;bonus to AC.</p>\n<p><strong>Fighter’s Tactics (Ex)</strong>&nbsp;All of the fighter’s allies are treated as if they had the same teamwork feats as the fighter for the purpose of determining whether the fighter receives a bonus from his teamwork feats. His allies do not receive any bonuses from these feats unless they actually have the feats themselves. The allies’ positioning and actions must still meet the prerequisites listed in the teamwork feat for the fighter to receive the listed bonus.</p>\n<p><strong>Focused Weapon (Ex)</strong>&nbsp;The fighter selects one weapon for which he has&nbsp;<a href=\"https://www.d20pfsrd.com/feats/combat-feats/weapon-focus-combat\">Weapon Focus</a>&nbsp;and that belongs to the associated fighter weapon group. The fighter can deal damage with this weapon based on the damage of the warpriest’s sacred weapon class feature, treating his fighter level as his warpriest level. The fighter must have&nbsp;<a href=\"https://www.d20pfsrd.com/feats/combat-feats/weapon-focus-combat\">Weapon Focus</a>&nbsp;with the selected weapon in order to choose this option.</p>\n<p><strong>Inspiring Confidence (Ex)</strong>&nbsp;A number of times per day equal to his highest weapon training bonus as a&nbsp;<a href=\"https://www.d20pfsrd.com/gamemastering/combat#TOC-Swift-Actions\">swift action</a>, the fighter can allow one ally within 30 feet to attempt a new saving throw against an ongoing&nbsp;<a href=\"https://www.d20pfsrd.com/gamemastering/special-abilities#TOC-Fear\">fear</a>&nbsp;effect that causes the ally to&nbsp;<a href=\"https://www.d20pfsrd.com/gamemastering/conditions#TOC-Cowering\">cower</a>&nbsp;or to become&nbsp;<a href=\"https://www.d20pfsrd.com/gamemastering/conditions#TOC-Frightened\">frightened</a>,&nbsp;<a href=\"https://www.d20pfsrd.com/gamemastering/conditions#TOC-Panicked\">panicked</a>, or&nbsp;<a href=\"https://www.d20pfsrd.com/gamemastering/conditions#TOC-Shaken\">shaken</a>. If the ally succeeds at the save, the effect ends. A fighter can use this option even when not wielding a weapon from the associated weapon group.</p>\n<p><strong>Item Mastery</strong>: The fighter gains an&nbsp;<a href=\"https://www.d20pfsrd.com/feats/item-mastery-feats\">item mastery feat</a>&nbsp;as a bonus feat, which functions with any magic weapon he wields, even if the magic weapon does not meet the feat’s normal requirements. He must meet all of the feat’s prerequisites.&nbsp;Source:&nbsp;<a href=\"https://www.amazon.com/gp/product/1601258380/ref=as_li_qf_sp_asin_il_tl?ie=UTF8&amp;tag=httpwwwd20pfs-20&amp;camp=1789&amp;creative=9325&amp;linkCode=as2&amp;creativeASIN=1601258380&amp;linkId=ee3470c7ae99ce605c107092f42710fa\" target=\"_blank\" rel=\"noopener noreferrer\">Pathfinder Player Companion: Magic Tactics Toolbox</a></p>\n<p><strong>Trained Grace (Ex)</strong>&nbsp;When the fighter uses&nbsp;<a href=\"https://www.d20pfsrd.com/feats/combat-feats/weapon-finesse-combat\">Weapon Finesse</a>&nbsp;to make a melee attack with a weapon, using his&nbsp;<a href=\"https://www.d20pfsrd.com/basics-ability-scores/ability-scores#TOC-Dexterity-Dex-\">Dexterity</a>&nbsp;modifier on&nbsp;<a href=\"https://www.d20pfsrd.com/gamemastering/combat#TOC-Attack-Roll\">attack rolls</a>&nbsp;and his&nbsp;<a href=\"https://www.d20pfsrd.com/basics-ability-scores/ability-scores#TOC-Strength-Str-\">Strength</a>&nbsp;modifier on damage rolls, he doubles his weapon training bonus on damage rolls. The fighter must have&nbsp;<a href=\"https://www.d20pfsrd.com/feats/combat-feats/weapon-finesse-combat\">Weapon Finesse</a>&nbsp;in order to choose this option.</p>\n<p><strong>Trained Initiative (Ex)</strong>&nbsp;As long as he is wielding a weapon from the associated weapon group or is able to draw such a weapon (even if he is not currently wielding it), the fighter applies his weapon training bonus to&nbsp;<a href=\"https://www.d20pfsrd.com/gamemastering/combat#TOC-Initiative\">initiative</a>&nbsp;checks. In addition, if he has the&nbsp;<a href=\"https://www.d20pfsrd.com/feats/combat-feats/quick-draw-combat\">Quick Draw</a>&nbsp;feat and has a weapon from the appropriate weapon group that isn’t hidden, he can draw that weapon as a&nbsp;<a href=\"https://www.d20pfsrd.com/gamemastering/combat#TOC-Free-Actions\">free action</a>&nbsp;as part of making an&nbsp;<a href=\"https://www.d20pfsrd.com/gamemastering/combat#TOC-Initiative\">initiative</a>&nbsp;check.</p>\n<p><strong>Trained Throw (Ex)</strong>&nbsp;When the fighter makes a ranged attack with a thrown weapon and applies his&nbsp;<a href=\"https://www.d20pfsrd.com/basics-ability-scores/ability-scores#TOC-Dexterity-Dex-\">Dexterity</a>&nbsp;modifier on&nbsp;<a href=\"https://www.d20pfsrd.com/gamemastering/combat#TOC-Attack-Roll\">attack rolls</a>&nbsp;and his&nbsp;<a href=\"https://www.d20pfsrd.com/basics-ability-scores/ability-scores#TOC-Strength-Str-\">Strength</a>&nbsp;modifier on damage rolls, he doubles his weapon training bonus on damage rolls. Unless he has the&nbsp;<a href=\"https://www.d20pfsrd.com/feats/combat-feats/throw-anything-combat\">Throw Anything</a>&nbsp;feat, the fighter can choose only the thrown fighter weapon group with this option. If he has&nbsp;<a href=\"https://www.d20pfsrd.com/feats/combat-feats/throw-anything-combat\">Throw Anything</a>, the fighter can choose any fighter weapon group with this option and apply this option’s benefits to any weapon from that group that he throws.</p>\n<p><strong>Versatile Training (Ex)</strong>&nbsp;The fighter can use his&nbsp;<a href=\"https://www.d20pfsrd.com/gamemastering/combat#TOC-Attack-Bonus\">base attack bonus</a>&nbsp;in place of his ranks in two skills of his choice that are associated with the fighter weapon group he has chosen with this option (see below). The fighter need not be wielding an associated weapon to use this option. When using versatile training, the fighter substitutes his total&nbsp;<a href=\"https://www.d20pfsrd.com/gamemastering/combat#TOC-Attack-Bonus\">base attack bonus</a>&nbsp;(including his&nbsp;<a href=\"https://www.d20pfsrd.com/gamemastering/combat#TOC-Attack-Bonus\">base attack bonus</a>&nbsp;gained through levels in other classes) for his ranks in these skills, but adds the skill’s usual ability score modifier and any other bonuses or penalties that would modify those skills. Once the skills have been selected, they cannot be changed and the fighter can immediately retrain all of his skill ranks in the selected skills at no additional cost in money or time. In addition, the fighter adds all skills chosen with this option to his list of class skills. A fighter can choose this option up to two times. The&nbsp;<a href=\"https://www.d20pfsrd.com/skills/bluff\">Bluff</a>&nbsp;and&nbsp;<a href=\"https://www.d20pfsrd.com/skills/intimidate\">Intimidate</a>&nbsp;skills are associated with all fighter weapon groups. The various fighter weapon groups also have the following associated skills: axes (<a href=\"https://www.d20pfsrd.com/skills/climb\">Climb</a>,&nbsp;<a href=\"https://www.d20pfsrd.com/skills/survival\">Survival</a>), bows (<a href=\"https://www.d20pfsrd.com/skills/knowledge\">Knowledge</a>&nbsp;[engineering],&nbsp;<a href=\"https://www.d20pfsrd.com/skills/perception\">Perception</a>), close (<a href=\"https://www.d20pfsrd.com/skills/sense-motive\">Sense Motive</a>,&nbsp;<a href=\"https://www.d20pfsrd.com/skills/stealth\">Stealth</a>), crossbows (<a href=\"https://www.d20pfsrd.com/skills/perception\">Perception</a>,&nbsp;<a href=\"https://www.d20pfsrd.com/skills/stealth\">Stealth</a>), double (<a href=\"https://www.d20pfsrd.com/skills/acrobatics\">Acrobatics</a>,&nbsp;<a href=\"https://www.d20pfsrd.com/skills/sense-motive\">Sense Motive</a>), firearms (<a href=\"https://www.d20pfsrd.com/skills/perception\">Perception</a>,&nbsp;<a href=\"https://www.d20pfsrd.com/skills/sleight-of-hand\">Sleight of Hand</a>), flails (<a href=\"https://www.d20pfsrd.com/skills/acrobatics\">Acrobatics</a>,&nbsp;<a href=\"https://www.d20pfsrd.com/skills/sleight-of-hand\">Sleight of Hand</a>), hammers (<a href=\"https://www.d20pfsrd.com/skills/diplomacy\">Diplomacy</a>,&nbsp;<a href=\"https://www.d20pfsrd.com/skills/ride\">Ride</a>), heavy blades (<a href=\"https://www.d20pfsrd.com/skills/diplomacy\">Diplomacy</a>,&nbsp;<a href=\"https://www.d20pfsrd.com/skills/ride\">Ride</a>), light blades (<a href=\"https://www.d20pfsrd.com/skills/diplomacy\">Diplomacy</a>,&nbsp;<a href=\"https://www.d20pfsrd.com/skills/sleight-of-hand\">Sleight of Hand</a>),&nbsp;<a href=\"https://www.d20pfsrd.com/classes/core-classes/monk\">monk</a>&nbsp;(<a href=\"https://www.d20pfsrd.com/skills/acrobatics\">Acrobatics</a>,&nbsp;<a href=\"https://www.d20pfsrd.com/skills/escape-artist\">Escape Artist</a>),&nbsp;<a href=\"https://www.d20pfsrd.com/basics-ability-scores/glossary#TOC-Natural-Armor-Bonus\">natural</a>&nbsp;(<a href=\"https://www.d20pfsrd.com/skills/climb\">Climb</a>,&nbsp;<a href=\"https://www.d20pfsrd.com/skills/fly\">Fly</a>,&nbsp;<a href=\"https://www.d20pfsrd.com/skills/swim\">Swim</a>), polearms (<a href=\"https://www.d20pfsrd.com/skills/diplomacy\">Diplomacy</a>,&nbsp;<a href=\"https://www.d20pfsrd.com/skills/sense-motive\">Sense Motive</a>), siege engines (<a href=\"https://www.d20pfsrd.com/skills/disable-device\">Disable Device</a>,&nbsp;<a href=\"https://www.d20pfsrd.com/skills/profession\">Profession</a>&nbsp;[driver]), spears (<a href=\"https://www.d20pfsrd.com/skills/handle-animal\">Handle Animal</a>,&nbsp;<a href=\"https://www.d20pfsrd.com/skills/ride\">Ride</a>), and thrown (<a href=\"https://www.d20pfsrd.com/skills/acrobatics\">Acrobatics</a>,&nbsp;<a href=\"https://www.d20pfsrd.com/skills/perception\">Perception</a>).</p>\n<p><strong>Warrior Spirit (Su)</strong>&nbsp;The fighter can forge a spiritual bond with a weapon that belongs to the associated weapon group, allowing him to unlock the weapon’s potential. Each day, he designates one such weapon and gains a number of points of spiritual energy equal to 1 + his weapon training bonus. While wielding this weapon, he can spend 1 point of spiritual energy to grant the weapon an&nbsp;<a href=\"https://www.d20pfsrd.com/basics-ability-scores/glossary#TOC-Enhancement-Bonus\">enhancement bonus</a>&nbsp;equal to his weapon training bonus. Enhancement bonuses gained by this advanced weapon training option stack with those of the weapon, to a maximum of +5. The fighter can also imbue the weapon with any one weapon special ability with an equivalent&nbsp;<a href=\"https://www.d20pfsrd.com/basics-ability-scores/glossary#TOC-Enhancement-Bonus\">enhancement bonus</a>&nbsp;less than or equal to his maximum bonus by reducing the granted&nbsp;<a href=\"https://www.d20pfsrd.com/basics-ability-scores/glossary#TOC-Enhancement-Bonus\">enhancement bonus</a>&nbsp;by the amount of the equivalent&nbsp;<a href=\"https://www.d20pfsrd.com/basics-ability-scores/glossary#TOC-Enhancement-Bonus\">enhancement bonus</a>. The item must have an&nbsp;<a href=\"https://www.d20pfsrd.com/basics-ability-scores/glossary#TOC-Enhancement-Bonus\">enhancement bonus</a>&nbsp;of at least +1 (from the item itself or from warrior spirit) to gain a weapon special ability. In either case, these bonuses last for 1 minute.&nbsp;Source:&nbsp;<a href=\"https://www.amazon.com/gp/product/1601258380/ref=as_li_qf_sp_asin_il_tl?ie=UTF8&amp;tag=httpwwwd20pfs-20&amp;camp=1789&amp;creative=9325&amp;linkCode=as2&amp;creativeASIN=1601258380&amp;linkId=ee3470c7ae99ce605c107092f42710fa\" target=\"_blank\" rel=\"noopener noreferrer\">Pathfinder Player Companion: Magic Tactics Toolbox</a></p>\n<p><strong>Weapon Mastery</strong>&nbsp;The fighter gains a&nbsp;<a href=\"https://www.d20pfsrd.com/feats/weapon-mastery-feats\">weapon mastery</a>&nbsp;feat as a bonus feat, even when not wielding a weapon from the appropriate weapon group. He must meet all of the feat’s prerequisites.</p>\n<p><strong>Weapon Sacrifice (Ex)</strong>&nbsp;When damage would cause the fighter or an adjacent ally to be knocked&nbsp;<a href=\"https://www.d20pfsrd.com/gamemastering/conditions#TOC-Unconscious\">unconscious</a>&nbsp;or killed, as a swift or&nbsp;<a href=\"https://www.d20pfsrd.com/gamemastering/combat#TOC-Immediate-Actions\">immediate action</a>&nbsp;the fighter can instead direct the damage to a weapon from the associated weapon group that he is wielding. The original target takes no damage, but the weapon receives only half its normal&nbsp;<a href=\"https://www.d20pfsrd.com/equipment/damaging-objects#TOC-Hardness\">hardness</a>. The fighter can use this option a number of times per day equal to the fighter’s weapon training bonus with the associated weapon group. He cannot use this option with unarmed attacks.</p>\n<p><strong>Weapon Specialist (Ex)</strong>&nbsp;The fighter selects a number of&nbsp;<a href=\"https://www.d20pfsrd.com/feats/combat-feats\">combat feats</a>&nbsp;that he knows equal to his weapon training bonus with the associated weapon group. The selected feats must be ones that require the fighter to choose a type of weapon (such as&nbsp;<a href=\"https://www.d20pfsrd.com/feats/combat-feats/weapon-focus-combat\">Weapon Focus</a>&nbsp;and&nbsp;<a href=\"https://www.d20pfsrd.com/feats/combat-feats/weapon-specialization-combat\">Weapon Specialization</a>), and the fighter must have chosen weapons that belong to the associated fighter weapon group. The fighter is treated as having the selected feats for all the weapons in the associated weapon group that are legal choices for those feats. The fighter is also considered to have those feats with these weapons for the purpose of meeting prerequisites.</p>\n</div>\n</div>\n</div>",
      "chat": "",
      "unidentified": ""
    },
    "damage": {
      "parts": [],
      "critParts": [],
      "nonCritParts": []
    },
    "preparation": {
      "maxAmount": 0
    },
    "weaponData": {
      "critRange": 20,
      "critMult": 2
    },
    "uses": {
      "value": 0,
      "max": 0
    },
    "attackParts": [],
    "conditionals": [],
    "contextNotes": [],
    "identifiedName": "Fighter"
  },
  "flags": {},
  "img": "systems/pf1/icons/skills/yellow_37.jpg",
  "effects": []
}