{
  "_id": "jOUMbWoFZHQlAMpJ",
  "name": "Gunslinger",
  "permission": {
    "default": 0
  },
  "type": "class",
  "data": {
    "description": {
      "value": "<p>For a renegade few, battle sounds different than it does for the typical fighter. The clash of steel and the sizzle of spell energy are drowned out by the thunderous rhythm of gunfire—the pounding beat of the gunslinger.</p>\n<p>Gunslingers are a bold and mysterious lot. While many treat the secrets of black powder with the same care and reverence that a wizard typically reserves for his spellbook, most gunslingers know that firearms are a secret that cannot remain concealed forever. While current firearms are simple, often imprecise, and even dangerous devices, they are a technology on the move, and one that will become even more powerful when it is fully fused with magic.</p>\n<p><strong>Role</strong>: Gunslingers are thunderous artillery, often found where the fighting is fiercest. Brave, clever, and frequently foolhardy, many gunslingers push to position themselves at close range, barrels blazing, to take down their foes and demoralize their enemies. Other gunslingers are masters of distant death, picking off enemies from afar with their strange and wondrous weapons.</p>\n<p><strong>Alignment</strong>: Any.</p>\n<p><strong>Hit Die</strong>: d10.</p>\n<p><strong>Starting Wealth</strong>: 5d6 x 10 gp (average 175gp) In addition, each character begins play with an outfit worth 10 gp or less, and the gunslinger begins with her starting firearm.</p>\n<h2><span id=\"Class_Skills\">Class Skills</span></h2>\n<p>The gunslinger’s class skills are&nbsp;<a href=\"https://www.d20pfsrd.com/skills/acrobatics\">Acrobatics</a>&nbsp;(<a href=\"https://www.d20pfsrd.com/basics-ability-scores/ability-scores#TOC-Dexterity-Dex-\">Dex</a>),&nbsp;<a href=\"https://www.d20pfsrd.com/skills/bluff\">Bluff</a>&nbsp;(<a href=\"https://www.d20pfsrd.com/basics-ability-scores/ability-scores#TOC-Charisma-Cha-\">Cha</a>),&nbsp;<a href=\"https://www.d20pfsrd.com/skills/climb\">Climb</a>&nbsp;(<a href=\"https://www.d20pfsrd.com/basics-ability-scores/ability-scores#TOC-Strength-Str-\">Str</a>),&nbsp;<a href=\"https://www.d20pfsrd.com/skills/craft\">Craft</a>&nbsp;(<a href=\"https://www.d20pfsrd.com/basics-ability-scores/ability-scores#TOC-Intelligence-Int-\">Int</a>),&nbsp;<a href=\"https://www.d20pfsrd.com/skills/handle-animal\">Handle Animal</a>&nbsp;(<a href=\"https://www.d20pfsrd.com/basics-ability-scores/ability-scores#TOC-Charisma-Cha-\">Cha</a>),&nbsp;<a href=\"https://www.d20pfsrd.com/skills/heal\">Heal</a>&nbsp;(<a href=\"https://www.d20pfsrd.com/basics-ability-scores/ability-scores#TOC-Wisdom-Wis-\">Wis</a>),&nbsp;<a href=\"https://www.d20pfsrd.com/skills/intimidate\">Intimidate</a>&nbsp;(<a href=\"https://www.d20pfsrd.com/basics-ability-scores/ability-scores#TOC-Charisma-Cha-\">Cha</a>),&nbsp;<a href=\"https://www.d20pfsrd.com/skills/knowledge\">Knowledge</a>&nbsp;(engineering) (<a href=\"https://www.d20pfsrd.com/basics-ability-scores/ability-scores#TOC-Intelligence-Int-\">Int</a>),&nbsp;<a href=\"https://www.d20pfsrd.com/skills/knowledge\">Knowledge</a>&nbsp;(local) (<a href=\"https://www.d20pfsrd.com/basics-ability-scores/ability-scores#TOC-Intelligence-Int-\">Int</a>),&nbsp;<a href=\"https://www.d20pfsrd.com/skills/perception\">Perception</a>&nbsp;(<a href=\"https://www.d20pfsrd.com/basics-ability-scores/ability-scores#TOC-Wisdom-Wis-\">Wis</a>),&nbsp;<a href=\"https://www.d20pfsrd.com/skills/profession\">Profession</a>&nbsp;(<a href=\"https://www.d20pfsrd.com/basics-ability-scores/ability-scores#TOC-Wisdom-Wis-\">Wis</a>),&nbsp;<a href=\"https://www.d20pfsrd.com/skills/ride\">Ride</a>&nbsp;(<a href=\"https://www.d20pfsrd.com/basics-ability-scores/ability-scores#TOC-Dexterity-Dex-\">Dex</a>),&nbsp;<a href=\"https://www.d20pfsrd.com/skills/sleight-of-hand\">Sleight of Hand</a>&nbsp;(<a href=\"https://www.d20pfsrd.com/basics-ability-scores/ability-scores#TOC-Dexterity-Dex-\">Dex</a>),&nbsp;<a href=\"https://www.d20pfsrd.com/skills/survival\">Survival</a>&nbsp;(<a href=\"https://www.d20pfsrd.com/basics-ability-scores/ability-scores#TOC-Wisdom-Wis-\">Wis</a>), and&nbsp;<a href=\"https://www.d20pfsrd.com/skills/swim\">Swim</a>&nbsp;(<a href=\"https://www.d20pfsrd.com/basics-ability-scores/ability-scores#TOC-Strength-Str-\">Str</a>).</p>\n<p><strong>Skill Ranks per Level</strong>: 4 +&nbsp;<a href=\"https://www.d20pfsrd.com/basics-ability-scores/ability-scores#TOC-Intelligence-Int-\">Int</a>&nbsp;modifier.</p>",
      "chat": "",
      "unidentified": ""
    },
    "tags": [],
    "changes": [],
    "changeFlags": {
      "loseDexToAC": false,
      "noStr": false,
      "noDex": false,
      "oneInt": false,
      "oneWis": false,
      "oneCha": false,
      "noEncumbrance": false,
      "mediumArmorFullSpeed": false,
      "heavyArmorFullSpeed": false
    },
    "links": {
      "children": [],
      "classAssociations": [
        {
          "id": "pf1.class-abilities.KOfYE2fC3zYkrSPj",
          "dataType": "compendium",
          "name": "Deeds",
          "img": "systems/pf1/icons/skills/blood_11.jpg",
          "hiddenLinks": {},
          "level": 1,
          "_index": 0
        },
        {
          "id": "pf1.class-abilities.Rh4www7gtV7wvUzg",
          "dataType": "compendium",
          "name": "Grit",
          "img": "systems/pf1/icons/skills/weapon_36.jpg",
          "hiddenLinks": {},
          "level": 1,
          "_index": 1
        },
        {
          "id": "pf1.class-abilities.awBIJLvjcQIaPoCq",
          "dataType": "compendium",
          "name": "True Grit",
          "img": "systems/pf1/icons/skills/weapon_27.jpg",
          "hiddenLinks": {},
          "level": 20,
          "_index": 2
        },
        {
          "id": "pf1.class-abilities.QTEANZz5ALZQcSIR",
          "dataType": "compendium",
          "name": "Gunsmith",
          "img": "systems/pf1/icons/skills/weapon_35.jpg",
          "hiddenLinks": {},
          "level": 1,
          "_index": 3
        },
        {
          "id": "pf1.class-abilities.BTkYdjVLcQMfFsv9",
          "dataType": "compendium",
          "name": "Nimble",
          "img": "systems/pf1/icons/skills/armor_01.jpg",
          "hiddenLinks": {},
          "level": 2,
          "_index": 4
        },
        {
          "id": "pf1.class-abilities.c1DXh24tF5vQFLaI",
          "dataType": "compendium",
          "name": "Bonus Feats (GUN)",
          "img": "systems/pf1/icons/skills/weapon_44.jpg",
          "hiddenLinks": {},
          "level": 4,
          "_index": 5
        },
        {
          "id": "pf1.class-abilities.KeqW25zOjSQAl3n2",
          "dataType": "compendium",
          "name": "Gun Training",
          "img": "systems/pf1/icons/skills/weapon_37.jpg",
          "hiddenLinks": {},
          "level": 5,
          "_index": 6
        }
      ]
    },
    "tag": "gunslinger",
    "useCustomTag": true,
    "armorProf": {
      "value": [
        "lgt"
      ],
      "custom": ""
    },
    "weaponProf": {
      "value": [
        "sim",
        "mar"
      ],
      "custom": "Firearms"
    },
    "classType": "base",
    "levels": {
      "value": 0,
      "_deprecated": true
    },
    "level": 1,
    "hd": 10,
    "hp": 10,
    "bab": "high",
    "skillsPerLevel": 4,
    "savingThrows": {
      "fort": {
        "value": "high"
      },
      "ref": {
        "value": "high"
      },
      "will": {
        "value": "low"
      }
    },
    "fc": {
      "hp": {
        "value": 0
      },
      "skill": {
        "value": 0
      },
      "alt": {
        "value": 0
      }
    },
    "classSkills": {
      "acr": true,
      "apr": false,
      "art": false,
      "blf": true,
      "clm": true,
      "crf": true,
      "dip": false,
      "dev": false,
      "dis": false,
      "esc": false,
      "fly": false,
      "han": true,
      "hea": true,
      "int": true,
      "kar": false,
      "kdu": false,
      "ken": true,
      "kge": false,
      "khi": false,
      "klo": true,
      "kna": false,
      "kno": false,
      "kpl": false,
      "kre": false,
      "lin": false,
      "lor": false,
      "per": true,
      "prf": false,
      "pro": true,
      "rid": true,
      "sen": false,
      "slt": true,
      "spl": false,
      "ste": false,
      "sur": true,
      "swm": true,
      "umd": false
    },
    "extraDescription": {
      "value": "<h2>Weapon and Armor Proficiency</h2>\n<p>Gunslingers are proficient with all simple and martial weapons, and with all firearms. They are proficient with all light armor.</p>\n<h2>Gunsmith</h2>\n<p>At 1st level, a gunslinger gains one of the following firearms of her choice:&nbsp;<a href=\"https://www.d20pfsrd.com/equipment/weapons/firearms\">blunderbuss, musket, or pistol</a>. Her starting weapon is battered, and only she knows how to use it properly. All other creatures treat her gun as if it had the&nbsp;<a href=\"https://www.d20pfsrd.com/gamemastering/conditions#TOC-Broken\">broken</a>&nbsp;condition. If the weapon already has the&nbsp;<a href=\"https://www.d20pfsrd.com/gamemastering/conditions#TOC-Broken\">broken</a>&nbsp;condition, it does not work at all for anyone else trying to use it. This starting weapon can only be sold for scrap (it’s worth 4d10 gp when sold). The gunslinger also gains&nbsp;<a href=\"https://www.d20pfsrd.com/feats/general-feats/gunsmithing\">Gunsmithing</a>&nbsp;as a bonus feat.</p>\n<h2>Grit (Ex)</h2>\n<p>A gunslinger makes her mark upon the world with daring deeds. Some gunslingers claim they belong to a mystical way of the gun, but it’s more likely that the volatile nature of firearms simply prunes the unlucky and careless from their ranks. Whatever the reason, all gunslingers have grit. In game terms, grit is a fluctuating measure of a gunslinger’s ability to perform amazing actions in combat. At the start of each day, a gunslinger gains a number of grit points equal to her&nbsp;<a href=\"https://www.d20pfsrd.com/basics-ability-scores/ability-scores#TOC-Wisdom-Wis-\">Wisdom</a>&nbsp;modifier (minimum 1). Her grit goes up or down throughout the day, but usually cannot go higher than her&nbsp;<a href=\"https://www.d20pfsrd.com/basics-ability-scores/ability-scores#TOC-Wisdom-Wis-\">Wisdom</a>&nbsp;modifier (minimum 1), though some feats and magic items may affect this maximum. A gunslinger spends grit to accomplish deeds (see below), and regains grit in the following ways.</p>\n<p><strong>Critical Hit with a Firearm</strong>: Each time the gunslinger confirms a&nbsp;<a href=\"https://www.d20pfsrd.com/gamemastering/combat#TOC-Critical-Hits\">critical hit</a>&nbsp;with a firearm attack while in the heat of combat, she regains 1 grit point. Confirming a&nbsp;<a href=\"https://www.d20pfsrd.com/gamemastering/combat#TOC-Critical-Hits\">critical hit</a>&nbsp;on a&nbsp;<a href=\"https://www.d20pfsrd.com/gamemastering/conditions#TOC-Helpless\">helpless</a>&nbsp;or unaware creature or on a creature that has fewer&nbsp;<a href=\"https://www.d20pfsrd.com/basics-ability-scores/glossary#TOC-Hit-Dice-HD-\">Hit Dice</a>&nbsp;than half the gunslinger’s character level does not restore grit.</p>\n<p><strong>Killing Blow with a Firearm</strong>: When the gunslinger reduces a creature to 0 or fewer&nbsp;<a href=\"https://www.d20pfsrd.com/gamemastering/combat#TOC-Hit-Points\">hit points</a>&nbsp;with a firearm attack while in the heat of combat, she regains 1 grit point. Destroying an unattended object, reducing a&nbsp;<a href=\"https://www.d20pfsrd.com/gamemastering/conditions#TOC-Helpless\">helpless</a>&nbsp;or unaware creature to 0 or fewer&nbsp;<a href=\"https://www.d20pfsrd.com/gamemastering/combat#TOC-Hit-Points\">hit points</a>, or reducing a creature that has fewer&nbsp;<a href=\"https://www.d20pfsrd.com/basics-ability-scores/glossary#TOC-Hit-Dice-HD-\">Hit Dice</a>&nbsp;than half the gunslinger’s character level to 0 or fewer&nbsp;<a href=\"https://www.d20pfsrd.com/gamemastering/combat#TOC-Hit-Points\">hit points</a>&nbsp;does not restore any grit.</p>\n<h2>Deeds</h2>\n<p>Gunslingers spend grit points to accomplish deeds. Most deeds grant the gunslinger some momentary bonus or effect, but there are some that provide longer-lasting effects. Some deeds stay in effect as long as the gunslinger has at least 1 grit point. The following is the list of base gunslinger deeds. A gunslinger can only perform deeds of her level or lower. Unless otherwise noted, a deed can be performed multiple successive times, as long as the appropriate amount of grit is spent to perform the deed.</p>\n<div>\n<p><strong>Deadeye (Ex)</strong>: At 1st level, the gunslinger can resolve an attack against touch AC instead of normal AC when firing beyond her firearm’s first range increment. Performing this deed costs 1 grit point per range increment beyond the first. The gunslinger still takes the –2 penalty on&nbsp;<a href=\"https://www.d20pfsrd.com/gamemastering/combat#TOC-Attack-Roll\">attack rolls</a>&nbsp;for each range increment beyond the first when she performs this deed.</p>\n<p><strong>Gunslinger’s Dodge (Ex)</strong>: At 1st level, the gunslinger gains an uncanny knack for getting out of the way of ranged attacks. When a ranged attack is made against the gunslinger, she can spend 1 grit point to move 5 feet as an&nbsp;<a href=\"https://www.d20pfsrd.com/gamemastering/combat#TOC-Immediate-Actions\">immediate action</a>; doing so grants the gunslinger a +2 bonus to AC against the triggering attack. This movement is not a 5-foot step, and provokes&nbsp;<a href=\"https://www.d20pfsrd.com/gamemastering/combat#TOC-Attacks-of-Opportunity\">attacks of opportunity</a>. Alternatively, the gunslinger can drop&nbsp;<a href=\"https://www.d20pfsrd.com/gamemastering/conditions#TOC-Prone\">prone</a>&nbsp;to gain a +4 bonus to AC against the triggering attack. The gunslinger can only perform this deed while wearing medium or light armor, and while carrying no more than a light load.</p>\n<p><strong>Quick Clear (Ex)</strong>: At 1st level, as a&nbsp;<a href=\"https://www.d20pfsrd.com/gamemastering/combat#TOC-Standard-Actions\">standard action</a>, the gunslinger can remove the&nbsp;<a href=\"https://www.d20pfsrd.com/gamemastering/conditions#TOC-Broken\">broken</a>&nbsp;condition from a single firearm she is currently wielding, as long as that condition was gained by a firearm misfire. The gunslinger must have at least 1 grit point to perform this deed. Alternatively, if the gunslinger spends 1 grit point to perform this deed, she can perform quick clear as a move-equivalent action instead of a&nbsp;<a href=\"https://www.d20pfsrd.com/gamemastering/combat#TOC-Standard-Actions\">standard action</a>.</p>\n<p><strong>Gunslinger Initiative (Ex)</strong>: At 3rd level, as long as the gunslinger has at least 1 grit point, she gains the following benefits. First, she gains a +2 bonus on&nbsp;<a href=\"https://www.d20pfsrd.com/gamemastering/combat#TOC-Initiative\">initiative</a>&nbsp;checks. Furthermore, if she has the&nbsp;<a href=\"https://www.d20pfsrd.com/feats/combat-feats/quick-draw-combat\">Quick Draw</a>&nbsp;feat, her hands are free and unrestrained, and the firearm is not hidden, she can draw a single firearm as part of the&nbsp;<a href=\"https://www.d20pfsrd.com/gamemastering/combat#TOC-Initiative\">initiative</a>&nbsp;check.</p>\n<p><strong>Pistol-Whip (Ex)</strong>: At 3rd level, the gunslinger can make a surprise melee attack with the butt or handle of her firearm as a&nbsp;<a href=\"https://www.d20pfsrd.com/gamemastering/combat#TOC-Standard-Actions\">standard action</a>. When she does, she is considered to be proficient with the firearm as a melee weapon and gains a bonus on the attack and damage rolls equal to the&nbsp;<a href=\"https://www.d20pfsrd.com/basics-ability-scores/glossary#TOC-Enhancement-Bonus\">enhancement bonus</a>&nbsp;of the firearm. The damage dealt by the pistol-whip is of the bludgeoning type, and is determined by the size of the firearm. One-handed firearms deal 1d6 points of damage (1d4 if wielded by Small creatures) and two-handed firearms deal 1d10 points of damage (1d8 if wielded by Small creatures). Regardless of the gunslinger’s size, the critical multiplier of this attack is 20/×2. If the attack hits, the gunslinger can make a&nbsp;<a href=\"https://www.d20pfsrd.com/gamemastering/combat#TOC-Combat-Maneuvers\">combat maneuver</a>&nbsp;check to knock the target&nbsp;<a href=\"https://www.d20pfsrd.com/gamemastering/conditions#TOC-Prone\">prone</a>&nbsp;as a&nbsp;<a href=\"https://www.d20pfsrd.com/gamemastering/combat#TOC-Free-Actions\">free action</a>. Performing this deed costs 1 grit point.</p>\n<p><strong>Utility Shot (Ex)</strong>: At 3rd level, if the gunslinger has at least 1 grit point, she can perform all of the following utility shots. Each utility shot can be applied to any single attack with a firearm, but the gunslinger must declare the utility shot she is using before firing the shot.</p>\n<ul>\n<li><strong>Blast Lock</strong>: The gunslinger makes an&nbsp;<a href=\"https://www.d20pfsrd.com/gamemastering/combat#TOC-Attack-Roll\">attack roll</a>&nbsp;against a lock within the first range increment of her firearm. A Diminutive lock usually has AC 7, and larger locks have a lower AC. The lock gains a bonus to its AC against this attack based on its quality. A simple lock has a +10 bonus to AC, an average lock has a +15 bonus to AC, a good lock has a +20 bonus to AC, and a superior lock has a +30 bonus to AC.&nbsp;<a href=\"https://www.d20pfsrd.com/magic/all-spells/a/arcane-lock\">Arcane lock</a>&nbsp;grants a +10 bonus to the AC of a lock against this attack. On a hit, the lock is destroyed, and the object can be opened as if it were unlocked. On a miss, the lock is destroyed, but the object is jammed and still considered locked. It can still be unlocked by successfully performing this deed, by using the&nbsp;<a href=\"https://www.d20pfsrd.com/skills/disable-device\">Disable Device</a>&nbsp;skill, or with the break DC, though the DC for either break or&nbsp;<a href=\"https://www.d20pfsrd.com/skills/disable-device\">Disable Device</a>&nbsp;or the AC increases by 10. A key, combination, or similar mechanical method of unlocking the lock no longer works, though&nbsp;<a href=\"https://www.d20pfsrd.com/magic/all-spells/k/knock\">knock</a>&nbsp;can still be employed to bypass the lock, and the creator of an&nbsp;<a href=\"https://www.d20pfsrd.com/magic/all-spells/a/arcane-lock\">arcane lock</a>&nbsp;can still bypass the wards of that spell.</li>\n<li><strong>Scoot Unattended Object</strong>: The gunslinger makes an&nbsp;<a href=\"https://www.d20pfsrd.com/gamemastering/combat#TOC-Attack-Roll\">attack roll</a>&nbsp;against a Tiny or smaller unattended object within the first range increment of her firearm. A Tiny unattended object has an AC of 5, a Diminutive unattended object has an AC of 7, and a Fine unattended object has an AC of 11. On a hit, the gunslinger does not damage the object with the shot, but can move it up to 15 feet farther away from the shot’s origin. On a miss, she damages the object normally.</li>\n<li><strong>Stop Bleeding</strong>: The gunslinger makes a firearm attack and then presses the hot barrel against herself or an adjacent creature to staunch a bleeding wound. Instead of dealing damage, the shot ends a single&nbsp;<a href=\"https://www.d20pfsrd.com/gamemastering/conditions#TOC-Bleed\">bleed</a>&nbsp;condition affecting the creature. The gunslinger does not have to make an&nbsp;<a href=\"https://www.d20pfsrd.com/gamemastering/combat#TOC-Attack-Roll\">attack roll</a>&nbsp;when performing the deed in this way; she can instead shoot the firearm into the air, but that shot still uses up ammunition normally.</li>\n</ul>\n<p><strong>Dead Shot (Ex)</strong>: At 7th level, as a&nbsp;<a href=\"https://www.d20pfsrd.com/gamemastering/combat#TOC-Full-Round-Actions\">full-round action</a>, the gunslinger can take careful aim and pool all of her attack potential into a single, deadly shot. When she does this, she shoots the firearm at a single target, but makes as many&nbsp;<a href=\"https://www.d20pfsrd.com/gamemastering/combat#TOC-Attack-Roll\">attack rolls</a>&nbsp;as she can, based on her&nbsp;<a href=\"https://www.d20pfsrd.com/gamemastering/combat#TOC-Attack-Bonus\">base attack bonus</a>. She makes the&nbsp;<a href=\"https://www.d20pfsrd.com/gamemastering/combat#TOC-Attack-Roll\">attack rolls</a>&nbsp;in order from highest bonus to lowest, as if she were making a full attack. If any of the&nbsp;<a href=\"https://www.d20pfsrd.com/gamemastering/combat#TOC-Attack-Roll\">attack rolls</a>&nbsp;hit the target, the gunslinger’s single attack is considered to have hit. For each additional successful&nbsp;<a href=\"https://www.d20pfsrd.com/gamemastering/combat#TOC-Attack-Roll\">attack roll</a>&nbsp;beyond the first, the gunslinger increases the damage of the shot by the base damage dice of the firearm. For instance, if a 7th-level gunslinger firing a musket hits with both attacks, she does 2d12 points of damage with the shot, instead of 1d12 points of damage, before adding any damage modifiers. Precision damage and extra damage from weapon special abilities (such as&nbsp;<a href=\"https://www.d20pfsrd.com/magic-items/magic-weapons#TOC-Flaming\">flaming</a>) are added with damage modifiers and are not increased by this deed. If one or more rolls are critical threats, she confirms the critical once using her highest&nbsp;<a href=\"https://www.d20pfsrd.com/gamemastering/combat#TOC-Attack-Bonus\">base attack bonus</a>&nbsp;–5. For each critical threat beyond the first, she reduces this penalty by 1 (to a maximum of 0). The gunslinger only misfires on a dead shot if all the&nbsp;<a href=\"https://www.d20pfsrd.com/gamemastering/combat#TOC-Attack-Roll\">attack rolls</a>&nbsp;are misfires. She cannot perform this deed with a blunderbuss or other scatter weapon when attacking creatures in a cone. The gunslinger must spend 1 grit point to perform this deed.</p>\n<p><strong>Startling Shot (Ex)</strong>: At 7th level, a gunslinger with least 1 grit point can spend a&nbsp;<a href=\"https://www.d20pfsrd.com/gamemastering/combat#TOC-Standard-Actions\">standard action</a>&nbsp;to purposely miss a creature that she could normally hit with a firearm attack. When she does, that creature becomes&nbsp;<a href=\"https://www.d20pfsrd.com/gamemastering/conditions#TOC-Flat-Footed\">flat-footed</a>&nbsp;until the start of its next turn.</p>\n<p><strong>Targeting (Ex)</strong>: At 7th level, as a&nbsp;<a href=\"https://www.d20pfsrd.com/gamemastering/combat#TOC-Full-Round-Actions\">full-round action</a>, the gunslinger can make a single firearm attack and choose part of the body to target. She gains the following effects depending on the part of the body targeted. If a creature does not have one of the listed body locations, that part cannot be targeted. This deed costs 1 grit point to perform no matter which part of the creature she targets. Creatures that are immune to&nbsp;<a href=\"https://www.d20pfsrd.com/classes/core-classes/rogue#TOC-Sneak-Attack\">sneak attacks</a>&nbsp;are immune to these effects.</p>\n<ul>\n<li><strong>Arms</strong>: On a hit, the target takes no damage from the hit but drops one carried item of the gunslinger’s choice, even if the item is wielded with two hands. Items held in a locked gauntlet are not dropped on a hit.</li>\n<li><strong>Head</strong>: On a hit, the target is damaged normally, and is also&nbsp;<a href=\"https://www.d20pfsrd.com/gamemastering/conditions#TOC-Confused\">confused</a>&nbsp;for 1 round. This is a mind-affecting effect.</li>\n<li><strong>Legs</strong>: On a hit, the target is damaged normally and knocked&nbsp;<a href=\"https://www.d20pfsrd.com/gamemastering/conditions#TOC-Prone\">prone</a>. Creatures that have four or more legs or that are immune to&nbsp;<a href=\"https://www.d20pfsrd.com/gamemastering/combat#TOC-Trip\">trip</a>&nbsp;attacks are immune to this effect.</li>\n<li><strong>Torso</strong>: Targeting the torso threatens a critical on a 19–20.</li>\n<li><strong>Wings</strong>: On a hit, the target is damaged normally, and must make a DC 20&nbsp;<a href=\"https://www.d20pfsrd.com/skills/fly\">Fly</a>&nbsp;check or fall 20 ft.</li>\n</ul>\n<p><strong>Bleeding Wound (Ex)</strong>: At 11th level, when the gunslinger hits a living creature with a firearm attack, she can spend 1 grit point as a&nbsp;<a href=\"https://www.d20pfsrd.com/gamemastering/combat#TOC-Free-Actions\">free action</a>&nbsp;to have that attack deal extra&nbsp;<a href=\"https://www.d20pfsrd.com/gamemastering/conditions#TOC-Bleed\">bleed</a>&nbsp;damage. The amount of&nbsp;<a href=\"https://www.d20pfsrd.com/gamemastering/conditions#TOC-Bleed\">bleed</a>&nbsp;damage is equal to the gunslinger’s&nbsp;<a href=\"https://www.d20pfsrd.com/basics-ability-scores/ability-scores#TOC-Dexterity-Dex-\">Dexterity</a>&nbsp;modifier. Alternatively, the gunslinger can spend 2 grit points to deal 1 point of&nbsp;<a href=\"https://www.d20pfsrd.com/basics-ability-scores/ability-scores#TOC-Strength-Str-\">Strength</a>,&nbsp;<a href=\"https://www.d20pfsrd.com/basics-ability-scores/ability-scores#TOC-Dexterity-Dex-\">Dexterity</a>, or&nbsp;<a href=\"https://www.d20pfsrd.com/basics-ability-scores/ability-scores#TOC-Constitution-Con-\">Constitution</a>&nbsp;<a href=\"https://www.d20pfsrd.com/gamemastering/conditions#TOC-Bleed\">bleed</a>&nbsp;damage (gunslinger’s choice) instead. Creatures that are immune to&nbsp;<a href=\"https://www.d20pfsrd.com/classes/core-classes/rogue#TOC-Sneak-Attack\">sneak attacks</a>&nbsp;are also immune to these types of&nbsp;<a href=\"https://www.d20pfsrd.com/gamemastering/conditions#TOC-Bleed\">bleed</a>&nbsp;damage.</p>\n<p><strong>Expert Loading (Ex)</strong>: At 11th level, whenever the gunslinger rolls a misfire with a gun that has the&nbsp;<a href=\"https://www.d20pfsrd.com/gamemastering/conditions#TOC-Broken\">broken</a>&nbsp;condition, she can spend 1 grit point to keep the gun from exploding, though it retains the&nbsp;<a href=\"https://www.d20pfsrd.com/gamemastering/conditions#TOC-Broken\">broken</a>&nbsp;condition.</p>\n<p><strong>Lightning Reload (Ex)</strong>: At 11th level, as long as the gunslinger has at least 1 grit point, she can reload a single barrel of a one-handed or two-handed firearm as a&nbsp;<a href=\"https://www.d20pfsrd.com/gamemastering/combat#TOC-Swift-Actions\">swift action</a>&nbsp;once per round. If she has the&nbsp;<a href=\"https://www.d20pfsrd.com/feats/combat-feats/rapid-reload-combat\">Rapid Reload</a>&nbsp;feat or is using an alchemical cartridge (or both), she can reload a single barrel of the weapon as a&nbsp;<a href=\"https://www.d20pfsrd.com/gamemastering/combat#TOC-Free-Actions\">free action</a>&nbsp;each round instead. Furthermore, using this deed does not provoke&nbsp;<a href=\"https://www.d20pfsrd.com/gamemastering/combat#TOC-Attacks-of-Opportunity\">attacks of opportunity</a>.</p>\n<p><strong>Evasive (Ex)</strong>: At 15th level, when the gunslinger has at least 1 grit point, she gains the benefit of the&nbsp;<a href=\"https://www.d20pfsrd.com/classes/core-classes/rogue#TOC-Evasion-Ex-\">evasion</a>,&nbsp;<a href=\"https://www.d20pfsrd.com/classes/core-classes/rogue#TOC-Uncanny-Dodge-Ex-\">uncanny dodge</a>, and&nbsp;<a href=\"https://www.d20pfsrd.com/classes/core-classes/rogue#TOC-Improved-Uncanny-Dodge-Ex-\">improved uncanny dodge</a>&nbsp;<a href=\"https://www.d20pfsrd.com/classes/core-classes/rogue\">rogue</a>&nbsp;class features. She uses her gunslinger level as her&nbsp;<a href=\"https://www.d20pfsrd.com/classes/core-classes/rogue\">rogue</a>&nbsp;level for&nbsp;<a href=\"https://www.d20pfsrd.com/classes/core-classes/rogue#TOC-Improved-Uncanny-Dodge-Ex-\">improved uncanny dodge</a>.</p>\n<p><strong>Menacing Shot (Ex)</strong>: At 15th level, the gunslinger can spend 1 grit point, shoot a firearm into the air, and affect all living creatures within a 30-foot-radius burst as if they were subject to the&nbsp;<a href=\"https://www.d20pfsrd.com/magic/all-spells/f/fear\">fear</a>&nbsp;spell. The DC of this effect is equal to 10 + 1/2 the gunslinger’s level + the gunslinger’s&nbsp;<a href=\"https://www.d20pfsrd.com/basics-ability-scores/ability-scores#TOC-Wisdom-Wis-\">Wisdom</a>&nbsp;modifier.</p>\n<p><strong>Slinger’s Luck (Ex)</strong>: At 15th level, the gunslinger can spend grit to reroll a saving throw or a skill check. It costs 2 grit points to reroll a saving throw, and 1 grit point to reroll a skill check. The gunslinger must take the result of the second roll, even if it is lower. The deed’s cost cannot be reduced by the true grit class ability, the Signature Deed feat, or any other effect that reduces the amount of grit a deed costs.</p>\n<p><strong>Cheat Death (Ex)</strong>: At 19th level, whenever the gunslinger is reduced to 0 or fewer <a href=\"https://www.d20pfsrd.com/gamemastering/combat#TOC-Hit-Points\">hit points</a>, she can spend all of her remaining grit points (minimum 1) to instead be reduced to 1 hit point.</p>\n<p><strong>Death’s Shot (Ex)</strong>: At 19th level, when the gunslinger scores a <a href=\"https://www.d20pfsrd.com/gamemastering/combat#TOC-Critical-Hits\">critical hit</a>, she can spend 1 grit point to deal normal damage, and the target must succeed at a&nbsp;<a href=\"https://www.d20pfsrd.com/gamemastering/combat#TOC-Fortitude\">Fortitude</a>&nbsp;saving throw with a DC equal to 10 + 1/2 the gunslinger’s level + the gunslinger’s&nbsp;<a href=\"https://www.d20pfsrd.com/basics-ability-scores/ability-scores#TOC-Dexterity-Dex-\">Dexterity</a>&nbsp;modifier. On a failed saving throw, the target dies. This is a death attack. Performing this deed does not allow the gunslinger to regain grit from confirming a&nbsp;<a href=\"https://www.d20pfsrd.com/gamemastering/combat#TOC-Critical-Hits\">critical hit</a>&nbsp;or making a killing blow.</p>\n<p><strong>Stunning Shot (Ex)</strong>: At 19th level, when a gunslinger hits a creature, she can spend 2 grit points to <a href=\"https://www.d20pfsrd.com/gamemastering/conditions#TOC-Stunned\">stun</a>&nbsp;the creature for 1 round. The creature must make a&nbsp;<a href=\"https://www.d20pfsrd.com/gamemastering/combat#TOC-Fortitude\">Fortitude</a>&nbsp;saving throw (the DC = 10 + 1/2 the gunslinger’s level + the gunslinger’s&nbsp;<a href=\"https://www.d20pfsrd.com/basics-ability-scores/ability-scores#TOC-Wisdom-Wis-\">Wisdom</a>&nbsp;modifier). If the creature fails, it is&nbsp;<a href=\"https://www.d20pfsrd.com/gamemastering/conditions#TOC-Stunned\">stunned</a>&nbsp;for 1 round. Creatures that are immune to critical hits are also immune to this effect.</p>\n<h2>Deeds of Renown</h2>\n<p>Swashbucklers and gunslingers perform impressive deeds through their grit and panache, but some are capable of truly spectacular acts known as renowned deeds. A&nbsp;<a href=\"https://www.d20pfsrd.com/classes/hybrid-classes/swashbuckler\">swashbuckler</a>&nbsp;or&nbsp;<a href=\"https://www.d20pfsrd.com/classes/base-classes/gunslinger\">gunslinger</a>&nbsp;(though not members of other classes) can select a renowned deed for her class upon reaching the class level listed in the deed’s description. This replaces the specific listed deed or deeds; if the character would not gain the appropriate deeds, she cannot select the renowned deed, as if selecting an archetype.</p>\n<div>\n<p><strong>Thundering Shot (Ex)</strong>: The&nbsp;<a href=\"https://www.d20pfsrd.com/classes/base-classes/gunslinger\">gunslinger’s</a>&nbsp;shots explode with deafening reports. At 1st level, as a&nbsp;<a href=\"https://www.d20pfsrd.com/gamemastering/combat#TOC-Standard-Actions\">standard action</a>&nbsp;the&nbsp;<a href=\"https://www.d20pfsrd.com/classes/base-classes/gunslinger\">gunslinger</a>&nbsp;can spend 1 point of grit and make a single ranged attack with a&nbsp;<a href=\"https://www.d20pfsrd.com/equipment/firearms\">firearm</a>. All creatures in a 15-foot cone, starting at the corner of the&nbsp;<a href=\"https://www.d20pfsrd.com/classes/base-classes/gunslinger\">gunslinger’s</a>&nbsp;square closest to the target and extending directly toward the target, must succeed at a&nbsp;<a href=\"https://www.d20pfsrd.com/gamemastering/combat#TOC-Fortitude\">Fortitude</a>&nbsp;save (DC = 10 + half the&nbsp;<a href=\"https://www.d20pfsrd.com/classes/base-classes/gunslinger\">gunslinger’s</a>&nbsp;class level + the&nbsp;<a href=\"https://www.d20pfsrd.com/classes/base-classes/gunslinger\">gunslinger’s</a>&nbsp;<a href=\"https://www.d20pfsrd.com/basics-ability-scores/ability-scores#TOC-Wisdom-Wis-\">Wisdom</a>&nbsp;modifier) or be&nbsp;<a href=\"https://www.d20pfsrd.com/gamemastering/conditions#TOC-Deafened\">deafened</a>&nbsp;for 1 minute. This deed replaces the&nbsp;<a href=\"https://www.d20pfsrd.com/classes/base-classes/gunslinger\">gunslinger’s</a>&nbsp;<a href=\"https://www.d20pfsrd.com/basics-ability-scores/glossary#TOC-Dodge-Bonus\">dodge</a>&nbsp;deed and one other 1st-level deed.</p>\n<p><strong>Gruesome Parry (Ex)</strong>: Some gunslingers wield guns and blades in concert, readying a shot to unbalance attackers and then eviscerating their assailants. At 7th level, the&nbsp;<a href=\"https://www.d20pfsrd.com/classes/base-classes/gunslinger\">gunslinger</a>&nbsp;can spend 1 grit point when she readies an action to make a ranged attack with a&nbsp;<a href=\"https://www.d20pfsrd.com/equipment/firearms\">firearm</a>&nbsp;against a creature that declares a melee attack against her. If she does, the&nbsp;<a href=\"https://www.d20pfsrd.com/gamemastering/combat#TOC-Ready\">readied</a>&nbsp;ranged attack does not provoke&nbsp;<a href=\"https://www.d20pfsrd.com/gamemastering/combat#TOC-Attacks-of-Opportunity\">attacks of opportunity</a>. If this&nbsp;<a href=\"https://www.d20pfsrd.com/gamemastering/combat#TOC-Ready\">readied</a>&nbsp;attack hits, she gains a +4&nbsp;<a href=\"https://www.d20pfsrd.com/basics-ability-scores/glossary#TOC-Dodge-Bonus\">dodge bonus</a>&nbsp;to AC against the triggering attack, and she can make a single melee attack with a slashing or piercing weapon against the creature that attacked her; if this melee attack hits, it is considered to be a critical threat. This deed replaces the dead shot deed and one other 7th-level deed.</p>\n<p><strong>Lethal Patience (Ex)</strong>: While wild flurries of bullets are certainly effective at felling foes, veteran gunslingers appreciate the value of lining up the perfect shot. At 15th level, the&nbsp;<a href=\"https://www.d20pfsrd.com/classes/base-classes/gunslinger\">gunslinger</a>&nbsp;can spend 1 grit point to line up a shot against a target as a&nbsp;<a href=\"https://www.d20pfsrd.com/gamemastering/combat#TOC-Full-Round-Actions\">full-round action</a>. On her next turn, she can make an attack against the target as a&nbsp;<a href=\"https://www.d20pfsrd.com/gamemastering/combat#TOC-Standard-Actions\">standard action</a>, and if the attack hits, the attack is treated as a critical threat. This deed replaces the slinger’s luck deed and one other 15th-level deed.</p>\n<h2>Nimble (Ex)</h2>\n<p>Starting at 2nd level, a gunslinger gains a +1&nbsp;<a href=\"https://www.d20pfsrd.com/basics-ability-scores/glossary#TOC-Dodge-Bonus\">dodge bonus</a>&nbsp;to AC while wearing light or no armor. Anything that causes the gunslinger to lose her&nbsp;<a href=\"https://www.d20pfsrd.com/basics-ability-scores/ability-scores#TOC-Dexterity-Dex-\">Dexterity</a>&nbsp;bonus to AC also causes the gunslinger to lose this&nbsp;<a href=\"https://www.d20pfsrd.com/basics-ability-scores/glossary#TOC-Dodge-Bonus\">dodge bonus</a>. This bonus increases by +1 for every four levels beyond 2nd level (to a maximum of +5 at 20th level).</p>\n<h2>Bonus Feats</h2>\n<p>At 4th level, and every four levels thereafter, a gunslinger gains a bonus feat in addition to those gained by normal advancement. These bonus feats must be combat or grit feats.</p>\n<h2>Gun Training (Ex)</h2>\n<p>Starting at 5th level, a gunslinger can select one specific type of firearm (such as an axe musket, blunderbuss, musket, or pistol). She gains a bonus equal to her&nbsp;<a href=\"https://www.d20pfsrd.com/basics-ability-scores/ability-scores#TOC-Dexterity-Dex-\">Dexterity</a>&nbsp;modifier on damage rolls when firing that type of firearm. Furthermore, when she misfires with that type of firearm, the misfire value of that firearm increases by 2 instead of 4. Every four levels thereafter (9th, 13th, and 17th), the gunslinger picks up another type of firearm, gaining these bonuses for those types as well.</p>\n<h2>True Grit (Ex)</h2>\n<p>At 20th level, a gunslinger picks two deeds that she has access to and that she must spend grit to perform. She can perform these deeds for 1 grit point fewer (minimum 0) than usual. If the number of grit points to perform a deed is reduced to 0, the gunslinger can perform this deed as long as she has at least 1 grit point. If a deed could already be performed as long as she had at least 1 grit point, she can now perform that deed even when she has no grit points.</p>\n</div>\n</div>",
      "chat": "",
      "unidentified": ""
    },
    "damage": {
      "parts": [],
      "critParts": [],
      "nonCritParts": []
    },
    "preparation": {
      "maxAmount": 0
    },
    "weaponData": {
      "critRange": 20,
      "critMult": 2
    },
    "uses": {
      "value": 0,
      "max": 0
    }
  },
  "flags": {},
  "img": "systems/pf1/icons/skills/weapon_36.jpg",
  "effects": []
}