{
  "_id": "G2SqFdNKFxbujzbH",
  "name": "Skald",
  "permission": {
    "default": 0
  },
  "type": "class",
  "data": {
    "description": {
      "value": "<p>Skalds are poets, historians, and keepers of lore who use their gifts for oration and song to inspire allies into a frenzied rage. They balance a violent spirit with the veneer of civilization, recording events such as heroic battles and the deeds of great leaders, enhancing these stories in the retelling to earn bloodier victories in combat. A skald’s poetry is nuanced and often has multiple overlapping meanings, and he applies similar talents to emulate magic from other spellcasters.</p>\n<p><strong>Role</strong>: A skald inspires his allies, and often presses forward to fight enemies in melee. Outside of combat, he’s useful as a healer and scholar, less versatile but more durable than a bard.</p>\n<p><strong>Alignment</strong>: Any.</p>\n<p><strong>Hit Die</strong>: d8.</p>\n<p><strong>Parent Classes</strong>:&nbsp;<a href=\"https://www.d20pfsrd.com/classes/core-classes/barbarian\">Barbarian</a>&nbsp;and&nbsp;<a href=\"https://www.d20pfsrd.com/classes/core-classes/bard\">bard</a>.</p>\n<p><strong>Starting Wealth</strong>: 3d6 × 10 gp (average 105 gp.) In addition, each character begins play with an outfit worth 10 gp or less.</p>\n<h2><span id=\"Class_Skills\">Class Skills</span></h2>\n<p>The skald’s class skills are <a href=\"https://www.d20pfsrd.com/skills/acrobatics\">Acrobatics</a>&nbsp;(<a href=\"https://www.d20pfsrd.com/basics-ability-scores/ability-scores#TOC-Dexterity-Dex-\">Dex</a>), <a href=\"https://www.d20pfsrd.com/skills/appraise\">Appraise</a>&nbsp;(<a href=\"https://www.d20pfsrd.com/basics-ability-scores/ability-scores#TOC-Intelligence-Int-\">Int</a>), <a href=\"https://www.d20pfsrd.com/skills/bluff\">Bluff</a>&nbsp;(<a href=\"https://www.d20pfsrd.com/basics-ability-scores/ability-scores#TOC-Charisma-Cha-\">Cha</a>), <a href=\"https://www.d20pfsrd.com/skills/climb\">Climb</a>&nbsp;(<a href=\"https://www.d20pfsrd.com/basics-ability-scores/ability-scores#TOC-Strength-Str-\">Str</a>), <a href=\"https://www.d20pfsrd.com/skills/craft\">Craft</a>&nbsp;(<a href=\"https://www.d20pfsrd.com/basics-ability-scores/ability-scores#TOC-Intelligence-Int-\">Int</a>), <a href=\"https://www.d20pfsrd.com/skills/diplomacy\">Diplomacy</a>&nbsp;(<a href=\"https://www.d20pfsrd.com/basics-ability-scores/ability-scores#TOC-Charisma-Cha-\">Cha</a>), <a href=\"https://www.d20pfsrd.com/skills/escape-artist\">Escape Artist</a>&nbsp;(<a href=\"https://www.d20pfsrd.com/basics-ability-scores/ability-scores#TOC-Dexterity-Dex-\">Dex</a>), <a href=\"https://www.d20pfsrd.com/skills/handle-animal\">Handle Animal</a>&nbsp;(<a href=\"https://www.d20pfsrd.com/basics-ability-scores/ability-scores#TOC-Charisma-Cha-\">Cha</a>), <a href=\"https://www.d20pfsrd.com/skills/intimidate\">Intimidate</a>&nbsp;(<a href=\"https://www.d20pfsrd.com/basics-ability-scores/ability-scores#TOC-Charisma-Cha-\">Cha</a>), <a href=\"https://www.d20pfsrd.com/skills/knowledge\">Knowledge</a>&nbsp;(all) (<a href=\"https://www.d20pfsrd.com/basics-ability-scores/ability-scores#TOC-Intelligence-Int-\">Int</a>), <a href=\"https://www.d20pfsrd.com/skills/linguistics\">Linguistics</a>&nbsp;(<a href=\"https://www.d20pfsrd.com/basics-ability-scores/ability-scores#TOC-Intelligence-Int-\">Int</a>), <a href=\"https://www.d20pfsrd.com/skills/perception\">Perception</a>&nbsp;(<a href=\"https://www.d20pfsrd.com/basics-ability-scores/ability-scores#TOC-Wisdom-Wis-\">Wis</a>), <a href=\"https://www.d20pfsrd.com/skills/perform\">Perform</a>&nbsp;(oratory, percussion, sing, string, wind<a href=\"https://www.d20pfsrd.com/classes/hybrid-classes/Skald/#class-skills-errata\">errata</a>) (<a href=\"https://www.d20pfsrd.com/basics-ability-scores/ability-scores#TOC-Charisma-Cha-\">Cha</a>), <a href=\"https://www.d20pfsrd.com/skills/profession\">Profession</a>&nbsp;(<a href=\"https://www.d20pfsrd.com/basics-ability-scores/ability-scores#TOC-Wisdom-Wis-\">Wis</a>), <a href=\"https://www.d20pfsrd.com/skills/ride\">Ride</a>&nbsp;(<a href=\"https://www.d20pfsrd.com/basics-ability-scores/ability-scores#TOC-Dexterity-Dex-\">Dex</a>), <a href=\"https://www.d20pfsrd.com/skills/sense-motive\">Sense Motive</a>&nbsp;(<a href=\"https://www.d20pfsrd.com/basics-ability-scores/ability-scores#TOC-Wisdom-Wis-\">Wis</a>), <a href=\"https://www.d20pfsrd.com/skills/spellcraft\">Spellcraft</a>&nbsp;(<a href=\"https://www.d20pfsrd.com/basics-ability-scores/ability-scores#TOC-Intelligence-Int-\">Int</a>), <a href=\"https://www.d20pfsrd.com/skills/swim\">Swim</a>&nbsp;(<a href=\"https://www.d20pfsrd.com/basics-ability-scores/ability-scores#TOC-Strength-Str-\">Str</a>), and <a href=\"https://www.d20pfsrd.com/skills/use-magic-device\">Use Magic Device</a>&nbsp;(<a href=\"https://www.d20pfsrd.com/basics-ability-scores/ability-scores#TOC-Charisma-Cha-\">Cha</a>).</p>\n<p><strong>Skill Ranks per Level</strong>: 4 +&nbsp;<a href=\"https://www.d20pfsrd.com/basics-ability-scores/ability-scores#TOC-Intelligence-Int-\">Int</a> modifier.</p>",
      "chat": "",
      "unidentified": ""
    },
    "tags": [],
    "changes": [],
    "changeFlags": {
      "loseDexToAC": false,
      "noStr": false,
      "noDex": false,
      "oneInt": false,
      "oneWis": false,
      "oneCha": false,
      "noEncumbrance": false,
      "mediumArmorFullSpeed": false,
      "heavyArmorFullSpeed": false
    },
    "links": {
      "children": [],
      "classAssociations": [
        {
          "id": "pf1.class-abilities.6789ez9tvie2bw08",
          "dataType": "compendium",
          "name": "Bardic Knowledge (SKA)",
          "img": "systems/pf1/icons/items/inventory/book-blue.jpg",
          "hiddenLinks": {},
          "level": 1,
          "_index": 0
        },
        {
          "id": "pf1.class-abilities.1HQUUhQhowqKfmCA",
          "dataType": "compendium",
          "name": "Inspired Rage",
          "img": "systems/pf1/icons/skills/yellow_17.jpg",
          "hiddenLinks": {},
          "level": 1,
          "_index": 1
        },
        {
          "id": "pf1.class-abilities.sPqP7QFldieWEADi",
          "dataType": "compendium",
          "name": "Raging Song",
          "img": "systems/pf1/icons/skills/affliction_24.jpg",
          "hiddenLinks": {},
          "level": 1,
          "_index": 2
        },
        {
          "id": "pf1.class-abilities.BS9WDbCy2Up3QHw9",
          "dataType": "compendium",
          "name": "Scribe Scroll",
          "img": "systems/pf1/icons/items/inventory/note-scroll.jpg",
          "hiddenLinks": {},
          "level": 1,
          "_index": 3
        },
        {
          "id": "pf1.class-abilities.HAqAsb5H56C6cZm3",
          "dataType": "compendium",
          "name": "Versatile Performance",
          "img": "systems/pf1/icons/feats/persuasive.jpg",
          "hiddenLinks": {},
          "level": 2,
          "_index": 4
        },
        {
          "id": "pf1.class-abilities.wew6ophJrcab24m6",
          "dataType": "compendium",
          "name": "Well-Versed",
          "img": "systems/pf1/icons/feats/extra-performance.png",
          "hiddenLinks": {},
          "level": 2,
          "_index": 5
        },
        {
          "id": "pf1.class-abilities.i4GboHYSOofHEJ4i",
          "dataType": "compendium",
          "name": "Rage Powers (SKA)",
          "img": "systems/pf1/icons/feats/greater-sunder.jpg",
          "hiddenLinks": {},
          "level": 3,
          "_index": 6
        },
        {
          "id": "pf1.class-abilities.jR8RFYhHsjRzzmB0",
          "dataType": "compendium",
          "name": "Song of Marching",
          "img": "systems/pf1/icons/skills/yellow_08.jpg",
          "hiddenLinks": {},
          "level": 3,
          "_index": 7
        },
        {
          "id": "pf1.class-abilities.7WaQxnVaaoL4AGr8",
          "dataType": "compendium",
          "name": "Uncanny Dodge",
          "img": "systems/pf1/icons/feats/wind-stance.jpg",
          "hiddenLinks": {},
          "level": 4,
          "_index": 8
        },
        {
          "id": "pf1.class-abilities.ZfnHhhTFQVo0Lj4P",
          "dataType": "compendium",
          "name": "Improved Uncanny Dodge",
          "img": "systems/pf1/icons/feats/wind-stance.jpg",
          "hiddenLinks": {},
          "level": 8,
          "_index": 9
        },
        {
          "id": "pf1.class-abilities.tlvQVJUUFUVQ92EH",
          "dataType": "compendium",
          "name": "Spell Kenning",
          "img": "systems/pf1/icons/feats/extra-lay-on-hands.jpg",
          "hiddenLinks": {},
          "level": 5,
          "_index": 10
        },
        {
          "id": "pf1.class-abilities.xqWYyijR7PxZGI69",
          "dataType": "compendium",
          "name": "Song of Strength",
          "img": "systems/pf1/icons/feats/athletic.jpg",
          "hiddenLinks": {},
          "level": 6,
          "_index": 11
        },
        {
          "id": "pf1.class-abilities.msQWK7TW7mufzf8l",
          "dataType": "compendium",
          "name": "Lore Master",
          "img": "systems/pf1/icons/items/inventory/book-tan.jpg",
          "hiddenLinks": {},
          "level": 7,
          "_index": 12
        },
        {
          "id": "pf1.class-abilities.kMjMAG6Gjs7unAz5",
          "dataType": "compendium",
          "name": "Damage Reduction (SKA)",
          "img": "systems/pf1/icons/feats/improved-shield-bash.jpg",
          "hiddenLinks": {},
          "level": 9,
          "_index": 13
        },
        {
          "id": "pf1.class-abilities.pmWnRksUzrKvNOvy",
          "dataType": "compendium",
          "name": "Dirge of Doom",
          "img": "systems/pf1/icons/feats/medusas-wrath.jpg",
          "hiddenLinks": {},
          "level": 10,
          "_index": 14
        },
        {
          "id": "pf1.class-abilities.CYOk7sUXkGbfRKPi",
          "dataType": "compendium",
          "name": "Song of the Fallen",
          "img": "systems/pf1/icons/skills/affliction_07.jpg",
          "hiddenLinks": {},
          "level": 14,
          "_index": 15
        },
        {
          "id": "pf1.class-abilities.q7aOR0jKvbkVHhyF",
          "dataType": "compendium",
          "name": "Master Skald",
          "img": "systems/pf1/icons/feats/intimidating-prowess.jpg",
          "hiddenLinks": {},
          "level": 20,
          "_index": 16
        }
      ]
    },
    "tag": "skald",
    "useCustomTag": true,
    "armorProf": {
      "value": [
        "lgt",
        "med",
        "shl"
      ],
      "custom": ""
    },
    "weaponProf": {
      "value": [
        "sim",
        "mar"
      ],
      "custom": ""
    },
    "classType": "base",
    "levels": {
      "value": 0,
      "_deprecated": true
    },
    "level": 1,
    "hd": 8,
    "hp": 8,
    "bab": "med",
    "skillsPerLevel": 4,
    "savingThrows": {
      "fort": {
        "value": "high"
      },
      "ref": {
        "value": "low"
      },
      "will": {
        "value": "high"
      }
    },
    "fc": {
      "hp": {
        "value": 0
      },
      "skill": {
        "value": 0
      },
      "alt": {
        "value": 0
      }
    },
    "classSkills": {
      "acr": true,
      "apr": true,
      "art": false,
      "blf": true,
      "clm": true,
      "crf": true,
      "dip": true,
      "dev": false,
      "dis": false,
      "esc": true,
      "fly": false,
      "han": true,
      "hea": false,
      "int": true,
      "kar": true,
      "kdu": true,
      "ken": true,
      "kge": true,
      "khi": true,
      "klo": true,
      "kna": true,
      "kno": true,
      "kpl": true,
      "kre": true,
      "lin": true,
      "lor": false,
      "per": true,
      "prf": true,
      "pro": true,
      "rid": true,
      "sen": true,
      "slt": false,
      "spl": true,
      "ste": false,
      "sur": false,
      "swm": true,
      "umd": true
    },
    "extraDescription": {
      "value": "<h2>Weapon and Armor Proficiency</h2>\n<p>A skald is proficient with all simple and martial weapons, light and medium&nbsp;<a href=\"https://www.d20pfsrd.com/basics-ability-scores/glossary#TOC-Armor-Bonus\">armor</a>, and shields (except tower shields). A skald can cast skald spells while wearing light or medium armor and even using a shield without incurring the normal&nbsp;<a href=\"https://www.d20pfsrd.com/equipment/armor#TOC-Arcane-Spell-Failure-Chance\">arcane spell failure chance</a>. This does not affect the arcane spell failure chance for arcane spells received from other classes. Like other arcane spellcasters, a skald wearing heavy armor incurs a chance of arcane spell failure if the spell in question has somatic&nbsp;<a href=\"https://www.d20pfsrd.com/magic#TOC-Components\">components</a>.</p>\n<h2>Bardic Knowledge (Ex)</h2>\n<p>A skald adds 1/2 his class level (minimum 1) on all&nbsp;<a href=\"https://www.d20pfsrd.com/skills/knowledge\">Knowledge</a>&nbsp;skill checks, and may make all&nbsp;<a href=\"https://www.d20pfsrd.com/skills/knowledge\">Knowledge</a>&nbsp;skill checks untrained.</p>\n<h2>Cantrips</h2>\n<p>Skalds learn a number of cantrips, or 0-level spells, as noted on&nbsp;Table: Skald Spells Known. These spells are cast like any other spell, but they do not consume any slots and may be used again.</p>\n<h2>Spell Casting</h2>\n<p>A skald casts arcane spells drawn from the&nbsp;<a href=\"https://www.d20pfsrd.com/magic/spell-lists-and-domains/spell-lists-bard\">bard spell list</a>. He can cast any spell he knows without preparing it ahead of time. Every skald spell has a verbal component—these verbal&nbsp;<a href=\"https://www.d20pfsrd.com/magic#TOC-Components\">components</a>&nbsp;can take the form of song, recitation, or even non-verbal music like percussion. To learn or cast a spell, a skald must have a&nbsp;<a href=\"https://www.d20pfsrd.com/basics-ability-scores/ability-scores#TOC-Charisma-Cha-\">Charisma</a>&nbsp;score equal to at least 10 + the spell’s level. The saving throw DC against a skald’s spell is 10 + the spell’s level + the skald’s&nbsp;<a href=\"https://www.d20pfsrd.com/basics-ability-scores/ability-scores#TOC-Charisma-Cha-\">Charisma</a>&nbsp;modifier.</p>\n<p>Like other spellcasters, a skald can cast only a certain number of spells of each spell level per day. His base daily spell allotment is given on&nbsp;Table: Skald. In addition, he receives bonus spells per day if he has a high&nbsp;<a href=\"https://www.d20pfsrd.com/basics-ability-scores/ability-scores#TOC-Charisma-Cha-\">Charisma</a>&nbsp;score.</p>\n<p>The skald’s selection of spells is limited. A skald begins play knowing four 0-level spells and two 1st-level spells of the skald’s choice. At each new skald level, he gains one or more new spells, as indicated on&nbsp;Table: Skald Spells Known. Unlike spells per day, the number of spells a skald knows isn’t affected by his&nbsp;<a href=\"https://www.d20pfsrd.com/basics-ability-scores/ability-scores#TOC-Charisma-Cha-\">Charisma</a>&nbsp;score; the numbers on&nbsp;Table: Skald Spells Known&nbsp;are fixed.</p>\n<p>At 5th level and every 3 levels thereafter, a skald can choose to learn a new spell in place of one he already knows. In effect, the skald loses the old spell in exchange for the new one. The new spell’s level must be the same as that of the spell being exchanged, and it must be at least 1 level lower than the highest-level skald spell the skald can cast. A skald may swap only a single spell at any given level, and must choose whether or not to swap the spell at the same time that he gains new spells known for the level.</p>\n<p>A skald need not prepare his spells in advance. He can cast any spell he knows at any time, assuming he has not yet used up his allotment of spells per day for the spell’s level.</p>\n<table style=\"box-sizing: border-box; border-spacing: 0px; background-color: #ffffff; margin: 10px; table-layout: fixed; border-color: #888888; min-width: 200px; color: #333333; font-family: Varela, sans-serif;\" border=\"1\" cellpadding=\"5\">\n<thead style=\"box-sizing: border-box; background-color: #cfe2f3;\">\n<tr style=\"box-sizing: border-box;\">\n<th class=\"text\" style=\"box-sizing: border-box; padding: 2px; text-align: left; border: 1px solid #888888;\">Level</th>\n<th class=\"number\" style=\"box-sizing: border-box; padding: 2px; text-align: left; border: 1px solid #888888;\">0th</th>\n<th class=\"number\" style=\"box-sizing: border-box; padding: 2px; text-align: left; border: 1px solid #888888;\">1st</th>\n<th class=\"number\" style=\"box-sizing: border-box; padding: 2px; text-align: left; border: 1px solid #888888;\">2nd</th>\n<th class=\"number\" style=\"box-sizing: border-box; padding: 2px; text-align: left; border: 1px solid #888888;\">3rd</th>\n<th class=\"number\" style=\"box-sizing: border-box; padding: 2px; text-align: left; border: 1px solid #888888;\">4th</th>\n<th class=\"number\" style=\"box-sizing: border-box; padding: 2px; text-align: left; border: 1px solid #888888;\">5th</th>\n<th class=\"number\" style=\"box-sizing: border-box; padding: 2px; text-align: left; border: 1px solid #888888;\">6th</th>\n</tr>\n</thead>\n<tbody style=\"box-sizing: border-box;\">\n<tr style=\"box-sizing: border-box;\">\n<td class=\"number\" style=\"box-sizing: border-box; padding: 2px; vertical-align: top; text-align: center; border: 1px solid #888888;\">1st</td>\n<td class=\"number\" style=\"box-sizing: border-box; padding: 2px; vertical-align: top; text-align: center; border: 1px solid #888888;\">4</td>\n<td class=\"number\" style=\"box-sizing: border-box; padding: 2px; vertical-align: top; text-align: center; border: 1px solid #888888;\">2</td>\n<td class=\"marker\" style=\"box-sizing: border-box; padding: 2px; vertical-align: top; text-align: center; border: 1px solid #888888;\">—</td>\n<td class=\"marker\" style=\"box-sizing: border-box; padding: 2px; vertical-align: top; text-align: center; border: 1px solid #888888;\">—</td>\n<td class=\"marker\" style=\"box-sizing: border-box; padding: 2px; vertical-align: top; text-align: center; border: 1px solid #888888;\">—</td>\n<td class=\"marker\" style=\"box-sizing: border-box; padding: 2px; vertical-align: top; text-align: center; border: 1px solid #888888;\">—</td>\n<td class=\"marker\" style=\"box-sizing: border-box; padding: 2px; vertical-align: top; text-align: center; border: 1px solid #888888;\">—</td>\n</tr>\n<tr style=\"box-sizing: border-box; background-color: #f3f3f3;\">\n<td class=\"number\" style=\"box-sizing: border-box; padding: 2px; vertical-align: top; text-align: center; border: 1px solid #888888;\">2nd</td>\n<td class=\"number\" style=\"box-sizing: border-box; padding: 2px; vertical-align: top; text-align: center; border: 1px solid #888888;\">5</td>\n<td class=\"number\" style=\"box-sizing: border-box; padding: 2px; vertical-align: top; text-align: center; border: 1px solid #888888;\">3</td>\n<td class=\"marker\" style=\"box-sizing: border-box; padding: 2px; vertical-align: top; text-align: center; border: 1px solid #888888;\">—</td>\n<td class=\"marker\" style=\"box-sizing: border-box; padding: 2px; vertical-align: top; text-align: center; border: 1px solid #888888;\">—</td>\n<td class=\"marker\" style=\"box-sizing: border-box; padding: 2px; vertical-align: top; text-align: center; border: 1px solid #888888;\">—</td>\n<td class=\"marker\" style=\"box-sizing: border-box; padding: 2px; vertical-align: top; text-align: center; border: 1px solid #888888;\">—</td>\n<td class=\"marker\" style=\"box-sizing: border-box; padding: 2px; vertical-align: top; text-align: center; border: 1px solid #888888;\">—</td>\n</tr>\n<tr style=\"box-sizing: border-box;\">\n<td class=\"number\" style=\"box-sizing: border-box; padding: 2px; vertical-align: top; text-align: center; border: 1px solid #888888;\">3rd</td>\n<td class=\"number\" style=\"box-sizing: border-box; padding: 2px; vertical-align: top; text-align: center; border: 1px solid #888888;\">6</td>\n<td class=\"number\" style=\"box-sizing: border-box; padding: 2px; vertical-align: top; text-align: center; border: 1px solid #888888;\">4</td>\n<td class=\"marker\" style=\"box-sizing: border-box; padding: 2px; vertical-align: top; text-align: center; border: 1px solid #888888;\">—</td>\n<td class=\"marker\" style=\"box-sizing: border-box; padding: 2px; vertical-align: top; text-align: center; border: 1px solid #888888;\">—</td>\n<td class=\"marker\" style=\"box-sizing: border-box; padding: 2px; vertical-align: top; text-align: center; border: 1px solid #888888;\">—</td>\n<td class=\"marker\" style=\"box-sizing: border-box; padding: 2px; vertical-align: top; text-align: center; border: 1px solid #888888;\">—</td>\n<td class=\"marker\" style=\"box-sizing: border-box; padding: 2px; vertical-align: top; text-align: center; border: 1px solid #888888;\">—</td>\n</tr>\n<tr style=\"box-sizing: border-box; background-color: #f3f3f3;\">\n<td class=\"number\" style=\"box-sizing: border-box; padding: 2px; vertical-align: top; text-align: center; border: 1px solid #888888;\">4th</td>\n<td class=\"number\" style=\"box-sizing: border-box; padding: 2px; vertical-align: top; text-align: center; border: 1px solid #888888;\">6</td>\n<td class=\"number\" style=\"box-sizing: border-box; padding: 2px; vertical-align: top; text-align: center; border: 1px solid #888888;\">4</td>\n<td class=\"number\" style=\"box-sizing: border-box; padding: 2px; vertical-align: top; text-align: center; border: 1px solid #888888;\">2</td>\n<td class=\"marker\" style=\"box-sizing: border-box; padding: 2px; vertical-align: top; text-align: center; border: 1px solid #888888;\">—</td>\n<td class=\"marker\" style=\"box-sizing: border-box; padding: 2px; vertical-align: top; text-align: center; border: 1px solid #888888;\">—</td>\n<td class=\"marker\" style=\"box-sizing: border-box; padding: 2px; vertical-align: top; text-align: center; border: 1px solid #888888;\">—</td>\n<td class=\"marker\" style=\"box-sizing: border-box; padding: 2px; vertical-align: top; text-align: center; border: 1px solid #888888;\">—</td>\n</tr>\n<tr style=\"box-sizing: border-box;\">\n<td class=\"number\" style=\"box-sizing: border-box; padding: 2px; vertical-align: top; text-align: center; border: 1px solid #888888;\">5th</td>\n<td class=\"number\" style=\"box-sizing: border-box; padding: 2px; vertical-align: top; text-align: center; border: 1px solid #888888;\">6</td>\n<td class=\"number\" style=\"box-sizing: border-box; padding: 2px; vertical-align: top; text-align: center; border: 1px solid #888888;\">4</td>\n<td class=\"number\" style=\"box-sizing: border-box; padding: 2px; vertical-align: top; text-align: center; border: 1px solid #888888;\">3</td>\n<td class=\"marker\" style=\"box-sizing: border-box; padding: 2px; vertical-align: top; text-align: center; border: 1px solid #888888;\">—</td>\n<td class=\"marker\" style=\"box-sizing: border-box; padding: 2px; vertical-align: top; text-align: center; border: 1px solid #888888;\">—</td>\n<td class=\"marker\" style=\"box-sizing: border-box; padding: 2px; vertical-align: top; text-align: center; border: 1px solid #888888;\">—</td>\n<td class=\"marker\" style=\"box-sizing: border-box; padding: 2px; vertical-align: top; text-align: center; border: 1px solid #888888;\">—</td>\n</tr>\n<tr style=\"box-sizing: border-box; background-color: #f3f3f3;\">\n<td class=\"number\" style=\"box-sizing: border-box; padding: 2px; vertical-align: top; text-align: center; border: 1px solid #888888;\">6th</td>\n<td class=\"number\" style=\"box-sizing: border-box; padding: 2px; vertical-align: top; text-align: center; border: 1px solid #888888;\">6</td>\n<td class=\"number\" style=\"box-sizing: border-box; padding: 2px; vertical-align: top; text-align: center; border: 1px solid #888888;\">4</td>\n<td class=\"number\" style=\"box-sizing: border-box; padding: 2px; vertical-align: top; text-align: center; border: 1px solid #888888;\">4</td>\n<td class=\"marker\" style=\"box-sizing: border-box; padding: 2px; vertical-align: top; text-align: center; border: 1px solid #888888;\">—</td>\n<td class=\"marker\" style=\"box-sizing: border-box; padding: 2px; vertical-align: top; text-align: center; border: 1px solid #888888;\">—</td>\n<td class=\"marker\" style=\"box-sizing: border-box; padding: 2px; vertical-align: top; text-align: center; border: 1px solid #888888;\">—</td>\n<td class=\"marker\" style=\"box-sizing: border-box; padding: 2px; vertical-align: top; text-align: center; border: 1px solid #888888;\">—</td>\n</tr>\n<tr style=\"box-sizing: border-box;\">\n<td class=\"number\" style=\"box-sizing: border-box; padding: 2px; vertical-align: top; text-align: center; border: 1px solid #888888;\">7th</td>\n<td class=\"number\" style=\"box-sizing: border-box; padding: 2px; vertical-align: top; text-align: center; border: 1px solid #888888;\">6</td>\n<td class=\"number\" style=\"box-sizing: border-box; padding: 2px; vertical-align: top; text-align: center; border: 1px solid #888888;\">5</td>\n<td class=\"number\" style=\"box-sizing: border-box; padding: 2px; vertical-align: top; text-align: center; border: 1px solid #888888;\">4</td>\n<td class=\"number\" style=\"box-sizing: border-box; padding: 2px; vertical-align: top; text-align: center; border: 1px solid #888888;\">2</td>\n<td class=\"marker\" style=\"box-sizing: border-box; padding: 2px; vertical-align: top; text-align: center; border: 1px solid #888888;\">—</td>\n<td class=\"marker\" style=\"box-sizing: border-box; padding: 2px; vertical-align: top; text-align: center; border: 1px solid #888888;\">—</td>\n<td class=\"marker\" style=\"box-sizing: border-box; padding: 2px; vertical-align: top; text-align: center; border: 1px solid #888888;\">—</td>\n</tr>\n<tr style=\"box-sizing: border-box; background-color: #f3f3f3;\">\n<td class=\"number\" style=\"box-sizing: border-box; padding: 2px; vertical-align: top; text-align: center; border: 1px solid #888888;\">8th</td>\n<td class=\"number\" style=\"box-sizing: border-box; padding: 2px; vertical-align: top; text-align: center; border: 1px solid #888888;\">6</td>\n<td class=\"number\" style=\"box-sizing: border-box; padding: 2px; vertical-align: top; text-align: center; border: 1px solid #888888;\">5</td>\n<td class=\"number\" style=\"box-sizing: border-box; padding: 2px; vertical-align: top; text-align: center; border: 1px solid #888888;\">4</td>\n<td class=\"number\" style=\"box-sizing: border-box; padding: 2px; vertical-align: top; text-align: center; border: 1px solid #888888;\">3</td>\n<td class=\"marker\" style=\"box-sizing: border-box; padding: 2px; vertical-align: top; text-align: center; border: 1px solid #888888;\">—</td>\n<td class=\"marker\" style=\"box-sizing: border-box; padding: 2px; vertical-align: top; text-align: center; border: 1px solid #888888;\">—</td>\n<td class=\"marker\" style=\"box-sizing: border-box; padding: 2px; vertical-align: top; text-align: center; border: 1px solid #888888;\">—</td>\n</tr>\n<tr style=\"box-sizing: border-box;\">\n<td class=\"number\" style=\"box-sizing: border-box; padding: 2px; vertical-align: top; text-align: center; border: 1px solid #888888;\">9th</td>\n<td class=\"number\" style=\"box-sizing: border-box; padding: 2px; vertical-align: top; text-align: center; border: 1px solid #888888;\">6</td>\n<td class=\"number\" style=\"box-sizing: border-box; padding: 2px; vertical-align: top; text-align: center; border: 1px solid #888888;\">5</td>\n<td class=\"number\" style=\"box-sizing: border-box; padding: 2px; vertical-align: top; text-align: center; border: 1px solid #888888;\">4</td>\n<td class=\"number\" style=\"box-sizing: border-box; padding: 2px; vertical-align: top; text-align: center; border: 1px solid #888888;\">4</td>\n<td class=\"marker\" style=\"box-sizing: border-box; padding: 2px; vertical-align: top; text-align: center; border: 1px solid #888888;\">—</td>\n<td class=\"marker\" style=\"box-sizing: border-box; padding: 2px; vertical-align: top; text-align: center; border: 1px solid #888888;\">—</td>\n<td class=\"marker\" style=\"box-sizing: border-box; padding: 2px; vertical-align: top; text-align: center; border: 1px solid #888888;\">—</td>\n</tr>\n<tr style=\"box-sizing: border-box; background-color: #f3f3f3;\">\n<td class=\"number\" style=\"box-sizing: border-box; padding: 2px; vertical-align: top; text-align: center; border: 1px solid #888888;\">10th</td>\n<td class=\"number\" style=\"box-sizing: border-box; padding: 2px; vertical-align: top; text-align: center; border: 1px solid #888888;\">6</td>\n<td class=\"number\" style=\"box-sizing: border-box; padding: 2px; vertical-align: top; text-align: center; border: 1px solid #888888;\">5</td>\n<td class=\"number\" style=\"box-sizing: border-box; padding: 2px; vertical-align: top; text-align: center; border: 1px solid #888888;\">5</td>\n<td class=\"number\" style=\"box-sizing: border-box; padding: 2px; vertical-align: top; text-align: center; border: 1px solid #888888;\">4</td>\n<td class=\"number\" style=\"box-sizing: border-box; padding: 2px; vertical-align: top; text-align: center; border: 1px solid #888888;\">2</td>\n<td class=\"marker\" style=\"box-sizing: border-box; padding: 2px; vertical-align: top; text-align: center; border: 1px solid #888888;\">—</td>\n<td class=\"marker\" style=\"box-sizing: border-box; padding: 2px; vertical-align: top; text-align: center; border: 1px solid #888888;\">—</td>\n</tr>\n<tr style=\"box-sizing: border-box;\">\n<td class=\"number\" style=\"box-sizing: border-box; padding: 2px; vertical-align: top; text-align: center; border: 1px solid #888888;\">11th</td>\n<td class=\"number\" style=\"box-sizing: border-box; padding: 2px; vertical-align: top; text-align: center; border: 1px solid #888888;\">6</td>\n<td class=\"number\" style=\"box-sizing: border-box; padding: 2px; vertical-align: top; text-align: center; border: 1px solid #888888;\">6</td>\n<td class=\"number\" style=\"box-sizing: border-box; padding: 2px; vertical-align: top; text-align: center; border: 1px solid #888888;\">5</td>\n<td class=\"number\" style=\"box-sizing: border-box; padding: 2px; vertical-align: top; text-align: center; border: 1px solid #888888;\">4</td>\n<td class=\"number\" style=\"box-sizing: border-box; padding: 2px; vertical-align: top; text-align: center; border: 1px solid #888888;\">3</td>\n<td class=\"marker\" style=\"box-sizing: border-box; padding: 2px; vertical-align: top; text-align: center; border: 1px solid #888888;\">—</td>\n<td class=\"marker\" style=\"box-sizing: border-box; padding: 2px; vertical-align: top; text-align: center; border: 1px solid #888888;\">—</td>\n</tr>\n<tr style=\"box-sizing: border-box; background-color: #f3f3f3;\">\n<td class=\"number\" style=\"box-sizing: border-box; padding: 2px; vertical-align: top; text-align: center; border: 1px solid #888888;\">12th</td>\n<td class=\"number\" style=\"box-sizing: border-box; padding: 2px; vertical-align: top; text-align: center; border: 1px solid #888888;\">6</td>\n<td class=\"number\" style=\"box-sizing: border-box; padding: 2px; vertical-align: top; text-align: center; border: 1px solid #888888;\">6</td>\n<td class=\"number\" style=\"box-sizing: border-box; padding: 2px; vertical-align: top; text-align: center; border: 1px solid #888888;\">5</td>\n<td class=\"number\" style=\"box-sizing: border-box; padding: 2px; vertical-align: top; text-align: center; border: 1px solid #888888;\">4</td>\n<td class=\"number\" style=\"box-sizing: border-box; padding: 2px; vertical-align: top; text-align: center; border: 1px solid #888888;\">4</td>\n<td class=\"marker\" style=\"box-sizing: border-box; padding: 2px; vertical-align: top; text-align: center; border: 1px solid #888888;\">—</td>\n<td class=\"marker\" style=\"box-sizing: border-box; padding: 2px; vertical-align: top; text-align: center; border: 1px solid #888888;\">—</td>\n</tr>\n<tr style=\"box-sizing: border-box;\">\n<td class=\"number\" style=\"box-sizing: border-box; padding: 2px; vertical-align: top; text-align: center; border: 1px solid #888888;\">13th</td>\n<td class=\"number\" style=\"box-sizing: border-box; padding: 2px; vertical-align: top; text-align: center; border: 1px solid #888888;\">6</td>\n<td class=\"number\" style=\"box-sizing: border-box; padding: 2px; vertical-align: top; text-align: center; border: 1px solid #888888;\">6</td>\n<td class=\"number\" style=\"box-sizing: border-box; padding: 2px; vertical-align: top; text-align: center; border: 1px solid #888888;\">5</td>\n<td class=\"number\" style=\"box-sizing: border-box; padding: 2px; vertical-align: top; text-align: center; border: 1px solid #888888;\">5</td>\n<td class=\"number\" style=\"box-sizing: border-box; padding: 2px; vertical-align: top; text-align: center; border: 1px solid #888888;\">4</td>\n<td class=\"number\" style=\"box-sizing: border-box; padding: 2px; vertical-align: top; text-align: center; border: 1px solid #888888;\">2</td>\n<td class=\"marker\" style=\"box-sizing: border-box; padding: 2px; vertical-align: top; text-align: center; border: 1px solid #888888;\">—</td>\n</tr>\n<tr style=\"box-sizing: border-box; background-color: #f3f3f3;\">\n<td class=\"number\" style=\"box-sizing: border-box; padding: 2px; vertical-align: top; text-align: center; border: 1px solid #888888;\">14th</td>\n<td class=\"number\" style=\"box-sizing: border-box; padding: 2px; vertical-align: top; text-align: center; border: 1px solid #888888;\">6</td>\n<td class=\"number\" style=\"box-sizing: border-box; padding: 2px; vertical-align: top; text-align: center; border: 1px solid #888888;\">6</td>\n<td class=\"number\" style=\"box-sizing: border-box; padding: 2px; vertical-align: top; text-align: center; border: 1px solid #888888;\">6</td>\n<td class=\"number\" style=\"box-sizing: border-box; padding: 2px; vertical-align: top; text-align: center; border: 1px solid #888888;\">5</td>\n<td class=\"number\" style=\"box-sizing: border-box; padding: 2px; vertical-align: top; text-align: center; border: 1px solid #888888;\">4</td>\n<td class=\"number\" style=\"box-sizing: border-box; padding: 2px; vertical-align: top; text-align: center; border: 1px solid #888888;\">3</td>\n<td class=\"marker\" style=\"box-sizing: border-box; padding: 2px; vertical-align: top; text-align: center; border: 1px solid #888888;\">—</td>\n</tr>\n<tr style=\"box-sizing: border-box;\">\n<td class=\"number\" style=\"box-sizing: border-box; padding: 2px; vertical-align: top; text-align: center; border: 1px solid #888888;\">15th</td>\n<td class=\"number\" style=\"box-sizing: border-box; padding: 2px; vertical-align: top; text-align: center; border: 1px solid #888888;\">6</td>\n<td class=\"number\" style=\"box-sizing: border-box; padding: 2px; vertical-align: top; text-align: center; border: 1px solid #888888;\">6</td>\n<td class=\"number\" style=\"box-sizing: border-box; padding: 2px; vertical-align: top; text-align: center; border: 1px solid #888888;\">6</td>\n<td class=\"number\" style=\"box-sizing: border-box; padding: 2px; vertical-align: top; text-align: center; border: 1px solid #888888;\">5</td>\n<td class=\"number\" style=\"box-sizing: border-box; padding: 2px; vertical-align: top; text-align: center; border: 1px solid #888888;\">4</td>\n<td class=\"number\" style=\"box-sizing: border-box; padding: 2px; vertical-align: top; text-align: center; border: 1px solid #888888;\">4</td>\n<td class=\"marker\" style=\"box-sizing: border-box; padding: 2px; vertical-align: top; text-align: center; border: 1px solid #888888;\">—</td>\n</tr>\n<tr style=\"box-sizing: border-box; background-color: #f3f3f3;\">\n<td class=\"number\" style=\"box-sizing: border-box; padding: 2px; vertical-align: top; text-align: center; border: 1px solid #888888;\">16th</td>\n<td class=\"number\" style=\"box-sizing: border-box; padding: 2px; vertical-align: top; text-align: center; border: 1px solid #888888;\">6</td>\n<td class=\"number\" style=\"box-sizing: border-box; padding: 2px; vertical-align: top; text-align: center; border: 1px solid #888888;\">6</td>\n<td class=\"number\" style=\"box-sizing: border-box; padding: 2px; vertical-align: top; text-align: center; border: 1px solid #888888;\">6</td>\n<td class=\"number\" style=\"box-sizing: border-box; padding: 2px; vertical-align: top; text-align: center; border: 1px solid #888888;\">5</td>\n<td class=\"number\" style=\"box-sizing: border-box; padding: 2px; vertical-align: top; text-align: center; border: 1px solid #888888;\">5</td>\n<td class=\"number\" style=\"box-sizing: border-box; padding: 2px; vertical-align: top; text-align: center; border: 1px solid #888888;\">4</td>\n<td class=\"number\" style=\"box-sizing: border-box; padding: 2px; vertical-align: top; text-align: center; border: 1px solid #888888;\">2</td>\n</tr>\n<tr style=\"box-sizing: border-box;\">\n<td class=\"number\" style=\"box-sizing: border-box; padding: 2px; vertical-align: top; text-align: center; border: 1px solid #888888;\">17th</td>\n<td class=\"number\" style=\"box-sizing: border-box; padding: 2px; vertical-align: top; text-align: center; border: 1px solid #888888;\">6</td>\n<td class=\"number\" style=\"box-sizing: border-box; padding: 2px; vertical-align: top; text-align: center; border: 1px solid #888888;\">6</td>\n<td class=\"number\" style=\"box-sizing: border-box; padding: 2px; vertical-align: top; text-align: center; border: 1px solid #888888;\">6</td>\n<td class=\"number\" style=\"box-sizing: border-box; padding: 2px; vertical-align: top; text-align: center; border: 1px solid #888888;\">6</td>\n<td class=\"number\" style=\"box-sizing: border-box; padding: 2px; vertical-align: top; text-align: center; border: 1px solid #888888;\">5</td>\n<td class=\"number\" style=\"box-sizing: border-box; padding: 2px; vertical-align: top; text-align: center; border: 1px solid #888888;\">4</td>\n<td class=\"number\" style=\"box-sizing: border-box; padding: 2px; vertical-align: top; text-align: center; border: 1px solid #888888;\">3</td>\n</tr>\n<tr style=\"box-sizing: border-box; background-color: #f3f3f3;\">\n<td class=\"number\" style=\"box-sizing: border-box; padding: 2px; vertical-align: top; text-align: center; border: 1px solid #888888;\">18th</td>\n<td class=\"number\" style=\"box-sizing: border-box; padding: 2px; vertical-align: top; text-align: center; border: 1px solid #888888;\">6</td>\n<td class=\"number\" style=\"box-sizing: border-box; padding: 2px; vertical-align: top; text-align: center; border: 1px solid #888888;\">6</td>\n<td class=\"number\" style=\"box-sizing: border-box; padding: 2px; vertical-align: top; text-align: center; border: 1px solid #888888;\">6</td>\n<td class=\"number\" style=\"box-sizing: border-box; padding: 2px; vertical-align: top; text-align: center; border: 1px solid #888888;\">6</td>\n<td class=\"number\" style=\"box-sizing: border-box; padding: 2px; vertical-align: top; text-align: center; border: 1px solid #888888;\">5</td>\n<td class=\"number\" style=\"box-sizing: border-box; padding: 2px; vertical-align: top; text-align: center; border: 1px solid #888888;\">4</td>\n<td class=\"number\" style=\"box-sizing: border-box; padding: 2px; vertical-align: top; text-align: center; border: 1px solid #888888;\">4</td>\n</tr>\n<tr style=\"box-sizing: border-box;\">\n<td class=\"number\" style=\"box-sizing: border-box; padding: 2px; vertical-align: top; text-align: center; border: 1px solid #888888;\">19th</td>\n<td class=\"number\" style=\"box-sizing: border-box; padding: 2px; vertical-align: top; text-align: center; border: 1px solid #888888;\">6</td>\n<td class=\"number\" style=\"box-sizing: border-box; padding: 2px; vertical-align: top; text-align: center; border: 1px solid #888888;\">6</td>\n<td class=\"number\" style=\"box-sizing: border-box; padding: 2px; vertical-align: top; text-align: center; border: 1px solid #888888;\">6</td>\n<td class=\"number\" style=\"box-sizing: border-box; padding: 2px; vertical-align: top; text-align: center; border: 1px solid #888888;\">6</td>\n<td class=\"number\" style=\"box-sizing: border-box; padding: 2px; vertical-align: top; text-align: center; border: 1px solid #888888;\">5</td>\n<td class=\"number\" style=\"box-sizing: border-box; padding: 2px; vertical-align: top; text-align: center; border: 1px solid #888888;\">5</td>\n<td class=\"number\" style=\"box-sizing: border-box; padding: 2px; vertical-align: top; text-align: center; border: 1px solid #888888;\">4</td>\n</tr>\n<tr style=\"box-sizing: border-box; background-color: #f3f3f3;\">\n<td class=\"number\" style=\"box-sizing: border-box; padding: 2px; vertical-align: top; text-align: center; border: 1px solid #888888;\">20th</td>\n<td class=\"number\" style=\"box-sizing: border-box; padding: 2px; vertical-align: top; text-align: center; border: 1px solid #888888;\">6</td>\n<td class=\"number\" style=\"box-sizing: border-box; padding: 2px; vertical-align: top; text-align: center; border: 1px solid #888888;\">6</td>\n<td class=\"number\" style=\"box-sizing: border-box; padding: 2px; vertical-align: top; text-align: center; border: 1px solid #888888;\">6</td>\n<td class=\"number\" style=\"box-sizing: border-box; padding: 2px; vertical-align: top; text-align: center; border: 1px solid #888888;\">6</td>\n<td class=\"number\" style=\"box-sizing: border-box; padding: 2px; vertical-align: top; text-align: center; border: 1px solid #888888;\">6</td>\n<td class=\"number\" style=\"box-sizing: border-box; padding: 2px; vertical-align: top; text-align: center; border: 1px solid #888888;\">5</td>\n<td class=\"number\" style=\"box-sizing: border-box; padding: 2px; vertical-align: top; text-align: center; border: 1px solid #888888;\">5</td>\n</tr>\n</tbody>\n</table>\n<h2>Raging Song (Su)</h2>\n<p>A skald is trained to use music, oration, and similar performances to inspire his allies to feats of strength and ferocity. At 1st level, a skald can use this ability for a number of rounds per day equal to 3 + his&nbsp;<a href=\"https://www.d20pfsrd.com/basics-ability-scores/ability-scores#TOC-Charisma-Cha-\">Charisma</a>&nbsp;modifier. For each level thereafter, he can use raging song for 2 additional rounds per day.</p>\n<p>Starting a raging song is a&nbsp;<a href=\"https://www.d20pfsrd.com/gamemastering/combat#TOC-Standard-Actions\">standard action</a>, but it can be maintained each round as a&nbsp;<a href=\"https://www.d20pfsrd.com/gamemastering/combat#TOC-Free-Actions\">free action</a>. A raging song cannot be disrupted, but it ends immediately if the skald is killed, paralyzed, stunned, knocked unconscious, or otherwise prevented from taking a&nbsp;<a href=\"https://www.d20pfsrd.com/gamemastering/combat#TOC-Free-Actions\">free action</a>&nbsp;each round to maintain it. A raging song counts as the&nbsp;<a href=\"https://www.d20pfsrd.com/classes/core-classes/bard\">bard’s</a>&nbsp;<a href=\"https://www.d20pfsrd.com/classes/core-classes/bard#TOC-Bardic-Performance\">bardic performance</a>&nbsp;special ability for any effect that affects bardic performances. A skald may learn bard masterpieces.</p>\n<p>A raging song has audible&nbsp;<a href=\"https://www.d20pfsrd.com/magic#TOC-Components\">components</a>, but not visual&nbsp;<a href=\"https://www.d20pfsrd.com/magic#TOC-Components\">components</a>. Affected allies must be able to hear the skald for the song to have any effect. A deaf skald has a 20% chance to fail when attempting to use a raging song. If he fails this check, the attempt still counts against his daily limit. Deaf creatures are immune to raging songs.</p>\n<p>If a raging song affects allies, when the skald begins a raging song and at the start of each ally’s turn in which they can hear the raging song, the skald’s allies must decide whether to accept or refuse its effects. This is not an action. Unconscious allies automatically accept the song. If accepted, the raging song’s effects last for that ally’s turn or until the song ends, whichever comes first.</p>\n<p>At 7th level, a skald can start a raging song as a&nbsp;<a href=\"https://www.d20pfsrd.com/gamemastering/combat#TOC-Move-Actions\">move action</a>&nbsp;instead of a&nbsp;<a href=\"https://www.d20pfsrd.com/gamemastering/combat#TOC-Standard-Actions\">standard action</a>. At 13th level, a skald can start a raging song as a&nbsp;<a href=\"https://www.d20pfsrd.com/gamemastering/combat#TOC-Swift-Actions\">swift action</a>&nbsp;instead.</p>\n<div>\n<p><strong>Inspired Rage (Su)</strong>:&nbsp;At 1st level, affected allies gain a +2&nbsp;<a href=\"https://www.d20pfsrd.com/basics-ability-scores/glossary#TOC-Morale-Bonus\">morale bonus</a>&nbsp;to&nbsp;<a href=\"https://www.d20pfsrd.com/basics-ability-scores/ability-scores#TOC-Strength-Str-\">Strength</a>&nbsp;and&nbsp;<a href=\"https://www.d20pfsrd.com/basics-ability-scores/ability-scores#TOC-Constitution-Con-\">Constitution</a>&nbsp;and a +1&nbsp;<a href=\"https://www.d20pfsrd.com/basics-ability-scores/glossary#TOC-Morale-Bonus\">morale bonus</a>&nbsp;on&nbsp;<a href=\"https://www.d20pfsrd.com/gamemastering/combat#TOC-Will\">Will</a>&nbsp;saving throws, but also take a –1 penalty to AC. While under the effects of inspired&nbsp;<a href=\"https://www.d20pfsrd.com/classes/core-classes/barbarian#TOC-Rage-Ex-\">rage</a>, allies other than the skald cannot use any&nbsp;<a href=\"https://www.d20pfsrd.com/basics-ability-scores/ability-scores#TOC-Charisma-Cha-\">Charisma</a>-,&nbsp;<a href=\"https://www.d20pfsrd.com/basics-ability-scores/ability-scores#TOC-Dexterity-Dex-\">Dexterity</a>-, or&nbsp;<a href=\"https://www.d20pfsrd.com/basics-ability-scores/ability-scores#TOC-Intelligence-Int-\">Intelligence</a>-based skills (except&nbsp;<a href=\"https://www.d20pfsrd.com/skills/acrobatics\">Acrobatics</a>,&nbsp;<a href=\"https://www.d20pfsrd.com/skills/fly\">Fly</a>,&nbsp;<a href=\"https://www.d20pfsrd.com/skills/intimidate\">Intimidate</a>, and&nbsp;<a href=\"https://www.d20pfsrd.com/skills/ride\">Ride</a>) or any ability that requires patience or&nbsp;<a href=\"https://www.d20pfsrd.com/magic#TOC-Concentration\">concentration</a>. At 4th level and every 4 levels thereafter, the song’s bonuses on&nbsp;<a href=\"https://www.d20pfsrd.com/gamemastering/combat#TOC-Will\">Will</a>&nbsp;saves increase by 1; the penalty to AC doesn’t change. At 8th and 16th levels, the song’s bonuses to&nbsp;<a href=\"https://www.d20pfsrd.com/basics-ability-scores/ability-scores#TOC-Strength-Str-\">Strength</a>&nbsp;and&nbsp;<a href=\"https://www.d20pfsrd.com/basics-ability-scores/ability-scores#TOC-Constitution-Con-\">Constitution</a>&nbsp;increase by 2. (Unlike the&nbsp;<a href=\"https://www.d20pfsrd.com/classes/core-classes/barbarian\">barbarian’s</a>&nbsp;rage ability, those affected are not&nbsp;<a href=\"https://www.d20pfsrd.com/gamemastering/conditions#TOC-Fatigued\">fatigued</a>&nbsp;after the song ends.) If an ally has her own&nbsp;<a href=\"https://www.d20pfsrd.com/classes/core-classes/barbarian#TOC-Rage-Ex-\">rage</a>&nbsp;class ability (such as&nbsp;<a href=\"https://www.d20pfsrd.com/classes/core-classes/barbarian\">barbarian’s</a>&nbsp;rage, bloodrager’s bloodrage, or skald’s inspired rage), she may use the&nbsp;<a href=\"https://www.d20pfsrd.com/basics-ability-scores/ability-scores#TOC-Strength-Str-\">Strength</a>,&nbsp;<a href=\"https://www.d20pfsrd.com/basics-ability-scores/ability-scores#TOC-Constitution-Con-\">Constitution</a>, and&nbsp;<a href=\"https://www.d20pfsrd.com/gamemastering/combat#TOC-Will\">Will</a>&nbsp;saving throw bonuses, as well as AC penalties, based on her own ability and level instead of those from the skald (still suffering no&nbsp;<a href=\"https://www.d20pfsrd.com/gamemastering/conditions#TOC-Fatigued\">fatigue</a>&nbsp;afterward). However, inspired rage does not allow the ally to activate abilities dependent on other rage class abilities, such as&nbsp;<a href=\"https://www.d20pfsrd.com/classes/core-classes/barbarian#TOC-Rage-Powers-Ex-\">rage powers</a>, blood casting, or bloodrager bloodlines; the ally must activate her own rage class ability in order to use these features.</p>\n<p><strong>Song of Marching (Su)</strong>:&nbsp;At 3rd level, a skald can use raging song to inspire his allies to move faster without suffering from&nbsp;<a href=\"https://www.d20pfsrd.com/gamemastering/conditions#TOC-Fatigued\">fatigue</a>. By expending 1 round of raging song, the skald invigorates allies within 60 feet, who may hustle for the next hour; this movement counts as a walk (not a hustle) for the purpose of accruing&nbsp;<a href=\"https://www.d20pfsrd.com/gamemastering/combat#TOC-Nonlethal-Damage\">nonlethal damage</a>&nbsp;and&nbsp;<a href=\"https://www.d20pfsrd.com/gamemastering/conditions#TOC-Fatigued\">fatigue</a>. The skald must continue to perform the song for the remainder of the hour, otherwise its effects end, but only 1 round of raging song is expended for that hour.</p>\n<p><strong>Song of Strength (Su)</strong>:&nbsp;At 6th level, a skald can use raging song to inspire his allies to superhuman feats of strength. Once each round while the skald uses this performance, allies within 60 feet who can hear the skald may add 1/2 the skald’s level to a&nbsp;<a href=\"https://www.d20pfsrd.com/basics-ability-scores/ability-scores#TOC-Strength-Str-\">Strength</a>&nbsp;check or&nbsp;<a href=\"https://www.d20pfsrd.com/basics-ability-scores/ability-scores#TOC-Strength-Str-\">Strength</a>-based skill check.</p>\n<p><strong>Dirge of Doom (Su)</strong>:&nbsp;At 10th level, a skald can create a sense of growing dread in his enemies, causing them to become&nbsp;<a href=\"https://www.d20pfsrd.com/gamemastering/conditions#TOC-Shaken\">shaken</a>. This only affects enemies that are within 30 feet and able to hear the skald’s performance. The effect persists for as long as the enemy is within 30 feet and the skald continues his performance. This cannot cause a creature to become&nbsp;<a href=\"https://www.d20pfsrd.com/gamemastering/conditions#TOC-Frightened\">frightened</a>&nbsp;or&nbsp;<a href=\"https://www.d20pfsrd.com/gamemastering/conditions#TOC-Panicked\">panicked</a>, even if the targets are already&nbsp;<a href=\"https://www.d20pfsrd.com/gamemastering/conditions#TOC-Shaken\">shaken</a>&nbsp;from another effect. This is a sonic&nbsp;<a href=\"https://www.d20pfsrd.com/magic#TOC-Magic-Descriptor-Mind-Affecting\">mind-affecting</a>&nbsp;<a href=\"https://www.d20pfsrd.com/gamemastering/special-abilities#TOC-Fear\">fear</a>&nbsp;effect, and relies on audible&nbsp;<a href=\"https://www.d20pfsrd.com/magic#TOC-Components\">components</a>.</p>\n<p><strong>Song of the Fallen (Su)</strong>:&nbsp;At 14th level, a skald can temporarily revive&nbsp;<a href=\"https://www.d20pfsrd.com/gamemastering/conditions#TOC-Dead\">dead</a>&nbsp;allies to continue fighting, with the same limitations as&nbsp;<a href=\"https://www.d20pfsrd.com/magic/all-spells/r/raise-dead\">raise dead</a>. The skald selects a&nbsp;<a href=\"https://www.d20pfsrd.com/gamemastering/conditions#TOC-Dead\">dead</a>&nbsp;ally within 60 feet and expends 1 round of raging song to bring that ally back to life. The revived ally is alive but&nbsp;<a href=\"https://www.d20pfsrd.com/gamemastering/conditions#TOC-Staggered\">staggered</a>. Each round, the skald may expend another 1 round of raging song to keep that ally alive for another round. The ally automatically dies if the skald ends this performance or is interrupted. The skald may revive multiple allies with this ability (either at the same time or over successive rounds) but must expend 1 round of raging song per revived ally per round to maintain the effect.</p>\n</div>\n<p><strong>Sagas</strong>:&nbsp;Sagas are specialized applications of a skald’s raging song ability, functioning much like&nbsp;<a href=\"https://www.d20pfsrd.com/classes/core-classes/bard/bardic-masterpieces/masterpieces\">bardic masterpieces</a>&nbsp;but are available only to&nbsp;<a href=\"https://www.d20pfsrd.com/classes/hybrid-classes/skald\">skalds</a>. Sagas are never purely artistic constructs; they are designed to preserve lore or commemorate historical figures, and are usually based in fact. Sagas therefore require ranks in&nbsp;<a href=\"https://www.d20pfsrd.com/skills/knowledge\">Knowledge</a>&nbsp;(history) as a prerequisite, as well.&nbsp;<a href=\"https://www.d20pfsrd.com/classes/core-classes/bard\">Bards</a>&nbsp;can learn sagas, using their&nbsp;<a href=\"https://www.d20pfsrd.com/classes/core-classes/bard#TOC-Bardic-Performance\">bardic performance</a>&nbsp;ability instead of raging song.</p>\n<p><a href=\"https://www.d20pfsrd.com/classes/hybrid-classes/skald/skald-sagas\">See list of sagas here.</a></p>\n<h2>Scribe Scroll</h2>\n<p>At 1st level, a skald gains&nbsp;<a href=\"https://www.d20pfsrd.com/feats/item-creation-feats/scribe-scroll-item-creation\">Scribe Scroll</a>&nbsp;as a bonus feat.</p>\n<h2>Versatile Performance (Ex)</h2>\n<p>At 2nd level, a skald can choose one type of&nbsp;<a href=\"https://www.d20pfsrd.com/skills/perform\">Perform</a>&nbsp;skill associated with the skald class. He can use his bonus in that skill in place of his bonus in the associated skills listed below. When substituting in this way, the skald uses his total&nbsp;<a href=\"https://www.d20pfsrd.com/skills/perform\">Perform</a>&nbsp;skill bonus, including class skill bonus, in place of the associated skill’s bonus, whether or not he has ranks in that skill or if it is a class skill. At 7th level, and every 5 levels thereafter, the&nbsp;<a href=\"https://www.d20pfsrd.com/classes/core-classes/bard\">bard</a>&nbsp;can select an additional type of&nbsp;<a href=\"https://www.d20pfsrd.com/skills/perform\">Perform</a>&nbsp;to substitute.</p>\n<p>The types of&nbsp;<a href=\"https://www.d20pfsrd.com/skills/perform\">Perform</a>&nbsp;and their associated skills are: Oratory (<a href=\"https://www.d20pfsrd.com/skills/diplomacy\">Diplomacy</a>,&nbsp;<a href=\"https://www.d20pfsrd.com/skills/sense-motive\">Sense Motive</a>), Percussion (<a href=\"https://www.d20pfsrd.com/skills/handle-animal\">Handle Animal</a>,&nbsp;<a href=\"https://www.d20pfsrd.com/skills/intimidate\">Intimidate</a>), Sing (<a href=\"https://www.d20pfsrd.com/skills/bluff\">Bluff</a>,&nbsp;<a href=\"https://www.d20pfsrd.com/skills/sense-motive\">Sense Motive</a>),&nbsp;<a href=\"https://www.d20pfsrd.com/equipment/goods-and-services/hunting-camping-survival-gear#TOC-String-or-Twine\">String</a>&nbsp;(<a href=\"https://www.d20pfsrd.com/skills/bluff\">Bluff</a>,&nbsp;<a href=\"https://www.d20pfsrd.com/skills/diplomacy\">Diplomacy</a>), and Wind (<a href=\"https://www.d20pfsrd.com/skills/diplomacy\">Diplomacy</a>,&nbsp;<a href=\"https://www.d20pfsrd.com/skills/handle-animal\">Handle Animal</a>).</p>\n<h3>Advanced Versatile Performances</h3>\n<p>Beginning at 6th level, instead of selecting an additional skill with versatile performance, a skald can choose an advanced versatile performance for one&nbsp;<a href=\"https://www.d20pfsrd.com/skills/perform\">Perform</a>&nbsp;skill he previously selected with versatile performance. Some advanced versatile performance options can be selected only if the skald meets the option’s prerequisites.</p>\n<p>A skald with an archetype that replaces versatile performance cannot select advanced versatile performance options.</p>\n<div>\n<p><strong>Expanded Versatility (Ex)</strong>: The skaldchooses one&nbsp;<a href=\"https://www.d20pfsrd.com/skills/perform\">Perform</a>&nbsp;skill that he has already selected with versatile performance. He adds one of the following skills to the list of skills that are associated with the chosen&nbsp;<a href=\"https://www.d20pfsrd.com/skills/perform\">Perform</a>&nbsp;skill for the purpose of the versatile performance ability:&nbsp;<a href=\"https://www.d20pfsrd.com/skills/bluff\">Bluff</a>,&nbsp;<a href=\"https://www.d20pfsrd.com/skills/diplomacy\">Diplomacy</a>,&nbsp;<a href=\"https://www.d20pfsrd.com/skills/disguise\">Disguise</a>,&nbsp;<a href=\"https://www.d20pfsrd.com/skills/escape-artist\">Escape Artist</a>,&nbsp;<a href=\"https://www.d20pfsrd.com/skills/handle-animal\">Handle Animal</a>,&nbsp;<a href=\"https://www.d20pfsrd.com/skills/intimidate\">Intimidate</a>,&nbsp;<a href=\"https://www.d20pfsrd.com/skills/sense-motive\">Sense Motive</a>, or&nbsp;<a href=\"https://www.d20pfsrd.com/skills/use-magic-device\">Use Magic Device</a>. This option can be selected multiple times, but no skill can be associated with the same&nbsp;<a href=\"https://www.d20pfsrd.com/skills/perform\">Perform</a>&nbsp;skill more than once.</p>\n<p><strong>Martial Performance (Ex)</strong>: The skald chooses one weapon belonging to a&nbsp;<a href=\"https://www.d20pfsrd.com/classes/core-classes/fighter\">fighter</a>&nbsp;weapon group that is associated with a&nbsp;<a href=\"https://www.d20pfsrd.com/skills/perform\">Perform</a>&nbsp;skill he has selected with versatile performance (see below). He gains proficiency with this weapon. If the skald is already proficient with this weapon or later becomes proficient with it, he gains&nbsp;<a href=\"https://www.d20pfsrd.com/feats/combat-feats/weapon-focus/\">Weapon Focus</a>&nbsp;with that weapon as a bonus feat instead. In addition, the skald’s effective&nbsp;<a href=\"https://www.d20pfsrd.com/classes/core-classes/fighter\">fighter</a>&nbsp;level is equal to 1/2 his skald level for the purpose of qualifying for feats that specifically select weapons from those&nbsp;<a href=\"https://www.d20pfsrd.com/skills/perform\">Perform</a>&nbsp;skills’ associated&nbsp;<a href=\"https://www.d20pfsrd.com/classes/core-classes/fighter\">fighter</a>&nbsp;weapon groups. The types of&nbsp;<a href=\"https://www.d20pfsrd.com/skills/perform\">Perform</a>&nbsp;skills and their associated&nbsp;<a href=\"https://www.d20pfsrd.com/classes/core-classes/fighter\">fighter</a>&nbsp;weapon groups are: Act (close, double), Comedy (flails, thrown), Dance (<a href=\"https://www.d20pfsrd.com/classes/core-classes/monk\">monk</a>, spears), Keyboard Instruments (hammers, siege engines), Oratory (heavy blades, light blades), Percussion (close, hammers), Sing (close,&nbsp;<a href=\"https://www.d20pfsrd.com/basics-ability-scores/glossary#TOC-Bonus-Natural-Armor-\">natural</a>),&nbsp;<a href=\"https://www.d20pfsrd.com/equipment/goods-and-services/hunting-camping-survival-gear#TOC-String-or-Twine\">String</a>&nbsp;(axes, bows), and Wind (<a href=\"https://www.d20pfsrd.com/classes/core-classes/monk\">monk</a>, thrown).</p>\n</div>\n<p><strong>Masterpiece</strong>: The skald gains a bardic masterpiece, as if he were giving up a feat to learn it. He must meet the masterpiece’s prerequisites, and the masterpiece must list ranks in a&nbsp;<a href=\"https://www.d20pfsrd.com/skills/perform\">Perform</a>&nbsp;skill that the skald has chosen with versatile performance as a prerequisite. This option can be selected multiple times.</p>\n<h2>Well-Versed (Ex)</h2>\n<p>At 2nd level, the skald becomes resistant to sonic effects. The skald gains a +4 bonus on saving throws made against&nbsp;<a href=\"https://www.d20pfsrd.com/classes/core-classes/bard#TOC-Bardic-Performance\">bardic performance</a>, as well as all sonic or&nbsp;<a href=\"https://www.d20pfsrd.com/magic#TOC-Magic-Descriptor-Language-Dependent\">language-dependent</a>&nbsp;effects.</p>\n<h2>Rage Powers (Ex)</h2>\n<p>At 3rd level and every 3 levels thereafter, a skald learns a&nbsp;<a href=\"https://www.d20pfsrd.com/classes/core-classes/barbarian#TOC-Rage-Powers-Ex-\">rage power</a>&nbsp;that affects the skald and any allies under the influence of his inspired rage. This cannot be a&nbsp;<a href=\"https://www.d20pfsrd.com/classes/core-classes/barbarian#TOC-Rage-Powers-Ex-\">rage power</a>&nbsp;that requires the creature to spend a&nbsp;<a href=\"https://www.d20pfsrd.com/gamemastering/combat#TOC-Standard-Actions\">standard action</a>&nbsp;or rounds of rage to activate it. For example, the skald cannot choose&nbsp;<a href=\"https://www.d20pfsrd.com/classes/core-classes/barbarian/rage-powers/paizo-rage-powers/terrifying-howl-ex\">terrifying howl</a>&nbsp;(which requires a&nbsp;<a href=\"https://www.d20pfsrd.com/gamemastering/combat#TOC-Standard-Actions\">standard action</a>&nbsp;to activate), but can choose&nbsp;<a href=\"https://www.d20pfsrd.com/classes/core-classes/barbarian/rage-powers/paizo-rage-powers/knockback-ex\">knockback</a>&nbsp;(which is made in place of a melee attack).</p>\n<p>Unless otherwise noted, a skald cannot select an individual&nbsp;<a href=\"https://www.d20pfsrd.com/classes/core-classes/barbarian#TOC-Rage-Powers-Ex-\">rage power</a>&nbsp;more than once.</p>\n<p>When starting an inspired rage, the skald chooses which&nbsp;<a href=\"https://www.d20pfsrd.com/classes/core-classes/barbarian#TOC-Rage-Powers-Ex-\">rage powers</a>&nbsp;(if any) to add to the song, and all affected allies gain the benefit of these&nbsp;<a href=\"https://www.d20pfsrd.com/classes/core-classes/barbarian#TOC-Rage-Powers-Ex-\">rage powers</a>, using the skald’s level as their effective&nbsp;<a href=\"https://www.d20pfsrd.com/classes/core-classes/barbarian\">barbarian</a>&nbsp;level. The skald uses his skald level as his&nbsp;<a href=\"https://www.d20pfsrd.com/classes/core-classes/barbarian\">barbarian</a>&nbsp;level for the purpose of selecting&nbsp;<a href=\"https://www.d20pfsrd.com/classes/core-classes/barbarian#TOC-Rage-Powers-Ex-\">rage powers</a>&nbsp;that require a minimum&nbsp;<a href=\"https://www.d20pfsrd.com/classes/core-classes/barbarian\">barbarian</a>&nbsp;level. If the&nbsp;<a href=\"https://www.d20pfsrd.com/classes/core-classes/barbarian#TOC-Rage-Powers-Ex-\">rage power’s</a>&nbsp;effects depend on the skald’s ability modifier (such as lesser&nbsp;<a href=\"https://www.d20pfsrd.com/classes/core-classes/barbarian/rage-powers/paizo-rage-powers/spirit-totem-su\">spirit totem</a>), affected allies use the skald’s ability modifier instead of their own for the purposes of this effect.</p>\n<p>If a&nbsp;<a href=\"https://www.d20pfsrd.com/classes/core-classes/barbarian#TOC-Rage-Powers-Ex-\">rage power</a>&nbsp;requires another&nbsp;<a href=\"https://www.d20pfsrd.com/classes/core-classes/barbarian#TOC-Rage-Powers-Ex-\">rage power</a>&nbsp;(such as&nbsp;<a href=\"https://www.d20pfsrd.com/classes/core-classes/barbarian/rage-powers/paizo-rage-powers/disruptive\">disruptive</a>, which requires&nbsp;<a href=\"https://www.d20pfsrd.com/classes/core-classes/barbarian/rage-powers/paizo-rage-powers/superstition-ex\">superstition</a>), the skald cannot grant that&nbsp;<a href=\"https://www.d20pfsrd.com/classes/core-classes/barbarian#TOC-Rage-Powers-Ex-\">rage power</a>&nbsp;to allies unless he can also grant that power’s prerequisite. He may add multiple&nbsp;<a href=\"https://www.d20pfsrd.com/classes/core-classes/barbarian#TOC-Rage-Powers-Ex-\">rage powers</a>&nbsp;to an inspired rage at the same time using this ability (such as granting&nbsp;<a href=\"https://www.d20pfsrd.com/classes/core-classes/barbarian/rage-powers/paizo-rage-powers/superstition-ex\">superstition</a>&nbsp;and&nbsp;<a href=\"https://www.d20pfsrd.com/classes/core-classes/barbarian/rage-powers/paizo-rage-powers/disruptive\">disruptive</a>&nbsp;simultaneously).</p>\n<p>If a&nbsp;<a href=\"https://www.d20pfsrd.com/classes/core-classes/barbarian#TOC-Rage-Powers-Ex-\">rage power</a>&nbsp;can only be used a certain number of times per day or per rage (such as renewed vigor), each ally affected by the inspired rage song is subject to that limit (with once per&nbsp;<a href=\"https://www.d20pfsrd.com/classes/core-classes/barbarian#TOC-Rage-Ex-\">rage</a>&nbsp;abilities limited to once per inspired rage).</p>\n<p>If the skald has&nbsp;<a href=\"https://www.d20pfsrd.com/classes/core-classes/barbarian#TOC-Rage-Powers-Ex-\">rage powers</a>&nbsp;from another source, he (but not his allies) can use those&nbsp;<a href=\"https://www.d20pfsrd.com/classes/core-classes/barbarian#TOC-Rage-Powers-Ex-\">rage powers</a>&nbsp;during an inspired rage. He cannot select a duplicate&nbsp;<a href=\"https://www.d20pfsrd.com/classes/core-classes/barbarian#TOC-Rage-Powers-Ex-\">rage power</a>, unless that&nbsp;<a href=\"https://www.d20pfsrd.com/classes/core-classes/barbarian#TOC-Rage-Powers-Ex-\">rage power</a>&nbsp;can be taken multiple times.</p>\n<p>If the skald has the ability to rage from another source, he can use his skald&nbsp;<a href=\"https://www.d20pfsrd.com/classes/core-classes/barbarian#TOC-Rage-Powers-Ex-\">rage powers</a>&nbsp;during that rage as well.</p>\n<h2>Uncanny Dodge (Ex)</h2>\n<p>At 4th level, a skald gains the ability to react to danger before his senses would normally allow him to do so. He cannot be caught&nbsp;<a href=\"https://www.d20pfsrd.com/gamemastering/conditions#TOC-Flat-Footed\">flat-footed</a>, nor does he lose his&nbsp;<a href=\"https://www.d20pfsrd.com/basics-ability-scores/ability-scores#TOC-Dexterity-Dex-\">Dex</a>&nbsp;bonus to AC if the attacker is&nbsp;<a href=\"https://www.d20pfsrd.com/gamemastering/conditions#TOC-Invisible\">invisible</a>. He still loses his&nbsp;<a href=\"https://www.d20pfsrd.com/basics-ability-scores/ability-scores#TOC-Dexterity-Dex-\">Dexterity</a>&nbsp;bonus to AC if he is immobilized. A skald with this ability can still lose his&nbsp;<a href=\"https://www.d20pfsrd.com/basics-ability-scores/ability-scores#TOC-Dexterity-Dex-\">Dexterity</a>&nbsp;bonus to AC if an opponent successfully uses the&nbsp;<a href=\"https://www.d20pfsrd.com/gamemastering/combat#TOC-Feint\">feint</a>&nbsp;action against him.</p>\n<p>If a skald already has&nbsp;<a href=\"https://www.d20pfsrd.com/classes/core-classes/rogue#TOC-Uncanny-Dodge-Ex-\">uncanny dodge</a>&nbsp;from a different class, he automatically gains&nbsp;<a href=\"https://www.d20pfsrd.com/classes/core-classes/rogue#TOC-Improved-Uncanny-Dodge-Ex-\">improved uncanny dodge</a>&nbsp;(see below) instead.</p>\n<h2>Spell Kenning (Su)</h2>\n<p>At 5th level, a skald is learned in the magic of other spellcasters, and can use his own magic to duplicate those classes’ spells. Once per day, a skald can cast any spell on the&nbsp;<a href=\"https://www.d20pfsrd.com/classes/core-classes/bard\">bard</a>,&nbsp;<a href=\"https://www.d20pfsrd.com/classes/core-classes/cleric\">cleric</a>, or&nbsp;<a href=\"https://www.d20pfsrd.com/magic/spell-lists-and-domains/spell-lists-sorcerer-and-wizard/\">sorcerer/wizard</a>&nbsp;spell list as if it were one of his skald spells known, expending a skald spell slot of the same spell level to cast the desired spell. Casting a spell with spell kenning always has a minimum&nbsp;<a href=\"https://www.d20pfsrd.com/magic#TOC-Casting-Time\">casting time</a>&nbsp;of 1 full round, regardless of the&nbsp;<a href=\"https://www.d20pfsrd.com/magic#TOC-Casting-Time\">casting time</a>&nbsp;of the spell.</p>\n<p>At 11th level, a skald can use this ability twice per day. At 17th level, he can use this ability three times per day.</p>\n<h2>Lore Master (Ex)</h2>\n<p>At 7th level, the skald becomes a master of many different types of lore, and can choose to take 10 on any&nbsp;<a href=\"https://www.d20pfsrd.com/skills/knowledge\">Knowledge</a>&nbsp;skill check that he has ranks in. Once per day, the skald can&nbsp;<a href=\"https://www.d20pfsrd.com/basics-ability-scores/glossary#TOC-Take-20\">take 20</a>&nbsp;on any&nbsp;<a href=\"https://www.d20pfsrd.com/skills/knowledge\">Knowledge</a>&nbsp;skill check as a&nbsp;<a href=\"https://www.d20pfsrd.com/gamemastering/combat#TOC-Standard-Actions\">standard action</a>, instead of spending the normal time taking 20 requires. He can use this ability to&nbsp;<a href=\"https://www.d20pfsrd.com/basics-ability-scores/glossary#TOC-Take-20\">take 20</a>&nbsp;on a&nbsp;<a href=\"https://www.d20pfsrd.com/skills/knowledge\">Knowledge</a>&nbsp;skill check twice per day at 13th level and three times per day 19th level.</p>\n<h2>Improved Uncanny Dodge (Ex)</h2>\n<p>At 8th level and higher, a skald can no longer be&nbsp;<a href=\"https://www.d20pfsrd.com/gamemastering/combat#TOC-Flanking\">flanked</a>. This defense denies enemies the ability to&nbsp;<a href=\"https://www.d20pfsrd.com/classes/core-classes/rogue#TOC-Sneak-Attack\">sneak attack</a>&nbsp;the skald by&nbsp;<a href=\"https://www.d20pfsrd.com/gamemastering/combat#TOC-Flanking\">flanking</a>&nbsp;him, unless the attacker has at least four more levels in a class that grants&nbsp;<a href=\"https://www.d20pfsrd.com/classes/core-classes/rogue#TOC-Sneak-Attack\">sneak attack</a>&nbsp;than the target has skald levels.</p>\n<p>If a character already has&nbsp;<a href=\"https://www.d20pfsrd.com/classes/core-classes/rogue#TOC-Uncanny-Dodge-Ex-\">uncanny dodge</a>&nbsp;(see above) from another class, the levels from the classes that grant&nbsp;<a href=\"https://www.d20pfsrd.com/classes/core-classes/rogue#TOC-Uncanny-Dodge-Ex-\">uncanny dodge</a>&nbsp;stack to determine the minimum level required to&nbsp;<a href=\"https://www.d20pfsrd.com/gamemastering/combat#TOC-Flanking\">flank</a>&nbsp;the character.</p>\n<h2>Damage Reduction (Ex)</h2>\n<p>At 9th level, a skald gains&nbsp;<a href=\"https://www.d20pfsrd.com/gamemastering/special-abilities#TOC-Damage-Reduction\">damage reduction</a>. Subtract 1 from the damage the skald takes each time he is dealt damage from a weapon or a&nbsp;<a href=\"https://www.d20pfsrd.com/bestiary/rules-for-monsters/universal-monster-rules#TOC-Natural-Attacks\">natural attack</a>. At 14th and 19th levels, this&nbsp;<a href=\"https://www.d20pfsrd.com/gamemastering/special-abilities#TOC-Damage-Reduction\">damage reduction</a>&nbsp;increases by 1.&nbsp;<a href=\"https://www.d20pfsrd.com/classes/core-classes/barbarian#TOC-Damage-Reduction-Ex-\">Damage Reduction</a>&nbsp;can reduce damage to 0, but not below 0. Additionally, the skald grants this&nbsp;<a href=\"https://www.d20pfsrd.com/bestiary/rules-for-monsters/universal-monster-rules#TOC-Damage-Reduction-Ex-or-Su-\">DR</a>&nbsp;to all allies affected by his inspired rage.</p>\n<h2>Master Skald (Su)</h2>\n<p>At 20th level, a skald’s inspired rage no longer gives allies a penalty to AC, nor limits what skills or abilities they can use. Allies with rage class abilities may use features dependent on those abilities without restriction, such as a&nbsp;<a href=\"https://www.d20pfsrd.com/classes/core-classes/barbarian\">barbarian’s</a>&nbsp;<a href=\"https://www.d20pfsrd.com/classes/core-classes/barbarian#TOC-Rage-Powers-Ex-\">rage powers</a>&nbsp;and a bloodrager’s blood casting and&nbsp;<a href=\"https://www.d20pfsrd.com/classes/core-classes/sorcerer#TOC-Bloodline\">bloodline</a>&nbsp;abilities. Finally, when making a full attack, affected allies may make an additional attack each round (as if using a&nbsp;<a href=\"https://www.d20pfsrd.com/magic/all-spells/h/haste\">haste</a>&nbsp;effect).</p>",
      "chat": "",
      "unidentified": ""
    },
    "damage": {
      "parts": [],
      "critParts": [],
      "nonCritParts": []
    },
    "preparation": {
      "maxAmount": 0
    },
    "weaponData": {
      "critRange": 20,
      "critMult": 2
    },
    "uses": {
      "value": 0,
      "max": 0
    }
  },
  "flags": {},
  "img": "systems/pf1/icons/items/inventory/drum.jpg",
  "effects": []
}